{
  "comments": [
    {
      "abs_rshares": 0,
      "active": "2016-08-24T19:45:00",
      "allow_curation_rewards": true,
      "allow_replies": true,
      "allow_votes": true,
      "author": "winstonwolfe",
      "author_rewards": 0,
      "beneficiaries": [],
      "body": "I tried to make a post about a month ago for Gary, but I just don't think steemit was ready for his level of talent quite yet. ;-)",
      "cashout_time": "2016-08-31T19:13:15",
      "category": "art",
      "children": 1,
      "children_abs_rshares": 0,
      "created": "2016-08-24T19:13:15",
      "curator_payout_value": {
        "amount": "0",
        "nai": "@@000000013",
        "precision": 3
      },
      "depth": 1,
      "id": 971244,
      "json_metadata": "{\"tags\":[\"art\"]}",
      "last_payout": "1970-01-01T00:00:00",
      "last_update": "2016-08-24T19:13:15",
      "max_accepted_payout": {
        "amount": "1000000000",
        "nai": "@@000000013",
        "precision": 3
      },
      "max_cashout_time": "1969-12-31T23:59:59",
      "net_rshares": 0,
      "net_votes": 0,
      "parent_author": "sykochica",
      "parent_permlink": "fantastic-new-artist-coming-to-steemit-meet-gary-bedell",
      "percent_hbd": 10000,
      "permlink": "re-sykochica-fantastic-new-artist-coming-to-steemit-meet-gary-bedell-20160824t191314748z",
      "reward_weight": 10000,
      "root_author": "sykochica",
      "root_permlink": "fantastic-new-artist-coming-to-steemit-meet-gary-bedell",
      "title": "",
      "total_payout_value": {
        "amount": "0",
        "nai": "@@000000013",
        "precision": 3
      },
      "total_vote_weight": 0,
      "vote_rshares": 0
    },
    {
      "abs_rshares": 0,
      "active": "2016-08-24T19:23:03",
      "allow_curation_rewards": true,
      "allow_replies": true,
      "allow_votes": true,
      "author": "cryptofunk",
      "author_rewards": 0,
      "beneficiaries": [],
      "body": "Really great work there!",
      "cashout_time": "2016-08-31T19:09:09",
      "category": "art",
      "children": 1,
      "children_abs_rshares": 0,
      "created": "2016-08-24T19:09:09",
      "curator_payout_value": {
        "amount": "0",
        "nai": "@@000000013",
        "precision": 3
      },
      "depth": 1,
      "id": 971188,
      "json_metadata": "{\"tags\":[\"art\"]}",
      "last_payout": "1970-01-01T00:00:00",
      "last_update": "2016-08-24T19:09:09",
      "max_accepted_payout": {
        "amount": "1000000000",
        "nai": "@@000000013",
        "precision": 3
      },
      "max_cashout_time": "1969-12-31T23:59:59",
      "net_rshares": 0,
      "net_votes": 0,
      "parent_author": "sykochica",
      "parent_permlink": "fantastic-new-artist-coming-to-steemit-meet-gary-bedell",
      "percent_hbd": 10000,
      "permlink": "re-sykochica-fantastic-new-artist-coming-to-steemit-meet-gary-bedell-20160824t190858926z",
      "reward_weight": 10000,
      "root_author": "sykochica",
      "root_permlink": "fantastic-new-artist-coming-to-steemit-meet-gary-bedell",
      "title": "",
      "total_payout_value": {
        "amount": "0",
        "nai": "@@000000013",
        "precision": 3
      },
      "total_vote_weight": 0,
      "vote_rshares": 0
    },
    {
      "abs_rshares": 0,
      "active": "2016-08-24T19:39:24",
      "allow_curation_rewards": true,
      "allow_replies": true,
      "allow_votes": true,
      "author": "thecryptofiend",
      "author_rewards": 0,
      "beneficiaries": [],
      "body": "That is fantastic news.  I love the Yoga life class!",
      "cashout_time": "2016-08-31T19:09:03",
      "category": "art",
      "children": 3,
      "children_abs_rshares": 0,
      "created": "2016-08-24T19:09:03",
      "curator_payout_value": {
        "amount": "0",
        "nai": "@@000000013",
        "precision": 3
      },
      "depth": 1,
      "id": 971187,
      "json_metadata": "{\"tags\":[\"art\"]}",
      "last_payout": "1970-01-01T00:00:00",
      "last_update": "2016-08-24T19:09:03",
      "max_accepted_payout": {
        "amount": "1000000000",
        "nai": "@@000000013",
        "precision": 3
      },
      "max_cashout_time": "1969-12-31T23:59:59",
      "net_rshares": 0,
      "net_votes": 0,
      "parent_author": "sykochica",
      "parent_permlink": "fantastic-new-artist-coming-to-steemit-meet-gary-bedell",
      "percent_hbd": 10000,
      "permlink": "re-sykochica-fantastic-new-artist-coming-to-steemit-meet-gary-bedell-20160824t190904157z",
      "reward_weight": 10000,
      "root_author": "sykochica",
      "root_permlink": "fantastic-new-artist-coming-to-steemit-meet-gary-bedell",
      "title": "",
      "total_payout_value": {
        "amount": "0",
        "nai": "@@000000013",
        "precision": 3
      },
      "total_vote_weight": 0,
      "vote_rshares": 0
    },
    {
      "abs_rshares": 0,
      "active": "2016-08-24T06:29:54",
      "allow_curation_rewards": true,
      "allow_replies": true,
      "allow_votes": true,
      "author": "casandrarose",
      "author_rewards": 0,
      "beneficiaries": [],
      "body": "I love this article! \n\nYes,  I think most believers of most religions are *trying* to worship the same being.  I love the image of all those different gods represented by light,  which is the most basic form of energy that even uneducated shepherds could understand thousands of years ago. \n\nOne of my favorite quotes: \"If you can fit God into your head,  you have made him too small.\" I think that a guy sitting on a cloud looking down on us,  listening to our prayers,  snapping his fingers and *poof* the universe was created in 6 earth days.... That feels like a god I can fit into my head.  Totally unsatisfying (and I'm a devout Christian). Even the Hebrew word Yahweh means *I am*,  which to me translates as \"I am Everything,\" ie,  the Universe and all it contains.\n\nEven that,  I feel,  is incomplete.  But I marvel that God spent 13 billion years,  with exploding stars (to make heavier elements) and evolution in order to make bodies that his children could use to experience life in this dimension. (Not that God didn't do a million other things,  in addition to us). \n\nAnyway,  I always enjoy your articles!",
      "cashout_time": "2016-08-31T06:29:54",
      "category": "science",
      "children": 0,
      "children_abs_rshares": 0,
      "created": "2016-08-24T06:29:54",
      "curator_payout_value": {
        "amount": "0",
        "nai": "@@000000013",
        "precision": 3
      },
      "depth": 1,
      "id": 962886,
      "json_metadata": "{\"tags\":[\"science\"]}",
      "last_payout": "1970-01-01T00:00:00",
      "last_update": "2016-08-24T06:29:54",
      "max_accepted_payout": {
        "amount": "1000000000",
        "nai": "@@000000013",
        "precision": 3
      },
      "max_cashout_time": "1969-12-31T23:59:59",
      "net_rshares": 0,
      "net_votes": 0,
      "parent_author": "sykochica",
      "parent_permlink": "what-is-god-as-told-by-a-13-year-old",
      "percent_hbd": 10000,
      "permlink": "re-sykochica-what-is-god-as-told-by-a-13-year-old-20160824t062942235z",
      "reward_weight": 10000,
      "root_author": "sykochica",
      "root_permlink": "what-is-god-as-told-by-a-13-year-old",
      "title": "",
      "total_payout_value": {
        "amount": "0",
        "nai": "@@000000013",
        "precision": 3
      },
      "total_vote_weight": 0,
      "vote_rshares": 0
    },
    {
      "abs_rshares": 0,
      "active": "2016-08-23T11:30:27",
      "allow_curation_rewards": true,
      "allow_replies": true,
      "allow_votes": true,
      "author": "driv3n",
      "author_rewards": 0,
      "beneficiaries": [],
      "body": "Thanks! I'm already thinking of more creative ideas for future marketing campaigns :)",
      "cashout_time": "2016-08-30T11:30:27",
      "category": "steemit",
      "children": 0,
      "children_abs_rshares": 0,
      "created": "2016-08-23T11:30:27",
      "curator_payout_value": {
        "amount": "0",
        "nai": "@@000000013",
        "precision": 3
      },
      "depth": 2,
      "id": 949194,
      "json_metadata": "{\"tags\":[\"steemit\"]}",
      "last_payout": "1970-01-01T00:00:00",
      "last_update": "2016-08-23T11:30:27",
      "max_accepted_payout": {
        "amount": "1000000000",
        "nai": "@@000000013",
        "precision": 3
      },
      "max_cashout_time": "1969-12-31T23:59:59",
      "net_rshares": 0,
      "net_votes": 0,
      "parent_author": "sykochica",
      "parent_permlink": "re-driv3n-traveling-the-country-with-the-steem-logo-in-my-head-why-i-decided-to-become-a-walking-billboard-20160823t031849246z",
      "percent_hbd": 10000,
      "permlink": "re-sykochica-re-driv3n-traveling-the-country-with-the-steem-logo-in-my-head-why-i-decided-to-become-a-walking-billboard-20160823t113028624z",
      "reward_weight": 10000,
      "root_author": "driv3n",
      "root_permlink": "traveling-the-country-with-the-steem-logo-in-my-head-why-i-decided-to-become-a-walking-billboard",
      "title": "",
      "total_payout_value": {
        "amount": "0",
        "nai": "@@000000013",
        "precision": 3
      },
      "total_vote_weight": 0,
      "vote_rshares": 0
    },
    {
      "abs_rshares": 19533131618,
      "active": "2016-08-23T07:41:33",
      "allow_curation_rewards": true,
      "allow_replies": true,
      "allow_votes": true,
      "author": "williambanks",
      "author_rewards": 0,
      "beneficiaries": [],
      "body": "@sykochica  Glad you liked my post on Transhumanism BTW\nI've got a post I'm working up on on Informationalism which is an integrated information theory meant as sort of right angle theory diverging from QM. \n \nAnyways, once that is out of the way, I'll probably have time for a mind blowing post on Transhumanism.  The heretickitten response was more or less just an \"off the top of my head\" response to counter her saying that I don't really see any place where evolution ever stops.\n\nThe real question is what happens when we actually hop in evolution's driver's seat?\nI think there will be more than meets the eye there ;)\n\nTo answer your specific questions.\nAt every stage along the way will find both luddites as well as people who just choose not to join us beyond that step.  Many will be left behind.\n\nSome will never allow an upgrade.  Most likely there will be problems both real and perceived especially if the upgrade process ends up missing or overshooting the uncanny divide somehow.\n\nThere will also be those who view functional immortality as a sort of damnation.  A deathless state from which they cannot escape.  We're already at the point where we can keep patients alive on machinery though.  So the question becomes, when is it right to pull the plug?  \nDo people have a right to die when they feel they've lived too long?  Who are we to deny them death?  Who are they to deny us their company?  Especially if copies become cheap and easy to maintain.  Furthermore, what is our duty of care, not only to copies of others, but to copies of ourselves?\n\nThere will also be religious objectors.  People already believe that they can pray away any illness, or that all illness is simply god's judgment.  Imagine what they are going to be dealing with when this becomes mainstream.\n\nOne reason I push so hard for unity and for seeing all humans as being equal is to try and prepare us for that day.  It's one of  the reasons behind this posting...\nhttps://steemit.com/steemit/@williambanks/why-more-parents-of-brunettes-are-home-schooling-their-kids\n\nIf I can get enough response on it, I'll probably start a mini movement to encourage people to change their perceptions about other people.  Thinking about calling it #eraseism.\n\nYour other question about reproduction.  I don't see it even slowing down.  One reason for reproduction is to maintain in working order the biological information contained within our DNA.\nBut if our DNA is suddenly modified by machinery and/or we are finding ourselves suddenly fully homo superior and still able to reproduce in the biological sense.  What does that make our offspring?  Are they just robots, automatons?  I don't think so.  Personally i think we will love them and raise them to be the best \"people\" that they can be.\nSee I don't see us ever actually losing the human component, our humanity, just because our information is suddenly on a new substrate.\n\nFinal question was about resources.  Interestingly as our technology has improved our species have also become much more efficient in terms of resource consumption on a per capita per annum basis.\nI don't see that slowing down or changing course at all.  I mean it might.\nHowever there is a very good chance that we will learn to be extremely efficient at timesharing resources.\n\nAn example is the trip to mars example.  Mars has limited resources.  It would make far more sense for a physical body to be constructed on site, one optimized for mars than to send a whole human body there.\n\nYou could be multiply conscious in exactly this way.  Playing tennis on earth and exploring mars at the same time.  Different bodies but a single mind just doing different things.  It's a matter of how aware each system is of the other.  How entangled we can make our conscious minds.\n\nHowever after the vacation to mars, it would be idiotic to grey goo the martian body when done.  Better to just use the same scaffolding and reconfigure it to the needs of the next occupant on the fly.  We'll rent bodies like we do hotel rooms now, complete with all the right plumbing and carpet that matches the curtains :)\n\nTo my mind this means that by the time we reach this stage we'll value energy and time much different than we do now.  The body you played tennis with during the day, might be used by someone else at night to go on a bender down town.  The information that is you, may already be off in a whole new country enjoying local cuisine.  Or you may choose to sleep in your body.  Do we dream of electric sheep?\n\nI don't see any sort of plateau to the number of consciousness's that exist, just the computational and energy limits inherent in the universe.  \n\nBut that doesn't mean we'll ever be \"bored\".  There will be all kinds of challenges to overcome.\nImagine trying to explain what commuting to work is like to someone from 100 years ago.  Imagine explaining to your younger self what a pain in the ass life becomes when you need to charge your cellphone.  Or how stressful life can be when your data plan gets throttled to a speed rate that would still be WAY higher than anything that a 1990s kid on dialup could conceive of. \n \nIt's happening every single day.  We just don't see it, because we're used to it.\nIf I ever build a time machine I'm going to go to 2006 and talk to my adult self about smartphones.  I think we'll have a laugh together.",
      "cashout_time": "2016-08-30T07:32:45",
      "category": "science",
      "children": 0,
      "children_abs_rshares": 0,
      "created": "2016-08-23T07:32:45",
      "curator_payout_value": {
        "amount": "0",
        "nai": "@@000000013",
        "precision": 3
      },
      "depth": 2,
      "id": 947255,
      "json_metadata": "{\"tags\":[\"eraseism\",\"science\"],\"users\":[\"sykochica\"],\"links\":[\"https://steemit.com/steemit/@williambanks/why-more-parents-of-brunettes-are-home-schooling-their-kids\"]}",
      "last_payout": "1970-01-01T00:00:00",
      "last_update": "2016-08-23T07:41:33",
      "max_accepted_payout": {
        "amount": "1000000000",
        "nai": "@@000000013",
        "precision": 3
      },
      "max_cashout_time": "1969-12-31T23:59:59",
      "net_rshares": 19533131618,
      "net_votes": 1,
      "parent_author": "sykochica",
      "parent_permlink": "re-williambanks-heretickitten-what-is-beyond-evolution-20160821t031713260z",
      "percent_hbd": 10000,
      "permlink": "re-sykochica-re-williambanks-heretickitten-what-is-beyond-evolution-20160823t073244677z",
      "reward_weight": 10000,
      "root_author": "williambanks",
      "root_permlink": "heretickitten-what-is-beyond-evolution",
      "title": "",
      "total_payout_value": {
        "amount": "0",
        "nai": "@@000000013",
        "precision": 3
      },
      "total_vote_weight": 89642918248639469,
      "vote_rshares": 19533131618
    },
    {
      "abs_rshares": 19172042451,
      "active": "2016-08-23T04:31:30",
      "allow_curation_rewards": true,
      "allow_replies": true,
      "allow_votes": true,
      "author": "williambanks",
      "author_rewards": 0,
      "beneficiaries": [],
      "body": "I should have clarified what I meant by \"I don't know about the kid\".\n\nI was actually referring to his belief systems not him per se.\nThe human brain is as far as we can tell, the most advanced and most powerful computer ever constructed and one of it's primary purposes is the detection of patterns and symmetry breaking.\n\nWhy this evolved in this specific way is pretty much unknown and it's not limited to vision.\nWe \"like\" music because what makes music different from noise is that it follows specific math patterns.\n\nWe are in love with patterns.  But it also means we see patterns even when they are not there.\nWe also miss important things because we get too wrapped up in the patterns we do see and don't always dig deeper.\n\nhttp://brainden.com/images/old-couple.jpg\nHow many scenes are in the image above?\n\nAnyways I applaud the kid, but the one thing he seemed too focused on was looking for patterns.  But the strange thing is that the patterns we see may not be where the information is.\nUsually most information is found \"when the pattern breaks\".\n\nThe most exciting word in science is rarely ever \"Eureka!\", but \n\"Wow that's weird...\"\n\nNevertheless, I watched the video and literally gave the kid a standing ovation.  \nThe fact is, even if his beliefs are completely wrong, and even if his \"free energy\" device is nothing in hindsight.  The fact is he is willing to do the hardwork of learning.  They literally don't teach people to think anymore.  Merely to memorize facts and figures that are handed to them, and they aren't allowed to question why.\nHe's asking the hardest question of all.  The one few dare...\nThe only question that matters...\n\"How?\"",
      "cashout_time": "2016-08-30T02:19:30",
      "category": "science",
      "children": 0,
      "children_abs_rshares": 0,
      "created": "2016-08-23T02:19:30",
      "curator_payout_value": {
        "amount": "0",
        "nai": "@@000000013",
        "precision": 3
      },
      "depth": 3,
      "id": 944809,
      "json_metadata": "{\"tags\":[\"science\"],\"image\":[\"http://brainden.com/images/old-couple.jpg\"]}",
      "last_payout": "1970-01-01T00:00:00",
      "last_update": "2016-08-23T04:31:30",
      "max_accepted_payout": {
        "amount": "1000000000",
        "nai": "@@000000013",
        "precision": 3
      },
      "max_cashout_time": "1969-12-31T23:59:59",
      "net_rshares": 19172042451,
      "net_votes": 2,
      "parent_author": "sykochica",
      "parent_permlink": "re-williambanks-re-sykochica-what-is-god-as-told-by-a-13-year-old-20160823t013534074z",
      "percent_hbd": 10000,
      "permlink": "re-sykochica-re-williambanks-re-sykochica-what-is-god-as-told-by-a-13-year-old-20160823t021931580z",
      "reward_weight": 10000,
      "root_author": "sykochica",
      "root_permlink": "what-is-god-as-told-by-a-13-year-old",
      "title": "",
      "total_payout_value": {
        "amount": "0",
        "nai": "@@000000013",
        "precision": 3
      },
      "total_vote_weight": 0,
      "vote_rshares": 19172042451
    },
    {
      "abs_rshares": 0,
      "active": "2016-08-23T04:26:21",
      "allow_curation_rewards": true,
      "allow_replies": true,
      "allow_votes": true,
      "author": "exitmass",
      "author_rewards": 0,
      "beneficiaries": [],
      "body": "thanks for the help :)",
      "cashout_time": "2016-08-30T04:26:21",
      "category": "steemit",
      "children": 0,
      "children_abs_rshares": 0,
      "created": "2016-08-23T04:26:21",
      "curator_payout_value": {
        "amount": "0",
        "nai": "@@000000013",
        "precision": 3
      },
      "depth": 2,
      "id": 945969,
      "json_metadata": "{\"tags\":[\"steemit\"]}",
      "last_payout": "1970-01-01T00:00:00",
      "last_update": "2016-08-23T04:26:21",
      "max_accepted_payout": {
        "amount": "1000000000",
        "nai": "@@000000013",
        "precision": 3
      },
      "max_cashout_time": "1969-12-31T23:59:59",
      "net_rshares": 0,
      "net_votes": 0,
      "parent_author": "sykochica",
      "parent_permlink": "re-exitmass-is-my-wife-s-first-and-controversial-post-being-censored-surely-not-steemit-20160823t042218137z",
      "percent_hbd": 10000,
      "permlink": "re-sykochica-re-exitmass-is-my-wife-s-first-and-controversial-post-being-censored-surely-not-steemit-20160823t042624707z",
      "reward_weight": 10000,
      "root_author": "exitmass",
      "root_permlink": "is-my-wife-s-first-and-controversial-post-being-censored-surely-not-steemit",
      "title": "",
      "total_payout_value": {
        "amount": "0",
        "nai": "@@000000013",
        "precision": 3
      },
      "total_vote_weight": 0,
      "vote_rshares": 0
    },
    {
      "abs_rshares": 0,
      "active": "2016-08-23T04:11:54",
      "allow_curation_rewards": true,
      "allow_replies": true,
      "allow_votes": true,
      "author": "mweich",
      "author_rewards": 0,
      "beneficiaries": [],
      "body": "I think it's mostly habitat loss, and being a cleptoparasite it needs its prefered host species to raise its young.   For my part, we've got lots of flowers around the house and don't use pesticides.  I hope they continue flying about as well, they are quite cute (a bonus, not impetus for conservation:P )!",
      "cashout_time": "2016-08-30T04:11:54",
      "category": "photography",
      "children": 0,
      "children_abs_rshares": 0,
      "created": "2016-08-23T04:11:54",
      "curator_payout_value": {
        "amount": "0",
        "nai": "@@000000013",
        "precision": 3
      },
      "depth": 2,
      "id": 945860,
      "json_metadata": "{\"tags\":[\"photography\"]}",
      "last_payout": "1970-01-01T00:00:00",
      "last_update": "2016-08-23T04:11:54",
      "max_accepted_payout": {
        "amount": "1000000000",
        "nai": "@@000000013",
        "precision": 3
      },
      "max_cashout_time": "1969-12-31T23:59:59",
      "net_rshares": 0,
      "net_votes": 0,
      "parent_author": "sykochica",
      "parent_permlink": "re-mweich-wait-is-that-a-blue-bee-steemit-colours-20160823t015027984z",
      "percent_hbd": 10000,
      "permlink": "re-sykochica-re-mweich-wait-is-that-a-blue-bee-steemit-colours-20160823t041154889z",
      "reward_weight": 10000,
      "root_author": "mweich",
      "root_permlink": "wait-is-that-a-blue-bee-steemit-colours",
      "title": "",
      "total_payout_value": {
        "amount": "0",
        "nai": "@@000000013",
        "precision": 3
      },
      "total_vote_weight": 0,
      "vote_rshares": 0
    },
    {
      "abs_rshares": 60521196,
      "active": "2016-08-23T03:46:09",
      "allow_curation_rewards": true,
      "allow_replies": true,
      "allow_votes": true,
      "author": "konti",
      "author_rewards": 0,
      "beneficiaries": [],
      "body": "In project... soon publish :)",
      "cashout_time": "2016-08-30T03:46:09",
      "category": "steemit",
      "children": 0,
      "children_abs_rshares": 0,
      "created": "2016-08-23T03:46:09",
      "curator_payout_value": {
        "amount": "0",
        "nai": "@@000000013",
        "precision": 3
      },
      "depth": 2,
      "id": 945653,
      "json_metadata": "{\"tags\":[\"steemit\"]}",
      "last_payout": "1970-01-01T00:00:00",
      "last_update": "2016-08-23T03:46:09",
      "max_accepted_payout": {
        "amount": "1000000000",
        "nai": "@@000000013",
        "precision": 3
      },
      "max_cashout_time": "1969-12-31T23:59:59",
      "net_rshares": 60521196,
      "net_votes": 1,
      "parent_author": "sykochica",
      "parent_permlink": "re-konti-corporate-identity-design-or-steemitstyle-20160823t032251684z",
      "percent_hbd": 10000,
      "permlink": "re-sykochica-re-konti-corporate-identity-design-or-steemitstyle-20160823t034609120z",
      "reward_weight": 10000,
      "root_author": "konti",
      "root_permlink": "corporate-identity-design-or-steemitstyle",
      "title": "",
      "total_payout_value": {
        "amount": "0",
        "nai": "@@000000013",
        "precision": 3
      },
      "total_vote_weight": 279100530537225,
      "vote_rshares": 60521196
    }
  ]
}
