{
  "comments": [
    {
      "abs_rshares": 0,
      "active": "2016-08-24T09:30:03",
      "allow_curation_rewards": true,
      "allow_replies": true,
      "allow_votes": true,
      "author": "steemit",
      "author_rewards": 3548,
      "beneficiaries": [],
      "body": "Steemit is a social media platform where anyone can earn STEEM points by posting. The more people who like a post, the more STEEM the poster earns. Anyone can sell their STEEM for cash or vest it to boost their voting power.",
      "cashout_time": "1969-12-31T23:59:59",
      "category": "meta",
      "children": 36,
      "children_abs_rshares": 0,
      "created": "2016-03-30T18:30:18",
      "curator_payout_value": {
        "amount": "756",
        "nai": "@@000000013",
        "precision": 3
      },
      "depth": 0,
      "id": 1,
      "json_metadata": "",
      "last_payout": "2016-08-24T19:59:42",
      "last_update": "2016-03-30T18:30:18",
      "max_accepted_payout": {
        "amount": "1000000000",
        "nai": "@@000000013",
        "precision": 3
      },
      "max_cashout_time": "1969-12-31T23:59:59",
      "net_rshares": 0,
      "net_votes": 90,
      "parent_author": "",
      "parent_permlink": "meta",
      "percent_hbd": 10000,
      "permlink": "firstpost",
      "reward_weight": 10000,
      "root_author": "steemit",
      "root_permlink": "firstpost",
      "title": "Welcome to Steem!",
      "total_payout_value": {
        "amount": "942",
        "nai": "@@000000013",
        "precision": 3
      },
      "total_vote_weight": 0,
      "vote_rshares": 0
    },
    {
      "abs_rshares": 0,
      "active": "2016-07-18T19:53:12",
      "allow_curation_rewards": true,
      "allow_replies": true,
      "allow_votes": true,
      "author": "admin",
      "author_rewards": 0,
      "beneficiaries": [],
      "body": "First Reply! Let's get this **party** started",
      "cashout_time": "1969-12-31T23:59:59",
      "category": "meta",
      "children": 2,
      "children_abs_rshares": 0,
      "created": "2016-03-30T19:52:30",
      "curator_payout_value": {
        "amount": "0",
        "nai": "@@000000013",
        "precision": 3
      },
      "depth": 1,
      "id": 2,
      "json_metadata": "",
      "last_payout": "2016-08-24T19:59:42",
      "last_update": "2016-03-30T19:52:30",
      "max_accepted_payout": {
        "amount": "1000000000",
        "nai": "@@000000013",
        "precision": 3
      },
      "max_cashout_time": "1969-12-31T23:59:59",
      "net_rshares": 0,
      "net_votes": 8,
      "parent_author": "steemit",
      "parent_permlink": "firstpost",
      "percent_hbd": 10000,
      "permlink": "firstpost",
      "reward_weight": 10000,
      "root_author": "steemit",
      "root_permlink": "firstpost",
      "title": "",
      "total_payout_value": {
        "amount": "0",
        "nai": "@@000000013",
        "precision": 3
      },
      "total_vote_weight": 0,
      "vote_rshares": 0
    },
    {
      "abs_rshares": 0,
      "active": "2016-03-31T13:54:33",
      "allow_curation_rewards": true,
      "allow_replies": true,
      "allow_votes": true,
      "author": "proskynneo",
      "author_rewards": 4817,
      "beneficiaries": [],
      "body": "Glad to see this live and working! Excited to see where the community goes and excited to be able to use this through a gui instead of the command linne! :D",
      "cashout_time": "1969-12-31T23:59:59",
      "category": "meta",
      "children": 0,
      "children_abs_rshares": 0,
      "created": "2016-03-31T13:54:33",
      "curator_payout_value": {
        "amount": "1059",
        "nai": "@@000000013",
        "precision": 3
      },
      "depth": 1,
      "id": 3,
      "json_metadata": "",
      "last_payout": "2016-08-24T19:59:42",
      "last_update": "2016-03-31T13:54:33",
      "max_accepted_payout": {
        "amount": "1000000000",
        "nai": "@@000000013",
        "precision": 3
      },
      "max_cashout_time": "1969-12-31T23:59:59",
      "net_rshares": 0,
      "net_votes": 7,
      "parent_author": "steemit",
      "parent_permlink": "firstpost",
      "percent_hbd": 10000,
      "permlink": "steemit-firstpost-1",
      "reward_weight": 10000,
      "root_author": "steemit",
      "root_permlink": "firstpost",
      "title": "Excited!",
      "total_payout_value": {
        "amount": "1058",
        "nai": "@@000000013",
        "precision": 3
      },
      "total_vote_weight": 0,
      "vote_rshares": 0
    },
    {
      "abs_rshares": 0,
      "active": "2016-07-13T08:38:48",
      "allow_curation_rewards": true,
      "allow_replies": true,
      "allow_votes": true,
      "author": "red",
      "author_rewards": 457,
      "beneficiaries": [],
      "body": "Did you know you can earn STEEM by commenting on posts?",
      "cashout_time": "1969-12-31T23:59:59",
      "category": "meta",
      "children": 2,
      "children_abs_rshares": 0,
      "created": "2016-04-06T19:22:42",
      "curator_payout_value": {
        "amount": "100",
        "nai": "@@000000013",
        "precision": 3
      },
      "depth": 1,
      "id": 4,
      "json_metadata": "{}",
      "last_payout": "2016-08-24T19:59:42",
      "last_update": "2016-04-06T19:22:42",
      "max_accepted_payout": {
        "amount": "1000000000",
        "nai": "@@000000013",
        "precision": 3
      },
      "max_cashout_time": "1969-12-31T23:59:59",
      "net_rshares": 0,
      "net_votes": 7,
      "parent_author": "steemit",
      "parent_permlink": "firstpost",
      "percent_hbd": 10000,
      "permlink": "steemit-firstpost-2",
      "reward_weight": 10000,
      "root_author": "steemit",
      "root_permlink": "firstpost",
      "title": "Did you Know?",
      "total_payout_value": {
        "amount": "100",
        "nai": "@@000000013",
        "precision": 3
      },
      "total_vote_weight": 0,
      "vote_rshares": 0
    },
    {
      "abs_rshares": 0,
      "active": "2016-04-11T21:41:45",
      "allow_curation_rewards": true,
      "allow_replies": true,
      "allow_votes": true,
      "author": "red",
      "author_rewards": 4661,
      "beneficiaries": [],
      "body": "Bitcoin's protocol schedules a block reward 'halving' roughly every four years, as designed by Satoshi Nakamoto. But the artificial block size cap currently sanctioned by Core developers and a majority of miners alike may actually cause a catastrophic result come July 2016. Here's how. https://youtu.be/_NgFIj9dBkQ",
      "cashout_time": "1969-12-31T23:59:59",
      "category": "daily-decrypt",
      "children": 1,
      "children_abs_rshares": 0,
      "created": "2016-04-06T19:54:12",
      "curator_payout_value": {
        "amount": "1024",
        "nai": "@@000000013",
        "precision": 3
      },
      "depth": 0,
      "id": 5,
      "json_metadata": "{}",
      "last_payout": "2016-08-03T00:00:06",
      "last_update": "2016-04-06T19:54:12",
      "max_accepted_payout": {
        "amount": "1000000000",
        "nai": "@@000000013",
        "precision": 3
      },
      "max_cashout_time": "1969-12-31T23:59:59",
      "net_rshares": 0,
      "net_votes": 6,
      "parent_author": "",
      "parent_permlink": "daily-decrypt",
      "percent_hbd": 10000,
      "permlink": "red-dailydecrypt-1",
      "reward_weight": 10000,
      "root_author": "red",
      "root_permlink": "red-dailydecrypt-1",
      "title": "What You Should Know About the Coming Bitcoin Halving",
      "total_payout_value": {
        "amount": "1024",
        "nai": "@@000000013",
        "precision": 3
      },
      "total_vote_weight": 0,
      "vote_rshares": 0
    },
    {
      "abs_rshares": 0,
      "active": "2016-08-10T09:18:09",
      "allow_curation_rewards": true,
      "allow_replies": true,
      "allow_votes": true,
      "author": "abit",
      "author_rewards": 1339,
      "beneficiaries": [],
      "body": "Trying to post my first post..",
      "cashout_time": "1969-12-31T23:59:59",
      "category": "firstpost",
      "children": 1,
      "children_abs_rshares": 0,
      "created": "2016-04-08T07:33:42",
      "curator_payout_value": {
        "amount": "294",
        "nai": "@@000000013",
        "precision": 3
      },
      "depth": 0,
      "id": 6,
      "json_metadata": "{}",
      "last_payout": "2016-08-12T10:16:36",
      "last_update": "2016-04-08T07:33:42",
      "max_accepted_payout": {
        "amount": "1000000000",
        "nai": "@@000000013",
        "precision": 3
      },
      "max_cashout_time": "1969-12-31T23:59:59",
      "net_rshares": 0,
      "net_votes": 4,
      "parent_author": "",
      "parent_permlink": "firstpost",
      "percent_hbd": 10000,
      "permlink": "abit-first-post",
      "reward_weight": 10000,
      "root_author": "abit",
      "root_permlink": "abit-first-post",
      "title": "Trying",
      "total_payout_value": {
        "amount": "294",
        "nai": "@@000000013",
        "precision": 3
      },
      "total_vote_weight": 0,
      "vote_rshares": 0
    },
    {
      "abs_rshares": 0,
      "active": "2016-04-08T08:58:24",
      "allow_curation_rewards": true,
      "allow_replies": true,
      "allow_votes": true,
      "author": "abit",
      "author_rewards": 729,
      "beneficiaries": [],
      "body": "This is the witnesses category",
      "cashout_time": "1969-12-31T23:59:59",
      "category": "",
      "children": 2,
      "children_abs_rshares": 0,
      "created": "2016-04-08T07:36:18",
      "curator_payout_value": {
        "amount": "160",
        "nai": "@@000000013",
        "precision": 3
      },
      "depth": 0,
      "id": 7,
      "json_metadata": "{}",
      "last_payout": "2016-08-12T10:16:39",
      "last_update": "2016-04-08T07:36:18",
      "max_accepted_payout": {
        "amount": "1000000000",
        "nai": "@@000000013",
        "precision": 3
      },
      "max_cashout_time": "1969-12-31T23:59:59",
      "net_rshares": 0,
      "net_votes": -2,
      "parent_author": "",
      "parent_permlink": "",
      "percent_hbd": 10000,
      "permlink": "witness-category",
      "reward_weight": 10000,
      "root_author": "abit",
      "root_permlink": "witness-category",
      "title": "Witnesses",
      "total_payout_value": {
        "amount": "160",
        "nai": "@@000000013",
        "precision": 3
      },
      "total_vote_weight": 0,
      "vote_rshares": 0
    },
    {
      "abs_rshares": 0,
      "active": "2016-04-08T07:55:15",
      "allow_curation_rewards": true,
      "allow_replies": true,
      "allow_votes": true,
      "author": "abit",
      "author_rewards": 632,
      "beneficiaries": [],
      "body": "This is the miners category",
      "cashout_time": "1969-12-31T23:59:59",
      "category": "",
      "children": 0,
      "children_abs_rshares": 0,
      "created": "2016-04-08T07:55:15",
      "curator_payout_value": {
        "amount": "139",
        "nai": "@@000000013",
        "precision": 3
      },
      "depth": 0,
      "id": 8,
      "json_metadata": "{}",
      "last_payout": "2016-08-12T10:16:42",
      "last_update": "2016-04-08T07:55:15",
      "max_accepted_payout": {
        "amount": "1000000000",
        "nai": "@@000000013",
        "precision": 3
      },
      "max_cashout_time": "1969-12-31T23:59:59",
      "net_rshares": 0,
      "net_votes": -3,
      "parent_author": "",
      "parent_permlink": "",
      "percent_hbd": 10000,
      "permlink": "miner-category",
      "reward_weight": 10000,
      "root_author": "abit",
      "root_permlink": "miner-category",
      "title": "Miners",
      "total_payout_value": {
        "amount": "138",
        "nai": "@@000000013",
        "precision": 3
      },
      "total_vote_weight": 0,
      "vote_rshares": 0
    },
    {
      "abs_rshares": 0,
      "active": "2016-04-19T12:08:57",
      "allow_curation_rewards": true,
      "allow_replies": true,
      "allow_votes": true,
      "author": "abit",
      "author_rewards": 503226,
      "beneficiaries": [],
      "body": "This is abit, an experienced witness. Will you vote for me?",
      "cashout_time": "1969-12-31T23:59:59",
      "category": "witness-category",
      "children": 5,
      "children_abs_rshares": 0,
      "created": "2016-04-08T07:58:51",
      "curator_payout_value": {
        "amount": "110702",
        "nai": "@@000000013",
        "precision": 3
      },
      "depth": 0,
      "id": 9,
      "json_metadata": "{}",
      "last_payout": "2016-08-22T12:36:54",
      "last_update": "2016-04-08T07:58:51",
      "max_accepted_payout": {
        "amount": "1000000000",
        "nai": "@@000000013",
        "precision": 3
      },
      "max_cashout_time": "1969-12-31T23:59:59",
      "net_rshares": 0,
      "net_votes": 23,
      "parent_author": "",
      "parent_permlink": "witness-category",
      "percent_hbd": 10000,
      "permlink": "abit-witness-post",
      "reward_weight": 10000,
      "root_author": "abit",
      "root_permlink": "abit-witness-post",
      "title": "Abit Witness Thread",
      "total_payout_value": {
        "amount": "110730",
        "nai": "@@000000013",
        "precision": 3
      },
      "total_vote_weight": 0,
      "vote_rshares": 0
    },
    {
      "abs_rshares": 0,
      "active": "2016-04-08T08:49:15",
      "allow_curation_rewards": true,
      "allow_replies": true,
      "allow_votes": true,
      "author": "abit",
      "author_rewards": 755,
      "beneficiaries": [],
      "body": "Spams come here",
      "cashout_time": "1969-12-31T23:59:59",
      "category": "",
      "children": 0,
      "children_abs_rshares": 0,
      "created": "2016-04-08T08:49:15",
      "curator_payout_value": {
        "amount": "166",
        "nai": "@@000000013",
        "precision": 3
      },
      "depth": 0,
      "id": 10,
      "json_metadata": "{}",
      "last_payout": "2016-08-13T18:32:54",
      "last_update": "2016-04-08T08:49:15",
      "max_accepted_payout": {
        "amount": "1000000000",
        "nai": "@@000000013",
        "precision": 3
      },
      "max_cashout_time": "1969-12-31T23:59:59",
      "net_rshares": 0,
      "net_votes": -2,
      "parent_author": "",
      "parent_permlink": "",
      "percent_hbd": 10000,
      "permlink": "spam",
      "reward_weight": 10000,
      "root_author": "abit",
      "root_permlink": "spam",
      "title": "Spams",
      "total_payout_value": {
        "amount": "165",
        "nai": "@@000000013",
        "precision": 3
      },
      "total_vote_weight": 0,
      "vote_rshares": 0
    }
  ]
}