{
  "comments": [
      {
          "abs_rshares": 0,
          "active": "2020-03-21T09:18:18",
          "allow_curation_rewards": true,
          "allow_replies": true,
          "allow_votes": true,
          "author": "steemit",
          "author_rewards": 3548,
          "beneficiaries": [],
          "body": "Steemit is a social media platform where anyone can earn STEEM points by posting. The more people who like a post, the more STEEM the poster earns. Anyone can sell their STEEM for cash or vest it to boost their voting power.",
          "cashout_time": "1969-12-31T23:59:59",
          "category": "meta",
          "children": 430,
          "children_abs_rshares": "28797030536827",
          "created": "2016-03-30T18:30:18",
          "curator_payout_value": {
              "amount": "756",
              "nai": "@@000000013",
              "precision": 3
          },
          "depth": 0,
          "id": 0,
          "json_metadata": "",
          "last_payout": "2016-08-24T19:59:42",
          "last_update": "2016-03-30T18:30:18",
          "max_accepted_payout": {
              "amount": "1000000000",
              "nai": "@@000000013",
              "precision": 3
          },
          "max_cashout_time": "1969-12-31T23:59:59",
          "net_rshares": 0,
          "net_votes": 90,
          "parent_author": "",
          "parent_permlink": "meta",
          "percent_steem_dollars": 10000,
          "permlink": "firstpost",
          "reward_weight": 10000,
          "root_author": "steemit",
          "root_permlink": "firstpost",
          "title": "Welcome to Steem!",
          "total_payout_value": {
              "amount": "942",
              "nai": "@@000000013",
              "precision": 3
          },
          "total_vote_weight": 0,
          "vote_rshares": 0
      },
      {
          "abs_rshares": 0,
          "active": "2018-02-11T13:45:45",
          "allow_curation_rewards": true,
          "allow_replies": true,
          "allow_votes": true,
          "author": "steemit-01",
          "author_rewards": 926,
          "beneficiaries": [
              {
                  "account": "esteemapp",
                  "weight": 1000
              }
          ],
          "body": "Zirveye oynayan tak\u0131mlar\u0131n puan kay\u0131plar\u0131na sahne olan 20. Hafta bol goll\u00fc ma\u00e7lar oldu. Haftan\u0131n a\u00e7\u0131l\u0131\u015f ma\u00e7\u0131nda bursaspor-besikta\u015f 2-2 berabere kalm\u0131\u015ft\u0131r.\nFenerbah\u00e7e-genclerbirligi 2-2\nSivasspor-galatasaray 2-1 \nHaftan\u0131n son ma\u00e7\u0131 pazartesi g\u00fcn\u00fc trabzonspor-g\u00f6ztepe oynanacakt\u0131r. B\u00fct\u00fcn tak\u0131mlara ba\u015far\u0131lar dilerim. Iyi oynayan kazans\u0131n. \n\n ![image](https://img.esteem.ws/quopn14n6f.jpg)\n![image](https://img.esteem.ws/qqr7g77ins.jpg)\n ![image](https://img.esteem.ws/c93askgsdo.jpg)",
          "cashout_time": "1969-12-31T23:59:59",
          "category": "tr",
          "children": 4,
          "children_abs_rshares": 0,
          "created": "2018-02-04T20:29:39",
          "curator_payout_value": {
              "amount": "1298",
              "nai": "@@000000013",
              "precision": 3
          },
          "depth": 0,
          "id": 30425494,
          "json_metadata": "{\"links\":[],\"image\":[\"https://img.esteem.ws/quopn14n6f.jpg\",\"https://img.esteem.ws/qqr7g77ins.jpg\",\"https://img.esteem.ws/c93askgsdo.jpg\"],\"tags\":[\"tr\",\"life\",\"futbol\"],\"app\":\"esteem/1.5.1\",\"format\":\"markdown+html\",\"community\":\"esteem\"}",
          "last_payout": "2018-02-11T20:29:39",
          "last_update": "2018-02-04T20:29:39",
          "max_accepted_payout": {
              "amount": "1000000000",
              "nai": "@@000000013",
              "precision": 3
          },
          "max_cashout_time": "1969-12-31T23:59:59",
          "net_rshares": 0,
          "net_votes": 6,
          "parent_author": "",
          "parent_permlink": "tr",
          "percent_steem_dollars": 10000,
          "permlink": "20-hafta-sueper-lig-mac-sonuclari-ve-puan-durumu-0c514b7a295",
          "reward_weight": 10000,
          "root_author": "steemit-01",
          "root_permlink": "20-hafta-sueper-lig-mac-sonuclari-ve-puan-durumu-0c514b7a295",
          "title": "20. Hafta s\u00fcper lig ma\u00e7 sonu\u00e7lar\u0131 ve puan durumu",
          "total_payout_value": {
              "amount": "3600",
              "nai": "@@000000013",
              "precision": 3
          },
          "total_vote_weight": 0,
          "vote_rshares": 0
      },
      {
          "abs_rshares": 0,
          "active": "2018-02-09T23:21:27",
          "allow_curation_rewards": true,
          "allow_replies": true,
          "allow_votes": true,
          "author": "steemit-01",
          "author_rewards": 626,
          "beneficiaries": [
              {
                  "account": "esteemapp",
                  "weight": 1000
              }
          ],
          "body": "Ada di\u011fer ad\u0131 Cardano i\u00e7in \u0131s\u0131nmad\u0131 buna bir anda coinmarketcap a girdi. \u0130lk zamanlar ilk 17 icin de yer ald\u0131. Aradan 2 ay ge\u00e7meden 5. S\u0131raya yerle\u015fti kalkm\u0131yor bir t\u00fcrl\u00fc. Arkas\u0131nda sa\u011flam bir deste\u011fin oldu\u011fu belli \u00e7ok g\u00fczel y\u00f6nlendiriyorlar. Ne i\u015fe yarar teknolojisi nedir ne i\u015fe yarar hi\u00e7 ara\u015ft\u0131rmad\u0131m, amac\u0131 belli bir grup taraf\u0131ndan piyasaya sa\u011flam bir grup belli ki paray\u0131 vurdu sanki her\u015feyi zaman g\u00f6sterecek. Yat\u0131r\u0131m yap\u0131lmas\u0131n\u0131 ben pek uygun g\u00f6rm\u00fcyorum. ![image](https://img.esteem.ws/e0xeka2rm7.jpg)",
          "cashout_time": "1969-12-31T23:59:59",
          "category": "cointurk",
          "children": 1,
          "children_abs_rshares": 0,
          "created": "2018-02-09T22:26:54",
          "curator_payout_value": {
              "amount": "910",
              "nai": "@@000000013",
              "precision": 3
          },
          "depth": 0,
          "id": 31551861,
          "json_metadata": "{\"links\":[],\"image\":[\"https://img.esteem.ws/e0xeka2rm7.jpg\"],\"tags\":[\"cointurk\",\"tr\",\"ada\"],\"app\":\"esteem/1.5.1\",\"format\":\"markdown+html\",\"community\":\"esteem\"}",
          "last_payout": "2018-02-16T22:26:54",
          "last_update": "2018-02-09T22:26:54",
          "max_accepted_payout": {
              "amount": "1000000000",
              "nai": "@@000000013",
              "precision": 3
          },
          "max_cashout_time": "1969-12-31T23:59:59",
          "net_rshares": 0,
          "net_votes": 5,
          "parent_author": "",
          "parent_permlink": "cointurk",
          "percent_steem_dollars": 10000,
          "permlink": "ada-coin-cointurk-13-projesi-3e388d8ec14",
          "reward_weight": 10000,
          "root_author": "steemit-01",
          "root_permlink": "ada-coin-cointurk-13-projesi-3e388d8ec14",
          "title": "Ada coin [ cointurk 13. Projesi]",
          "total_payout_value": {
              "amount": "2626",
              "nai": "@@000000013",
              "precision": 3
          },
          "total_vote_weight": 0,
          "vote_rshares": 0
      },
      {
          "abs_rshares": 0,
          "active": "2018-03-22T19:09:45",
          "allow_curation_rewards": true,
          "allow_replies": true,
          "allow_votes": true,
          "author": "steemit-01",
          "author_rewards": 234,
          "beneficiaries": [
              {
                  "account": "esteemapp",
                  "weight": 1000
              }
          ],
          "body": "Bahar demek uyuyan topra\u011f\u0131n, toprak icin de uyuyan canl\u0131lar\u0131n uyanmas\u0131 do\u011fan\u0131n tekrardan canlanmas\u0131 demektir. Insanlar\u0131n ne\u015felenmesi demek tekrardan ya\u015fama ba\u015flamak demektir.\n  ![image](https://img.esteem.ws/wvxrr2yhew.jpg)\nDedelerimiz 60 defa babalar\u0131m\u0131z 40-50 defa omurlerinde bahar\u0131 g\u00f6rm\u00fc\u015ft\u00fcr, bahar\u0131n ne demek oldu\u011funu onlara sorsak \u00e7ok iyi anlat\u0131rlar bizlere.\n ![image](https://img.esteem.ws/jubhfbjxzn.jpg)\nBizler ise kocaman \u015fehir de betonlar\u0131n aras\u0131nda asfalt yollarda \u00f6mr\u00fcm\u00fcz ge\u00e7iyor.\n Fark\u0131na bile varam\u0131yoruz bademler \u00e7i\u00e7ek a\u00e7m\u0131\u015f erikler k\u00fc\u00e7\u00fck k\u00fc\u00e7\u00fck olmu\u015f b\u00f6cekler c\u0131km\u0131\u015f, tabi y\u0131lanlar ge\u00e7 \u00e7\u0131ks\u0131n birazcik:)\n\n\n\nBizler bu durumda ne yapabiliriz, evimiz de bah\u00e7emiz varsa bah\u00e7e de bah\u00e7e yoksa balkon da bir tane domates ve bir tane biber fidesi al\u0131p onlar\u0131 yeti\u015ftirebilriz, hem \u00e7ok k\u0131sa s\u00fcre de hem de organik bir \u015fekilde yeti\u015fir.\n Gerekli malzemeler domates biber fidesi saks\u0131 toprak ve solucan g\u00fcbresi hepsi kolayca temin edilebilir. \u00d6zellik k\u00fc\u00e7\u00fck \u00e7ocuklar var ise evde onlar\u0131n i\u00e7in de m\u00fckemmel olur, bir bitkinin g\u00f6zlerinin \u00f6n\u00fcnde nas\u0131l yeti\u015fti\u011fini g\u00f6r\u00fcp \u00f6\u011frenir, veya tohum da ekebilirsiniz salatal\u0131k en basiti \u00e7ok k\u0131sa s\u00fcrede yeti\u015fir. Ceviz de guzel yetisir 3 5 sene saks\u0131da kalabilir.\n\nBari bu bahari bo\u015f ge\u00e7irmeyelim bir dikili agacimiz olsun. Bakin \u00f6m\u00fcr bitiyor.\n ![image](https://img.esteem.ws/6kn0g6jzjk.jpg)",
          "cashout_time": "1969-12-31T23:59:59",
          "category": "hayat",
          "children": 0,
          "children_abs_rshares": 0,
          "created": "2018-03-22T19:09:45",
          "curator_payout_value": {
              "amount": "129",
              "nai": "@@000000013",
              "precision": 3
          },
          "depth": 0,
          "id": 40019453,
          "json_metadata": "{\"links\":[],\"image\":[\"https://img.esteem.ws/wvxrr2yhew.jpg\",\"https://img.esteem.ws/jubhfbjxzn.jpg\",\"https://img.esteem.ws/6kn0g6jzjk.jpg\"],\"tags\":[\"hayat\",\"tr\",\"cointurk\",\"esteem\"],\"app\":\"esteem/1.5.1\",\"format\":\"markdown+html\",\"community\":\"esteem\"}",
          "last_payout": "2018-03-29T19:09:45",
          "last_update": "2018-03-22T19:09:45",
          "max_accepted_payout": {
              "amount": "1000000000",
              "nai": "@@000000013",
              "precision": 3
          },
          "max_cashout_time": "1969-12-31T23:59:59",
          "net_rshares": 0,
          "net_votes": 16,
          "parent_author": "",
          "parent_permlink": "hayat",
          "percent_steem_dollars": 10000,
          "permlink": "bahar-geldi-hos-geldi-a03b4f7ac06dc",
          "reward_weight": 10000,
          "root_author": "steemit-01",
          "root_permlink": "bahar-geldi-hos-geldi-a03b4f7ac06dc",
          "title": "BAHAR GELD\u0130 HO\u015e GELD\u0130",
          "total_payout_value": {
              "amount": "407",
              "nai": "@@000000013",
              "precision": 3
          },
          "total_vote_weight": 0,
          "vote_rshares": 0
      },
      {
          "abs_rshares": 0,
          "active": "2018-01-28T17:05:09",
          "allow_curation_rewards": true,
          "allow_replies": true,
          "allow_votes": true,
          "author": "steemit-01",
          "author_rewards": 1005,
          "beneficiaries": [
              {
                  "account": "cnts",
                  "weight": 500
              },
              {
                  "account": "dmania",
                  "weight": 1000
              },
              {
                  "account": "lafona-miner",
                  "weight": 500
              },
              {
                  "account": "xeldal",
                  "weight": 500
              }
          ],
          "body": "<center>\n                    <a href=\"https://dmania.lol/post/steemit-01/bay-garson-zg1hbmlh-zflcl\">\n                      <img src=\"https://s3-eu-west-1.amazonaws.com/dmania-thumbnail/whatsapp-video-2018-01-28-at-00-1j431p7-00001.png\">\n                    </a>\n                    <h3><a href=\"https://dmania.lol/post/steemit-01/bay-garson-zg1hbmlh-zflcl\">Watch video on dMania</a></h3>\n                    <a href=\"https://dmania.lol\">\n                      <img src=\"https://dmania.lol/assets/img/dmania_steemit_post.png\">\n                    </a>\n                  </center>",
          "cashout_time": "1969-12-31T23:59:59",
          "category": "dmania",
          "children": 3,
          "children_abs_rshares": 0,
          "created": "2018-01-28T13:52:18",
          "curator_payout_value": {
              "amount": "1334",
              "nai": "@@000000013",
              "precision": 3
          },
          "depth": 0,
          "id": 28707916,
          "json_metadata": "{\"tags\":[\"dmania\",\"video\",\"funny\"],\"image\":[\"https://s3-eu-west-1.amazonaws.com/dmania-thumbnail/whatsapp-video-2018-01-28-at-00-1j431p7-00001.png\"],\"video\":{\"videoUrl\":\"https://s3-eu-west-1.amazonaws.com/dmania-vid/whatsapp-video-2018-01-28-at-00-1j431p7.mp4\",\"thumbnailUrl\":\"https://s3-eu-west-1.amazonaws.com/dmania-thumbnail/whatsapp-video-2018-01-28-at-00-1j431p7-00001.png\"},\"app\":\"dmania/0.6\"}",
          "last_payout": "2018-02-04T13:52:18",
          "last_update": "2018-01-28T13:52:18",
          "max_accepted_payout": {
              "amount": "1000000000",
              "nai": "@@000000013",
              "precision": 3
          },
          "max_cashout_time": "1969-12-31T23:59:59",
          "net_rshares": 0,
          "net_votes": 7,
          "parent_author": "",
          "parent_permlink": "dmania",
          "percent_steem_dollars": 10000,
          "permlink": "bay-garson-zg1hbmlh-zflcl",
          "reward_weight": 10000,
          "root_author": "steemit-01",
          "root_permlink": "bay-garson-zg1hbmlh-zflcl",
          "title": "bay garson :)",
          "total_payout_value": {
              "amount": "4546",
              "nai": "@@000000013",
              "precision": 3
          },
          "total_vote_weight": 0,
          "vote_rshares": 0
      },
      {
          "abs_rshares": 0,
          "active": "2018-03-28T19:21:42",
          "allow_curation_rewards": true,
          "allow_replies": true,
          "allow_votes": true,
          "author": "steemit-01",
          "author_rewards": 281,
          "beneficiaries": [
              {
                  "account": "esteemapp",
                  "weight": 1000
              }
          ],
          "body": "Ge\u00e7en g\u00fcn \u00e7\u0131kan haberler aral\u0131k ayinda bitcoin al\u0131m sat\u0131m iddas\u0131 ile g\u00f6revlerinden uzakla\u015ft\u0131r\u0131lan imamlar konu\u015ftu bitcoin in ne oldu\u011funu daha bilmiyoruz, g\u00f6revimize d\u00f6nmek istiyoruz dediler. G\u00f6revden uzakla\u015ft\u0131rma gerek\u00e7esini de diyanet bitcoinin caiz olmad\u0131\u011f\u0131n\u0131 \u00f6ne s\u00fcrm\u00fc\u015ft\u00fc. \n \nBilmem haberler ne kadar do\u011frudur yanl\u0131\u015ft\u0131r. Fakat bildi\u011fim bisey var haberin \u00e7\u0131kar\u0131lma maksad\u0131na bakar\u0131m kim neden ni\u00e7in \u00e7\u0131kar\u0131r b\u00f6yle haberi reklam mi yapmak yasak mi getirmek ama\u00e7lar\u0131. \n\n Sizlere soruyorum bu g\u00fcne kadar alkol i\u00e7ti\u011fi i\u00e7in, kumar oynad\u0131\u011f\u0131 i\u00e7in veya milli piyango bileti alan idda ya da say\u0131sal loto oynayan imam\u0131n uzakla\u015ft\u0131rild\u0131\u011f\u0131n\u0131 \n Hic duydunuz mu ya da bu sayd\u0131klar\u0131m caiz mi l\u00fctfen elinizi vicdan\u0131n\u0131za koyup cevaplay\u0131n. Mesele imamlar mi bitcoin mi yoksa dinimiz mi veya devletimiz mi her g\u00fcn bir d\u00fcnya sa\u00e7ma sapan haberler.\n ![image](https://img.esteem.ws/nxxz9axvfp.jpg)",
          "cashout_time": "1969-12-31T23:59:59",
          "category": "tr",
          "children": 5,
          "children_abs_rshares": 0,
          "created": "2018-03-28T19:05:24",
          "curator_payout_value": {
              "amount": "132",
              "nai": "@@000000013",
              "precision": 3
          },
          "depth": 0,
          "id": 41022114,
          "json_metadata": "{\"links\":[],\"image\":[\"https://img.esteem.ws/nxxz9axvfp.jpg\"],\"tags\":[\"tr\",\"bitcoin\",\"cointurk\",\"esteem\"],\"app\":\"esteem/1.5.1\",\"format\":\"markdown+html\",\"community\":\"esteem\"}",
          "last_payout": "2018-04-04T19:05:24",
          "last_update": "2018-03-28T19:05:24",
          "max_accepted_payout": {
              "amount": "1000000000",
              "nai": "@@000000013",
              "precision": 3
          },
          "max_cashout_time": "1969-12-31T23:59:59",
          "net_rshares": 0,
          "net_votes": 13,
          "parent_author": "",
          "parent_permlink": "tr",
          "percent_steem_dollars": 10000,
          "permlink": "bitcoin-alan-satan-imamlar-suskunlugunu-bozdu-c49e12bca1cf4",
          "reward_weight": 10000,
          "root_author": "steemit-01",
          "root_permlink": "bitcoin-alan-satan-imamlar-suskunlugunu-bozdu-c49e12bca1cf4",
          "title": "B\u0130TCO\u0130N alan satan imamlar suskunlu\u011funu bozdu",
          "total_payout_value": {
              "amount": "458",
              "nai": "@@000000013",
              "precision": 3
          },
          "total_vote_weight": 0,
          "vote_rshares": 0
      },
      {
          "abs_rshares": 0,
          "active": "2018-01-11T20:00:42",
          "allow_curation_rewards": true,
          "allow_replies": true,
          "allow_votes": true,
          "author": "steemit-01",
          "author_rewards": 266,
          "beneficiaries": [
              {
                  "account": "esteemapp",
                  "weight": 500
              }
          ],
          "body": "Bitcoin cash gibi reklam\u0131n\u0131 yapan bir ba\u015fka coin olmad\u0131. Bitcoin ad\u0131n\u0131 kullanarak devasa bir b\u00fcy\u00fcme ger\u00e7ekle\u015ftirdi. Ilk \u00e7\u0131kt\u0131\u011f\u0131 zamanlarda ve devam\u0131n da bir  \u00e7ok ki\u015fiye \u00e7ok kazand\u0131rd\u0131, bir \u00e7ok ki\u015fiyi hayal k\u0131r\u0131kl\u0131\u011f\u0131na u\u011fratt\u0131. Zarar mi ettirdi tabiki hay\u0131r sab\u0131rs\u0131z olanlar kesinlikle zarar etti ka\u00e7\u0131n\u0131lmazd\u0131. Yine de bildi\u011fi yoldan devam ediyor an\u0131 \u00e7\u0131k\u0131\u015flar\u0131 ve d\u00fc\u015f\u00fc\u015fleri her zaman olabilecek bir alternatif coindir. \u00c7ok can yakar, \u00e7ok kazanirir en \u00e7ok dikkat edilmesi gereken coindir. ![image](https://img.esteem.ws/tt5kj2v8xz.jpg)",
          "cashout_time": "1969-12-31T23:59:59",
          "category": "tr",
          "children": 1,
          "children_abs_rshares": 0,
          "created": "2018-01-08T21:53:03",
          "curator_payout_value": {
              "amount": "481",
              "nai": "@@000000013",
              "precision": 3
          },
          "depth": 0,
          "id": 24448862,
          "json_metadata": "{\"links\":[],\"image\":[\"https://img.esteem.ws/tt5kj2v8xz.jpg\"],\"tags\":[\"tr\",\"cointurk\",\"kusadasi\",\"bitcoincash\",\"kripto-para\"],\"app\":\"esteem/1.5.0\",\"format\":\"markdown+html\",\"community\":\"esteem\"}",
          "last_payout": "2018-01-15T21:53:03",
          "last_update": "2018-01-08T21:53:03",
          "max_accepted_payout": {
              "amount": "1000000000",
              "nai": "@@000000013",
              "precision": 3
          },
          "max_cashout_time": "1969-12-31T23:59:59",
          "net_rshares": 0,
          "net_votes": 3,
          "parent_author": "",
          "parent_permlink": "tr",
          "percent_steem_dollars": 10000,
          "permlink": "bitcoin-cash-cointurk-4-projesi-793446f50ab08",
          "reward_weight": 10000,
          "root_author": "steemit-01",
          "root_permlink": "bitcoin-cash-cointurk-4-projesi-793446f50ab08",
          "title": "Bitcoin cash [ cointurk 4. Projesi ]",
          "total_payout_value": {
              "amount": "1542",
              "nai": "@@000000013",
              "precision": 3
          },
          "total_vote_weight": 0,
          "vote_rshares": 0
      },
      {
          "abs_rshares": 0,
          "active": "2018-01-20T22:53:06",
          "allow_curation_rewards": true,
          "allow_replies": true,
          "allow_votes": true,
          "author": "steemit-01",
          "author_rewards": 2134,
          "beneficiaries": [
              {
                  "account": "esteemapp",
                  "weight": 500
              }
          ],
          "body": "Bitcoin ile tan\u0131\u015fmam eskiye dayan\u0131r fakat kas\u0131m 2016 da ilk al\u0131\u015f sat\u0131\u015f i\u015flemimdir. Aral\u0131k 2016 'daki d\u00fc\u015f\u00fc\u015f den dolay\u0131 bir g\u00fcvensizlik olu\u015ftu hemen uzaklastim. Sonra dedim tabi en g\u00fcvenli liman alt\u0131nd\u0131r dolard\u0131r baya borsa i\u015fi fila u\u011fra\u015ft\u0131m, k\u00e2r\u0131 azd\u0131 ve sonra para baronlari ters de b\u0131rakt\u0131 derken d\u00f6viz i\u015fini de b\u0131rakt\u0131m. Dolar alt\u0131n euro ya yat\u0131r\u0131m yap\u0131yorsun, sonra ne oluyor biliyor musun \u00fclkendeki g\u00fczel geli\u015fmelere sevinemiyorsunuz. \u00c7\u00fcnk\u00fc d\u00f6viz d\u00fc\u015f\u00fcyor \u00e7\u0131kmam\u0131\u015fsan  zarar yaz\u0131yor, alt\u0131n al\u0131rs\u0131n dolara ba\u011fl\u0131 olan alt\u0131n da d\u00fc\u015fer sen baka kal\u0131rs\u0131n. Neyse gel zaman git zaman haziran 2017 'de ufak ufak bitcoin almaya satmaya ba\u015flad\u0131m. Yine de i\u00e7im de bir g\u00fcvensizlik vardi. \u00d6nce #bitcoin sonra altcoinler filan derken hep al sat al sat derken s\u00fcrekli zarar zarar ne zaman ki bitcoin e tam olarak g\u00fcvendim o zaman kazanmaya ba\u015flad\u0131m. Yeni ba\u015flayan arkada\u015flara en \u00f6nemli tavsiyem bitcoin al\u0131n ve uzun vadeli yat\u0131r\u0131m olarak d\u00fc\u015f\u00fcn\u00fcn k\u0131sa s\u00fcrekli k\u00fc\u00e7\u00fck k\u00e2rlara aldanmay\u0131n ve bitcoin e s\u0131k\u0131 s\u0131k\u0131 sar\u0131l\u0131n. Ileride ah vah ke\u015fke dememek i\u00e7in karar verin.\n ![image](https://img.esteem.ws/w9pam3ozxr.jpg)",
          "cashout_time": "1969-12-31T23:59:59",
          "category": "tr",
          "children": 0,
          "children_abs_rshares": 0,
          "created": "2018-01-20T22:53:06",
          "curator_payout_value": {
              "amount": "4342",
              "nai": "@@000000013",
              "precision": 3
          },
          "depth": 0,
          "id": 26928882,
          "json_metadata": "{\"links\":[],\"image\":[\"https://img.esteem.ws/w9pam3ozxr.jpg\"],\"tags\":[\"tr\",\"bitcoin\",\"cointurk\",\"kripto-para\",\"esteem\"],\"app\":\"esteem/1.5.0\",\"format\":\"markdown+html\",\"community\":\"esteem\"}",
          "last_payout": "2018-01-27T22:53:06",
          "last_update": "2018-01-20T22:53:06",
          "max_accepted_payout": {
              "amount": "1000000000",
              "nai": "@@000000013",
              "precision": 3
          },
          "max_cashout_time": "1969-12-31T23:59:59",
          "net_rshares": 0,
          "net_votes": 11,
          "parent_author": "",
          "parent_permlink": "tr",
          "percent_steem_dollars": 10000,
          "permlink": "bitcoin-en-ideal-yatirim-aracidir-cointurk-8-projesi-8762263941674",
          "reward_weight": 10000,
          "root_author": "steemit-01",
          "root_permlink": "bitcoin-en-ideal-yatirim-aracidir-cointurk-8-projesi-8762263941674",
          "title": "Bitcoin en ideal yat\u0131r\u0131m arac\u0131d\u0131r \ud83d\ude0a\ud83d\ude0a [ cointurk 8. Projesi ]",
          "total_payout_value": {
              "amount": "12886",
              "nai": "@@000000013",
              "precision": 3
          },
          "total_vote_weight": 0,
          "vote_rshares": 0
      },
      {
          "abs_rshares": 0,
          "active": "2018-01-17T15:37:45",
          "allow_curation_rewards": true,
          "allow_replies": true,
          "allow_votes": true,
          "author": "steemit-01",
          "author_rewards": 264,
          "beneficiaries": [
              {
                  "account": "esteemapp",
                  "weight": 500
              }
          ],
          "body": "Saxo bank analisti kay van-petersen CNBC 2016 aral\u0131k ay\u0131nda yapt\u0131\u011f\u0131 de\u011ferlendirmede 2017 y\u0131l\u0131nda 2000 dolar\u0131 ge\u00e7ece\u011fini s\u00f6ylemi\u015fti. 2018 y\u0131l\u0131nda ise 50.000 ile 100000 dolar olabilece\u011fini s\u00f6yl\u00fcyor.  ![image](https://img.esteem.ws/y1bjrvwcly.jpg)\n\nKaynak:https://www.haberler.com/bitcoin-le-ilgili-cilgin-tahmin-100-bin-dolari-10461899-haberi/",
          "cashout_time": "1969-12-31T23:59:59",
          "category": "tr",
          "children": 0,
          "children_abs_rshares": 0,
          "created": "2018-01-17T15:37:18",
          "curator_payout_value": {
              "amount": "347",
              "nai": "@@000000013",
              "precision": 3
          },
          "depth": 0,
          "id": 26261629,
          "json_metadata": "{\"links\":[\"https://www.haberler.com/bitcoin-le-ilgili-cilgin-tahmin-100-bin-dolari-10461899-haberi/\"],\"image\":[\"https://img.esteem.ws/y1bjrvwcly.jpg\"],\"tags\":[\"tr\",\"bitcoin\",\"cointurk\",\"kripto-para\",\"esteem\"],\"app\":\"esteem/1.5.0\",\"format\":\"markdown+html\",\"community\":\"esteem\"}",
          "last_payout": "2018-01-24T15:37:18",
          "last_update": "2018-01-17T15:37:45",
          "max_accepted_payout": {
              "amount": "1000000000",
              "nai": "@@000000013",
              "precision": 3
          },
          "max_cashout_time": "1969-12-31T23:59:59",
          "net_rshares": 0,
          "net_votes": 6,
          "parent_author": "",
          "parent_permlink": "tr",
          "percent_steem_dollars": 10000,
          "permlink": "bitcoin-i-ilgili-cilgin-tahmin-100-bin-dolari-gececek-ff05005b9b12b",
          "reward_weight": 10000,
          "root_author": "steemit-01",
          "root_permlink": "bitcoin-i-ilgili-cilgin-tahmin-100-bin-dolari-gececek-ff05005b9b12b",
          "title": "Bitcoin'i ilgili \u00e7\u0131lg\u0131n tahmin: 100 bin dolar\u0131 ge\u00e7ecek",
          "total_payout_value": {
              "amount": "1146",
              "nai": "@@000000013",
              "precision": 3
          },
          "total_vote_weight": 0,
          "vote_rshares": 0
      },
      {
          "abs_rshares": 0,
          "active": "2018-02-09T21:31:54",
          "allow_curation_rewards": true,
          "allow_replies": true,
          "allow_votes": true,
          "author": "steemit-01",
          "author_rewards": 2507,
          "beneficiaries": [
              {
                  "account": "esteemapp",
                  "weight": 1000
              }
          ],
          "body": "Bir \u00e7ok resmi i\u015flemlerimizi e devlet sitesinden halledebiliyorken bu hizmetlere bir yenisi eklendi. N\u00fcfus ve vatanda\u015fl\u0131k i\u015fleri genel m\u00fcd\u00fcrl\u00fc\u011f\u00fc e devlet sistemine uygulamay\u0131 entegre etti\u011fini duyurdu. \nSoya\u011fac\u0131 nas\u0131l sorgulan\u0131r?\nE devlet uygulamas\u0131ndan hizmetler b\u00f6l\u00fcm\u00fcne girerek n\u00fcfus ve vatanda\u015fl\u0131k i\u015fleri b\u00f6l\u00fcm\u00fcn alt kategorisinin den soya\u011fac\u0131n\u0131 t\u0131klayarak \u00f6\u011frenebilirsiniz.\n ![image](https://img.esteem.ws/ulrw9d3g3e.jpg)",
          "cashout_time": "1969-12-31T23:59:59",
          "category": "tr",
          "children": 0,
          "children_abs_rshares": 0,
          "created": "2018-02-08T12:59:06",
          "curator_payout_value": {
              "amount": "3490",
              "nai": "@@000000013",
              "precision": 3
          },
          "depth": 0,
          "id": 31239836,
          "json_metadata": "{\"image\":[\"https://img.esteem.ws/ulrw9d3g3e.jpg\"],\"tags\":[\"tr\",\"hayat\"],\"app\":\"steemit/0.1\",\"format\":\"markdown\",\"community\":\"esteem\"}",
          "last_payout": "2018-02-15T12:59:06",
          "last_update": "2018-02-09T21:31:54",
          "max_accepted_payout": {
              "amount": "1000000000",
              "nai": "@@000000013",
              "precision": 3
          },
          "max_cashout_time": "1969-12-31T23:59:59",
          "net_rshares": 0,
          "net_votes": 9,
          "parent_author": "",
          "parent_permlink": "tr",
          "percent_steem_dollars": 10000,
          "permlink": "e-devlet-de-soyagaci-sorgulama-e-devlete-entegre-edildi-e-devley-sistemi-kilitlendi-880490885e2d5",
          "reward_weight": 10000,
          "root_author": "steemit-01",
          "root_permlink": "e-devlet-de-soyagaci-sorgulama-e-devlete-entegre-edildi-e-devley-sistemi-kilitlendi-880490885e2d5",
          "title": "E devlet de soya\u011fac\u0131 sorgulama e devlete entegre edildi e-devlet sistemi kilitlendi",
          "total_payout_value": {
              "amount": "9876",
              "nai": "@@000000013",
              "precision": 3
          },
          "total_vote_weight": 0,
          "vote_rshares": 0
      }
  ]
}