{
  "alice/after-member-comment-to-please-comment-hive1-03": {
    "active_votes": [],
    "author": "alice",
    "author_payout_value": "0.000 HBD",
    "author_reputation": 25,
    "author_role": "member",
    "author_title": "",
    "beneficiaries": [],
    "blacklists": [],
    "body": "Third comment after being member.03",
    "category": "hive-171487",
    "children": 0,
    "community": "hive-171487",
    "community_title": "Banana",
    "created": "2016-09-15T18:02:03",
    "curator_payout_value": "0.000 HBD",
    "depth": 1,
    "is_paidout": false,
    "json_metadata": {},
    "max_accepted_payout": "1000000.000 HBD",
    "net_rshares": 0,
    "parent_author": "test-safari",
    "parent_permlink": "please-comment-hive1-03",
    "payout": 0.0,
    "payout_at": "2016-09-22T18:02:03",
    "pending_payout_value": "0.000 HBD",
    "percent_hbd": 10000,
    "permlink": "after-member-comment-to-please-comment-hive1-03",
    "post_id": 1256966,
    "promoted": "0.000 HBD",
    "replies": [],
    "stats": {
      "flag_weight": 0.0,
      "gray": false,
      "hide": false,
      "total_votes": 0
    },
    "title": "RE: Comment my post03",
    "updated": "2016-09-15T18:02:03",
    "url": "/hive-171487/@test-safari/please-comment-hive1-03#@alice/after-member-comment-to-please-comment-hive1-03"
  },
  "alice/after-muted-comment-to-please-comment-hive1-03": {
    "active_votes": [],
    "author": "alice",
    "author_payout_value": "0.000 HBD",
    "author_reputation": 25,
    "author_role": "member",
    "author_title": "",
    "beneficiaries": [],
    "blacklists": [],
    "body": "Third comment after being muted.03",
    "category": "hive-171487",
    "children": 0,
    "community": "hive-171487",
    "community_title": "Banana",
    "created": "2016-09-15T18:01:51",
    "curator_payout_value": "0.000 HBD",
    "depth": 1,
    "is_paidout": false,
    "json_metadata": {},
    "max_accepted_payout": "1000000.000 HBD",
    "net_rshares": 0,
    "parent_author": "test-safari",
    "parent_permlink": "please-comment-hive1-03",
    "payout": 0.0,
    "payout_at": "2016-09-22T18:01:51",
    "pending_payout_value": "0.000 HBD",
    "percent_hbd": 10000,
    "permlink": "after-muted-comment-to-please-comment-hive1-03",
    "post_id": 1256916,
    "promoted": "0.000 HBD",
    "replies": [],
    "stats": {
      "flag_weight": 0.0,
      "gray": false,
      "hide": false,
      "total_votes": 0
    },
    "title": "RE: Comment my post03",
    "updated": "2016-09-15T18:01:51",
    "url": "/hive-171487/@test-safari/please-comment-hive1-03#@alice/after-muted-comment-to-please-comment-hive1-03"
  },
  "alice/comment-to-please-comment-hive1-03": {
    "active_votes": [],
    "author": "alice",
    "author_payout_value": "0.000 HBD",
    "author_reputation": 25,
    "author_role": "member",
    "author_title": "",
    "beneficiaries": [],
    "blacklists": [],
    "body": "This is my third comment in this community.03",
    "category": "hive-171487",
    "children": 0,
    "community": "hive-171487",
    "community_title": "Banana",
    "created": "2016-09-15T18:01:39",
    "curator_payout_value": "0.000 HBD",
    "depth": 1,
    "is_paidout": false,
    "json_metadata": {},
    "max_accepted_payout": "1000000.000 HBD",
    "net_rshares": 0,
    "parent_author": "test-safari",
    "parent_permlink": "please-comment-hive1-03",
    "payout": 0.0,
    "payout_at": "2016-09-22T18:01:39",
    "pending_payout_value": "0.000 HBD",
    "percent_hbd": 10000,
    "permlink": "comment-to-please-comment-hive1-03",
    "post_id": 1256874,
    "promoted": "0.000 HBD",
    "replies": [],
    "stats": {
      "flag_weight": 0.0,
      "gray": false,
      "hide": false,
      "total_votes": 0
    },
    "title": "RE: Comment my post03",
    "updated": "2016-09-15T18:01:39",
    "url": "/hive-171487/@test-safari/please-comment-hive1-03#@alice/comment-to-please-comment-hive1-03"
  },
  "test-safari/please-comment-hive1-03": {
    "active_votes": [],
    "author": "test-safari",
    "author_payout_value": "0.000 HBD",
    "author_reputation": 25.0,
    "author_role": "admin",
    "author_title": "",
    "beneficiaries": [],
    "blacklists": [],
    "body": "Comment my posts in this community.03",
    "category": "hive-171487",
    "children": 3,
    "community": "hive-171487",
    "community_title": "Banana",
    "created": "2016-09-15T18:01:36",
    "curator_payout_value": "0.000 HBD",
    "depth": 0,
    "is_paidout": false,
    "json_metadata": {},
    "max_accepted_payout": "1000000.000 HBD",
    "net_rshares": 0,
    "payout": 0.0,
    "payout_at": "2016-09-22T18:01:36",
    "pending_payout_value": "0.000 HBD",
    "percent_hbd": 10000,
    "permlink": "please-comment-hive1-03",
    "post_id": 1256859,
    "promoted": "0.000 HBD",
    "replies": [
      "alice/comment-to-please-comment-hive1-03",
      "alice/after-muted-comment-to-please-comment-hive1-03",
      "alice/after-member-comment-to-please-comment-hive1-03"
    ],
    "stats": {
      "flag_weight": 0.0,
      "gray": false,
      "hide": false,
      "total_votes": 0
    },
    "title": "Comment my post03",
    "updated": "2016-09-15T18:01:36",
    "url": "/hive-171487/@test-safari/please-comment-hive1-03"
  }
}
