{
  "alice/after-member-comment-to-please-comment-hive2-02": {
    "active_votes": [],
    "author": "alice",
    "author_payout_value": "0.000 HBD",
    "author_reputation": 25,
    "beneficiaries": [],
    "blacklists": [],
    "body": "Second comment after being member.02",
    "category": "hive-157439",
    "children": 0,
    "created": "2016-09-15T18:02:03",
    "curator_payout_value": "0.000 HBD",
    "depth": 1,
    "is_paidout": false,
    "json_metadata": {},
    "max_accepted_payout": "1000000.000 HBD",
    "net_rshares": 0,
    "parent_author": "test-safari",
    "parent_permlink": "please-comment-hive2-02",
    "payout": 0.0,
    "payout_at": "2016-09-22T18:02:03",
    "pending_payout_value": "0.000 HBD",
    "percent_hbd": 10000,
    "permlink": "after-member-comment-to-please-comment-hive2-02",
    "post_id": 1256968,
    "promoted": "0.000 HBD",
    "replies": [],
    "stats": {
      "flag_weight": 0.0,
      "gray": true,
      "hide": false,
      "total_votes": 0
    },
    "title": "RE: Comment my post02",
    "updated": "2016-09-15T18:02:03",
    "url": "/hive-157439/@test-safari/please-comment-hive2-02#@alice/after-member-comment-to-please-comment-hive2-02"
  },
  "alice/after-muted-comment-to-please-comment-hive2-02": {
    "active_votes": [],
    "author": "alice",
    "author_payout_value": "0.000 HBD",
    "author_reputation": 25,
    "beneficiaries": [],
    "blacklists": [],
    "body": "Second comment after being muted.02",
    "category": "hive-157439",
    "children": 0,
    "created": "2016-09-15T18:01:51",
    "curator_payout_value": "0.000 HBD",
    "depth": 1,
    "is_paidout": false,
    "json_metadata": {},
    "max_accepted_payout": "1000000.000 HBD",
    "net_rshares": 0,
    "parent_author": "test-safari",
    "parent_permlink": "please-comment-hive2-02",
    "payout": 0.0,
    "payout_at": "2016-09-22T18:01:51",
    "pending_payout_value": "0.000 HBD",
    "percent_hbd": 10000,
    "permlink": "after-muted-comment-to-please-comment-hive2-02",
    "post_id": 1256918,
    "promoted": "0.000 HBD",
    "replies": [],
    "stats": {
      "flag_weight": 0.0,
      "gray": true,
      "hide": false,
      "total_votes": 0
    },
    "title": "RE: Comment my post02",
    "updated": "2016-09-15T18:01:51",
    "url": "/hive-157439/@test-safari/please-comment-hive2-02#@alice/after-muted-comment-to-please-comment-hive2-02"
  },
  "alice/comment-to-please-comment-hive2-02": {
    "active_votes": [],
    "author": "alice",
    "author_payout_value": "0.000 HBD",
    "author_reputation": 25,
    "beneficiaries": [],
    "blacklists": [],
    "body": "This is my second comment in this community.02",
    "category": "hive-157439",
    "children": 0,
    "created": "2016-09-15T18:01:39",
    "curator_payout_value": "0.000 HBD",
    "depth": 1,
    "is_paidout": false,
    "json_metadata": {},
    "max_accepted_payout": "1000000.000 HBD",
    "net_rshares": 0,
    "parent_author": "test-safari",
    "parent_permlink": "please-comment-hive2-02",
    "payout": 0.0,
    "payout_at": "2016-09-22T18:01:39",
    "pending_payout_value": "0.000 HBD",
    "percent_hbd": 10000,
    "permlink": "comment-to-please-comment-hive2-02",
    "post_id": 1256876,
    "promoted": "0.000 HBD",
    "replies": [],
    "stats": {
      "flag_weight": 0.0,
      "gray": true,
      "hide": false,
      "total_votes": 0
    },
    "title": "RE: Comment my post02",
    "updated": "2016-09-15T18:01:39",
    "url": "/hive-157439/@test-safari/please-comment-hive2-02#@alice/comment-to-please-comment-hive2-02"
  },
  "test-safari/please-comment-hive2-02": {
    "active_votes": [],
    "author": "test-safari",
    "author_payout_value": "0.000 HBD",
    "author_reputation": 25.0,
    "beneficiaries": [],
    "blacklists": [],
    "body": "Comment my posts in this community.02",
    "category": "hive-157439",
    "children": 3,
    "created": "2016-09-15T18:01:36",
    "curator_payout_value": "0.000 HBD",
    "depth": 0,
    "is_paidout": false,
    "json_metadata": {},
    "max_accepted_payout": "1000000.000 HBD",
    "net_rshares": 0,
    "payout": 0.0,
    "payout_at": "2016-09-22T18:01:36",
    "pending_payout_value": "0.000 HBD",
    "percent_hbd": 10000,
    "permlink": "please-comment-hive2-02",
    "post_id": 1256861,
    "promoted": "0.000 HBD",
    "replies": [
      "alice/comment-to-please-comment-hive2-02",
      "alice/after-muted-comment-to-please-comment-hive2-02",
      "alice/after-member-comment-to-please-comment-hive2-02"
    ],
    "stats": {
      "flag_weight": 0.0,
      "gray": false,
      "hide": false,
      "total_votes": 0
    },
    "title": "Comment my post02",
    "updated": "2016-09-15T18:01:36",
    "url": "/hive-157439/@test-safari/please-comment-hive2-02"
  }
}
