[
  {
    "active_votes": [],
    "author": "alice",
    "author_payout_value": "0.000 HBD",
    "author_reputation": 25,
    "beneficiaries": [],
    "blacklists": [],
    "body": "This is my third post in this community after being member!",
    "category": "hive-198723",
    "children": 0,
    "created": "2016-09-15T18:02:03",
    "curator_payout_value": "0.000 HBD",
    "depth": 0,
    "is_paidout": false,
    "json_metadata": {},
    "max_accepted_payout": "1000000.000 HBD",
    "net_rshares": 0,
    "payout": 0.0,
    "payout_at": "2016-09-22T18:02:03",
    "pending_payout_value": "0.000 HBD",
    "percent_hbd": 10000,
    "permlink": "Third-after-member-post-hive3",
    "post_id": 1256963,
    "promoted": "0.000 HBD",
    "replies": [],
    "stats": {
      "flag_weight": 0.0,
      "gray": false,
      "hide": false,
      "total_votes": 0
    },
    "title": "Hello",
    "updated": "2016-09-15T18:02:03",
    "url": "/hive-198723/@alice/Third-after-member-post-hive3"
  },
  {
    "active_votes": [],
    "author": "alice",
    "author_payout_value": "0.000 HBD",
    "author_reputation": 25,
    "beneficiaries": [],
    "blacklists": [],
    "body": "EDITED. This is my second post in this community after being member!",
    "category": "hive-198723",
    "children": 0,
    "created": "2016-09-15T18:02:03",
    "curator_payout_value": "0.000 HBD",
    "depth": 0,
    "is_paidout": false,
    "json_metadata": {},
    "max_accepted_payout": "1000000.000 HBD",
    "net_rshares": 0,
    "payout": 0.0,
    "payout_at": "2016-09-22T18:02:03",
    "pending_payout_value": "0.000 HBD",
    "percent_hbd": 10000,
    "permlink": "Second-after-member-post-hive3",
    "post_id": 1256960,
    "promoted": "0.000 HBD",
    "replies": [],
    "stats": {
      "flag_weight": 0.0,
      "gray": true,
      "hide": false,
      "total_votes": 0
    },
    "title": "Hello",
    "updated": "2016-09-15T18:02:09",
    "url": "/hive-198723/@alice/Second-after-member-post-hive3"
  },
  {
    "active_votes": [],
    "author": "alice",
    "author_payout_value": "0.000 HBD",
    "author_reputation": 25,
    "beneficiaries": [],
    "blacklists": [],
    "body": "This is my first post in this community after being member!",
    "category": "hive-198723",
    "children": 0,
    "created": "2016-09-15T18:02:03",
    "curator_payout_value": "0.000 HBD",
    "depth": 0,
    "is_paidout": false,
    "json_metadata": {},
    "max_accepted_payout": "1000000.000 HBD",
    "net_rshares": 0,
    "payout": 0.0,
    "payout_at": "2016-09-22T18:02:03",
    "pending_payout_value": "0.000 HBD",
    "percent_hbd": 10000,
    "permlink": "First-after-member-post-hive3",
    "post_id": 1256957,
    "promoted": "0.000 HBD",
    "replies": [],
    "stats": {
      "flag_weight": 0.0,
      "gray": false,
      "hide": false,
      "total_votes": 0
    },
    "title": "Hello",
    "updated": "2016-09-15T18:02:03",
    "url": "/hive-198723/@alice/First-after-member-post-hive3"
  },
  {
    "active_votes": [],
    "author": "alice",
    "author_payout_value": "0.000 HBD",
    "author_reputation": 25,
    "beneficiaries": [],
    "blacklists": [],
    "body": "This is my third post in this community after being muted!",
    "category": "hive-198723",
    "children": 0,
    "created": "2016-09-15T18:01:51",
    "curator_payout_value": "0.000 HBD",
    "depth": 0,
    "is_paidout": false,
    "json_metadata": {},
    "max_accepted_payout": "1000000.000 HBD",
    "net_rshares": 0,
    "payout": 0.0,
    "payout_at": "2016-09-22T18:01:51",
    "pending_payout_value": "0.000 HBD",
    "percent_hbd": 10000,
    "permlink": "Third-after-muted-post-hive3",
    "post_id": 1256913,
    "promoted": "0.000 HBD",
    "replies": [],
    "stats": {
      "flag_weight": 0.0,
      "gray": false,
      "hide": false,
      "total_votes": 0
    },
    "title": "Hello x6",
    "updated": "2016-09-15T18:01:51",
    "url": "/hive-198723/@alice/Third-after-muted-post-hive3"
  },
  {
    "active_votes": [],
    "author": "alice",
    "author_payout_value": "0.000 HBD",
    "author_reputation": 25,
    "beneficiaries": [],
    "blacklists": [],
    "body": "This is my second post in this community after being muted!",
    "category": "hive-198723",
    "children": 0,
    "created": "2016-09-15T18:01:51",
    "curator_payout_value": "0.000 HBD",
    "depth": 0,
    "is_paidout": false,
    "json_metadata": {},
    "max_accepted_payout": "1000000.000 HBD",
    "net_rshares": 0,
    "payout": 0.0,
    "payout_at": "2016-09-22T18:01:51",
    "pending_payout_value": "0.000 HBD",
    "percent_hbd": 10000,
    "permlink": "Second-after-muted-post-hive3",
    "post_id": 1256910,
    "promoted": "0.000 HBD",
    "replies": [],
    "stats": {
      "flag_weight": 0.0,
      "gray": true,
      "hide": false,
      "total_votes": 0
    },
    "title": "Hello x5",
    "updated": "2016-09-15T18:01:51",
    "url": "/hive-198723/@alice/Second-after-muted-post-hive3"
  },
  {
    "active_votes": [],
    "author": "alice",
    "author_payout_value": "0.000 HBD",
    "author_reputation": 25,
    "beneficiaries": [],
    "blacklists": [],
    "body": "This is my first post in this community after being muted!",
    "category": "hive-198723",
    "children": 0,
    "created": "2016-09-15T18:01:51",
    "curator_payout_value": "0.000 HBD",
    "depth": 0,
    "is_paidout": false,
    "json_metadata": {},
    "max_accepted_payout": "1000000.000 HBD",
    "net_rshares": 0,
    "payout": 0.0,
    "payout_at": "2016-09-22T18:01:51",
    "pending_payout_value": "0.000 HBD",
    "percent_hbd": 10000,
    "permlink": "First-after-muted-post-hive3",
    "post_id": 1256907,
    "promoted": "0.000 HBD",
    "replies": [],
    "stats": {
      "flag_weight": 0.0,
      "gray": false,
      "hide": false,
      "total_votes": 0
    },
    "title": "Hello x4",
    "updated": "2016-09-15T18:01:51",
    "url": "/hive-198723/@alice/First-after-muted-post-hive3"
  },
  {
    "active_votes": [],
    "author": "alice",
    "author_payout_value": "0.000 HBD",
    "author_reputation": 25,
    "beneficiaries": [],
    "blacklists": [],
    "body": "This is my third post in this community!",
    "category": "hive-198723",
    "children": 0,
    "created": "2016-09-15T18:01:39",
    "curator_payout_value": "0.000 HBD",
    "depth": 0,
    "is_paidout": false,
    "json_metadata": {},
    "max_accepted_payout": "1000000.000 HBD",
    "net_rshares": 0,
    "payout": 0.0,
    "payout_at": "2016-09-22T18:01:39",
    "pending_payout_value": "0.000 HBD",
    "percent_hbd": 10000,
    "permlink": "My-third-post-hive3",
    "post_id": 1256889,
    "promoted": "0.000 HBD",
    "replies": [],
    "stats": {
      "flag_weight": 0.0,
      "gray": false,
      "hide": false,
      "total_votes": 0
    },
    "title": "Hello x3",
    "updated": "2016-09-15T18:01:39",
    "url": "/hive-198723/@alice/My-third-post-hive3"
  },
  {
    "active_votes": [],
    "author": "alice",
    "author_payout_value": "0.000 HBD",
    "author_reputation": 25,
    "beneficiaries": [],
    "blacklists": [],
    "body": "This is my second post in this community!",
    "category": "hive-198723",
    "children": 1,
    "created": "2016-09-15T18:01:39",
    "curator_payout_value": "0.000 HBD",
    "depth": 0,
    "is_paidout": false,
    "json_metadata": {},
    "max_accepted_payout": "1000000.000 HBD",
    "net_rshares": 0,
    "payout": 0.0,
    "payout_at": "2016-09-22T18:01:39",
    "pending_payout_value": "0.000 HBD",
    "percent_hbd": 10000,
    "permlink": "My-second-post-hive3",
    "post_id": 1256883,
    "promoted": "0.000 HBD",
    "replies": [],
    "stats": {
      "flag_weight": 0.0,
      "gray": true,
      "hide": false,
      "total_votes": 0
    },
    "title": "Hello x2",
    "updated": "2016-09-15T18:01:39",
    "url": "/hive-198723/@alice/My-second-post-hive3"
  },
  {
    "active_votes": [],
    "author": "alice",
    "author_payout_value": "0.000 HBD",
    "author_reputation": 25,
    "beneficiaries": [],
    "blacklists": [],
    "body": "EDITED. This is my first post in this community !",
    "category": "hive-198723",
    "children": 1,
    "created": "2016-09-15T18:01:36",
    "curator_payout_value": "0.000 HBD",
    "depth": 0,
    "is_paidout": false,
    "json_metadata": {},
    "max_accepted_payout": "1000000.000 HBD",
    "net_rshares": 0,
    "payout": 0.0,
    "payout_at": "2016-09-22T18:01:36",
    "pending_payout_value": "0.000 HBD",
    "percent_hbd": 10000,
    "permlink": "My-first-post-hive-3",
    "post_id": 1256868,
    "promoted": "0.000 HBD",
    "replies": [],
    "stats": {
      "flag_weight": 0.0,
      "gray": false,
      "hide": false,
      "total_votes": 0
    },
    "title": "Hello",
    "updated": "2016-09-15T18:01:48",
    "url": "/hive-198723/@alice/My-first-post-hive-3"
  },
  {
    "active_votes": [],
    "author": "test-safari",
    "author_payout_value": "0.000 HBD",
    "author_reputation": 25.0,
    "beneficiaries": [],
    "blacklists": [],
    "body": "Comment my posts in this community.03",
    "category": "hive-198723",
    "children": 3,
    "created": "2016-09-15T18:01:36",
    "curator_payout_value": "0.000 HBD",
    "depth": 0,
    "is_paidout": false,
    "json_metadata": {},
    "max_accepted_payout": "1000000.000 HBD",
    "net_rshares": 0,
    "payout": 0.0,
    "payout_at": "2016-09-22T18:01:36",
    "pending_payout_value": "0.000 HBD",
    "percent_hbd": 10000,
    "permlink": "please-comment-hive3-03",
    "post_id": 1256865,
    "promoted": "0.000 HBD",
    "replies": [],
    "stats": {
      "flag_weight": 0.0,
      "gray": false,
      "hide": false,
      "total_votes": 0
    },
    "title": "Comment my post03",
    "updated": "2016-09-15T18:01:36",
    "url": "/hive-198723/@test-safari/please-comment-hive3-03"
  },
  {
    "active_votes": [],
    "author": "test-safari",
    "author_payout_value": "0.000 HBD",
    "author_reputation": 25.0,
    "beneficiaries": [],
    "blacklists": [],
    "body": "Comment my posts in this community.02",
    "category": "hive-198723",
    "children": 3,
    "created": "2016-09-15T18:01:36",
    "curator_payout_value": "0.000 HBD",
    "depth": 0,
    "is_paidout": false,
    "json_metadata": {},
    "max_accepted_payout": "1000000.000 HBD",
    "net_rshares": 0,
    "payout": 0.0,
    "payout_at": "2016-09-22T18:01:36",
    "pending_payout_value": "0.000 HBD",
    "percent_hbd": 10000,
    "permlink": "please-comment-hive3-02",
    "post_id": 1256864,
    "promoted": "0.000 HBD",
    "replies": [],
    "stats": {
      "flag_weight": 0.0,
      "gray": false,
      "hide": false,
      "total_votes": 0
    },
    "title": "Comment my post02",
    "updated": "2016-09-15T18:01:36",
    "url": "/hive-198723/@test-safari/please-comment-hive3-02"
  },
  {
    "active_votes": [],
    "author": "test-safari",
    "author_payout_value": "0.000 HBD",
    "author_reputation": 25.0,
    "beneficiaries": [],
    "blacklists": [],
    "body": "Comment my posts in this community.01",
    "category": "hive-198723",
    "children": 3,
    "created": "2016-09-15T18:01:36",
    "curator_payout_value": "0.000 HBD",
    "depth": 0,
    "is_paidout": false,
    "json_metadata": {},
    "max_accepted_payout": "1000000.000 HBD",
    "net_rshares": 0,
    "payout": 0.0,
    "payout_at": "2016-09-22T18:01:36",
    "pending_payout_value": "0.000 HBD",
    "percent_hbd": 10000,
    "permlink": "please-comment-hive3",
    "post_id": 1256863,
    "promoted": "0.000 HBD",
    "replies": [],
    "stats": {
      "flag_weight": 0.0,
      "gray": false,
      "hide": false,
      "total_votes": 0
    },
    "title": "Comment my post01",
    "updated": "2016-09-15T18:01:36",
    "url": "/hive-198723/@test-safari/please-comment-hive3"
  },
  {
    "active_votes": [],
    "author": "test-safari",
    "author_payout_value": "0.000 HBD",
    "author_reputation": 25.0,
    "beneficiaries": [],
    "blacklists": [],
    "body": "testing muted people in community",
    "category": "hive-198723",
    "children": 1,
    "created": "2016-09-15T18:01:36",
    "curator_payout_value": "0.000 HBD",
    "depth": 0,
    "is_paidout": false,
    "json_metadata": {},
    "max_accepted_payout": "1000000.000 HBD",
    "net_rshares": 0,
    "payout": 0.0,
    "payout_at": "2016-09-22T18:01:36",
    "pending_payout_value": "0.000 HBD",
    "percent_hbd": 10000,
    "permlink": "parent-post-for-muted-steemit",
    "post_id": 1256858,
    "promoted": "0.000 HBD",
    "replies": [],
    "stats": {
      "flag_weight": 0.0,
      "gray": false,
      "hide": false,
      "total_votes": 0
    },
    "title": "steemit-will-comment-this-post",
    "updated": "2016-09-15T18:01:36",
    "url": "/hive-198723/@test-safari/parent-post-for-muted-steemit"
  },
  {
    "active_votes": [],
    "author": "steemit",
    "author_payout_value": "0.000 HBD",
    "author_reputation": 35.01,
    "beneficiaries": [],
    "blacklists": [],
    "body": "My role do not change",
    "category": "hive-198723",
    "children": 0,
    "created": "2016-09-15T18:01:36",
    "curator_payout_value": "0.000 HBD",
    "depth": 0,
    "is_paidout": false,
    "json_metadata": {},
    "max_accepted_payout": "1000000.000 HBD",
    "net_rshares": 0,
    "payout": 0.0,
    "payout_at": "2016-09-22T18:01:36",
    "pending_payout_value": "0.000 HBD",
    "percent_hbd": 10000,
    "permlink": "muted-in-this-community",
    "post_id": 1256857,
    "promoted": "0.000 HBD",
    "replies": [],
    "stats": {
      "flag_weight": 0.0,
      "gray": true,
      "hide": false,
      "total_votes": 0
    },
    "title": "i am muted in this community",
    "updated": "2016-09-15T18:01:36",
    "url": "/hive-198723/@steemit/muted-in-this-community"
  }
]
