{
  "comments": [
    {
      "abs_rshares": 0,
      "active": "2016-09-04T09:30:09",
      "allow_curation_rewards": true,
      "allow_replies": true,
      "allow_votes": true,
      "author": "gtg",
      "author_rewards": 0,
      "beneficiaries": [],
      "body": "Hello @cwbrooch, welcome to steemit! :-)\n_\"Cat Lover\"_ sounds like an upvote! ;-)",
      "cashout_time": "2016-09-11T09:30:09",
      "category": "introduceyourself",
      "children": 0,
      "children_abs_rshares": 0,
      "created": "2016-09-04T09:30:09",
      "curator_payout_value": {
        "amount": "0",
        "nai": "@@000000013",
        "precision": 3
      },
      "depth": 1,
      "id": 1120694,
      "json_metadata": "{\"tags\":[\"introduceyourself\"],\"users\":[\"cwbrooch\"]}",
      "last_payout": "1970-01-01T00:00:00",
      "last_update": "2016-09-04T09:30:09",
      "max_accepted_payout": {
        "amount": "1000000000",
        "nai": "@@000000013",
        "precision": 3
      },
      "max_cashout_time": "1969-12-31T23:59:59",
      "net_rshares": 0,
      "net_votes": 0,
      "parent_author": "cwbrooch",
      "parent_permlink": "teacher-story-teller-cat-lover-about-me",
      "percent_hbd": 10000,
      "permlink": "re-cwbrooch-teacher-story-teller-cat-lover-about-me-20160904t093005596z",
      "reward_weight": 10000,
      "root_author": "cwbrooch",
      "root_permlink": "teacher-story-teller-cat-lover-about-me",
      "title": "",
      "total_payout_value": {
        "amount": "0",
        "nai": "@@000000013",
        "precision": 3
      },
      "total_vote_weight": 0,
      "vote_rshares": 0
    },
    {
      "abs_rshares": 0,
      "active": "2016-08-31T20:57:24",
      "allow_curation_rewards": true,
      "allow_replies": true,
      "allow_votes": true,
      "author": "gtg",
      "author_rewards": 0,
      "beneficiaries": [],
      "body": "Hello Alex, welcome to steemit! :-)",
      "cashout_time": "2016-09-07T20:57:24",
      "category": "introduceyourself",
      "children": 0,
      "children_abs_rshares": 0,
      "created": "2016-08-31T20:57:24",
      "curator_payout_value": {
        "amount": "0",
        "nai": "@@000000013",
        "precision": 3
      },
      "depth": 1,
      "id": 1076080,
      "json_metadata": "{\"tags\":[\"introduceyourself\"]}",
      "last_payout": "1970-01-01T00:00:00",
      "last_update": "2016-08-31T20:57:24",
      "max_accepted_payout": {
        "amount": "1000000000",
        "nai": "@@000000013",
        "precision": 3
      },
      "max_cashout_time": "1969-12-31T23:59:59",
      "net_rshares": 0,
      "net_votes": 0,
      "parent_author": "amcq",
      "parent_permlink": "hello-steemit-i-m-alex-a-new-member-of-the-steemit-team",
      "percent_hbd": 10000,
      "permlink": "re-amcq-hello-steemit-i-m-alex-a-new-member-of-the-steemit-team-20160831t205719836z",
      "reward_weight": 10000,
      "root_author": "amcq",
      "root_permlink": "hello-steemit-i-m-alex-a-new-member-of-the-steemit-team",
      "title": "",
      "total_payout_value": {
        "amount": "0",
        "nai": "@@000000013",
        "precision": 3
      },
      "total_vote_weight": 0,
      "vote_rshares": 0
    },
    {
      "abs_rshares": 0,
      "active": "2016-08-30T18:47:33",
      "allow_curation_rewards": true,
      "allow_replies": true,
      "allow_votes": true,
      "author": "gtg",
      "author_rewards": 0,
      "beneficiaries": [],
      "body": "Right, now I remember you, @djm34 from #mining :-) Good luck with getting a bounty!",
      "cashout_time": "2016-09-06T18:47:33",
      "category": "steem",
      "children": 0,
      "children_abs_rshares": 0,
      "created": "2016-08-30T18:47:33",
      "curator_payout_value": {
        "amount": "0",
        "nai": "@@000000013",
        "precision": 3
      },
      "depth": 4,
      "id": 1059890,
      "json_metadata": "{\"tags\":[\"mining\",\"steem\"],\"users\":[\"djm34\"]}",
      "last_payout": "1970-01-01T00:00:00",
      "last_update": "2016-08-30T18:47:33",
      "max_accepted_payout": {
        "amount": "1000000000",
        "nai": "@@000000013",
        "precision": 3
      },
      "max_cashout_time": "1969-12-31T23:59:59",
      "net_rshares": 0,
      "net_votes": 0,
      "parent_author": "djm34",
      "parent_permlink": "re-gtg-re-djm34-re-picokernel-bounty-community-bounty-for-open-source-gpu-miner-20160830t170611218z",
      "percent_hbd": 10000,
      "permlink": "re-djm34-re-gtg-re-djm34-re-picokernel-bounty-community-bounty-for-open-source-gpu-miner-20160830t184729782z",
      "reward_weight": 10000,
      "root_author": "picokernel",
      "root_permlink": "bounty-community-bounty-for-open-source-gpu-miner",
      "title": "",
      "total_payout_value": {
        "amount": "0",
        "nai": "@@000000013",
        "precision": 3
      },
      "total_vote_weight": 0,
      "vote_rshares": 0
    },
    {
      "abs_rshares": 91597365165,
      "active": "2016-08-30T18:47:33",
      "allow_curation_rewards": true,
      "allow_replies": true,
      "allow_votes": true,
      "author": "gtg",
      "author_rewards": 41,
      "beneficiaries": [],
      "body": "@djm34 if you don't trust @picokernel (no need to) you are free to make your own statement that you would send some amount directly to a winner. Anyway as you can see in comments, @complexring, well known and reputable witness already said to donate his 250 SBD as a part of the bounty.",
      "cashout_time": "2016-09-06T16:11:12",
      "category": "steem",
      "children": 6,
      "children_abs_rshares": 0,
      "created": "2016-08-30T16:11:12",
      "curator_payout_value": {
        "amount": "0",
        "nai": "@@000000013",
        "precision": 3
      },
      "depth": 2,
      "id": 1057820,
      "json_metadata": "{\"tags\":[\"steem\"],\"users\":[\"djm34\",\"picokernel\",\"complexring\"]}",
      "last_payout": "2016-08-31T17:29:27",
      "last_update": "2016-08-30T16:11:12",
      "max_accepted_payout": {
        "amount": "1000000000",
        "nai": "@@000000013",
        "precision": 3
      },
      "max_cashout_time": "1969-12-31T23:59:59",
      "net_rshares": 91597365165,
      "net_votes": 2,
      "parent_author": "djm34",
      "parent_permlink": "re-picokernel-bounty-community-bounty-for-open-source-gpu-miner-20160830t155929474z",
      "percent_hbd": 10000,
      "permlink": "re-djm34-re-picokernel-bounty-community-bounty-for-open-source-gpu-miner-20160830t161109296z",
      "reward_weight": 10000,
      "root_author": "picokernel",
      "root_permlink": "bounty-community-bounty-for-open-source-gpu-miner",
      "title": "",
      "total_payout_value": {
        "amount": "37",
        "nai": "@@000000013",
        "precision": 3
      },
      "total_vote_weight": 412961736511611715,
      "vote_rshares": 91597365165
    },
    {
      "abs_rshares": 0,
      "active": "2016-08-29T22:45:33",
      "allow_curation_rewards": true,
      "allow_replies": true,
      "allow_votes": true,
      "author": "gtg",
      "author_rewards": 0,
      "beneficiaries": [],
      "body": "Hello @emsenn, welcome to steemit! :-)",
      "cashout_time": "2016-09-05T21:35:24",
      "category": "introduceyourself",
      "children": 1,
      "children_abs_rshares": 0,
      "created": "2016-08-29T21:35:24",
      "curator_payout_value": {
        "amount": "0",
        "nai": "@@000000013",
        "precision": 3
      },
      "depth": 1,
      "id": 1047295,
      "json_metadata": "{\"tags\":[\"introduceyourself\"],\"users\":[\"emsenn\"]}",
      "last_payout": "1970-01-01T00:00:00",
      "last_update": "2016-08-29T21:35:24",
      "max_accepted_payout": {
        "amount": "1000000000",
        "nai": "@@000000013",
        "precision": 3
      },
      "max_cashout_time": "1969-12-31T23:59:59",
      "net_rshares": 0,
      "net_votes": 0,
      "parent_author": "emsenn",
      "parent_permlink": "introducing-myself-bitcoin-early-adopter-content-producer-and-designer",
      "percent_hbd": 10000,
      "permlink": "re-emsenn-introducing-myself-bitcoin-early-adopter-content-producer-and-designer-20160829t213519226z",
      "reward_weight": 10000,
      "root_author": "emsenn",
      "root_permlink": "introducing-myself-bitcoin-early-adopter-content-producer-and-designer",
      "title": "",
      "total_payout_value": {
        "amount": "0",
        "nai": "@@000000013",
        "precision": 3
      },
      "total_vote_weight": 0,
      "vote_rshares": 0
    },
    {
      "abs_rshares": 433291510,
      "active": "2016-08-29T21:24:18",
      "allow_curation_rewards": true,
      "allow_replies": true,
      "allow_votes": true,
      "author": "gtg",
      "author_rewards": 0,
      "beneficiaries": [],
      "body": "Hello Lana, welcome to steemit! :-)",
      "cashout_time": "2016-09-05T21:24:18",
      "category": "introduceyourself",
      "children": 0,
      "children_abs_rshares": 0,
      "created": "2016-08-29T21:24:18",
      "curator_payout_value": {
        "amount": "0",
        "nai": "@@000000013",
        "precision": 3
      },
      "depth": 1,
      "id": 1047119,
      "json_metadata": "{\"tags\":[\"introduceyourself\"]}",
      "last_payout": "1970-01-01T00:00:00",
      "last_update": "2016-08-29T21:24:18",
      "max_accepted_payout": {
        "amount": "1000000000",
        "nai": "@@000000013",
        "precision": 3
      },
      "max_cashout_time": "1969-12-31T23:59:59",
      "net_rshares": 433291510,
      "net_votes": 1,
      "parent_author": "gusevacvetana",
      "parent_permlink": "hello-steemit-verification",
      "percent_hbd": 10000,
      "permlink": "re-gusevacvetana-hello-steemit-verification-20160829t212412908z",
      "reward_weight": 10000,
      "root_author": "gusevacvetana",
      "root_permlink": "hello-steemit-verification",
      "title": "",
      "total_payout_value": {
        "amount": "0",
        "nai": "@@000000013",
        "precision": 3
      },
      "total_vote_weight": 1997987970764087,
      "vote_rshares": 433291510
    },
    {
      "abs_rshares": 0,
      "active": "2016-08-29T19:19:18",
      "allow_curation_rewards": true,
      "allow_replies": true,
      "allow_votes": true,
      "author": "gtg",
      "author_rewards": 0,
      "beneficiaries": [],
      "body": "Hello @artywah, welcome to steemit! :-)\nHint: Adding a picture to your post could make it more appealing.\n( I used my cat for that ;-) )",
      "cashout_time": "2016-09-05T19:19:18",
      "category": "introduceyourself",
      "children": 0,
      "children_abs_rshares": 0,
      "created": "2016-08-29T19:19:18",
      "curator_payout_value": {
        "amount": "0",
        "nai": "@@000000013",
        "precision": 3
      },
      "depth": 1,
      "id": 1045371,
      "json_metadata": "{\"tags\":[\"introduceyourself\"],\"users\":[\"artywah\"]}",
      "last_payout": "1970-01-01T00:00:00",
      "last_update": "2016-08-29T19:19:18",
      "max_accepted_payout": {
        "amount": "1000000000",
        "nai": "@@000000013",
        "precision": 3
      },
      "max_cashout_time": "1969-12-31T23:59:59",
      "net_rshares": 0,
      "net_votes": 0,
      "parent_author": "artywah",
      "parent_permlink": "self-proclaimed-geek-and-digital-ancient-in-melbourne-australia",
      "percent_hbd": 10000,
      "permlink": "re-artywah-self-proclaimed-geek-and-digital-ancient-in-melbourne-australia-20160829t191915549z",
      "reward_weight": 10000,
      "root_author": "artywah",
      "root_permlink": "self-proclaimed-geek-and-digital-ancient-in-melbourne-australia",
      "title": "",
      "total_payout_value": {
        "amount": "0",
        "nai": "@@000000013",
        "precision": 3
      },
      "total_vote_weight": 0,
      "vote_rshares": 0
    },
    {
      "abs_rshares": 0,
      "active": "2016-09-01T14:18:48",
      "allow_curation_rewards": true,
      "allow_replies": true,
      "allow_votes": true,
      "author": "gtg",
      "author_rewards": 0,
      "beneficiaries": [],
      "body": "We have temperate-continental climate. The average annual temperature within last ten years was 8.8\u00b0C (-1.5\u00b0C in Jan to 18\u00b0C in Jul) and yearly rainfall at 600mm. No lemons, but wonderful cherries! :-)",
      "cashout_time": "2016-09-05T07:09:06",
      "category": "food",
      "children": 1,
      "children_abs_rshares": 0,
      "created": "2016-08-29T07:09:06",
      "curator_payout_value": {
        "amount": "0",
        "nai": "@@000000013",
        "precision": 3
      },
      "depth": 3,
      "id": 1038183,
      "json_metadata": "{\"tags\":[\"food\"]}",
      "last_payout": "1970-01-01T00:00:00",
      "last_update": "2016-08-29T07:09:06",
      "max_accepted_payout": {
        "amount": "1000000000",
        "nai": "@@000000013",
        "precision": 3
      },
      "max_cashout_time": "1969-12-31T23:59:59",
      "net_rshares": 0,
      "net_votes": 0,
      "parent_author": "lilmisjenn",
      "parent_permlink": "re-gtg-re-lilmisjenn-do-you-have-a-drinking-problem-20160828t114559502z",
      "percent_hbd": 10000,
      "permlink": "re-lilmisjenn-re-gtg-re-lilmisjenn-do-you-have-a-drinking-problem-20160829t070902349z",
      "reward_weight": 10000,
      "root_author": "lilmisjenn",
      "root_permlink": "do-you-have-a-drinking-problem",
      "title": "",
      "total_payout_value": {
        "amount": "0",
        "nai": "@@000000013",
        "precision": 3
      },
      "total_vote_weight": 0,
      "vote_rshares": 0
    },
    {
      "abs_rshares": 225048455,
      "active": "2016-08-27T19:38:03",
      "allow_curation_rewards": true,
      "allow_replies": true,
      "allow_votes": true,
      "author": "gtg",
      "author_rewards": 0,
      "beneficiaries": [],
      "body": "Hello Ekaterina, welcome to steemit! :-)",
      "cashout_time": "2016-09-03T19:38:03",
      "category": "introduceyourself",
      "children": 0,
      "children_abs_rshares": 0,
      "created": "2016-08-27T19:38:03",
      "curator_payout_value": {
        "amount": "0",
        "nai": "@@000000013",
        "precision": 3
      },
      "depth": 1,
      "id": 1017160,
      "json_metadata": "{\"tags\":[\"introduceyourself\"]}",
      "last_payout": "1970-01-01T00:00:00",
      "last_update": "2016-08-27T19:38:03",
      "max_accepted_payout": {
        "amount": "1000000000",
        "nai": "@@000000013",
        "precision": 3
      },
      "max_cashout_time": "1969-12-31T23:59:59",
      "net_rshares": 225048455,
      "net_votes": 1,
      "parent_author": "fiona777",
      "parent_permlink": "the-unshakable-faith-in-happy-future-for-the-disabled-or-how-to-become-independent-in-spite-of-the-limited-possibilities",
      "percent_hbd": 10000,
      "permlink": "re-fiona777-the-unshakable-faith-in-happy-future-for-the-disabled-or-how-to-become-independent-in-spite-of-the-limited-possibilities-20160827t193800227z",
      "reward_weight": 10000,
      "root_author": "fiona777",
      "root_permlink": "the-unshakable-faith-in-happy-future-for-the-disabled-or-how-to-become-independent-in-spite-of-the-limited-possibilities",
      "title": "",
      "total_payout_value": {
        "amount": "0",
        "nai": "@@000000013",
        "precision": 3
      },
      "total_vote_weight": 1037794424884203,
      "vote_rshares": 225048455
    },
    {
      "abs_rshares": 0,
      "active": "2016-08-27T18:39:45",
      "allow_curation_rewards": true,
      "allow_replies": true,
      "allow_votes": true,
      "author": "gtg",
      "author_rewards": 0,
      "beneficiaries": [],
      "body": "Please use your **active private key** for a miner, instead your owner key.",
      "cashout_time": "2016-09-03T18:39:45",
      "category": "mining",
      "children": 0,
      "children_abs_rshares": 0,
      "created": "2016-08-27T18:39:45",
      "curator_payout_value": {
        "amount": "0",
        "nai": "@@000000013",
        "precision": 3
      },
      "depth": 4,
      "id": 1016370,
      "json_metadata": "{\"tags\":[\"mining\"]}",
      "last_payout": "1970-01-01T00:00:00",
      "last_update": "2016-08-27T18:39:45",
      "max_accepted_payout": {
        "amount": "1000000000",
        "nai": "@@000000013",
        "precision": 3
      },
      "max_cashout_time": "1969-12-31T23:59:59",
      "net_rshares": 0,
      "net_votes": 0,
      "parent_author": "timcliff",
      "parent_permlink": "re-gtg-re-timcliff-re-gtg-missing-rewards-while-mining-20160827t155116406z",
      "percent_hbd": 10000,
      "permlink": "re-timcliff-re-gtg-re-timcliff-re-gtg-missing-rewards-while-mining-20160827t183943508z",
      "reward_weight": 10000,
      "root_author": "gtg",
      "root_permlink": "missing-rewards-while-mining",
      "title": "",
      "total_payout_value": {
        "amount": "0",
        "nai": "@@000000013",
        "precision": 3
      },
      "total_vote_weight": 0,
      "vote_rshares": 0
    }
  ]
}
