{
  "accounts": {
    "roadscape": {
      "blog": [],
      "comments": [
        "roadscape/re-oecp85-steemd-com-reputation-is-0-for-everyone-is-something-happening-20160825t161711408z",
        "roadscape/re-alexgr-re-thecryptodrive-re-ash-what-s-new-on-steemit-com-20160815t005409205z",
        "roadscape/re-laonie-re-mauritso-steemanalytics-it-category-popularity-and-total-payouts-vs-steem-price-20160814t232905254z",
        "roadscape/re-the-ntf-re-smooth-re-barrycooper-re-mikemacintire-re-barrycooper-steem-has-a-severe-glitch-that-likens-it-to-reddit-facebook-and-fox-news-20160812t000339756z",
        "roadscape/re-pharesim-re-heidisiefkas-you-betcha-i-m-on-steemit-if-you-like-adventure-inspiration-travel-and-books-get-to-know-me-heidi-siefkas-seef-kas-20160811t045252263z",
        "roadscape/re-fairytalelife-incorrect-password-20160809t182026786z",
        "roadscape/re-martinwilson20-steemit-needs-improvements-a-few-suggestions-20160808t233726444z",
        "roadscape/re-loganarchy-everyone-is-an-anarchist-they-re-just-inconsistent-ones-20160808t015358873z",
        "roadscape/re-maneco64-my-favourite-books-on-voluntarism-and-the-austrian-school-of-economics-20160807t045803980z",
        "roadscape/re-anarcharos-re-steemedbroccoli-re-anarcharos-re-steemedbroccoli-re-anarcharos-introduction-20160807t033231041z",
        "roadscape/re-silvermoney-steemit-password-system-is-going-to-cause-problems-20160806t170910552z",
        "roadscape/re-alifton-re-roadscape-re-alifton-uhm-seriously-i-know-there-was-a-need-for-spam-reduction-but-wtf-20160806t033632064z",
        "roadscape/re-alifton-uhm-seriously-i-know-there-was-a-need-for-spam-reduction-but-wtf-20160805t181228681z",
        "roadscape/re-kuriko-important-major-problem-ahead-cheating-bug-found-dantheman-ned-20160804t210242108z",
        "roadscape/re-nastrom-attractions-of-new-york-20160802t212046782z",
        "roadscape/re-blakemiles84-bitcoin-maximalism-vs-steem-value-proposition-a-live-debate-20160801t024514408z",
        "roadscape/re-primus-please-help-me-if-i-have-a-steem-brain-key-how-could-i-convert-it-into-password-20160731t165345820z",
        "roadscape/re-ranko-k-re-roadscape-re-ranko-k-links-on-steemit-are-not-safe-20160725t210347006z",
        "roadscape/re-ranko-k-links-on-steemit-are-not-safe-20160725t202813176z",
        "roadscape/re-roadscape-script-check-20160714t152004803z"
      ],
      "created": "2016-04-06 01:03:54",
      "feed": [],
      "json_metadata": "{\"profile\":{\"name\":\"\",\"about\":\"\",\"website\":\"\",\"location\":\"\",\"cover_image\":\"\",\"profile_image\":\"\"}}",
      "name": "roadscape",
      "net_vesting_shares": 0,
      "post_count": 86,
      "recent_replies": [],
      "reputation": 9800209121307,
      "transfer_history": []
    }
  },
  "content": {
    "roadscape/re-alexgr-re-thecryptodrive-re-ash-what-s-new-on-steemit-com-20160815t005409205z": {
      "active_votes": [
        {
          "percent": "10000",
          "reputation": 19959120564829,
          "rshares": 27570728153,
          "voter": "alexgr"
        }
      ],
      "author": "roadscape",
      "author_reputation": 9800209121307,
      "beneficiaries": [],
      "body": "https://github.com/steemit/steemit.com/issues",
      "body_length": 45,
      "cashout_time": "1969-12-31T23:59:59",
      "category": "steemit",
      "children": 1,
      "created": "2016-08-15T00:54:09",
      "curator_payout_value": "0.004 HBD",
      "depth": 3,
      "json_metadata": "{\"tags\":[\"steemit\"],\"links\":[\"https://github.com/steemit/steemit.com/issues\"]}",
      "last_payout": "2016-09-14T05:50:09",
      "last_update": "2016-08-15T00:54:09",
      "max_accepted_payout": "1000000.000 HBD",
      "net_rshares": 27570728153,
      "parent_author": "alexgr",
      "parent_permlink": "re-thecryptodrive-re-ash-what-s-new-on-steemit-com-20160814t190533578z",
      "pending_payout_value": "0.000 HBD",
      "percent_hbd": 10000,
      "permlink": "re-alexgr-re-thecryptodrive-re-ash-what-s-new-on-steemit-com-20160815t005409205z",
      "post_id": 808453,
      "promoted": "0.000 HBD",
      "replies": [],
      "root_title": "What's new on Steemit.com",
      "title": "",
      "total_payout_value": "0.014 HBD",
      "url": "/steemit/@ash/what-s-new-on-steemit-com#@roadscape/re-alexgr-re-thecryptodrive-re-ash-what-s-new-on-steemit-com-20160815t005409205z"
    },
    "roadscape/re-alifton-re-roadscape-re-alifton-uhm-seriously-i-know-there-was-a-need-for-spam-reduction-but-wtf-20160806t033632064z": {
      "active_votes": [
        {
          "percent": "10000",
          "reputation": 661944466048,
          "rshares": 314037701,
          "voter": "alifton"
        }
      ],
      "author": "roadscape",
      "author_reputation": 9800209121307,
      "beneficiaries": [],
      "body": "Here's more information on the bandwidth model. It may not be perfect but it beats paying a fee for every upvote and comment: https://bytemaster.github.io/article/2016/02/10/How-to-build-a-decentralized-application-without-fees/\n\nFor more details see the whitepaper: https://steem.io/SteemWhitePaper.pdf",
      "body_length": 303,
      "cashout_time": "1969-12-31T23:59:59",
      "category": "steem",
      "children": 0,
      "created": "2016-08-06T03:36:33",
      "curator_payout_value": "0.000 HBD",
      "depth": 3,
      "json_metadata": "{\"tags\":[\"steem\"],\"links\":[\"https://bytemaster.github.io/article/2016/02/10/How-to-build-a-decentralized-application-without-fees/\"]}",
      "last_payout": "2016-09-05T06:07:06",
      "last_update": "2016-08-06T03:36:33",
      "max_accepted_payout": "1000000.000 HBD",
      "net_rshares": 314037701,
      "parent_author": "alifton",
      "parent_permlink": "re-roadscape-re-alifton-uhm-seriously-i-know-there-was-a-need-for-spam-reduction-but-wtf-20160805t231037068z",
      "pending_payout_value": "0.000 HBD",
      "percent_hbd": 10000,
      "permlink": "re-alifton-re-roadscape-re-alifton-uhm-seriously-i-know-there-was-a-need-for-spam-reduction-but-wtf-20160806t033632064z",
      "post_id": 639418,
      "promoted": "0.000 HBD",
      "replies": [],
      "root_title": "Uhm, seriously? I know there was a need for spam reduction but WTF?",
      "title": "",
      "total_payout_value": "0.000 HBD",
      "url": "/steem/@alifton/uhm-seriously-i-know-there-was-a-need-for-spam-reduction-but-wtf#@roadscape/re-alifton-re-roadscape-re-alifton-uhm-seriously-i-know-there-was-a-need-for-spam-reduction-but-wtf-20160806t033632064z"
    },
    "roadscape/re-alifton-uhm-seriously-i-know-there-was-a-need-for-spam-reduction-but-wtf-20160805t181228681z": {
      "active_votes": [
        {
          "percent": "10000",
          "reputation": 661944466048,
          "rshares": 313788848,
          "voter": "alifton"
        }
      ],
      "author": "roadscape",
      "author_reputation": 9800209121307,
      "beneficiaries": [],
      "body": "This is caused by posting too much too fast.",
      "body_length": 44,
      "cashout_time": "1969-12-31T23:59:59",
      "category": "steem",
      "children": 2,
      "created": "2016-08-05T18:12:27",
      "curator_payout_value": "0.000 HBD",
      "depth": 1,
      "json_metadata": "{\"tags\":[\"steem\"]}",
      "last_payout": "2016-09-05T06:07:06",
      "last_update": "2016-08-05T18:12:27",
      "max_accepted_payout": "1000000.000 HBD",
      "net_rshares": 313788848,
      "parent_author": "alifton",
      "parent_permlink": "uhm-seriously-i-know-there-was-a-need-for-spam-reduction-but-wtf",
      "pending_payout_value": "0.000 HBD",
      "percent_hbd": 10000,
      "permlink": "re-alifton-uhm-seriously-i-know-there-was-a-need-for-spam-reduction-but-wtf-20160805t181228681z",
      "post_id": 630619,
      "promoted": "0.000 HBD",
      "replies": [],
      "root_title": "Uhm, seriously? I know there was a need for spam reduction but WTF?",
      "title": "",
      "total_payout_value": "0.000 HBD",
      "url": "/steem/@alifton/uhm-seriously-i-know-there-was-a-need-for-spam-reduction-but-wtf#@roadscape/re-alifton-uhm-seriously-i-know-there-was-a-need-for-spam-reduction-but-wtf-20160805t181228681z"
    },
    "roadscape/re-anarcharos-re-steemedbroccoli-re-anarcharos-re-steemedbroccoli-re-anarcharos-introduction-20160807t033231041z": {
      "active_votes": [],
      "author": "roadscape",
      "author_reputation": 9800209121307,
      "beneficiaries": [],
      "body": "Alternatively you could tweet this post, put it on your official facebook, have a note on your site, etc. If you verify your identity you will attract more votes.\n\nAnd -- excellent work. Welcome to Steemit!",
      "body_length": 206,
      "cashout_time": "1969-12-31T23:59:59",
      "category": "introduceyourself",
      "children": 0,
      "created": "2016-08-07T03:32:30",
      "curator_payout_value": "0.000 HBD",
      "depth": 5,
      "json_metadata": "{\"tags\":[\"introduceyourself\"]}",
      "last_payout": "2016-09-06T16:56:39",
      "last_update": "2016-08-07T03:32:30",
      "max_accepted_payout": "1000000.000 HBD",
      "net_rshares": 0,
      "parent_author": "anarcharos",
      "parent_permlink": "re-steemedbroccoli-re-anarcharos-re-steemedbroccoli-re-anarcharos-introduction-20160807t024751384z",
      "pending_payout_value": "0.000 HBD",
      "percent_hbd": 10000,
      "permlink": "re-anarcharos-re-steemedbroccoli-re-anarcharos-re-steemedbroccoli-re-anarcharos-introduction-20160807t033231041z",
      "post_id": 655510,
      "promoted": "0.000 HBD",
      "replies": [],
      "root_title": "Art For Bitcoin",
      "title": "",
      "total_payout_value": "0.000 HBD",
      "url": "/introduceyourself/@anarcharos/introduction#@roadscape/re-anarcharos-re-steemedbroccoli-re-anarcharos-re-steemedbroccoli-re-anarcharos-introduction-20160807t033231041z"
    },
    "roadscape/re-blakemiles84-bitcoin-maximalism-vs-steem-value-proposition-a-live-debate-20160801t024514408z": {
      "active_votes": [],
      "author": "roadscape",
      "author_reputation": 9800209121307,
      "beneficiaries": [],
      "body": "Here's the hangout:  \nhttps://steemit.com/steem/@satoshifpv/live-debate-about-steem",
      "body_length": 83,
      "cashout_time": "1969-12-31T23:59:59",
      "category": "steemit",
      "children": 0,
      "created": "2016-08-01T02:45:15",
      "curator_payout_value": "0.000 HBD",
      "depth": 1,
      "json_metadata": "{\"tags\":[\"steemit\"],\"links\":[\"https://steemit.com/steem/@satoshifpv/live-debate-about-steem\"]}",
      "last_payout": "2016-08-30T18:29:09",
      "last_update": "2016-08-01T02:45:15",
      "max_accepted_payout": "1000000.000 HBD",
      "net_rshares": 0,
      "parent_author": "blakemiles84",
      "parent_permlink": "bitcoin-maximalism-vs-steem-value-proposition-a-live-debate",
      "pending_payout_value": "0.000 HBD",
      "percent_hbd": 10000,
      "permlink": "re-blakemiles84-bitcoin-maximalism-vs-steem-value-proposition-a-live-debate-20160801t024514408z",
      "post_id": 525561,
      "promoted": "0.000 HBD",
      "replies": [],
      "root_title": "Live Debate! A Bitcoin Maximalist vs Steem Dolphin",
      "title": "",
      "total_payout_value": "0.000 HBD",
      "url": "/steemit/@blakemiles84/bitcoin-maximalism-vs-steem-value-proposition-a-live-debate#@roadscape/re-blakemiles84-bitcoin-maximalism-vs-steem-value-proposition-a-live-debate-20160801t024514408z"
    },
    "roadscape/re-fairytalelife-incorrect-password-20160809t182026786z": {
      "active_votes": [
        {
          "percent": "100",
          "reputation": 85602977273,
          "rshares": 28849752838,
          "voter": "anonymous"
        },
        {
          "percent": "10000",
          "reputation": 13823888326286,
          "rshares": 14046189493625,
          "voter": "summon"
        },
        {
          "percent": "10000",
          "reputation": 9800209121307,
          "rshares": 3936707436802,
          "voter": "roadscape"
        },
        {
          "percent": "10000",
          "reputation": 1214229078,
          "rshares": 3077679839,
          "voter": "boy"
        },
        {
          "percent": "10000",
          "reputation": 4712949449,
          "rshares": 3734910121,
          "voter": "bue-witness"
        },
        {
          "percent": "10000",
          "reputation": 1789951494550,
          "rshares": 571530592,
          "voter": "bunny"
        },
        {
          "percent": "10000",
          "reputation": 103443134841,
          "rshares": 51367554316,
          "voter": "bue"
        },
        {
          "percent": "10000",
          "reputation": 0,
          "rshares": 1650027231,
          "voter": "mini"
        },
        {
          "percent": "10000",
          "reputation": 0,
          "rshares": 166962110,
          "voter": "moon"
        },
        {
          "percent": "10000",
          "reputation": 0,
          "rshares": 612319770,
          "voter": "healthcare"
        },
        {
          "percent": "10000",
          "reputation": 0,
          "rshares": 704970265,
          "voter": "daniel.pan"
        },
        {
          "percent": "10000",
          "reputation": 0,
          "rshares": 229643844,
          "voter": "helen.tan"
        },
        {
          "percent": "10000",
          "reputation": 57643429300793,
          "rshares": 214164598366,
          "voter": "roelandp"
        },
        {
          "percent": "10000",
          "reputation": 17484609383217,
          "rshares": 72691452551,
          "voter": "robrigo"
        },
        {
          "percent": "10000",
          "reputation": 1804907957838,
          "rshares": 1233826570,
          "voter": "belkins"
        },
        {
          "percent": "10000",
          "reputation": 237482268650,
          "rshares": 62331160,
          "voter": "globe"
        },
        {
          "percent": "10000",
          "reputation": 5939157149097,
          "rshares": 4124010335,
          "voter": "elissahawke"
        },
        {
          "percent": "10000",
          "reputation": 935392942,
          "rshares": 55225705,
          "voter": "veox"
        },
        {
          "percent": "10000",
          "reputation": 14582441571,
          "rshares": 53838783,
          "voter": "marz.steemit"
        },
        {
          "percent": "10000",
          "reputation": 8859041042380,
          "rshares": 20338043478,
          "voter": "natureofbeing"
        }
      ],
      "author": "roadscape",
      "author_reputation": 9800209121307,
      "beneficiaries": [],
      "body": "The account owner authority on the account was updated twice, which means you may have up to 3 passwords which could be used for recovery. **Any owner key or owner key password going as far back as July 14th would allow you to recover the account through the [account recovery form](https://steemit.com/recover_account_step_1).**\n\nLast I heard, you were looking for your original signup password. Have you had any luck finding it?\n\n----\n\nIf none of your passwords work:\n1) How did you generate each one?\n2) *Are there any passwords you set by typing in manually?*\n\nIf you entered in any passwords by hand (i.e. without copy and paste), it's *very* easy to be off by a character. If it was written down, it's very likely at least one letter was written (or read) incorrectly. **If that's the case, the good news is that it may be possible to brute-force.** If you know that one one of your passwords is off by no more than 1 or 2 characters, a trusted programmer can help you brute force the password.\n\n----\n\nPlease note, the fact that there are *any* recovery tools on the STEEM blockchain is a big step forward. This is what can happen in the blockchain world when you lose your private keys: [$7.5M Bitcoin fortune buried in landfill](http://www.usatoday.com/story/news/world/2013/11/28/newser-bitcoin-landfill/3775271/). This unforgiving rigidness may be alarming for the average user, but it must be carefully balanced with censorship resistance, because the power to recover is the power to control. So it is important to be very conservative in this respect, though I do expect the team to keep making strides in recovery methods.",
      "body_length": 1636,
      "cashout_time": "1969-12-31T23:59:59",
      "category": "steemit",
      "children": 0,
      "created": "2016-08-09T18:20:27",
      "curator_payout_value": "6.859 HBD",
      "depth": 1,
      "json_metadata": "{\"tags\":[\"steemit\"],\"links\":[\"https://steemit.com/recover_account_step_1\"]}",
      "last_payout": "2016-09-09T07:10:33",
      "last_update": "2016-08-09T18:20:27",
      "max_accepted_payout": "1000000.000 HBD",
      "net_rshares": 18386585608301,
      "parent_author": "fairytalelife",
      "parent_permlink": "incorrect-password",
      "pending_payout_value": "0.000 HBD",
      "percent_hbd": 10000,
      "permlink": "re-fairytalelife-incorrect-password-20160809t182026786z",
      "post_id": 708237,
      "promoted": "0.000 HBD",
      "replies": [],
      "root_title": "Incorrect Password",
      "title": "",
      "total_payout_value": "61.720 HBD",
      "url": "/steemit/@fairytalelife/incorrect-password#@roadscape/re-fairytalelife-incorrect-password-20160809t182026786z"
    },
    "roadscape/re-kuriko-important-major-problem-ahead-cheating-bug-found-dantheman-ned-20160804t210242108z": {
      "active_votes": [
        {
          "percent": "100",
          "reputation": 9800209121307,
          "rshares": 124021656203,
          "voter": "roadscape"
        },
        {
          "percent": "10000",
          "reputation": 4629657881925,
          "rshares": 10010095525,
          "voter": "kuriko"
        }
      ],
      "author": "roadscape",
      "author_reputation": 9800209121307,
      "beneficiaries": [],
      "body": "Since the transaction failed, it was never added to the blockchain, which means it could not have affected any payouts.\n\nIf this was a true bug, we would be able to see many duplicate votes on the same post from your account here: https://steemd.com/@kuriko\n\nThis could be a UI glitch, but more likely just slow fluctuations in price. Even if the vote fails, it may update the current payout value, giving the false impression it was you who made the payout change.",
      "body_length": 465,
      "cashout_time": "1969-12-31T23:59:59",
      "category": "steemit",
      "children": 1,
      "created": "2016-08-04T21:02:42",
      "curator_payout_value": "0.002 HBD",
      "depth": 1,
      "json_metadata": "{\"tags\":[\"steemit\"],\"links\":[\"https://steemd.com/@kuriko\"]}",
      "last_payout": "2016-09-04T09:35:42",
      "last_update": "2016-08-04T21:02:42",
      "max_accepted_payout": "1000000.000 HBD",
      "net_rshares": 134031751728,
      "parent_author": "kuriko",
      "parent_permlink": "important-major-problem-ahead-cheating-bug-found-dantheman-ned",
      "pending_payout_value": "0.000 HBD",
      "percent_hbd": 10000,
      "permlink": "re-kuriko-important-major-problem-ahead-cheating-bug-found-dantheman-ned-20160804t210242108z",
      "post_id": 610041,
      "promoted": "0.000 HBD",
      "replies": [],
      "root_title": "IMPORTANT MAJOR BUG DISCOVERED : turned to be a small glitch which apparently have no permanent effect",
      "title": "",
      "total_payout_value": "0.138 HBD",
      "url": "/steemit/@kuriko/important-major-problem-ahead-cheating-bug-found-dantheman-ned#@roadscape/re-kuriko-important-major-problem-ahead-cheating-bug-found-dantheman-ned-20160804t210242108z"
    },
    "roadscape/re-laonie-re-mauritso-steemanalytics-it-category-popularity-and-total-payouts-vs-steem-price-20160814t232905254z": {
      "active_votes": [],
      "author": "roadscape",
      "author_reputation": 9800209121307,
      "beneficiaries": [],
      "body": "Check out https://steemd.com/distribution -- \"active users\" is defined as votes or comments in a given period. Registrations themselves do not count",
      "body_length": 148,
      "cashout_time": "1969-12-31T23:59:59",
      "category": "steem",
      "children": 0,
      "created": "2016-08-14T23:29:06",
      "curator_payout_value": "0.000 HBD",
      "depth": 2,
      "json_metadata": "{\"tags\":[\"steem\"],\"links\":[\"https://steemd.com/distribution\"]}",
      "last_payout": "2016-09-13T15:17:21",
      "last_update": "2016-08-14T23:29:06",
      "max_accepted_payout": "1000000.000 HBD",
      "net_rshares": 0,
      "parent_author": "laonie",
      "parent_permlink": "re-mauritso-steemanalytics-it-category-popularity-and-total-payouts-vs-steem-price-20160813t212638387z",
      "pending_payout_value": "0.000 HBD",
      "percent_hbd": 10000,
      "permlink": "re-laonie-re-mauritso-steemanalytics-it-category-popularity-and-total-payouts-vs-steem-price-20160814t232905254z",
      "post_id": 807209,
      "promoted": "0.000 HBD",
      "replies": [],
      "root_title": "Steemanalytics.it - Category popularity and total payouts vs. STEEM price",
      "title": "",
      "total_payout_value": "0.000 HBD",
      "url": "/steem/@mauritso/steemanalytics-it-category-popularity-and-total-payouts-vs-steem-price#@roadscape/re-laonie-re-mauritso-steemanalytics-it-category-popularity-and-total-payouts-vs-steem-price-20160814t232905254z"
    },
    "roadscape/re-loganarchy-everyone-is-an-anarchist-they-re-just-inconsistent-ones-20160808t015358873z": {
      "active_votes": [],
      "author": "roadscape",
      "author_reputation": 9800209121307,
      "beneficiaries": [],
      "body": "Welcome! Quick tip: to optimize post payouts, it's best to post no more than 4 articles per day. Starting with the 5th post in a 24hr period, the payout begins to be capped.",
      "body_length": 173,
      "cashout_time": "1969-12-31T23:59:59",
      "category": "anarchism",
      "children": 0,
      "created": "2016-08-08T01:53:57",
      "curator_payout_value": "0.000 HBD",
      "depth": 1,
      "json_metadata": "{\"tags\":[\"anarchism\"]}",
      "last_payout": "2016-09-07T12:10:45",
      "last_update": "2016-08-08T01:53:57",
      "max_accepted_payout": "1000000.000 HBD",
      "net_rshares": 0,
      "parent_author": "loganarchy",
      "parent_permlink": "everyone-is-an-anarchist-they-re-just-inconsistent-ones",
      "pending_payout_value": "0.000 HBD",
      "percent_hbd": 10000,
      "permlink": "re-loganarchy-everyone-is-an-anarchist-they-re-just-inconsistent-ones-20160808t015358873z",
      "post_id": 674619,
      "promoted": "0.000 HBD",
      "replies": [],
      "root_title": "Everyone is an Anarchist. They're Just Inconsistent Ones.",
      "title": "",
      "total_payout_value": "0.000 HBD",
      "url": "/anarchism/@loganarchy/everyone-is-an-anarchist-they-re-just-inconsistent-ones#@roadscape/re-loganarchy-everyone-is-an-anarchist-they-re-just-inconsistent-ones-20160808t015358873z"
    },
    "roadscape/re-maneco64-my-favourite-books-on-voluntarism-and-the-austrian-school-of-economics-20160807t045803980z": {
      "active_votes": [
        {
          "percent": "10000",
          "reputation": 3750669747284,
          "rshares": 191330751503,
          "voter": "pal"
        }
      ],
      "author": "roadscape",
      "author_reputation": 9800209121307,
      "beneficiaries": [],
      "body": "Welcome to steemit! Quick tip: to maximize your rewards you'll want to post no more than 4 articles per day. The 5th article limits the payout to approx 80%, and it gradually goes down from there.",
      "body_length": 196,
      "cashout_time": "1969-12-31T23:59:59",
      "category": "books",
      "children": 1,
      "created": "2016-08-07T04:58:03",
      "curator_payout_value": "0.043 HBD",
      "depth": 1,
      "json_metadata": "{\"tags\":[\"books\"]}",
      "last_payout": "2016-09-06T16:47:42",
      "last_update": "2016-08-07T04:58:03",
      "max_accepted_payout": "1000000.000 HBD",
      "net_rshares": 191330751503,
      "parent_author": "maneco64",
      "parent_permlink": "my-favourite-books-on-voluntarism-and-the-austrian-school-of-economics",
      "pending_payout_value": "0.000 HBD",
      "percent_hbd": 10000,
      "permlink": "re-maneco64-my-favourite-books-on-voluntarism-and-the-austrian-school-of-economics-20160807t045803980z",
      "post_id": 656515,
      "promoted": "0.000 HBD",
      "replies": [],
      "root_title": "My Favourite Books on Voluntarism and the Austrian School of Economics.",
      "title": "",
      "total_payout_value": "0.132 HBD",
      "url": "/books/@maneco64/my-favourite-books-on-voluntarism-and-the-austrian-school-of-economics#@roadscape/re-maneco64-my-favourite-books-on-voluntarism-and-the-austrian-school-of-economics-20160807t045803980z"
    },
    "roadscape/re-martinwilson20-steemit-needs-improvements-a-few-suggestions-20160808t233726444z": {
      "active_votes": [],
      "author": "roadscape",
      "author_reputation": 9800209121307,
      "beneficiaries": [],
      "body": "For help go to https://steemit.chat/",
      "body_length": 36,
      "cashout_time": "1969-12-31T23:59:59",
      "category": "steemit",
      "children": 1,
      "created": "2016-08-08T23:37:27",
      "curator_payout_value": "0.000 HBD",
      "depth": 1,
      "json_metadata": "{\"tags\":[\"steemit\"],\"links\":[\"https://steemit.chat/\"]}",
      "last_payout": "2016-09-08T11:27:57",
      "last_update": "2016-08-08T23:37:27",
      "max_accepted_payout": "1000000.000 HBD",
      "net_rshares": 0,
      "parent_author": "martinwilson20",
      "parent_permlink": "steemit-needs-improvements-a-few-suggestions",
      "pending_payout_value": "0.000 HBD",
      "percent_hbd": 10000,
      "permlink": "re-martinwilson20-steemit-needs-improvements-a-few-suggestions-20160808t233726444z",
      "post_id": 693062,
      "promoted": "0.000 HBD",
      "replies": [],
      "root_title": "Steemit needs improvements - a few suggestions",
      "title": "",
      "total_payout_value": "0.000 HBD",
      "url": "/steemit/@martinwilson20/steemit-needs-improvements-a-few-suggestions#@roadscape/re-martinwilson20-steemit-needs-improvements-a-few-suggestions-20160808t233726444z"
    },
    "roadscape/re-nastrom-attractions-of-new-york-20160802t212046782z": {
      "active_votes": [],
      "author": "roadscape",
      "author_reputation": 9800209121307,
      "beneficiaries": [],
      "body": "Appears to have been translated/copied from here: http://blog.elenazaharova.com/post/travel-in-new-york",
      "body_length": 103,
      "cashout_time": "1969-12-31T23:59:59",
      "category": "travel",
      "children": 0,
      "created": "2016-08-02T21:20:48",
      "curator_payout_value": "0.000 HBD",
      "depth": 1,
      "json_metadata": "{\"tags\":[\"travel\"],\"links\":[\"http://blog.elenazaharova.com/post/travel-in-new-york\"]}",
      "last_payout": "2016-08-31T08:23:15",
      "last_update": "2016-08-02T21:20:48",
      "max_accepted_payout": "1000000.000 HBD",
      "net_rshares": 0,
      "parent_author": "nastrom",
      "parent_permlink": "attractions-of-new-york",
      "pending_payout_value": "0.000 HBD",
      "percent_hbd": 10000,
      "permlink": "re-nastrom-attractions-of-new-york-20160802t212046782z",
      "post_id": 567600,
      "promoted": "0.000 HBD",
      "replies": [],
      "root_title": "Attractions Of New York",
      "title": "",
      "total_payout_value": "0.000 HBD",
      "url": "/travel/@nastrom/attractions-of-new-york#@roadscape/re-nastrom-attractions-of-new-york-20160802t212046782z"
    },
    "roadscape/re-oecp85-steemd-com-reputation-is-0-for-everyone-is-something-happening-20160825t161711408z": {
      "active_votes": [
        {
          "percent": "10000",
          "reputation": 715914588623,
          "rshares": 1060887348,
          "voter": "oecp85"
        },
        {
          "percent": "10000",
          "reputation": 4835399333,
          "rshares": 1745651878,
          "voter": "thelocal"
        },
        {
          "percent": "10000",
          "reputation": -373198720,
          "rshares": 159638900,
          "voter": "mityay"
        }
      ],
      "author": "roadscape",
      "author_reputation": 9800209121307,
      "beneficiaries": [],
      "body": "There was a network issue earlier today, and the plugin which generates some of these stats had to be disabled. It will be back soon!",
      "body_length": 133,
      "cashout_time": "2016-09-01T16:17:09",
      "category": "steem-help",
      "children": 2,
      "created": "2016-08-25T16:17:09",
      "curator_payout_value": "0.000 HBD",
      "depth": 1,
      "json_metadata": "{\"tags\":[\"steem-help\"]}",
      "last_payout": "1969-12-31T23:59:59",
      "last_update": "2016-08-25T16:17:09",
      "max_accepted_payout": "1000000.000 HBD",
      "net_rshares": 2966178126,
      "parent_author": "oecp85",
      "parent_permlink": "steemd-com-reputation-is-0-for-everyone-is-something-happening",
      "pending_payout_value": "0.000 HBD",
      "percent_hbd": 10000,
      "permlink": "re-oecp85-steemd-com-reputation-is-0-for-everyone-is-something-happening-20160825t161711408z",
      "post_id": 983368,
      "promoted": "0.000 HBD",
      "replies": [],
      "root_title": "Steemd.com Reputation is 0 for everyone, is something happening??",
      "title": "",
      "total_payout_value": "0.000 HBD",
      "url": "/steem-help/@oecp85/steemd-com-reputation-is-0-for-everyone-is-something-happening#@roadscape/re-oecp85-steemd-com-reputation-is-0-for-everyone-is-something-happening-20160825t161711408z"
    },
    "roadscape/re-pharesim-re-heidisiefkas-you-betcha-i-m-on-steemit-if-you-like-adventure-inspiration-travel-and-books-get-to-know-me-heidi-siefkas-seef-kas-20160811t045252263z": {
      "active_votes": [
        {
          "percent": "10000",
          "reputation": 174546453,
          "rshares": 57828280,
          "voter": "attacheguevera"
        }
      ],
      "author": "roadscape",
      "author_reputation": 9800209121307,
      "beneficiaries": [],
      "body": "https://twitter.com/HeidiSiefkas/status/763553761977524229",
      "body_length": 58,
      "cashout_time": "1969-12-31T23:59:59",
      "category": "introduceyourself",
      "children": 1,
      "created": "2016-08-11T04:52:51",
      "curator_payout_value": "0.000 HBD",
      "depth": 2,
      "json_metadata": "{\"tags\":[\"introduceyourself\"],\"links\":[\"https://twitter.com/HeidiSiefkas/status/763553761977524229\"]}",
      "last_payout": "2016-09-10T17:37:45",
      "last_update": "2016-08-11T04:52:51",
      "max_accepted_payout": "1000000.000 HBD",
      "net_rshares": 57828280,
      "parent_author": "pharesim",
      "parent_permlink": "re-heidisiefkas-you-betcha-i-m-on-steemit-if-you-like-adventure-inspiration-travel-and-books-get-to-know-me-heidi-siefkas-seef-kas-20160811t023811823z",
      "pending_payout_value": "0.000 HBD",
      "percent_hbd": 10000,
      "permlink": "re-pharesim-re-heidisiefkas-you-betcha-i-m-on-steemit-if-you-like-adventure-inspiration-travel-and-books-get-to-know-me-heidi-siefkas-seef-kas-20160811t045252263z",
      "post_id": 739982,
      "promoted": "0.000 HBD",
      "replies": [],
      "root_title": "You Betcha I\u2019m on Steemit \u2013 If you like Adventure, Inspiration, Travel, and Books, Get to Know Me, Heidi Siefkas (Seef-kas)",
      "title": "",
      "total_payout_value": "0.000 HBD",
      "url": "/introduceyourself/@heidisiefkas/you-betcha-i-m-on-steemit-if-you-like-adventure-inspiration-travel-and-books-get-to-know-me-heidi-siefkas-seef-kas#@roadscape/re-pharesim-re-heidisiefkas-you-betcha-i-m-on-steemit-if-you-like-adventure-inspiration-travel-and-books-get-to-know-me-heidi-siefkas-seef-kas-20160811t045252263z"
    },
    "roadscape/re-primus-please-help-me-if-i-have-a-steem-brain-key-how-could-i-convert-it-into-password-20160731t165345820z": {
      "active_votes": [],
      "author": "roadscape",
      "author_reputation": 9800209121307,
      "beneficiaries": [],
      "body": "When an account is created through mining, all keys are the same. They would have to be manually updated. If you did not update them then you need to recover your account ASAP.",
      "body_length": 176,
      "cashout_time": "1969-12-31T23:59:59",
      "category": "steem-help",
      "children": 2,
      "created": "2016-07-31T16:53:45",
      "curator_payout_value": "0.000 HBD",
      "depth": 1,
      "json_metadata": "{\"tags\":[\"steem-help\"]}",
      "last_payout": "2016-08-30T05:04:36",
      "last_update": "2016-07-31T16:53:45",
      "max_accepted_payout": "1000000.000 HBD",
      "net_rshares": 0,
      "parent_author": "primus",
      "parent_permlink": "please-help-me-if-i-have-a-steem-brain-key-how-could-i-convert-it-into-password",
      "pending_payout_value": "0.000 HBD",
      "percent_hbd": 10000,
      "permlink": "re-primus-please-help-me-if-i-have-a-steem-brain-key-how-could-i-convert-it-into-password-20160731t165345820z",
      "post_id": 514562,
      "promoted": "0.000 HBD",
      "replies": [],
      "root_title": "Please help me! If I have a STEEM brain key how could I convert it into password?",
      "title": "",
      "total_payout_value": "0.000 HBD",
      "url": "/steem-help/@primus/please-help-me-if-i-have-a-steem-brain-key-how-could-i-convert-it-into-password#@roadscape/re-primus-please-help-me-if-i-have-a-steem-brain-key-how-could-i-convert-it-into-password-20160731t165345820z"
    },
    "roadscape/re-ranko-k-links-on-steemit-are-not-safe-20160725t202813176z": {
      "active_votes": [
        {
          "percent": "10000",
          "reputation": 9800209121307,
          "rshares": 5889423927602,
          "voter": "roadscape"
        },
        {
          "percent": "10000",
          "reputation": 1214229078,
          "rshares": 4286778590,
          "voter": "boy"
        },
        {
          "percent": "10000",
          "reputation": 4712949449,
          "rshares": 11137895110,
          "voter": "bue-witness"
        },
        {
          "percent": "10000",
          "reputation": 103443134841,
          "rshares": 147386052266,
          "voter": "bue"
        },
        {
          "percent": "10000",
          "reputation": 0,
          "rshares": 4924584258,
          "voter": "mini"
        },
        {
          "percent": "10000",
          "reputation": 0,
          "rshares": 1822708396,
          "voter": "healthcare"
        },
        {
          "percent": "10000",
          "reputation": 0,
          "rshares": 857356400,
          "voter": "helen.tan"
        },
        {
          "percent": "10000",
          "reputation": 0,
          "rshares": 76040352699,
          "voter": "jatochnietdan"
        },
        {
          "percent": "10000",
          "reputation": 2619388406406,
          "rshares": 219658607,
          "voter": "vlad"
        },
        {
          "percent": "10000",
          "reputation": 11035621314018,
          "rshares": 2826451063,
          "voter": "darkb4dawn"
        },
        {
          "percent": "10000",
          "reputation": 6380056335097,
          "rshares": 1392598440,
          "voter": "randyclemens"
        }
      ],
      "author": "roadscape",
      "author_reputation": 9800209121307,
      "beneficiaries": [],
      "body": "Steemit.com already uses rel=\"noopener\"",
      "body_length": 39,
      "cashout_time": "1969-12-31T23:59:59",
      "category": "steemit",
      "children": 2,
      "created": "2016-07-25T20:28:12",
      "curator_payout_value": "0.046 HBD",
      "depth": 1,
      "json_metadata": "{\"tags\":[\"steemit\"]}",
      "last_payout": "2016-08-25T21:50:15",
      "last_update": "2016-07-25T20:28:12",
      "max_accepted_payout": "1000000.000 HBD",
      "net_rshares": 6140318363431,
      "parent_author": "ranko-k",
      "parent_permlink": "links-on-steemit-are-not-safe",
      "pending_payout_value": "0.000 HBD",
      "percent_hbd": 10000,
      "permlink": "re-ranko-k-links-on-steemit-are-not-safe-20160725t202813176z",
      "post_id": 356378,
      "promoted": "0.000 HBD",
      "replies": [],
      "root_title": "Links on Steemit are not safe",
      "title": "",
      "total_payout_value": "24.650 HBD",
      "url": "/steemit/@ranko-k/links-on-steemit-are-not-safe#@roadscape/re-ranko-k-links-on-steemit-are-not-safe-20160725t202813176z"
    },
    "roadscape/re-ranko-k-re-roadscape-re-ranko-k-links-on-steemit-are-not-safe-20160725t210347006z": {
      "active_votes": [
        {
          "percent": "10000",
          "reputation": 14430883217,
          "rshares": 366295121,
          "voter": "kamvreto"
        },
        {
          "percent": "10000",
          "reputation": 5904057835766,
          "rshares": 42721950252,
          "voter": "ranko-k"
        },
        {
          "percent": "10000",
          "reputation": 0,
          "rshares": 76040352699,
          "voter": "jatochnietdan"
        },
        {
          "percent": "10000",
          "reputation": 11035621314018,
          "rshares": 2826451063,
          "voter": "darkb4dawn"
        }
      ],
      "author": "roadscape",
      "author_reputation": 9800209121307,
      "beneficiaries": [],
      "body": "Thanks, `target=_blank` will be removed from Steemit.com external links.",
      "body_length": 72,
      "cashout_time": "1969-12-31T23:59:59",
      "category": "steemit",
      "children": 0,
      "created": "2016-07-25T21:03:45",
      "curator_payout_value": "0.032 HBD",
      "depth": 3,
      "json_metadata": "{\"tags\":[\"steemit\"]}",
      "last_payout": "2016-08-25T21:50:15",
      "last_update": "2016-07-25T21:03:45",
      "max_accepted_payout": "1000000.000 HBD",
      "net_rshares": 121955049135,
      "parent_author": "ranko-k",
      "parent_permlink": "re-roadscape-re-ranko-k-links-on-steemit-are-not-safe-20160725t203046330z",
      "pending_payout_value": "0.000 HBD",
      "percent_hbd": 10000,
      "permlink": "re-ranko-k-re-roadscape-re-ranko-k-links-on-steemit-are-not-safe-20160725t210347006z",
      "post_id": 357369,
      "promoted": "0.000 HBD",
      "replies": [],
      "root_title": "Links on Steemit are not safe",
      "title": "",
      "total_payout_value": "0.164 HBD",
      "url": "/steemit/@ranko-k/links-on-steemit-are-not-safe#@roadscape/re-ranko-k-re-roadscape-re-ranko-k-links-on-steemit-are-not-safe-20160725t210347006z"
    },
    "roadscape/re-roadscape-script-check-20160714t152004803z": {
      "active_votes": [
        {
          "percent": "10000",
          "reputation": 216392531645,
          "rshares": 11652058,
          "voter": "vkoreshkoff"
        },
        {
          "percent": "10000",
          "reputation": 864001260466,
          "rshares": 20602280,
          "voter": "sunlight80"
        }
      ],
      "author": "roadscape",
      "author_reputation": 9800209121307,
      "beneficiaries": [],
      "body": "<html><img src=\"https://steemd.com/favicon-steem9.png\" /></html>",
      "body_length": 64,
      "cashout_time": "1969-12-31T23:59:59",
      "category": "random",
      "children": 0,
      "created": "2016-07-14T20:23:42",
      "curator_payout_value": "0.000 HBD",
      "depth": 1,
      "json_metadata": "{}",
      "last_payout": "2016-08-23T19:49:54",
      "last_update": "2016-07-14T20:45:06",
      "max_accepted_payout": "1000000.000 HBD",
      "net_rshares": 32254338,
      "parent_author": "roadscape",
      "parent_permlink": "script-check",
      "pending_payout_value": "0.000 HBD",
      "percent_hbd": 10000,
      "permlink": "re-roadscape-script-check-20160714t152004803z",
      "post_id": 112652,
      "promoted": "0.000 HBD",
      "replies": [],
      "root_title": "Script Check",
      "title": "",
      "total_payout_value": "0.000 HBD",
      "url": "/random/@roadscape/script-check#@roadscape/re-roadscape-script-check-20160714t152004803z"
    },
    "roadscape/re-silvermoney-steemit-password-system-is-going-to-cause-problems-20160806t170910552z": {
      "active_votes": [],
      "author": "roadscape",
      "author_reputation": 9800209121307,
      "beneficiaries": [],
      "body": "Recovery features have been added to the blockchain and there are more to come. This is the first blockchain to offer such features.\n\nIf a provider can reset passwords to any account, they effectively have full access to every account (Facebook, Reddit). Steem is a new paradigm.",
      "body_length": 279,
      "cashout_time": "1969-12-31T23:59:59",
      "category": "silvermoney",
      "children": 1,
      "created": "2016-08-06T17:09:09",
      "curator_payout_value": "0.000 HBD",
      "depth": 1,
      "json_metadata": "{\"tags\":[\"silvermoney\"]}",
      "last_payout": "2016-09-05T08:23:30",
      "last_update": "2016-08-06T17:09:27",
      "max_accepted_payout": "1000000.000 HBD",
      "net_rshares": 0,
      "parent_author": "silvermoney",
      "parent_permlink": "steemit-password-system-is-going-to-cause-problems",
      "pending_payout_value": "0.000 HBD",
      "percent_hbd": 10000,
      "permlink": "re-silvermoney-steemit-password-system-is-going-to-cause-problems-20160806t170910552z",
      "post_id": 647093,
      "promoted": "0.000 HBD",
      "replies": [],
      "root_title": "Steemit password system is going to cause problems",
      "title": "",
      "total_payout_value": "0.000 HBD",
      "url": "/silvermoney/@silvermoney/steemit-password-system-is-going-to-cause-problems#@roadscape/re-silvermoney-steemit-password-system-is-going-to-cause-problems-20160806t170910552z"
    },
    "roadscape/re-the-ntf-re-smooth-re-barrycooper-re-mikemacintire-re-barrycooper-steem-has-a-severe-glitch-that-likens-it-to-reddit-facebook-and-fox-news-20160812t000339756z": {
      "active_votes": [
        {
          "percent": "10000",
          "reputation": 25984358555464,
          "rshares": 38147137189,
          "voter": "bacchist"
        },
        {
          "percent": "10000",
          "reputation": 161079803820,
          "rshares": 29707075150,
          "voter": "arcurus"
        },
        {
          "percent": "10000",
          "reputation": 11035621314018,
          "rshares": 10687995518,
          "voter": "darkb4dawn"
        },
        {
          "percent": "10000",
          "reputation": 4265214728001,
          "rshares": 10520025463,
          "voter": "bergy"
        }
      ],
      "author": "roadscape",
      "author_reputation": 9800209121307,
      "beneficiaries": [],
      "body": "It's mainly important to show the number so the community can review it.",
      "body_length": 72,
      "cashout_time": "1969-12-31T23:59:59",
      "category": "steem",
      "children": 0,
      "created": "2016-08-12T00:03:39",
      "curator_payout_value": "0.010 HBD",
      "depth": 5,
      "json_metadata": "{\"tags\":[\"steem\"]}",
      "last_payout": "2016-09-11T13:30:51",
      "last_update": "2016-08-12T00:03:39",
      "max_accepted_payout": "1000000.000 HBD",
      "net_rshares": 89062233320,
      "parent_author": "the-ntf",
      "parent_permlink": "re-smooth-re-barrycooper-re-mikemacintire-re-barrycooper-steem-has-a-severe-glitch-that-likens-it-to-reddit-facebook-and-fox-news-20160811t213443195z",
      "pending_payout_value": "0.000 HBD",
      "percent_hbd": 10000,
      "permlink": "re-the-ntf-re-smooth-re-barrycooper-re-mikemacintire-re-barrycooper-steem-has-a-severe-glitch-that-likens-it-to-reddit-facebook-and-fox-news-20160812t000339756z",
      "post_id": 755866,
      "promoted": "0.000 HBD",
      "replies": [],
      "root_title": "Steem Has a Severe Glitch That Likens It To Reddit, Facebook and Fox News",
      "title": "",
      "total_payout_value": "0.056 HBD",
      "url": "/steem/@barrycooper/steem-has-a-severe-glitch-that-likens-it-to-reddit-facebook-and-fox-news#@roadscape/re-the-ntf-re-smooth-re-barrycooper-re-mikemacintire-re-barrycooper-steem-has-a-severe-glitch-that-likens-it-to-reddit-facebook-and-fox-news-20160812t000339756z"
    }
  },
  "discussion_idx": {
    "": {}
  },
  "feed_price": {
    "base": "0.637 HBD",
    "quote": "1.000 HIVE"
  },
  "props": {
    "hbd_interest_rate": 1000,
    "hbd_print_rate": 10000,
    "head_block_number": 5000024,
    "last_irreversible_block_num": 4999980,
    "time": "2016-09-15T19:48:33",
    "total_vesting_fund_hive": "149190428.013 HIVE",
    "total_vesting_shares": "448144916705.468384 VESTS"
  },
  "tag_idx": {
    "trending": []
  },
  "tags": {}
}
