{
  "accounts": {
    "steemit": {
      "blog": [
        "steemit/muted-in-this-community",
        "steemit/firstpost"
      ],
      "comments": [],
      "created": "2016-03-24 17:00:21",
      "feed": [],
      "json_metadata": "{\"profile\":{\"name\":\"\",\"about\":\"\",\"website\":\"\",\"location\":\"\",\"cover_image\":\"\",\"profile_image\":\"\"}}",
      "name": "steemit",
      "net_vesting_shares": 0,
      "post_count": 3,
      "recent_replies": [],
      "reputation": 12944616889,
      "transfer_history": []
    }
  },
  "content": {
    "steemit/firstpost": {
      "active_votes": [
        {
          "percent": "100",
          "reputation": 145171381514207,
          "rshares": 375241000000,
          "voter": "dantheman"
        },
        {
          "percent": "10000",
          "reputation": 190869539046,
          "rshares": 886132000000,
          "voter": "mr11acdee"
        },
        {
          "percent": "10000",
          "reputation": 0,
          "rshares": 5100000000,
          "voter": "steemit78"
        },
        {
          "percent": "10000",
          "reputation": 85602977273,
          "rshares": 1259167000000,
          "voter": "anonymous"
        },
        {
          "percent": "10000",
          "reputation": 159370,
          "rshares": 318519000000,
          "voter": "hello"
        },
        {
          "percent": "10000",
          "reputation": 0,
          "rshares": 153384000000,
          "voter": "world"
        },
        {
          "percent": "-100",
          "reputation": 13270505121655,
          "rshares": -936400000000,
          "voter": "ned"
        },
        {
          "percent": "10000",
          "reputation": 0,
          "rshares": 59412000000,
          "voter": "fufubar1"
        },
        {
          "percent": "10000",
          "reputation": 0,
          "rshares": 14997000000,
          "voter": "anonymous1"
        },
        {
          "percent": "100",
          "reputation": 1993860928264,
          "rshares": 1441000000,
          "voter": "red"
        },
        {
          "percent": "10000",
          "reputation": 36749432321730,
          "rshares": 551390835500,
          "voter": "liondani"
        },
        {
          "percent": "10000",
          "reputation": 9800209121307,
          "rshares": 82748000000,
          "voter": "roadscape"
        },
        {
          "percent": "100",
          "reputation": 89703349977794,
          "rshares": 10772000000,
          "voter": "xeroc"
        },
        {
          "percent": "10000",
          "reputation": 29394786822950,
          "rshares": 7685088000,
          "voter": "markopaasila"
        },
        {
          "percent": "10000",
          "reputation": 11006097418580,
          "rshares": 454510724,
          "voter": "tshering-tamang"
        },
        {
          "percent": "10000",
          "reputation": -1240421481231,
          "rshares": 681946946,
          "voter": "romangelsi"
        },
        {
          "percent": "10000",
          "reputation": 4743131139239,
          "rshares": 504895891,
          "voter": "dedmatvey"
        },
        {
          "percent": "10000",
          "reputation": 4602759566516,
          "rshares": 498863058,
          "voter": "joelinux"
        },
        {
          "percent": "0",
          "reputation": 629772802423,
          "rshares": 9590417,
          "voter": "piranhax"
        },
        {
          "percent": "10000",
          "reputation": -681986257906,
          "rshares": 473258270,
          "voter": "ned-reddit-login"
        },
        {
          "percent": "3600",
          "reputation": 944762156062,
          "rshares": 0,
          "voter": "fernando-sanz"
        },
        {
          "percent": "10000",
          "reputation": 1172373556107,
          "rshares": 425903066,
          "voter": "gekko"
        },
        {
          "percent": "10000",
          "reputation": -505268709325,
          "rshares": 381805870,
          "voter": "gilang-ramadhan"
        },
        {
          "percent": "10000",
          "reputation": 14430883217,
          "rshares": 392459059,
          "voter": "kamvreto"
        },
        {
          "percent": "10000",
          "reputation": 15755437221598,
          "rshares": 422984262,
          "voter": "acidyo"
        },
        {
          "percent": "10000",
          "reputation": 32983096229,
          "rshares": 47179379651,
          "voter": "tosch"
        },
        {
          "percent": "10000",
          "reputation": 16025488740118,
          "rshares": 7831667988,
          "voter": "klye"
        },
        {
          "percent": "10000",
          "reputation": 1663549830469,
          "rshares": 1019950749,
          "voter": "coar"
        },
        {
          "percent": "1509",
          "reputation": 2902053059801,
          "rshares": 1746058458,
          "voter": "murh"
        },
        {
          "percent": "10000",
          "reputation": 4213833370161,
          "rshares": 22639073725,
          "voter": "drinkzya"
        },
        {
          "percent": "10000",
          "reputation": 2663003206978,
          "rshares": 0,
          "voter": "hien-tran"
        },
        {
          "percent": "10000",
          "reputation": 1005278051807,
          "rshares": 742566481,
          "voter": "patrick-g"
        },
        {
          "percent": "10000",
          "reputation": 2457655120479,
          "rshares": 40624969,
          "voter": "ben99"
        },
        {
          "percent": "10000",
          "reputation": 1826252654620,
          "rshares": 1742755097,
          "voter": "sunshinecrypto"
        },
        {
          "percent": "10000",
          "reputation": 353432699790,
          "rshares": 108855472,
          "voter": "kingtylervvs"
        },
        {
          "percent": "10000",
          "reputation": 1261132457927,
          "rshares": 485112237,
          "voter": "marinabogumil"
        },
        {
          "percent": "10000",
          "reputation": 756734123357,
          "rshares": 917398502,
          "voter": "decrypt"
        },
        {
          "percent": "10000",
          "reputation": 11644551965460,
          "rshares": 5067187498,
          "voter": "senseiteekay"
        },
        {
          "percent": "10000",
          "reputation": 196800352745,
          "rshares": 5154897955,
          "voter": "r33drum"
        },
        {
          "percent": "10000",
          "reputation": 125274679006,
          "rshares": 5033902237,
          "voter": "cryptosi"
        },
        {
          "percent": "10000",
          "reputation": 16743994030016,
          "rshares": 1037079223,
          "voter": "condra"
        },
        {
          "percent": "10000",
          "reputation": 213364405044,
          "rshares": 233032838,
          "voter": "jearson"
        },
        {
          "percent": "10000",
          "reputation": 25715360164,
          "rshares": 240809500,
          "voter": "tritium"
        },
        {
          "percent": "10000",
          "reputation": 7803764965401,
          "rshares": 123321995,
          "voter": "allmonitors"
        },
        {
          "percent": "10000",
          "reputation": 29008237643,
          "rshares": 226074637,
          "voter": "artjedi"
        },
        {
          "percent": "10000",
          "reputation": 7687950954082,
          "rshares": 931542394,
          "voter": "anduweb"
        },
        {
          "percent": "10000",
          "reputation": 6892424678378,
          "rshares": 2292983350,
          "voter": "inertia"
        },
        {
          "percent": "10000",
          "reputation": 3502382308233,
          "rshares": 128561059,
          "voter": "maximkichev"
        },
        {
          "percent": "10000",
          "reputation": 113908011659,
          "rshares": 183438273,
          "voter": "a9inchcock"
        },
        {
          "percent": "10000",
          "reputation": 1783202708175,
          "rshares": 266262926,
          "voter": "desmonid"
        },
        {
          "percent": "10000",
          "reputation": 1193366475012,
          "rshares": 71498008,
          "voter": "madhatting"
        },
        {
          "percent": "10000",
          "reputation": -910520517353,
          "rshares": 23726644841,
          "voter": "ubg"
        },
        {
          "percent": "10000",
          "reputation": 10900524985586,
          "rshares": 3741408303,
          "voter": "royaltiffany"
        },
        {
          "percent": "10000",
          "reputation": 4858418486,
          "rshares": 131577259,
          "voter": "gribgo"
        },
        {
          "percent": "10000",
          "reputation": 6467956247739,
          "rshares": 12371398765,
          "voter": "deanliu"
        },
        {
          "percent": "10000",
          "reputation": 2110839599820,
          "rshares": 28907874049,
          "voter": "orm"
        },
        {
          "percent": "10000",
          "reputation": 513380281140,
          "rshares": 528988007,
          "voter": "qonq99"
        },
        {
          "percent": "10000",
          "reputation": 9853253860,
          "rshares": 129537329,
          "voter": "rd7783"
        },
        {
          "percent": "10000",
          "reputation": 100161586091,
          "rshares": 615020728,
          "voter": "slava"
        },
        {
          "percent": "10000",
          "reputation": 101628344707,
          "rshares": 0,
          "voter": "flyboyzombie"
        },
        {
          "percent": "10000",
          "reputation": 281653583054,
          "rshares": 100102503,
          "voter": "sictransitgloria"
        },
        {
          "percent": "10000",
          "reputation": 153480676290,
          "rshares": 95219365,
          "voter": "curator"
        },
        {
          "percent": "10000",
          "reputation": -385936503026,
          "rshares": 232295871,
          "voter": "dubovoy"
        },
        {
          "percent": "10000",
          "reputation": 35204206,
          "rshares": 0,
          "voter": "solos"
        },
        {
          "percent": "10000",
          "reputation": 5095600502,
          "rshares": 96945805,
          "voter": "creatorgalaxy"
        },
        {
          "percent": "10000",
          "reputation": 3804816886,
          "rshares": 99813231,
          "voter": "trigonice29"
        },
        {
          "percent": "10000",
          "reputation": 3427179893,
          "rshares": 0,
          "voter": "blysards"
        },
        {
          "percent": "10000",
          "reputation": 2889656462700,
          "rshares": 3721016208,
          "voter": "uwe69"
        },
        {
          "percent": "10000",
          "reputation": 3240369658,
          "rshares": 1279854,
          "voter": "nigmat"
        },
        {
          "percent": "10000",
          "reputation": 4341976914033,
          "rshares": 13974353753,
          "voter": "magicmonk"
        },
        {
          "percent": "10000",
          "reputation": 2832097256429,
          "rshares": 4968585456,
          "voter": "satoshifpv"
        },
        {
          "percent": "10000",
          "reputation": 1320262999851,
          "rshares": 1660613178,
          "voter": "naturalista"
        },
        {
          "percent": "10000",
          "reputation": 5349429676630,
          "rshares": 10847083143,
          "voter": "metrox"
        },
        {
          "percent": "10000",
          "reputation": 28131790010,
          "rshares": 18340928,
          "voter": "bestmalik"
        },
        {
          "percent": "10000",
          "reputation": 169634730,
          "rshares": 59563315,
          "voter": "kolyan31"
        },
        {
          "percent": "10000",
          "reputation": 478167094774,
          "rshares": 710989138,
          "voter": "romancs"
        },
        {
          "percent": "10000",
          "reputation": 86811749666,
          "rshares": 59366614,
          "voter": "luke490"
        },
        {
          "percent": "10000",
          "reputation": 137324193,
          "rshares": 58762473,
          "voter": "bro66"
        },
        {
          "percent": "10000",
          "reputation": 3740136030964,
          "rshares": 201822591,
          "voter": "future24"
        },
        {
          "percent": "10000",
          "reputation": 18385642301,
          "rshares": 58623688,
          "voter": "mythras"
        },
        {
          "percent": "10000",
          "reputation": 647464973800,
          "rshares": 56536509,
          "voter": "imarealboy777"
        },
        {
          "percent": "10000",
          "reputation": 3814152361740,
          "rshares": 0,
          "voter": "matrixdweller"
        },
        {
          "percent": "10000",
          "reputation": 286385675205,
          "rshares": 48299362,
          "voter": "smartguylabcoat"
        },
        {
          "percent": "10000",
          "reputation": 34436412607,
          "rshares": 59157099,
          "voter": "mabiturm"
        },
        {
          "percent": "10000",
          "reputation": -455329027035,
          "rshares": 48283979,
          "voter": "captainamerica"
        },
        {
          "percent": "10000",
          "reputation": 447853669279,
          "rshares": 54761612,
          "voter": "edbriv"
        },
        {
          "percent": "10000",
          "reputation": 1228265260257,
          "rshares": 865125771,
          "voter": "rittr"
        },
        {
          "percent": "10000",
          "reputation": 415861172879,
          "rshares": 92614447,
          "voter": "jelloducky"
        },
        {
          "percent": "10000",
          "reputation": 21467555148,
          "rshares": 52740989,
          "voter": "tcstix"
        },
        {
          "percent": "10000",
          "reputation": 143728394,
          "rshares": 49467477,
          "voter": "friedwater"
        },
        {
          "percent": "10000",
          "reputation": -32328156283,
          "rshares": 57366185,
          "voter": "denisdiaz"
        },
        {
          "percent": "10000",
          "reputation": 4409431615794,
          "rshares": 132070449,
          "voter": "loganarchy"
        },
        {
          "percent": "10000",
          "reputation": 246039331,
          "rshares": 48811442,
          "voter": "love-spirit-nerd"
        },
        {
          "percent": "10000",
          "reputation": 6900034272,
          "rshares": 51549585,
          "voter": "dikanevn"
        },
        {
          "percent": "10000",
          "reputation": 221607742,
          "rshares": 54017869,
          "voter": "zelious"
        },
        {
          "percent": "10000",
          "reputation": 62995887468,
          "rshares": 50129944,
          "voter": "freebornangel"
        },
        {
          "percent": "10000",
          "reputation": 9113317076,
          "rshares": 53196086,
          "voter": "f1111111"
        },
        {
          "percent": "10000",
          "reputation": 1996672246136,
          "rshares": 0,
          "voter": "anomaly"
        },
        {
          "percent": "10000",
          "reputation": 4181598053141,
          "rshares": 52394017140,
          "voter": "jack8831"
        },
        {
          "percent": "10000",
          "reputation": 5643099,
          "rshares": 0,
          "voter": "buckland"
        },
        {
          "percent": "10000",
          "reputation": 251629303655,
          "rshares": 0,
          "voter": "goldmatters"
        }
      ],
      "author": "steemit",
      "author_reputation": 12944616889,
      "beneficiaries": [],
      "body": "Steemit is a social media platform where anyone can earn STEEM points by posting. The more people who like a post, the more STEEM the poster earns. Anyone can sell their STEEM for cash or vest it to boost their voting power.",
      "body_length": 224,
      "cashout_time": "1969-12-31T23:59:59",
      "category": "meta",
      "children": 36,
      "created": "2016-03-30T18:30:18",
      "curator_payout_value": "0.756 HBD",
      "depth": 0,
      "json_metadata": "",
      "last_payout": "2016-08-24T19:59:42",
      "last_update": "2016-03-30T18:30:18",
      "max_accepted_payout": "1000000.000 HBD",
      "net_rshares": 3060564548625,
      "parent_author": "",
      "parent_permlink": "meta",
      "pending_payout_value": "0.000 HBD",
      "percent_hbd": 10000,
      "permlink": "firstpost",
      "post_id": 1,
      "promoted": "0.000 HBD",
      "replies": [],
      "root_title": "Welcome to Steem!",
      "title": "Welcome to Steem!",
      "total_payout_value": "0.942 HBD",
      "url": "/meta/@steemit/firstpost"
    },
    "steemit/muted-in-this-community": {
      "active_votes": [],
      "author": "steemit",
      "author_reputation": 12944616889,
      "beneficiaries": [],
      "body": "My role do not change",
      "body_length": 21,
      "cashout_time": "2016-09-22T18:01:36",
      "category": "hive-198723",
      "children": 0,
      "created": "2016-09-15T18:01:36",
      "curator_payout_value": "0.000 HBD",
      "depth": 0,
      "json_metadata": "{}",
      "last_payout": "1969-12-31T23:59:59",
      "last_update": "2016-09-15T18:01:36",
      "max_accepted_payout": "1000000.000 HBD",
      "net_rshares": 0,
      "parent_author": "",
      "parent_permlink": "hive-198723",
      "pending_payout_value": "0.000 HBD",
      "percent_hbd": 10000,
      "permlink": "muted-in-this-community",
      "post_id": 1256861,
      "promoted": "0.000 HBD",
      "replies": [],
      "root_title": "i am muted in this community",
      "title": "i am muted in this community",
      "total_payout_value": "0.000 HBD",
      "url": "/hive-198723/@steemit/muted-in-this-community"
    }
  },
  "discussion_idx": {
    "": {}
  },
  "feed_price": {
    "base": "0.637 HBD",
    "quote": "1.000 HIVE"
  },
  "props": {
    "hbd_interest_rate": 1000,
    "hbd_print_rate": 10000,
    "head_block_number": 5000024,
    "last_irreversible_block_num": 4999980,
    "time": "2016-09-15T19:48:33",
    "total_vesting_fund_hive": "149190428.013 HIVE",
    "total_vesting_shares": "448144916705.468384 VESTS"
  },
  "tag_idx": {
    "trending": []
  },
  "tags": {}
}
