{
  "active_votes": [
      {
          "rshares": "375241",
          "voter": "dantheman"
      },
      {
          "rshares": "886132",
          "voter": "mr11acdee"
      },
      {
          "rshares": "5100",
          "voter": "steemit78"
      },
      {
          "rshares": "1259167",
          "voter": "anonymous"
      },
      {
          "rshares": "318519",
          "voter": "hello"
      },
      {
          "rshares": "153384",
          "voter": "world"
      },
      {
          "rshares": "-936400",
          "voter": "ned"
      },
      {
          "rshares": "59412",
          "voter": "fufubar1"
      },
      {
          "rshares": "14997",
          "voter": "anonymous1"
      },
      {
          "rshares": "1441",
          "voter": "red"
      },
      {
          "rshares": "551390835500",
          "voter": "liondani"
      },
      {
          "rshares": "82748",
          "voter": "roadscape"
      },
      {
          "rshares": "10772",
          "voter": "xeroc"
      },
      {
          "rshares": "7685088000",
          "voter": "markopaasila"
      },
      {
          "rshares": "454510724",
          "voter": "tshering-tamang"
      },
      {
          "rshares": "681946946",
          "voter": "romangelsi"
      },
      {
          "rshares": "504895891",
          "voter": "dedmatvey"
      },
      {
          "rshares": "498863058",
          "voter": "joelinux"
      },
      {
          "rshares": "9590417",
          "voter": "piranhax"
      },
      {
          "rshares": "473258270",
          "voter": "ned-reddit-login"
      },
      {
          "rshares": "0",
          "voter": "fernando-sanz"
      },
      {
          "rshares": "425903066",
          "voter": "gekko"
      },
      {
          "rshares": "381805870",
          "voter": "gilang-ramadhan"
      },
      {
          "rshares": "392459059",
          "voter": "kamvreto"
      },
      {
          "rshares": "422984262",
          "voter": "acidyo"
      },
      {
          "rshares": "47179379651",
          "voter": "tosch"
      },
      {
          "rshares": "7831667988",
          "voter": "klye"
      },
      {
          "rshares": "1019950749",
          "voter": "coar"
      },
      {
          "rshares": "1746058458",
          "voter": "murh"
      },
      {
          "rshares": "0",
          "voter": "ashe-oro"
      },
      {
          "rshares": "22639073725",
          "voter": "drinkzya"
      },
      {
          "rshares": "0",
          "voter": "hien-tran"
      },
      {
          "rshares": "0",
          "voter": "noganoo"
      },
      {
          "rshares": "742566481",
          "voter": "patrick-g"
      },
      {
          "rshares": "40624969",
          "voter": "ben99"
      },
      {
          "rshares": "0",
          "voter": "tskeene"
      },
      {
          "rshares": "1742755097",
          "voter": "sunshinecrypto"
      },
      {
          "rshares": "0",
          "voter": "roelandp"
      },
      {
          "rshares": "0",
          "voter": "stealthtrader"
      },
      {
          "rshares": "108855472",
          "voter": "kingtylervvs"
      },
      {
          "rshares": "0",
          "voter": "picokernel"
      },
      {
          "rshares": "0",
          "voter": "ausbitbank"
      },
      {
          "rshares": "485112237",
          "voter": "marinabogumil"
      },
      {
          "rshares": "0",
          "voter": "sebastien"
      },
      {
          "rshares": "917398502",
          "voter": "decrypt"
      },
      {
          "rshares": "5067187498",
          "voter": "senseiteekay"
      },
      {
          "rshares": "5154897955",
          "voter": "r33drum"
      },
      {
          "rshares": "5033902237",
          "voter": "cryptosi"
      },
      {
          "rshares": "1037079223",
          "voter": "condra"
      },
      {
          "rshares": "233032838",
          "voter": "jearson"
      },
      {
          "rshares": "240809500",
          "voter": "tritium"
      },
      {
          "rshares": "123321995",
          "voter": "allmonitors"
      },
      {
          "rshares": "226074637",
          "voter": "artjedi"
      },
      {
          "rshares": "931542394",
          "voter": "anduweb"
      },
      {
          "rshares": "2292983350",
          "voter": "inertia"
      },
      {
          "rshares": "128561059",
          "voter": "maximkichev"
      },
      {
          "rshares": "183438273",
          "voter": "a9inchcock"
      },
      {
          "rshares": "266262926",
          "voter": "desmonid"
      },
      {
          "rshares": "71498008",
          "voter": "madhatting"
      },
      {
          "rshares": "23726644841",
          "voter": "ubg"
      },
      {
          "rshares": "3741408303",
          "voter": "royaltiffany"
      },
      {
          "rshares": "131577259",
          "voter": "gribgo"
      },
      {
          "rshares": "12371398765",
          "voter": "deanliu"
      },
      {
          "rshares": "28907874049",
          "voter": "orm"
      },
      {
          "rshares": "528988007",
          "voter": "qonq99"
      },
      {
          "rshares": "129537329",
          "voter": "rd7783"
      },
      {
          "rshares": "615020728",
          "voter": "slava"
      },
      {
          "rshares": "0",
          "voter": "flyboyzombie"
      },
      {
          "rshares": "0",
          "voter": "social"
      },
      {
          "rshares": "100102503",
          "voter": "sictransitgloria"
      },
      {
          "rshares": "95219365",
          "voter": "curator"
      },
      {
          "rshares": "232295871",
          "voter": "dubovoy"
      },
      {
          "rshares": "0",
          "voter": "solos"
      },
      {
          "rshares": "0",
          "voter": "alvintang"
      },
      {
          "rshares": "96945805",
          "voter": "creatorgalaxy"
      },
      {
          "rshares": "99813231",
          "voter": "trigonice29"
      },
      {
          "rshares": "0",
          "voter": "blysards"
      },
      {
          "rshares": "0",
          "voter": "nick.kharchenko"
      },
      {
          "rshares": "3721016208",
          "voter": "uwe69"
      },
      {
          "rshares": "1279854",
          "voter": "nigmat"
      },
      {
          "rshares": "13974353753",
          "voter": "magicmonk"
      },
      {
          "rshares": "4968585456",
          "voter": "satoshifpv"
      },
      {
          "rshares": "1660613178",
          "voter": "naturalista"
      },
      {
          "rshares": "10847083143",
          "voter": "metrox"
      },
      {
          "rshares": "18340928",
          "voter": "bestmalik"
      },
      {
          "rshares": "59563315",
          "voter": "kolyan31"
      },
      {
          "rshares": "710989138",
          "voter": "romancs"
      },
      {
          "rshares": "59366614",
          "voter": "luke490"
      },
      {
          "rshares": "58762473",
          "voter": "bro66"
      },
      {
          "rshares": "201822591",
          "voter": "future24"
      },
      {
          "rshares": "58623688",
          "voter": "mythras"
      },
      {
          "rshares": "56536509",
          "voter": "imarealboy777"
      },
      {
          "rshares": "0",
          "voter": "matrixdweller"
      },
      {
          "rshares": "48299362",
          "voter": "smartguylabcoat"
      },
      {
          "rshares": "59157099",
          "voter": "mabiturm"
      },
      {
          "rshares": "48283979",
          "voter": "captainamerica"
      },
      {
          "rshares": "54761612",
          "voter": "edbriv"
      },
      {
          "rshares": "0",
          "voter": "anarchyhasnogods"
      },
      {
          "rshares": "865125771",
          "voter": "rittr"
      },
      {
          "rshares": "0",
          "voter": "tumutanzi"
      },
      {
          "rshares": "92614447",
          "voter": "jelloducky"
      },
      {
          "rshares": "52740989",
          "voter": "tcstix"
      },
      {
          "rshares": "49467477",
          "voter": "friedwater"
      },
      {
          "rshares": "57366185",
          "voter": "denisdiaz"
      },
      {
          "rshares": "0",
          "voter": "gbonikz"
      },
      {
          "rshares": "132070449",
          "voter": "loganarchy"
      },
      {
          "rshares": "48811442",
          "voter": "love-spirit-nerd"
      },
      {
          "rshares": "0",
          "voter": "darkflame"
      },
      {
          "rshares": "0",
          "voter": "sneak"
      },
      {
          "rshares": "0",
          "voter": "jacobcards"
      },
      {
          "rshares": "51549585",
          "voter": "dikanevn"
      },
      {
          "rshares": "0",
          "voter": "shieha"
      },
      {
          "rshares": "54017869",
          "voter": "zelious"
      },
      {
          "rshares": "0",
          "voter": "allyouneedtoknow"
      },
      {
          "rshares": "0",
          "voter": "justyy"
      },
      {
          "rshares": "50129944",
          "voter": "freebornangel"
      },
      {
          "rshares": "53196086",
          "voter": "f1111111"
      },
      {
          "rshares": "0",
          "voter": "anomaly"
      },
      {
          "rshares": "52394017140",
          "voter": "jack8831"
      },
      {
          "rshares": "0",
          "voter": "buckland"
      },
      {
          "rshares": "0",
          "voter": "guest123"
      },
      {
          "rshares": "0",
          "voter": "syahhiran"
      },
      {
          "rshares": "0",
          "voter": "rarcntv"
      },
      {
          "rshares": "0",
          "voter": "nataleeoliver"
      },
      {
          "rshares": "0",
          "voter": "goldmatters"
      },
      {
          "rshares": "0",
          "voter": "gamer00"
      },
      {
          "rshares": "0",
          "voter": "curiesea"
      },
      {
          "rshares": "0",
          "voter": "missmarzipan"
      },
      {
          "rshares": "0",
          "voter": "thejohalfiles"
      },
      {
          "rshares": "0",
          "voter": "steemwart"
      },
      {
          "rshares": "0",
          "voter": "mapesa"
      },
      {
          "rshares": "0",
          "voter": "max-max"
      },
      {
          "rshares": "0",
          "voter": "joshuaatiemo"
      },
      {
          "rshares": "0",
          "voter": "jumaidafajar"
      },
      {
          "rshares": "0",
          "voter": "leolina1"
      },
      {
          "rshares": "0",
          "voter": "rebatesteem"
      },
      {
          "rshares": "0",
          "voter": "aidancloquell"
      },
      {
          "rshares": "0",
          "voter": "rm802"
      },
      {
          "rshares": "0",
          "voter": "krasotka"
      },
      {
          "rshares": "0",
          "voter": "alamyrjunior"
      },
      {
          "rshares": "0",
          "voter": "networker5"
      },
      {
          "rshares": "0",
          "voter": "evdoggformayor"
      },
      {
          "rshares": "0",
          "voter": "askari"
      },
      {
          "rshares": "0",
          "voter": "blockrush"
      },
      {
          "rshares": "0",
          "voter": "barvon"
      },
      {
          "rshares": "0",
          "voter": "fajarsdq"
      },
      {
          "rshares": "0",
          "voter": "juandemarte"
      },
      {
          "rshares": "0",
          "voter": "lazarescu.irinel"
      },
      {
          "rshares": "0",
          "voter": "thedeplorable1"
      },
      {
          "rshares": "0",
          "voter": "kalemandra"
      },
      {
          "rshares": "0",
          "voter": "ades"
      },
      {
          "rshares": "0",
          "voter": "rizkiavonna"
      },
      {
          "rshares": "0",
          "voter": "tohamy7"
      },
      {
          "rshares": "0",
          "voter": "justinashby"
      },
      {
          "rshares": "0",
          "voter": "thereikiforest"
      },
      {
          "rshares": "0",
          "voter": "serendipitie"
      },
      {
          "rshares": "0",
          "voter": "anwarabdullah"
      },
      {
          "rshares": "0",
          "voter": "rocketbeee"
      },
      {
          "rshares": "0",
          "voter": "ackza"
      },
      {
          "rshares": "0",
          "voter": "nilim"
      },
      {
          "rshares": "0",
          "voter": "renatrazumov"
      },
      {
          "rshares": "0",
          "voter": "jelkasmi"
      },
      {
          "rshares": "0",
          "voter": "dimitrya123"
      },
      {
          "rshares": "0",
          "voter": "crawfish37"
      },
      {
          "rshares": "0",
          "voter": "laodr"
      },
      {
          "rshares": "0",
          "voter": "lkisaid"
      },
      {
          "rshares": "0",
          "voter": "mikev"
      },
      {
          "rshares": "0",
          "voter": "hakan0356"
      },
      {
          "rshares": "0",
          "voter": "tasartcraft"
      },
      {
          "rshares": "0",
          "voter": "urmokas"
      },
      {
          "rshares": "0",
          "voter": "michael-fagundes"
      },
      {
          "rshares": "0",
          "voter": "kalamur"
      },
      {
          "rshares": "0",
          "voter": "abhinavsharma"
      },
      {
          "rshares": "0",
          "voter": "contentguy"
      },
      {
          "rshares": "0",
          "voter": "globocop"
      },
      {
          "rshares": "0",
          "voter": "hafizul"
      },
      {
          "rshares": "0",
          "voter": "hothelp1by1"
      },
      {
          "rshares": "0",
          "voter": "vannfrik"
      },
      {
          "rshares": "0",
          "voter": "manuel78"
      },
      {
          "rshares": "0",
          "voter": "brado"
      },
      {
          "rshares": "0",
          "voter": "strateg"
      },
      {
          "rshares": "0",
          "voter": "quinsmacqueen"
      },
      {
          "rshares": "0",
          "voter": "brucebrownftw"
      },
      {
          "rshares": "0",
          "voter": "mrstaf"
      },
      {
          "rshares": "0",
          "voter": "avvah"
      },
      {
          "rshares": "0",
          "voter": "stackin"
      },
      {
          "rshares": "0",
          "voter": "laloelectrix"
      },
      {
          "rshares": "0",
          "voter": "heejaekim"
      },
      {
          "rshares": "0",
          "voter": "thethreehugs"
      },
      {
          "rshares": "0",
          "voter": "otitrader"
      },
      {
          "rshares": "0",
          "voter": "clixmoney"
      },
      {
          "rshares": "0",
          "voter": "tryword"
      },
      {
          "rshares": "0",
          "voter": "dioneaguiar"
      },
      {
          "rshares": "0",
          "voter": "yann.moalic"
      },
      {
          "rshares": "0",
          "voter": "shaunf"
      },
      {
          "rshares": "0",
          "voter": "cleemit"
      },
      {
          "rshares": "0",
          "voter": "deeluvli1"
      },
      {
          "rshares": "0",
          "voter": "noval"
      },
      {
          "rshares": "0",
          "voter": "pixzelplethora"
      },
      {
          "rshares": "0",
          "voter": "smart3dweb"
      },
      {
          "rshares": "0",
          "voter": "joey-cryptoboy"
      },
      {
          "rshares": "0",
          "voter": "mateorite"
      },
      {
          "rshares": "0",
          "voter": "somaflaco"
      },
      {
          "rshares": "0",
          "voter": "enki74"
      },
      {
          "rshares": "0",
          "voter": "jungleebitcoin"
      },
      {
          "rshares": "0",
          "voter": "correctdrop"
      },
      {
          "rshares": "0",
          "voter": "clintjunior"
      },
      {
          "rshares": "0",
          "voter": "tediursa24"
      },
      {
          "rshares": "0",
          "voter": "mxzn"
      },
      {
          "rshares": "0",
          "voter": "hgmsilvergold"
      },
      {
          "rshares": "0",
          "voter": "antares007"
      },
      {
          "rshares": "0",
          "voter": "tridenspoon333"
      },
      {
          "rshares": "0",
          "voter": "vipek1996"
      },
      {
          "rshares": "0",
          "voter": "prima-nia"
      },
      {
          "rshares": "0",
          "voter": "redris"
      },
      {
          "rshares": "0",
          "voter": "savetheanimals"
      },
      {
          "rshares": "0",
          "voter": "tarunmewara"
      },
      {
          "rshares": "0",
          "voter": "overkillcoin"
      },
      {
          "rshares": "0",
          "voter": "tuakanamorgan"
      },
      {
          "rshares": "0",
          "voter": "anacristinasilva"
      },
      {
          "rshares": "0",
          "voter": "filmonaut"
      },
      {
          "rshares": "0",
          "voter": "firstamendment"
      },
      {
          "rshares": "0",
          "voter": "timcrypto"
      },
      {
          "rshares": "0",
          "voter": "cryptotem"
      },
      {
          "rshares": "0",
          "voter": "mikej"
      },
      {
          "rshares": "0",
          "voter": "hwrs"
      },
      {
          "rshares": "0",
          "voter": "sinai770judea"
      },
      {
          "rshares": "0",
          "voter": "tuneralliance"
      },
      {
          "rshares": "0",
          "voter": "zeji"
      },
      {
          "rshares": "0",
          "voter": "ricoalfianda"
      },
      {
          "rshares": "0",
          "voter": "satfit"
      },
      {
          "rshares": "0",
          "voter": "machhour"
      },
      {
          "rshares": "0",
          "voter": "bitgenio"
      },
      {
          "rshares": "0",
          "voter": "ahmedmansi"
      },
      {
          "rshares": "0",
          "voter": "theoccultcorner"
      },
      {
          "rshares": "0",
          "voter": "reseller"
      },
      {
          "rshares": "0",
          "voter": "ainsleyjo1952"
      },
      {
          "rshares": "0",
          "voter": "novi"
      },
      {
          "rshares": "0",
          "voter": "androsform"
      },
      {
          "rshares": "0",
          "voter": "jooyoung"
      },
      {
          "rshares": "0",
          "voter": "dobro88888888"
      },
      {
          "rshares": "0",
          "voter": "ghaaspur"
      },
      {
          "rshares": "0",
          "voter": "xodyd2da"
      },
      {
          "rshares": "0",
          "voter": "trisun"
      },
      {
          "rshares": "0",
          "voter": "tngflx"
      },
      {
          "rshares": "0",
          "voter": "karaban"
      },
      {
          "rshares": "0",
          "voter": "empath"
      },
      {
          "rshares": "0",
          "voter": "pcbildrnoob"
      },
      {
          "rshares": "0",
          "voter": "joecaffeine"
      },
      {
          "rshares": "0",
          "voter": "laolballs"
      },
      {
          "rshares": "0",
          "voter": "braamsteyn7777"
      },
      {
          "rshares": "0",
          "voter": "udibekwe"
      },
      {
          "rshares": "0",
          "voter": "jackolanternbob"
      },
      {
          "rshares": "0",
          "voter": "rondoncr"
      },
      {
          "rshares": "0",
          "voter": "doubledeeyt"
      },
      {
          "rshares": "0",
          "voter": "joshvel"
      },
      {
          "rshares": "0",
          "voter": "lembach3d"
      },
      {
          "rshares": "0",
          "voter": "vulturestkn"
      },
      {
          "rshares": "0",
          "voter": "darknessprincess"
      },
      {
          "rshares": "0",
          "voter": "misrori"
      },
      {
          "rshares": "0",
          "voter": "afrikanprince"
      },
      {
          "rshares": "0",
          "voter": "jjprac"
      },
      {
          "rshares": "0",
          "voter": "ayuwandira"
      },
      {
          "rshares": "0",
          "voter": "ilicoin"
      },
      {
          "rshares": "0",
          "voter": "pkvlogs"
      },
      {
          "rshares": "0",
          "voter": "bitstudio"
      },
      {
          "rshares": "0",
          "voter": "taintedblood"
      },
      {
          "rshares": "0",
          "voter": "epsicktick"
      },
      {
          "rshares": "0",
          "voter": "csggene3"
      },
      {
          "rshares": "0",
          "voter": "tothemoonin2017"
      },
      {
          "rshares": "0",
          "voter": "geek4geek"
      },
      {
          "rshares": "0",
          "voter": "kharrazi"
      },
      {
          "rshares": "0",
          "voter": "zufrizal"
      },
      {
          "rshares": "0",
          "voter": "academix87"
      },
      {
          "rshares": "0",
          "voter": "planetenamek"
      },
      {
          "rshares": "0",
          "voter": "muliaeko"
      },
      {
          "rshares": "0",
          "voter": "boyjack"
      },
      {
          "rshares": "0",
          "voter": "jatniel"
      },
      {
          "rshares": "0",
          "voter": "juanangel40bcn"
      },
      {
          "rshares": "0",
          "voter": "jodywrites"
      },
      {
          "rshares": "0",
          "voter": "permatek"
      },
      {
          "rshares": "0",
          "voter": "cyberspace"
      },
      {
          "rshares": "0",
          "voter": "fareehasheharyar"
      },
      {
          "rshares": "0",
          "voter": "saynie"
      },
      {
          "rshares": "0",
          "voter": "plainoldme"
      },
      {
          "rshares": "0",
          "voter": "razaqbarry"
      },
      {
          "rshares": "0",
          "voter": "antoniokarteli"
      },
      {
          "rshares": "0",
          "voter": "dream.trip"
      },
      {
          "rshares": "0",
          "voter": "reinhardbaust"
      },
      {
          "rshares": "0",
          "voter": "newpioneer"
      },
      {
          "rshares": "0",
          "voter": "melvinbonner"
      },
      {
          "rshares": "0",
          "voter": "zulfahmi2141"
      },
      {
          "rshares": "0",
          "voter": "maninjapan1989"
      },
      {
          "rshares": "0",
          "voter": "andravasko"
      },
      {
          "rshares": "0",
          "voter": "gilma"
      },
      {
          "rshares": "0",
          "voter": "tom74"
      },
      {
          "rshares": "0",
          "voter": "josephfugata"
      },
      {
          "rshares": "0",
          "voter": "bitcointauji"
      },
      {
          "rshares": "0",
          "voter": "gray00"
      },
      {
          "rshares": "0",
          "voter": "divyang101"
      },
      {
          "rshares": "0",
          "voter": "bahagia-arbi"
      },
      {
          "rshares": "0",
          "voter": "bhim"
      },
      {
          "rshares": "0",
          "voter": "bickell"
      },
      {
          "rshares": "0",
          "voter": "tfpostman"
      },
      {
          "rshares": "0",
          "voter": "anujkumar"
      },
      {
          "rshares": "0",
          "voter": "fbslo"
      },
      {
          "rshares": "0",
          "voter": "renijuliani"
      },
      {
          "rshares": "0",
          "voter": "setio"
      },
      {
          "rshares": "0",
          "voter": "mooncryption"
      },
      {
          "rshares": "0",
          "voter": "shintamonica"
      },
      {
          "rshares": "0",
          "voter": "caratzky"
      },
      {
          "rshares": "0",
          "voter": "komrad"
      },
      {
          "rshares": "0",
          "voter": "therivernile"
      },
      {
          "rshares": "0",
          "voter": "deep.gohil"
      },
      {
          "rshares": "0",
          "voter": "thomasduder"
      },
      {
          "rshares": "0",
          "voter": "sensistar"
      },
      {
          "rshares": "0",
          "voter": "abdelone"
      },
      {
          "rshares": "0",
          "voter": "gegec"
      },
      {
          "rshares": "0",
          "voter": "ambmicheal"
      },
      {
          "rshares": "0",
          "voter": "rincewind"
      },
      {
          "rshares": "0",
          "voter": "alishannoor"
      },
      {
          "rshares": "0",
          "voter": "ahhjoeinhk"
      },
      {
          "rshares": "0",
          "voter": "kalhiade"
      },
      {
          "rshares": "0",
          "voter": "faridrizkia"
      },
      {
          "rshares": "0",
          "voter": "teamslovenia"
      },
      {
          "rshares": "0",
          "voter": "xiaoshancun"
      },
      {
          "rshares": "0",
          "voter": "mikewebb274"
      },
      {
          "rshares": "0",
          "voter": "andrath"
      },
      {
          "rshares": "0",
          "voter": "torosan"
      },
      {
          "rshares": "0",
          "voter": "ghayas"
      },
      {
          "rshares": "0",
          "voter": "krevasilis"
      },
      {
          "rshares": "0",
          "voter": "koinbot"
      },
      {
          "rshares": "0",
          "voter": "synergy-now"
      },
      {
          "rshares": "0",
          "voter": "steemblogs"
      },
      {
          "rshares": "0",
          "voter": "tujuhpelita"
      },
      {
          "rshares": "0",
          "voter": "palani"
      },
      {
          "rshares": "0",
          "voter": "as-i-see-it"
      },
      {
          "rshares": "0",
          "voter": "heyeshuang"
      },
      {
          "rshares": "0",
          "voter": "arslan786"
      },
      {
          "rshares": "0",
          "voter": "cgf117"
      },
      {
          "rshares": "0",
          "voter": "amazingtech100"
      },
      {
          "rshares": "0",
          "voter": "dreamm"
      },
      {
          "rshares": "0",
          "voter": "sweetssssj"
      },
      {
          "rshares": "0",
          "voter": "ceikdo"
      },
      {
          "rshares": "0",
          "voter": "sunsquall"
      },
      {
          "rshares": "0",
          "voter": "muhammadilyas93"
      },
      {
          "rshares": "0",
          "voter": "cre47iv3"
      },
      {
          "rshares": "0",
          "voter": "joao-cacador"
      },
      {
          "rshares": "0",
          "voter": "jamsphonna"
      },
      {
          "rshares": "0",
          "voter": "abbak7"
      },
      {
          "rshares": "0",
          "voter": "thelifeofjord"
      },
      {
          "rshares": "0",
          "voter": "utpoldebnath"
      },
      {
          "rshares": "0",
          "voter": "sagorkhan"
      },
      {
          "rshares": "0",
          "voter": "shivpremi"
      },
      {
          "rshares": "0",
          "voter": "shabbirahmad"
      },
      {
          "rshares": "0",
          "voter": "ibeljr"
      },
      {
          "rshares": "0",
          "voter": "umelard"
      },
      {
          "rshares": "0",
          "voter": "stijndehaan"
      },
      {
          "rshares": "0",
          "voter": "iamericmorrison"
      },
      {
          "rshares": "0",
          "voter": "shiningstar"
      },
      {
          "rshares": "0",
          "voter": "steemprojects1"
      },
      {
          "rshares": "0",
          "voter": "steemprojects2"
      },
      {
          "rshares": "0",
          "voter": "stuvi"
      },
      {
          "rshares": "0",
          "voter": "zia161"
      },
      {
          "rshares": "0",
          "voter": "arslanq"
      },
      {
          "rshares": "0",
          "voter": "kevca16"
      },
      {
          "rshares": "0",
          "voter": "mcreg"
      },
      {
          "rshares": "0",
          "voter": "waheebisb"
      },
      {
          "rshares": "0",
          "voter": "rizaokur"
      },
      {
          "rshares": "0",
          "voter": "seanstein"
      },
      {
          "rshares": "0",
          "voter": "piszozo"
      },
      {
          "rshares": "0",
          "voter": "vicmariki"
      },
      {
          "rshares": "0",
          "voter": "contribution"
      },
      {
          "rshares": "0",
          "voter": "oep"
      },
      {
          "rshares": "0",
          "voter": "akshitgrover"
      },
      {
          "rshares": "0",
          "voter": "jackson12"
      },
      {
          "rshares": "0",
          "voter": "dtldesign"
      },
      {
          "rshares": "0",
          "voter": "h4ck3rm1k3st33m"
      },
      {
          "rshares": "0",
          "voter": "smokeasare165"
      },
      {
          "rshares": "0",
          "voter": "tinoschloegl"
      },
      {
          "rshares": "0",
          "voter": "liftu"
      },
      {
          "rshares": "0",
          "voter": "atul8888"
      },
      {
          "rshares": "0",
          "voter": "goroshkodo"
      },
      {
          "rshares": "0",
          "voter": "tarmizislow"
      },
      {
          "rshares": "0",
          "voter": "nurmasyithah"
      },
      {
          "rshares": "0",
          "voter": "ritikagupta"
      },
      {
          "rshares": "0",
          "voter": "anniemohler"
      },
      {
          "rshares": "0",
          "voter": "olaivart"
      },
      {
          "rshares": "0",
          "voter": "thedrewshow"
      },
      {
          "rshares": "0",
          "voter": "alpha27"
      },
      {
          "rshares": "0",
          "voter": "adventuretours"
      },
      {
          "rshares": "0",
          "voter": "advexon"
      },
      {
          "rshares": "0",
          "voter": "cloudconnect"
      },
      {
          "rshares": "0",
          "voter": "ontheverge"
      },
      {
          "rshares": "0",
          "voter": "celsomichida"
      },
      {
          "rshares": "0",
          "voter": "cannan"
      },
      {
          "rshares": "0",
          "voter": "cloudbuster"
      },
      {
          "rshares": "0",
          "voter": "adrienoor"
      },
      {
          "rshares": "0",
          "voter": "hussnain"
      },
      {
          "rshares": "0",
          "voter": "shanloth"
      },
      {
          "rshares": "0",
          "voter": "samirnyaupane"
      },
      {
          "rshares": "0",
          "voter": "slackeramericana"
      },
      {
          "rshares": "0",
          "voter": "thabiggdogg"
      },
      {
          "rshares": "0",
          "voter": "gilnambatac"
      },
      {
          "rshares": "0",
          "voter": "withgraham"
      },
      {
          "rshares": "0",
          "voter": "sephirot"
      },
      {
          "rshares": "0",
          "voter": "coffeeman"
      },
      {
          "rshares": "0",
          "voter": "stefunniy"
      },
      {
          "rshares": "0",
          "voter": "ghanexs"
      },
      {
          "rshares": "0",
          "voter": "razipelangi"
      },
      {
          "rshares": "0",
          "voter": "dreamdiary"
      },
      {
          "rshares": "0",
          "voter": "crypto4euro"
      },
      {
          "rshares": "0",
          "voter": "rtsampa"
      },
      {
          "rshares": "0",
          "voter": "mahi2raj"
      },
      {
          "rshares": "0",
          "voter": "danyflores"
      },
      {
          "rshares": "0",
          "voter": "oraclefrequency"
      },
      {
          "rshares": "0",
          "voter": "kartikohri1712"
      },
      {
          "rshares": "0",
          "voter": "cryptoaltcoin"
      },
      {
          "rshares": "0",
          "voter": "einarscorner"
      },
      {
          "rshares": "0",
          "voter": "dudithedoctor"
      },
      {
          "rshares": "0",
          "voter": "dirapa"
      },
      {
          "rshares": "0",
          "voter": "arfouche"
      },
      {
          "rshares": "0",
          "voter": "kristenbruce"
      },
      {
          "rshares": "0",
          "voter": "okclear"
      },
      {
          "rshares": "0",
          "voter": "mysearchisover"
      },
      {
          "rshares": "0",
          "voter": "dropd"
      },
      {
          "rshares": "0",
          "voter": "rulilesmana"
      },
      {
          "rshares": "0",
          "voter": "cryptomaniac6"
      },
      {
          "rshares": "0",
          "voter": "kim3ra"
      },
      {
          "rshares": "0",
          "voter": "movement19"
      },
      {
          "rshares": "0",
          "voter": "aacr07"
      },
      {
          "rshares": "0",
          "voter": "layra"
      },
      {
          "rshares": "0",
          "voter": "vardhanbtc"
      },
      {
          "rshares": "0",
          "voter": "azeemprime"
      },
      {
          "rshares": "0",
          "voter": "dbnx"
      },
      {
          "rshares": "0",
          "voter": "shredz7"
      },
      {
          "rshares": "0",
          "voter": "bitstreamgains"
      },
      {
          "rshares": "0",
          "voter": "hendrimaca"
      },
      {
          "rshares": "0",
          "voter": "aan01"
      },
      {
          "rshares": "0",
          "voter": "successmindset"
      },
      {
          "rshares": "0",
          "voter": "hatu"
      },
      {
          "rshares": "0",
          "voter": "khabirulhafiz"
      },
      {
          "rshares": "0",
          "voter": "yady"
      },
      {
          "rshares": "0",
          "voter": "samsonjura1"
      },
      {
          "rshares": "0",
          "voter": "ambitiouslife"
      },
      {
          "rshares": "0",
          "voter": "whyse"
      },
      {
          "rshares": "0",
          "voter": "skyflow"
      },
      {
          "rshares": "0",
          "voter": "kimtoma"
      },
      {
          "rshares": "0",
          "voter": "asherunderwood"
      },
      {
          "rshares": "0",
          "voter": "lorden"
      },
      {
          "rshares": "0",
          "voter": "juicyvegandwarf"
      },
      {
          "rshares": "0",
          "voter": "ushan007"
      },
      {
          "rshares": "0",
          "voter": "ihsan6837"
      },
      {
          "rshares": "0",
          "voter": "suryarose"
      },
      {
          "rshares": "0",
          "voter": "sol7142"
      },
      {
          "rshares": "0",
          "voter": "fikrialoy"
      },
      {
          "rshares": "0",
          "voter": "mr-lahey"
      },
      {
          "rshares": "0",
          "voter": "mahsabmirza"
      },
      {
          "rshares": "0",
          "voter": "pwangdu"
      },
      {
          "rshares": "0",
          "voter": "salda"
      },
      {
          "rshares": "0",
          "voter": "muzzlealem"
      },
      {
          "rshares": "0",
          "voter": "pakjos"
      },
      {
          "rshares": "0",
          "voter": "mhdfadhal"
      },
      {
          "rshares": "0",
          "voter": "dannykastner"
      },
      {
          "rshares": "0",
          "voter": "ibul11"
      },
      {
          "rshares": "0",
          "voter": "nigtroy"
      },
      {
          "rshares": "0",
          "voter": "uripsurya"
      },
      {
          "rshares": "0",
          "voter": "jazman.zhens"
      },
      {
          "rshares": "0",
          "voter": "intervote"
      },
      {
          "rshares": "0",
          "voter": "mahend"
      },
      {
          "rshares": "0",
          "voter": "anandasungkar"
      },
      {
          "rshares": "0",
          "voter": "homeless.global"
      },
      {
          "rshares": "0",
          "voter": "intansteemityes"
      },
      {
          "rshares": "0",
          "voter": "perminus-gaita"
      },
      {
          "rshares": "0",
          "voter": "phost"
      },
      {
          "rshares": "0",
          "voter": "debart"
      },
      {
          "rshares": "0",
          "voter": "blurrydude"
      },
      {
          "rshares": "0",
          "voter": "tsnaks"
      },
      {
          "rshares": "0",
          "voter": "legendchew"
      },
      {
          "rshares": "0",
          "voter": "cryptonegocios"
      },
      {
          "rshares": "0",
          "voter": "alexcozzy"
      },
      {
          "rshares": "0",
          "voter": "joe.ster"
      },
      {
          "rshares": "0",
          "voter": "pandu13"
      },
      {
          "rshares": "0",
          "voter": "sasakhan"
      },
      {
          "rshares": "0",
          "voter": "faisalyus"
      },
      {
          "rshares": "0",
          "voter": "sawyn"
      },
      {
          "rshares": "0",
          "voter": "diegocedenno"
      },
      {
          "rshares": "0",
          "voter": "calebotamus"
      },
      {
          "rshares": "0",
          "voter": "lsanneh78128"
      },
      {
          "rshares": "0",
          "voter": "nazaruddin885"
      },
      {
          "rshares": "0",
          "voter": "chaseburnett"
      },
      {
          "rshares": "0",
          "voter": "sisirhasan"
      },
      {
          "rshares": "0",
          "voter": "donyanyo"
      },
      {
          "rshares": "0",
          "voter": "oregontravel"
      },
      {
          "rshares": "0",
          "voter": "luegenbaron"
      },
      {
          "rshares": "0",
          "voter": "edkrassenstein"
      },
      {
          "rshares": "0",
          "voter": "munawirawin"
      },
      {
          "rshares": "0",
          "voter": "salgetra"
      },
      {
          "rshares": "0",
          "voter": "zaxan"
      },
      {
          "rshares": "0",
          "voter": "rollings"
      },
      {
          "rshares": "0",
          "voter": "kyle07"
      },
      {
          "rshares": "0",
          "voter": "pchanger"
      },
      {
          "rshares": "0",
          "voter": "uncleboy"
      },
      {
          "rshares": "0",
          "voter": "alfhi"
      },
      {
          "rshares": "0",
          "voter": "htetmyathtut"
      },
      {
          "rshares": "0",
          "voter": "trisolaran"
      },
      {
          "rshares": "0",
          "voter": "arafs"
      },
      {
          "rshares": "0",
          "voter": "abysoyjoy"
      },
      {
          "rshares": "0",
          "voter": "stylo419"
      },
      {
          "rshares": "0",
          "voter": "cookntell"
      },
      {
          "rshares": "0",
          "voter": "rakkarage"
      },
      {
          "rshares": "0",
          "voter": "grasozauru"
      },
      {
          "rshares": "0",
          "voter": "norabx"
      },
      {
          "rshares": "0",
          "voter": "joyvancouver"
      },
      {
          "rshares": "0",
          "voter": "antchatz"
      },
      {
          "rshares": "0",
          "voter": "tutchpa"
      },
      {
          "rshares": "0",
          "voter": "cosmophobia"
      },
      {
          "rshares": "0",
          "voter": "rajaji"
      },
      {
          "rshares": "0",
          "voter": "liqquid"
      },
      {
          "rshares": "0",
          "voter": "aceh-post"
      },
      {
          "rshares": "0",
          "voter": "dannanares"
      },
      {
          "rshares": "0",
          "voter": "husana"
      },
      {
          "rshares": "0",
          "voter": "davidmichael"
      },
      {
          "rshares": "0",
          "voter": "wprpn"
      },
      {
          "rshares": "0",
          "voter": "datuparulas17"
      },
      {
          "rshares": "0",
          "voter": "trie"
      },
      {
          "rshares": "0",
          "voter": "chirstonawba"
      },
      {
          "rshares": "0",
          "voter": "sulaiman86"
      },
      {
          "rshares": "0",
          "voter": "electronicsworld"
      },
      {
          "rshares": "0",
          "voter": "engrravijain"
      },
      {
          "rshares": "0",
          "voter": "alfredolopez1980"
      },
      {
          "rshares": "0",
          "voter": "gustavomonraz"
      },
      {
          "rshares": "0",
          "voter": "tahoorsaleem"
      },
      {
          "rshares": "0",
          "voter": "starfinger13"
      },
      {
          "rshares": "0",
          "voter": "conscalisthenics"
      },
      {
          "rshares": "0",
          "voter": "syd44723"
      },
      {
          "rshares": "0",
          "voter": "sutter"
      },
      {
          "rshares": "0",
          "voter": "samsonite18654"
      },
      {
          "rshares": "0",
          "voter": "iqra.naz"
      },
      {
          "rshares": "0",
          "voter": "drezz"
      },
      {
          "rshares": "0",
          "voter": "cutelace"
      },
      {
          "rshares": "0",
          "voter": "chirstonawba5"
      },
      {
          "rshares": "0",
          "voter": "devkapoor423"
      },
      {
          "rshares": "0",
          "voter": "blanchy"
      },
      {
          "rshares": "0",
          "voter": "rakeshban357"
      },
      {
          "rshares": "0",
          "voter": "douglasjames"
      },
      {
          "rshares": "0",
          "voter": "michaelabbas"
      },
      {
          "rshares": "0",
          "voter": "gonewithwind"
      },
      {
          "rshares": "0",
          "voter": "snow.owl"
      },
      {
          "rshares": "0",
          "voter": "tonthatthienvu"
      },
      {
          "rshares": "0",
          "voter": "strangeworldnews"
      },
      {
          "rshares": "0",
          "voter": "dogra"
      },
      {
          "rshares": "0",
          "voter": "umairx97"
      },
      {
          "rshares": "0",
          "voter": "coolpeopleifb"
      },
      {
          "rshares": "0",
          "voter": "gabu01"
      },
      {
          "rshares": "0",
          "voter": "magicalbot"
      },
      {
          "rshares": "0",
          "voter": "f21steem"
      },
      {
          "rshares": "0",
          "voter": "hoobit"
      },
      {
          "rshares": "0",
          "voter": "ivancraigcaine"
      },
      {
          "rshares": "0",
          "voter": "kranko"
      },
      {
          "rshares": "0",
          "voter": "successinwork"
      },
      {
          "rshares": "0",
          "voter": "abfelix96"
      },
      {
          "rshares": "0",
          "voter": "maldonadog"
      },
      {
          "rshares": "0",
          "voter": "drakeler"
      },
      {
          "rshares": "0",
          "voter": "cyrex88"
      },
      {
          "rshares": "0",
          "voter": "rikyu"
      },
      {
          "rshares": "0",
          "voter": "krimimimi"
      },
      {
          "rshares": "0",
          "voter": "johannav"
      }
  ],
  "author": "steemit",
  "author_payout_value": "0.942 HBD",
  "author_reputation": 35.01,
  "beneficiaries": [],
  "blacklists": [],
  "body": "Steemit is a social media platform where anyone can earn STEEM points by posting. The more people who like a post, the more STEEM the poster earns. Anyone can sell their STEEM for cash or vest it to boost their voting power.",
  "category": "meta",
  "children": 430,
  "created": "2016-03-30T18:30:18",
  "curator_payout_value": "0.756 HBD",
  "depth": 0,
  "is_paidout": true,
  "json_metadata": {},
  "max_accepted_payout": "1000000.000 HBD",
  "net_rshares": 830053779138,
  "payout": 1.698,
  "payout_at": "2016-08-24T19:59:42",
  "pending_payout_value": "0.000 HBD",
  "percent_steem_dollars": 10000,
  "permlink": "firstpost",
  "post_id": 1,
  "promoted": "0.000 HBD",
  "replies": [],
  "stats": {
      "flag_weight": 0.0,
      "gray": false,
      "hide": false,
      "total_votes": 92
  },
  "title": "Welcome to Steem!",
  "updated": "2016-03-30T18:30:18",
  "url": "/meta/@steemit/firstpost"
}