{
  "blogs": 1866810.081,
  "items": [
    [
      "@charlieshrem",
      "@charlieshrem",
      62150.551,
      142,
      null
    ],
    [
      "@ericvancewalton",
      "@ericvancewalton",
      58178.554,
      678,
      null
    ],
    [
      "@gavvet",
      "@gavvet",
      48152.134,
      206,
      null
    ],
    [
      "@dollarvigilante",
      "@dollarvigilante",
      36198.94,
      141,
      null
    ],
    [
      "@knozaki2015",
      "@knozaki2015",
      34424.306,
      918,
      null
    ],
    [
      "@sirwinchester",
      "@sirwinchester",
      31862.079,
      992,
      null
    ],
    [
      "@calaber24p",
      "@calaber24p",
      29553.355,
      181,
      null
    ],
    [
      "@sascha",
      "@sascha",
      27422.313,
      187,
      null
    ],
    [
      "@terrycraft",
      "@terrycraft",
      24244.681,
      200,
      null
    ],
    [
      "@dragonslayer109",
      "@dragonslayer109",
      23214.814,
      374,
      null
    ]
  ],
  "total": 1866810.103
}
