{
  "history": [
    [
      5579,
      {
        "block": 1337175,
        "op": {
          "type": "feed_publish_operation",
          "value": {
            "exchange_rate": {
              "base": {
                "amount": "237",
                "nai": "@@000000013",
                "precision": 3
              },
              "quote": {
                "amount": "1000",
                "nai": "@@000000021",
                "precision": 3
              }
            },
            "publisher": "blocktrades"
          }
        },
        "op_in_trx": 0,
        "operation_id": 0,
        "timestamp": "2016-05-10T22:06:36",
        "trx_id": "2cccd6b21a642bba0d56c6c133874c808df26e17",
        "trx_in_block": 0,
        "virtual_op": 0
      }
    ],
    [
      5639,
      {
        "block": 1338414,
        "op": {
          "type": "feed_publish_operation",
          "value": {
            "exchange_rate": {
              "base": {
                "amount": "246",
                "nai": "@@000000013",
                "precision": 3
              },
              "quote": {
                "amount": "1000",
                "nai": "@@000000021",
                "precision": 3
              }
            },
            "publisher": "blocktrades"
          }
        },
        "op_in_trx": 0,
        "operation_id": 0,
        "timestamp": "2016-05-10T23:08:39",
        "trx_id": "9414f7c21a3ce6e3c069b59465396ebf7f615363",
        "trx_in_block": 0,
        "virtual_op": 0
      }
    ],
    [
      5898,
      {
        "block": 1343510,
        "op": {
          "type": "feed_publish_operation",
          "value": {
            "exchange_rate": {
              "base": {
                "amount": "238",
                "nai": "@@000000013",
                "precision": 3
              },
              "quote": {
                "amount": "1000",
                "nai": "@@000000021",
                "precision": 3
              }
            },
            "publisher": "blocktrades"
          }
        },
        "op_in_trx": 0,
        "operation_id": 0,
        "timestamp": "2016-05-11T03:23:48",
        "trx_id": "e89a2efb797e7ec35892096ba61f9b4aa4f5ff9e",
        "trx_in_block": 0,
        "virtual_op": 0
      }
    ]
  ]
}
