{
  "history": [
    [
      205366,
      {
        "block": 4985503,
        "op": {
          "type": "transfer_operation",
          "value": {
            "amount": {
              "amount": "48000",
              "nai": "@@000000013",
              "precision": 3
            },
            "from": "aaronkoenig",
            "memo": "b4c499fb-5deb-44dc-9646-e7feb3927e12",
            "to": "blocktrades"
          }
        },
        "op_in_trx": 0,
        "operation_id": 0,
        "timestamp": "2016-09-15T07:33:57",
        "trx_id": "2c918ba666c06946a792657b27ed18af196dfab5",
        "trx_in_block": 0,
        "virtual_op": 0
      }
    ],
    [
      205422,
      {
        "block": 4986680,
        "op": {
          "type": "transfer_operation",
          "value": {
            "amount": {
              "amount": "126225",
              "nai": "@@000000021",
              "precision": 3
            },
            "from": "schro",
            "memo": "d70dfb8e-277a-4070-9812-b38cf01579cf",
            "to": "blocktrades"
          }
        },
        "op_in_trx": 0,
        "operation_id": 0,
        "timestamp": "2016-09-15T08:32:51",
        "trx_id": "68656136a5cff365a0c5ab873a60a3cf7528e47c",
        "trx_in_block": 0,
        "virtual_op": 0
      }
    ],
    [
      205435,
      {
        "block": 4986959,
        "op": {
          "type": "transfer_operation",
          "value": {
            "amount": {
              "amount": "1059",
              "nai": "@@000000021",
              "precision": 3
            },
            "from": "blocktrades",
            "memo": "",
            "to": "royalmacro"
          }
        },
        "op_in_trx": 0,
        "operation_id": 0,
        "timestamp": "2016-09-15T08:46:57",
        "trx_id": "7ec30a784f3c0f2eea3305a9530369811d5d9f2d",
        "trx_in_block": 0,
        "virtual_op": 0
      }
    ],
    [
      205539,
      {
        "block": 4989287,
        "op": {
          "type": "transfer_operation",
          "value": {
            "amount": {
              "amount": "52804",
              "nai": "@@000000021",
              "precision": 3
            },
            "from": "blocktrades",
            "memo": "",
            "to": "bapparabi"
          }
        },
        "op_in_trx": 0,
        "operation_id": 0,
        "timestamp": "2016-09-15T10:44:00",
        "trx_id": "a47552c9b50cfdf8d77dde55aba32b4a2a64d78a",
        "trx_in_block": 0,
        "virtual_op": 0
      }
    ],
    [
      205729,
      {
        "block": 4992808,
        "op": {
          "type": "transfer_operation",
          "value": {
            "amount": {
              "amount": "203445",
              "nai": "@@000000021",
              "precision": 3
            },
            "from": "blocktrades",
            "memo": "",
            "to": "franciscusb"
          }
        },
        "op_in_trx": 0,
        "operation_id": 0,
        "timestamp": "2016-09-15T13:40:18",
        "trx_id": "2b46ad6609fe91f034b662179f903eb9ae4a930d",
        "trx_in_block": 2,
        "virtual_op": 0
      }
    ],
    [
      205741,
      {
        "block": 4993049,
        "op": {
          "type": "transfer_operation",
          "value": {
            "amount": {
              "amount": "812190",
              "nai": "@@000000021",
              "precision": 3
            },
            "from": "blocktrades",
            "memo": "",
            "to": "franciscusb"
          }
        },
        "op_in_trx": 0,
        "operation_id": 0,
        "timestamp": "2016-09-15T13:52:21",
        "trx_id": "3bc4523687ac895e97e185f65f3e5cfaa3c37539",
        "trx_in_block": 7,
        "virtual_op": 0
      }
    ],
    [
      205746,
      {
        "block": 4993122,
        "op": {
          "type": "transfer_operation",
          "value": {
            "amount": {
              "amount": "24838",
              "nai": "@@000000021",
              "precision": 3
            },
            "from": "blackjincrypto",
            "memo": "7639138f-62f0-492a-b8e7-bad1add506dd",
            "to": "blocktrades"
          }
        },
        "op_in_trx": 0,
        "operation_id": 0,
        "timestamp": "2016-09-15T13:56:00",
        "trx_id": "a6e9f45a9b8fb6cd565936f64e13ae5b12ac94f2",
        "trx_in_block": 0,
        "virtual_op": 0
      }
    ],
    [
      205754,
      {
        "block": 4993287,
        "op": {
          "type": "transfer_operation",
          "value": {
            "amount": {
              "amount": "64",
              "nai": "@@000000021",
              "precision": 3
            },
            "from": "blocktrades",
            "memo": "",
            "to": "deviedev"
          }
        },
        "op_in_trx": 0,
        "operation_id": 0,
        "timestamp": "2016-09-15T14:04:15",
        "trx_id": "85759c4bf28f20bdb7a43f6b506b8f97a8f23cdd",
        "trx_in_block": 4,
        "virtual_op": 0
      }
    ],
    [
      205827,
      {
        "block": 4994642,
        "op": {
          "type": "transfer_operation",
          "value": {
            "amount": {
              "amount": "1500000",
              "nai": "@@000000013",
              "precision": 3
            },
            "from": "good-karma",
            "memo": "0c9ca5aa-53c2-445e-912f-d2cf6b111229",
            "to": "blocktrades"
          }
        },
        "op_in_trx": 0,
        "operation_id": 0,
        "timestamp": "2016-09-15T15:12:03",
        "trx_id": "15a50977270c3b7e4e97715989f03099375b59bb",
        "trx_in_block": 0,
        "virtual_op": 0
      }
    ],
    [
      205834,
      {
        "block": 4994778,
        "op": {
          "type": "transfer_operation",
          "value": {
            "amount": {
              "amount": "50000",
              "nai": "@@000000013",
              "precision": 3
            },
            "from": "macksby",
            "memo": "92bff29e-2ee9-4ea4-ace1-6bb0c1331f67",
            "to": "blocktrades"
          }
        },
        "op_in_trx": 0,
        "operation_id": 0,
        "timestamp": "2016-09-15T15:18:51",
        "trx_id": "f2c59d933ba1fc08bd6f4c79ec52a0aeed6bb9e9",
        "trx_in_block": 0,
        "virtual_op": 0
      }
    ],
    [
      205909,
      {
        "block": 4996091,
        "op": {
          "type": "transfer_operation",
          "value": {
            "amount": {
              "amount": "148056",
              "nai": "@@000000021",
              "precision": 3
            },
            "from": "roelandp",
            "memo": "298eafac-95bb-4f27-b256-72df9d0ef222",
            "to": "blocktrades"
          }
        },
        "op_in_trx": 0,
        "operation_id": 0,
        "timestamp": "2016-09-15T16:24:33",
        "trx_id": "b1aa3d5f9308acd9cde664936c1b08eea77c3e49",
        "trx_in_block": 4,
        "virtual_op": 0
      }
    ],
    [
      205920,
      {
        "block": 4996294,
        "op": {
          "type": "transfer_operation",
          "value": {
            "amount": {
              "amount": "431587",
              "nai": "@@000000013",
              "precision": 3
            },
            "from": "thisisbenbrick",
            "memo": "0722aa82-10d0-4001-a286-130b633d58df",
            "to": "blocktrades"
          }
        },
        "op_in_trx": 0,
        "operation_id": 0,
        "timestamp": "2016-09-15T16:34:42",
        "trx_id": "01de85e061adde226a7ce59071973c9daaeca8ba",
        "trx_in_block": 1,
        "virtual_op": 0
      }
    ],
    [
      205956,
      {
        "block": 4996880,
        "op": {
          "type": "transfer_operation",
          "value": {
            "amount": {
              "amount": "900000",
              "nai": "@@000000021",
              "precision": 3
            },
            "from": "blocktrades",
            "memo": "#5JqZrt878ZgW7qKE3Ss3yL8vbxa7kxjVixJjv3oUM9qFQQGxJ9qed6iW8PdqDszU339rZnLudpuZjfBDYWsiYBY1dYoVhKPSic9QH4tjMCdfwzGhQ1RFi755VLqc4voVoBFvhSH3vKKk6xPsaHdoXTABVb1HCncLj348yGh4UVUSV",
            "to": "neptun"
          }
        },
        "op_in_trx": 0,
        "operation_id": 0,
        "timestamp": "2016-09-15T17:04:00",
        "trx_id": "872da4c5c93290bc17384752ce14a231ee50d42c",
        "trx_in_block": 1,
        "virtual_op": 0
      }
    ],
    [
      206068,
      {
        "block": 4998632,
        "op": {
          "type": "transfer_operation",
          "value": {
            "amount": {
              "amount": "11028",
              "nai": "@@000000021",
              "precision": 3
            },
            "from": "blocktrades",
            "memo": "",
            "to": "nmeofthestate"
          }
        },
        "op_in_trx": 0,
        "operation_id": 0,
        "timestamp": "2016-09-15T18:35:06",
        "trx_id": "4edcd2b5b51e7753c07852b8e1cf8824b424ae5e",
        "trx_in_block": 3,
        "virtual_op": 0
      }
    ],
    [
      206129,
      {
        "block": 4999607,
        "op": {
          "type": "transfer_operation",
          "value": {
            "amount": {
              "amount": "400000",
              "nai": "@@000000013",
              "precision": 3
            },
            "from": "condra",
            "memo": "f2c3419c-9522-4bb3-aa41-472c8388f215",
            "to": "blocktrades"
          }
        },
        "op_in_trx": 0,
        "operation_id": 0,
        "timestamp": "2016-09-15T19:26:39",
        "trx_id": "2577322e21a18f9085cc5dba366b5292824f906b",
        "trx_in_block": 5,
        "virtual_op": 0
      }
    ],
    [
      206155,
      {
        "block": 4999997,
        "op": {
          "type": "transfer_operation",
          "value": {
            "amount": {
              "amount": "1633",
              "nai": "@@000000013",
              "precision": 3
            },
            "from": "mrwang",
            "memo": "a79c09cd-0084-4cd4-ae63-bf6d2514fef9",
            "to": "blocktrades"
          }
        },
        "op_in_trx": 0,
        "operation_id": 0,
        "timestamp": "2016-09-15T19:47:09",
        "trx_id": "e75f833ceb62570c25504b55d0f23d86d9d76423",
        "trx_in_block": 3,
        "virtual_op": 0
      }
    ]
  ]
}
