[
  {
    "active_votes": [
      {
        "percent": "10000",
        "reputation": 8666442,
        "rshares": 155925481,
        "voter": "szklaneczka"
      }
    ],
    "author": "szklaneczka",
    "author_reputation": 8666442,
    "beneficiaries": [],
    "body": "**ICONOMI found management platform** is currently in ICO and you can still invest. \n\nThat is most anticipated platform of 2016 why You may ask me. I will give you some graph and explanation. Solutions like ICONOMI are very popular in old economy people want be rich and wanted get more profit so they tried give money to people who know more about trading. Found management platforms preforms much better than average investors. Big guys just want invest not day trading. In crypto ICOMI will be 1st such project - such needed project.\n\nNow true facts and everything that I show you, is now publicly available on web. Graphs taken from coinmarketcap.com are showing us, what is going on cryptocurrency markets right now:\n![](http://i.imgur.com/FLe0WeF.jpg) \n![](http://i.imgur.com/s6Aeke2.jpg) \n![](http://i.imgur.com/RX0JK1z.jpg) \n\nYou see on won eyes that: Bitcoin is loosing over time market share to other alt coins. There is many multiple reasons for that. Without ICONOMI getting on cryptocurrency board for new investors will be VERY hard. \nThat is:\n  \n- choose right one coin. \n- skip scams \n- buy valuable coins \n-  crypto markets are getting bigger and bigger all time, there is about over 700coins tradable now\n\n\nICONOMI will be platform that for **every investor looking for big profits**. \nICONOMI will give us 2 founds:\n\n- **The ICONOMI.INDEX FUND** - a \"Passive\" - Coin Traded Fund (CTF). This fund operates on special rules, variables that manage the fund through automation. This Found will be the fastest available to investors at launch in Q4 2016 - The ICONOMI.PERFORMANCE FUND - an \"\nActive\"\n- **Coin Managed Fund (CMF)**, Operated by and managed by best investors. This fund will be invitation only available. If you invest in ICO you will get you invitation for free. I bet is worth its price. Those found will be carefully managed by ICONOMI experts and will provide best profits available.\n\nGraphs shows that volume of alt coins is rising heavily and will move up. Without ICONOMI founds many investors will probably lose cash on market, while rypto currency market will rise as whole. **If buy some ICO shares you will get dividends forever as share holder.**\n Soon real professional traders will come to cryptocurrency and you as investor in order to get big profits will have to use service of ICONOMI. \n\nPersonally I have invested in ICO and believe that **ICONOMI is future of crypto trading**. Don't miss a chance and invest here:[ico.iconomi.net](ico.iconomi.net) \n\nIf you want invest in ICO: ![](http://i.imgur.com/iqDpTag.png) \n\nOfficial Links:\n \n- [ico.iconomi.net](ico.iconomi.net \"Main site\") \n- [https://www.facebook.com/iconomi.net/](https://www.facebook.com/iconomi.net/ \"Facebook\") \n- [https://twitter.com/iconominet](https://twitter.com/iconominet\"twitter.com\")\n- [https://www.linkedin.com/company/iconomi-the-financial-services-for-decentralised-economy/](https://www.linkedin.com/company/iconomi-the-financial-services-for-decentralised-economy/) \n- [https://telegram.me/iconomi](https://telegram.me/iconomi)\n- [https://medium.com/iconominet](https://medium.com/iconominet)\n- [https://iconominet.herokuapp.com](https://iconominet.herokuapp.com)",
    "body_length": 3189,
    "cashout_time": "2016-09-22T19:47:00",
    "category": "cryptocurrency",
    "children": 0,
    "created": "2016-09-15T19:47:00",
    "curator_payout_value": "0.000 HBD",
    "depth": 0,
    "json_metadata": "{\"tags\":[\"cryptocurrency\",\"bitcoin\",\"profit\",\"altcoin\"],\"image\":[\"http://i.imgur.com/FLe0WeF.jpg\",\"http://i.imgur.com/s6Aeke2.jpg\",\"http://i.imgur.com/RX0JK1z.jpg\",\"http://i.imgur.com/iqDpTag.png\"],\"links\":[\"ico.iconomi.net\",\"https://www.facebook.com/iconomi.net/\",\"https://twitter.com/iconominet\\\"twitter.com\\\"\",\"https://www.linkedin.com/company/iconomi-the-financial-services-for-decentralised-economy/\",\"https://telegram.me/iconomi\",\"https://medium.com/iconominet\",\"https://iconominet.herokuapp.com\"]}",
    "last_payout": "1969-12-31T23:59:59",
    "last_update": "2016-09-15T19:47:00",
    "max_accepted_payout": "1000000.000 HBD",
    "net_rshares": 155925481,
    "parent_author": "",
    "parent_permlink": "cryptocurrency",
    "pending_payout_value": "0.000 HBD",
    "percent_hbd": 10000,
    "permlink": "iconomi-why-we-need-found-management-explained-on-graphs",
    "post_id": 1258091,
    "promoted": "0.000 HBD",
    "replies": [],
    "root_title": "ICONOMI - why we need found management explained on graphs.",
    "title": "ICONOMI - why we need found management explained on graphs.",
    "total_payout_value": "0.000 HBD",
    "url": "/cryptocurrency/@szklaneczka/iconomi-why-we-need-found-management-explained-on-graphs"
  }
]
