[
  {
    "active_votes": [
      {
        "rshares": 17387563883098,
        "voter": "itsascam"
      },
      {
        "rshares": 2478143633692,
        "voter": "blocktrades"
      },
      {
        "rshares": 17508649345673,
        "voter": "steemed"
      },
      {
        "rshares": 2472598979,
        "voter": "boy"
      },
      {
        "rshares": 3001139259,
        "voter": "bue-witness"
      },
      {
        "rshares": 562419226,
        "voter": "bunny"
      },
      {
        "rshares": 42178757456,
        "voter": "bue"
      },
      {
        "rshares": 1325381537,
        "voter": "mini"
      },
      {
        "rshares": 170789230,
        "voter": "moon"
      },
      {
        "rshares": 497247302,
        "voter": "healthcare"
      },
      {
        "rshares": 737445199,
        "voter": "daniel.pan"
      },
      {
        "rshares": 230273601,
        "voter": "helen.tan"
      },
      {
        "rshares": 38894121671,
        "voter": "claudiop63"
      },
      {
        "rshares": 7143405548,
        "voter": "goose"
      }
    ],
    "author": "thylbom",
    "author_payout_value": "0.000 HBD",
    "author_reputation": 51.33,
    "beneficiaries": [],
    "blacklists": [],
    "body": "I definitely agree that the password recovery problem is a good one to work on. People who have been involved in crypto for some time are almost instinctively aware of the importance of safeguarding private keys, but \"mainstream\" adopters are accustomed to a world of hand-holding where the powers that be can bail you out if you are careless, stupid, forgetful or unlucky. If a method can be devised to facilitate recovery without sacrificing security, it can avoid problems of negative user experience that could hurt the platform's prospects for widespread adaption.",
    "category": "witness-category",
    "children": 1,
    "created": "2016-08-19T21:34:42",
    "curator_payout_value": "0.000 HBD",
    "depth": 1,
    "is_paidout": false,
    "json_metadata": {
      "tags": [
        "witness-category"
      ]
    },
    "max_accepted_payout": "1000000.000 HBD",
    "net_rshares": 37471570441471,
    "parent_author": "blocktrades",
    "parent_permlink": "blocktrades-witness-report-for-3rd-week-of-august",
    "payout": 204.392,
    "payout_at": "2016-08-26T21:34:42",
    "pending_payout_value": "204.392 HBD",
    "percent_hbd": 10000,
    "permlink": "re-blocktrades-blocktrades-witness-report-for-3rd-week-of-august-20160819t213441316z",
    "post_id": 896287,
    "promoted": "0.000 HBD",
    "replies": [],
    "stats": {
      "flag_weight": 0.0,
      "gray": false,
      "hide": false,
      "total_votes": 14
    },
    "title": "RE: BlockTrades Witness Report for 3rd Week of August",
    "updated": "2016-08-19T21:34:57",
    "url": "/witness-category/@blocktrades/blocktrades-witness-report-for-3rd-week-of-august#@thylbom/re-blocktrades-blocktrades-witness-report-for-3rd-week-of-august-20160819t213441316z"
  },
  {
    "active_votes": [
      {
        "rshares": 727407423660,
        "voter": "erath"
      },
      {
        "rshares": 644958517124,
        "voter": "smooth"
      },
      {
        "rshares": 28855608662,
        "voter": "anonymous"
      },
      {
        "rshares": 8486664643623,
        "voter": "rainman"
      },
      {
        "rshares": 6370652360778,
        "voter": "wackou"
      },
      {
        "rshares": 82613356260,
        "voter": "friend5"
      },
      {
        "rshares": 6571978360124,
        "voter": "roadscape"
      },
      {
        "rshares": 2470238755,
        "voter": "boy"
      },
      {
        "rshares": 2998129153,
        "voter": "bue-witness"
      },
      {
        "rshares": 567603623,
        "voter": "bunny"
      },
      {
        "rshares": 41948298509,
        "voter": "bue"
      },
      {
        "rshares": 1324164960,
        "voter": "mini"
      },
      {
        "rshares": 170709221,
        "voter": "moon"
      },
      {
        "rshares": 1813610822120,
        "voter": "joseph"
      },
      {
        "rshares": 108871922542,
        "voter": "smooth.witness"
      },
      {
        "rshares": 51208392605,
        "voter": "twiceuponatime"
      },
      {
        "rshares": 139867989371,
        "voter": "indominon"
      },
      {
        "rshares": 2942087618871,
        "voter": "onceuponatime"
      },
      {
        "rshares": 728571343037,
        "voter": "marginal"
      },
      {
        "rshares": 937174079758,
        "voter": "cass"
      },
      {
        "rshares": 76036949216,
        "voter": "vault"
      },
      {
        "rshares": 496873319,
        "voter": "healthcare"
      },
      {
        "rshares": 725575461,
        "voter": "daniel.pan"
      },
      {
        "rshares": 230145753,
        "voter": "helen.tan"
      },
      {
        "rshares": 410807696946,
        "voter": "chryspano"
      },
      {
        "rshares": 9521769889,
        "voter": "acidyo"
      },
      {
        "rshares": 19196002726,
        "voter": "mughat"
      },
      {
        "rshares": 47541496466,
        "voter": "nphacker"
      },
      {
        "rshares": 3892379945,
        "voter": "kennyskitchen"
      },
      {
        "rshares": 129268320437,
        "voter": "schro"
      },
      {
        "rshares": 92995154682,
        "voter": "thedashguy"
      },
      {
        "rshares": 213701132994,
        "voter": "lukestokes"
      },
      {
        "rshares": 276395602,
        "voter": "carlgetalada"
      },
      {
        "rshares": 28736613783,
        "voter": "catchfire"
      },
      {
        "rshares": 5894409181,
        "voter": "quintanilla"
      },
      {
        "rshares": 41089533337,
        "voter": "bacchist"
      },
      {
        "rshares": 8483258053,
        "voter": "cannav"
      },
      {
        "rshares": 65583674268,
        "voter": "discombobulated"
      },
      {
        "rshares": 1259117194,
        "voter": "chrisj"
      },
      {
        "rshares": 3704243578,
        "voter": "krystle"
      },
      {
        "rshares": 14629758637,
        "voter": "artakan"
      },
      {
        "rshares": 6012406044,
        "voter": "phenom"
      },
      {
        "rshares": 17402129371,
        "voter": "crazymumzysa"
      },
      {
        "rshares": 4183080661,
        "voter": "bbrewer"
      },
      {
        "rshares": 35472659687,
        "voter": "fatboy"
      },
      {
        "rshares": 3978086691,
        "voter": "beanz"
      },
      {
        "rshares": 22725564707,
        "voter": "solidgold"
      },
      {
        "rshares": 24344116072,
        "voter": "jasonstaggers"
      },
      {
        "rshares": 6603057948,
        "voter": "najoh"
      },
      {
        "rshares": 12993857503,
        "voter": "capitalism"
      },
      {
        "rshares": 4872113322,
        "voter": "satoshifpv"
      },
      {
        "rshares": 2818362970,
        "voter": "aboundlessworld"
      },
      {
        "rshares": 2636752145,
        "voter": "oflyhigh"
      },
      {
        "rshares": 3558963294,
        "voter": "randyclemens"
      },
      {
        "rshares": 377494461,
        "voter": "alifton"
      },
      {
        "rshares": 26914242849,
        "voter": "bitcalm"
      },
      {
        "rshares": 1692339912,
        "voter": "davidbrogan"
      },
      {
        "rshares": 56779364,
        "voter": "negoshi"
      },
      {
        "rshares": 50997147,
        "voter": "david.prochnow"
      },
      {
        "rshares": 50258926,
        "voter": "doze49"
      },
      {
        "rshares": 61941319,
        "voter": "fraterralph"
      },
      {
        "rshares": 52891748,
        "voter": "onlyspeakslies"
      }
    ],
    "author": "lukestokes",
    "author_payout_value": "0.000 HBD",
    "author_reputation": 66.1,
    "beneficiaries": [],
    "blacklists": [],
    "body": "`dictatorship`,  `hindenburg`, `titanic` and a hitler meme are all a bit too over the top for me. I'm glad you're voicing your concerns, but a \"Dan must be stopped\" call to action against the very person who created what we are all enjoying isn't (IMO) the best approach for having a respectful dialogue about the issue. It seems many are already discussing the issue on github and voicing their disapproval there. We'll see where it goes from here, and it's definitely something to keep an eye on. For that, I thank you, but I won't give you my vote on this post because I think the tone is counter productive to a rational, open conversation about the issue. I may be wrong and maybe a more alarmist tone is called for. As with many things, we shall see over time.",
    "category": "steem",
    "children": 38,
    "created": "2016-08-17T04:58:03",
    "curator_payout_value": "0.000 HBD",
    "depth": 1,
    "is_paidout": false,
    "json_metadata": {
      "tags": [
        "steem"
      ]
    },
    "max_accepted_payout": "1000000.000 HBD",
    "net_rshares": 31034930180364,
    "parent_author": "bacchist",
    "parent_permlink": "dan-needs-to-be-stopped",
    "payout": 164.026,
    "payout_at": "2016-08-24T04:58:03",
    "pending_payout_value": "164.026 HBD",
    "percent_hbd": 10000,
    "permlink": "re-bacchist-dan-needs-to-be-stopped-20160817t045803929z",
    "post_id": 847282,
    "promoted": "0.000 HBD",
    "replies": [],
    "stats": {
      "flag_weight": 0.0,
      "gray": false,
      "hide": false,
      "total_votes": 62
    },
    "title": "RE: Dan needs to be stopped",
    "updated": "2016-08-17T12:34:09",
    "url": "/steem/@bacchist/dan-needs-to-be-stopped#@lukestokes/re-bacchist-dan-needs-to-be-stopped-20160817t045803929z"
  },
  {
    "active_votes": [
      {
        "rshares": 28300878156066,
        "voter": "dantheman"
      },
      {
        "rshares": 636585679281,
        "voter": "smooth"
      },
      {
        "rshares": 6549727125575,
        "voter": "wackou"
      },
      {
        "rshares": 3099954800,
        "voter": "boy"
      },
      {
        "rshares": 3763461212,
        "voter": "bue-witness"
      },
      {
        "rshares": 690406462,
        "voter": "bunny"
      },
      {
        "rshares": 54138246944,
        "voter": "bue"
      },
      {
        "rshares": 1661302953,
        "voter": "mini"
      },
      {
        "rshares": 213684579,
        "voter": "moon"
      },
      {
        "rshares": 251709705259,
        "voter": "lovejoy"
      },
      {
        "rshares": 2511125853605,
        "voter": "recursive"
      },
      {
        "rshares": 114398906816,
        "voter": "smooth.witness"
      },
      {
        "rshares": 622843501,
        "voter": "healthcare"
      },
      {
        "rshares": 967387415,
        "voter": "daniel.pan"
      },
      {
        "rshares": 288174518,
        "voter": "helen.tan"
      },
      {
        "rshares": 71291626568,
        "voter": "eric-boucher"
      },
      {
        "rshares": 5223833163,
        "voter": "christoryan"
      },
      {
        "rshares": 4999497773,
        "voter": "zelgald1"
      },
      {
        "rshares": 63437792,
        "voter": "tommycordero"
      },
      {
        "rshares": 11501604178,
        "voter": "darrantrute"
      },
      {
        "rshares": 615797359,
        "voter": "nebcat"
      },
      {
        "rshares": 381939549,
        "voter": "kiwideb"
      },
      {
        "rshares": 444650943,
        "voter": "floweroflife"
      },
      {
        "rshares": 807251193,
        "voter": "kingarbinv"
      },
      {
        "rshares": 10978877529,
        "voter": "skypilot"
      },
      {
        "rshares": 2610482432,
        "voter": "robcichocki"
      }
    ],
    "author": "recursive",
    "author_payout_value": "0.000 HBD",
    "author_reputation": 60.6,
    "beneficiaries": [],
    "blacklists": [],
    "body": "> This state of being creates a paradox for those with aims to change the world. If you are at complete peace with the way things are, then what motive is there to change the world? On what basis should you choose to act? This is the very heart of economics, the study of human action. This is the root of my current internal conflict.\n\nMahayana (Great Vehicle) buddhism may have an answer to that apparent conflict you are experiencing. According to the Mahayana tradition, true enlightenment cannot be reached merely by cultivating inner peace and eliminating delusions and suffering in isolation of other people, because doing so remains a selfish endeavor that implies that one hasn't truly reached the state of selflessness that underlies enlightenment. \n\nInstead, at some point along the path to enlightenment, one realizes that one's true nature is that of being conscious: a pure form of benevolent consciousness without shape and boundaries, and that permeates all that is. At that point, one doesn't seek anymore to deliver from suffering that fictious \"ego\" entity that has long been identified as a delusion, but instead seeks to deliver all of consciousness from suffering, including all sentient beings. This intrinsic benevolence of consciousness is what we call \"compassion\", and is the central tenet of Mahayana tradition. It is both the ultimate goal and the mean to reach that goal. By cultivating compassion, one reveals his compassionate nature, and this compassion is what will eventually lead to a contradiction with the ego and materialistic delusions, and their dissolution. \n\nFrom that perspective, he who seeks enlightenment will first accept reality as it is, and reach what first feels as a form of blissful and permanent internal peace (this is typically what Hinayana / Small Vehicule buddhism think is enlightenment, and this includes some famous western self-help authors), but will soon realize that there is one type of suffering that transcends attachment and the delusion of self and that can't be addressed by meditation and spiritual practice alone but on the contrary become more and more sharp: the suffering of seeing others suffering within this reality. This is because suffering is a noble truth, a truth that can't be denied, ignored or accepted but simply acknowledged as being true. This leads to a paradox where embracing reality leads to embracing a form of suffering that can only be eliminated by altering reality which cannot be achieved if one simply embraces reality. The only solution to this apparent paradox is to realize that reality is impermanent and can be embraced while being altered. It should be accepted in the present so that one may live free from delusions and attachment, and reduce suffering to the prime denominator of the quintessential and universally experienced suffering of being alive, while being actively shaped with all one's will and energy into a future reality where other sentient beings suffer less.\n\nUnder the mahayana assumption that consciousness is intrinsically benevolent and unable not to experience compassion as it gets closer to enlightenment, acting with all one's will and energy against the corruption that permeates reality and increases suffering of other sentient beings is not only consistent, but the one and only true way to enlightenment.\n\nArguably, government is one such big chunk of pervasive corruption that has spread like weed in our consensual reality, and creates an inordinate amount of suffering. From that perspective, being anarchist isn't only a political view, it is a statement of compassion. Ask the Dalai Lama what he thinks about governments...",
    "category": "philosophy",
    "children": 1,
    "created": "2016-09-01T18:48:39",
    "curator_payout_value": "0.000 HBD",
    "depth": 1,
    "is_paidout": false,
    "json_metadata": {
      "tags": [
        "philosophy"
      ]
    },
    "max_accepted_payout": "1000000.000 HBD",
    "net_rshares": 38538789887465,
    "parent_author": "dantheman",
    "parent_permlink": "why-do-we-fight-to-change-the-world",
    "payout": 160.617,
    "payout_at": "2016-09-08T18:48:39",
    "pending_payout_value": "160.617 HBD",
    "percent_hbd": 10000,
    "permlink": "re-dantheman-why-do-we-fight-to-change-the-world-20160901t184948317z",
    "post_id": 1088540,
    "promoted": "0.000 HBD",
    "replies": [],
    "stats": {
      "flag_weight": 0.0,
      "gray": false,
      "hide": false,
      "total_votes": 26
    },
    "title": "RE: Why do we fight to change the world?",
    "updated": "2016-09-01T19:11:48",
    "url": "/philosophy/@dantheman/why-do-we-fight-to-change-the-world#@recursive/re-dantheman-why-do-we-fight-to-change-the-world-20160901t184948317z"
  }
]
