{
  "id": 1,
  "jsonrpc": "2.0",
  "result": [
    {
      "active_votes": [],
      "author": "chitty",
      "author_payout_value": "0.000 HBD",
      "author_reputation": 66.16,
      "beneficiaries": [],
      "blacklists": [],
      "body": "But this is not an issue of Top Witnesses vs Backup witnesses. This is an issue that involves all members of the Steemit. If top witnesses keep receiving 1,370 Steems per day, their voting influence will keep growing while the rest of the users see their voting power diminished.",
      "category": "steemit",
      "children": 0,
      "created": "2016-09-15T18:52:09",
      "curator_payout_value": "0.000 HBD",
      "depth": 4,
      "is_paidout": false,
      "json_metadata": {
        "tags": [
          "steemit"
        ]
      },
      "max_accepted_payout": "1000000.000 HBD",
      "net_rshares": 0,
      "parent_author": "gtg",
      "parent_permlink": "re-chitty-re-gtg-re-chitty-a-balanced-voting-system-is-impossible-with-current-witness-s-payouts-20160915t184349883z",
      "payout": 0.0,
      "payout_at": "2016-09-22T18:52:09",
      "pending_payout_value": "0.000 HBD",
      "percent_hbd": 10000,
      "permlink": "re-gtg-re-chitty-re-gtg-re-chitty-a-balanced-voting-system-is-impossible-with-current-witness-s-payouts-20160915t185208490z",
      "post_id": 1257479,
      "promoted": "0.000 HBD",
      "replies": [],
      "stats": {
        "flag_weight": 0.0,
        "gray": false,
        "hide": false,
        "total_votes": 0
      },
      "title": "RE: A balanced voting system is impossible with current witness\u2019s payouts.",
      "updated": "2016-09-15T18:52:09",
      "url": "/steemit/@chitty/a-balanced-voting-system-is-impossible-with-current-witness-s-payouts#@chitty/re-gtg-re-chitty-re-gtg-re-chitty-a-balanced-voting-system-is-impossible-with-current-witness-s-payouts-20160915t185208490z"
    },
    {
      "active_votes": [],
      "author": "woman-onthe-wing",
      "author_payout_value": "0.000 HBD",
      "author_reputation": 50.31,
      "beneficiaries": [],
      "blacklists": [],
      "body": "Thanks very much!",
      "category": "introducemyself",
      "children": 0,
      "created": "2016-09-15T15:04:09",
      "curator_payout_value": "0.000 HBD",
      "depth": 2,
      "is_paidout": false,
      "json_metadata": {
        "tags": [
          "introducemyself"
        ]
      },
      "max_accepted_payout": "1000000.000 HBD",
      "net_rshares": 0,
      "parent_author": "gtg",
      "parent_permlink": "re-woman-onthe-wing-introduction-post-gold-at-the-end-of-the-rainbow-on-the-emerald-isle-20160915t071444722z",
      "payout": 0.0,
      "payout_at": "2016-09-22T15:04:09",
      "pending_payout_value": "0.000 HBD",
      "percent_hbd": 10000,
      "permlink": "re-gtg-re-woman-onthe-wing-introduction-post-gold-at-the-end-of-the-rainbow-on-the-emerald-isle-20160915t150410237z",
      "post_id": 1254914,
      "promoted": "0.000 HBD",
      "replies": [],
      "stats": {
        "flag_weight": 0.0,
        "gray": false,
        "hide": false,
        "total_votes": 0
      },
      "title": "RE: Introduction post - Gold at the end of the rainbow... On the Emerald Isle",
      "updated": "2016-09-15T15:04:09",
      "url": "/introducemyself/@woman-onthe-wing/introduction-post-gold-at-the-end-of-the-rainbow-on-the-emerald-isle#@woman-onthe-wing/re-gtg-re-woman-onthe-wing-introduction-post-gold-at-the-end-of-the-rainbow-on-the-emerald-isle-20160915t150410237z"
    },
    {
      "active_votes": [
        {
          "rshares": 1000247174970,
          "voter": "liondani"
        }
      ],
      "author": "chitty",
      "author_payout_value": "0.000 HBD",
      "author_reputation": 66.16,
      "beneficiaries": [],
      "blacklists": [],
      "body": "This is true, but you have to agree that the gap between top 19 witnesses and the rest of the users is getting bigger... nobody buys 1,370 steem per day, every day!... its impossible to match. The result of this is richer witnesses with more influence and \"normal\" users with very little to no influence at all.",
      "category": "steemit",
      "children": 2,
      "created": "2016-09-15T14:21:09",
      "curator_payout_value": "0.000 HBD",
      "depth": 2,
      "is_paidout": false,
      "json_metadata": {
        "tags": [
          "steemit"
        ]
      },
      "max_accepted_payout": "1000000.000 HBD",
      "net_rshares": 1000247174970,
      "parent_author": "gtg",
      "parent_permlink": "re-chitty-a-balanced-voting-system-is-impossible-with-current-witness-s-payouts-20160915t141551322z",
      "payout": 0.271,
      "payout_at": "2016-09-22T14:21:09",
      "pending_payout_value": "0.271 HBD",
      "percent_hbd": 10000,
      "permlink": "re-gtg-re-chitty-a-balanced-voting-system-is-impossible-with-current-witness-s-payouts-20160915t142108544z",
      "post_id": 1254398,
      "promoted": "0.000 HBD",
      "replies": [],
      "stats": {
        "flag_weight": 0.0,
        "gray": false,
        "hide": false,
        "total_votes": 1
      },
      "title": "RE: A balanced voting system is impossible with current witness\u2019s payouts.",
      "updated": "2016-09-15T14:21:09",
      "url": "/steemit/@chitty/a-balanced-voting-system-is-impossible-with-current-witness-s-payouts#@chitty/re-gtg-re-chitty-a-balanced-voting-system-is-impossible-with-current-witness-s-payouts-20160915t142108544z"
    },
    {
      "active_votes": [],
      "author": "arcange",
      "author_payout_value": "0.000 HBD",
      "author_reputation": 55.76,
      "beneficiaries": [],
      "blacklists": [],
      "body": "Lol. You're welcome!\nBut I suspect you're working hard to hit the top 20 chart with your two comments :p",
      "category": "stats",
      "children": 1,
      "created": "2016-09-15T13:24:15",
      "curator_payout_value": "0.000 HBD",
      "depth": 4,
      "is_paidout": false,
      "json_metadata": {
        "tags": [
          "stats"
        ]
      },
      "max_accepted_payout": "1000000.000 HBD",
      "net_rshares": 0,
      "parent_author": "gtg",
      "parent_permlink": "re-arcange-re-gtg-re-arcange-steemsql-com-a-deep-analysis-of-steemians-gratefulness-20160915t131924290z",
      "payout": 0.0,
      "payout_at": "2016-09-22T13:24:15",
      "pending_payout_value": "0.000 HBD",
      "percent_hbd": 10000,
      "permlink": "re-gtg-re-arcange-re-gtg-re-arcange-steemsql-com-a-deep-analysis-of-steemians-gratefulness-20160915t132416244z",
      "post_id": 1253767,
      "promoted": "0.000 HBD",
      "replies": [],
      "stats": {
        "flag_weight": 0.0,
        "gray": false,
        "hide": false,
        "total_votes": 0
      },
      "title": "RE: [STEEMSQL] A deep analysis of Steemians gratefulness",
      "updated": "2016-09-15T13:24:15",
      "url": "/stats/@arcange/steemsql-com-a-deep-analysis-of-steemians-gratefulness#@arcange/re-gtg-re-arcange-re-gtg-re-arcange-steemsql-com-a-deep-analysis-of-steemians-gratefulness-20160915t132416244z"
    },
    {
      "active_votes": [],
      "author": "arcange",
      "author_payout_value": "0.000 HBD",
      "author_reputation": 55.76,
      "beneficiaries": [],
      "blacklists": [],
      "body": "That's the purpose of using FREETEXT() instead of CONTAINS()",
      "category": "stats",
      "children": 3,
      "created": "2016-09-15T13:06:18",
      "curator_payout_value": "0.000 HBD",
      "depth": 2,
      "is_paidout": false,
      "json_metadata": {
        "tags": [
          "stats"
        ]
      },
      "max_accepted_payout": "1000000.000 HBD",
      "net_rshares": 0,
      "parent_author": "gtg",
      "parent_permlink": "re-arcange-steemsql-com-a-deep-analysis-of-steemians-gratefulness-20160915t130410195z",
      "payout": 0.0,
      "payout_at": "2016-09-22T13:06:18",
      "pending_payout_value": "0.000 HBD",
      "percent_hbd": 10000,
      "permlink": "re-gtg-re-arcange-steemsql-com-a-deep-analysis-of-steemians-gratefulness-20160915t130619700z",
      "post_id": 1253599,
      "promoted": "0.000 HBD",
      "replies": [],
      "stats": {
        "flag_weight": 0.0,
        "gray": false,
        "hide": false,
        "total_votes": 0
      },
      "title": "RE: [STEEMSQL] A deep analysis of Steemians gratefulness",
      "updated": "2016-09-15T13:06:18",
      "url": "/stats/@arcange/steemsql-com-a-deep-analysis-of-steemians-gratefulness#@arcange/re-gtg-re-arcange-steemsql-com-a-deep-analysis-of-steemians-gratefulness-20160915t130619700z"
    },
    {
      "active_votes": [],
      "author": "gamer00",
      "author_payout_value": "0.000 HBD",
      "author_reputation": 42.73,
      "beneficiaries": [],
      "blacklists": [],
      "body": "Thank you!",
      "category": "introducemyself",
      "children": 0,
      "created": "2016-09-15T07:54:42",
      "curator_payout_value": "0.000 HBD",
      "depth": 2,
      "is_paidout": false,
      "json_metadata": {
        "tags": [
          "introducemyself"
        ]
      },
      "max_accepted_payout": "1000000.000 HBD",
      "net_rshares": 0,
      "parent_author": "gtg",
      "parent_permlink": "re-gamer00-hi-i-m-jaro-and-this-is-my-introductory-verification-post-20160915t071902704z",
      "payout": 0.0,
      "payout_at": "2016-09-22T07:54:42",
      "pending_payout_value": "0.000 HBD",
      "percent_hbd": 10000,
      "permlink": "re-gtg-re-gamer00-hi-i-m-jaro-and-this-is-my-introductory-verification-post-20160915t075443671z",
      "post_id": 1251777,
      "promoted": "0.000 HBD",
      "replies": [],
      "stats": {
        "flag_weight": 0.0,
        "gray": false,
        "hide": false,
        "total_votes": 0
      },
      "title": "RE: Hi! I'm Jaro and this is my introductory verification post!",
      "updated": "2016-09-15T07:54:42",
      "url": "/introducemyself/@gamer00/hi-i-m-jaro-and-this-is-my-introductory-verification-post#@gamer00/re-gtg-re-gamer00-hi-i-m-jaro-and-this-is-my-introductory-verification-post-20160915t075443671z"
    },
    {
      "active_votes": [],
      "author": "lilmisjenn",
      "author_payout_value": "0.000 HBD",
      "author_reputation": 54.45,
      "beneficiaries": [],
      "blacklists": [],
      "body": "See there is a positive to everything! That does sound like quite the cold compromise though! You should post up some pictures of the cherries! I love cherry picking! Yumm!",
      "category": "food",
      "children": 0,
      "created": "2016-09-01T14:18:48",
      "curator_payout_value": "0.000 HBD",
      "depth": 4,
      "is_paidout": false,
      "json_metadata": {
        "tags": [
          "food"
        ]
      },
      "max_accepted_payout": "1000000.000 HBD",
      "net_rshares": 0,
      "parent_author": "gtg",
      "parent_permlink": "re-lilmisjenn-re-gtg-re-lilmisjenn-do-you-have-a-drinking-problem-20160829t070902349z",
      "payout": 0.0,
      "payout_at": "2016-09-08T14:18:48",
      "pending_payout_value": "0.000 HBD",
      "percent_hbd": 10000,
      "permlink": "re-gtg-re-lilmisjenn-re-gtg-re-lilmisjenn-do-you-have-a-drinking-problem-20160901t141846983z",
      "post_id": 1084797,
      "promoted": "0.000 HBD",
      "replies": [],
      "stats": {
        "flag_weight": 0.0,
        "gray": false,
        "hide": false,
        "total_votes": 0
      },
      "title": "RE: Do you have a drinking problem??",
      "updated": "2016-09-01T14:18:48",
      "url": "/food/@lilmisjenn/do-you-have-a-drinking-problem#@lilmisjenn/re-gtg-re-lilmisjenn-re-gtg-re-lilmisjenn-do-you-have-a-drinking-problem-20160901t141846983z"
    },
    {
      "active_votes": [
        {
          "rshares": 28864035808,
          "voter": "noaommerrr"
        },
        {
          "rshares": -100075931,
          "voter": "cheetah20"
        },
        {
          "rshares": -123906339,
          "voter": "cheetah19"
        },
        {
          "rshares": -99152161,
          "voter": "cheetah21"
        },
        {
          "rshares": -99151476,
          "voter": "cheetah22"
        }
      ],
      "author": "itay",
      "author_payout_value": "0.000 HBD",
      "author_reputation": 56.94,
      "beneficiaries": [],
      "blacklists": [],
      "body": "I upvoted You",
      "category": "witness-category",
      "children": 0,
      "created": "2016-08-31T17:00:21",
      "curator_payout_value": "0.000 HBD",
      "depth": 1,
      "is_paidout": true,
      "json_metadata": {},
      "max_accepted_payout": "1000000.000 HBD",
      "net_rshares": 28441749901,
      "parent_author": "gtg",
      "parent_permlink": "witness-gtg",
      "payout": 0.0,
      "payout_at": "2016-09-05T05:17:57",
      "pending_payout_value": "0.000 HBD",
      "percent_hbd": 10000,
      "permlink": "re-witness-gtg",
      "post_id": 1073194,
      "promoted": "0.000 HBD",
      "replies": [],
      "stats": {
        "flag_weight": 0.0,
        "gray": false,
        "hide": false,
        "total_votes": 5
      },
      "title": "RE: Witness \"gtg\"",
      "updated": "2016-08-31T17:00:21",
      "url": "/witness-category/@gtg/witness-gtg#@itay/re-witness-gtg"
    },
    {
      "active_votes": [],
      "author": "melissarhiann",
      "author_payout_value": "0.000 HBD",
      "author_reputation": 25.0,
      "beneficiaries": [],
      "blacklists": [],
      "body": "Hi and thanks! I've been attempting to figure out how to add a picture. I'll get it at some point :)",
      "category": "introduceyourself",
      "children": 0,
      "created": "2016-08-31T02:16:54",
      "curator_payout_value": "0.000 HBD",
      "depth": 2,
      "is_paidout": false,
      "json_metadata": {
        "tags": [
          "introduceyourself"
        ]
      },
      "max_accepted_payout": "1000000.000 HBD",
      "net_rshares": 0,
      "parent_author": "gtg",
      "parent_permlink": "re-melissarhiann-lasting-impression-20160826t083943073z",
      "payout": 0.0,
      "payout_at": "2016-09-07T02:16:54",
      "pending_payout_value": "0.000 HBD",
      "percent_hbd": 10000,
      "permlink": "re-gtg-re-melissarhiann-lasting-impression-20160831t021708505z",
      "post_id": 1065125,
      "promoted": "0.000 HBD",
      "replies": [],
      "stats": {
        "flag_weight": 0.0,
        "gray": false,
        "hide": false,
        "total_votes": 0
      },
      "title": "RE: Lasting Impression",
      "updated": "2016-08-31T02:16:54",
      "url": "/introduceyourself/@melissarhiann/lasting-impression#@melissarhiann/re-gtg-re-melissarhiann-lasting-impression-20160831t021708505z"
    },
    {
      "active_votes": [],
      "author": "djm34",
      "author_payout_value": "0.000 HBD",
      "author_reputation": 59.04,
      "beneficiaries": [],
      "blacklists": [],
      "body": "actually I won't send, however I expect to receive... lol (as you can see wanting to know  who is who is a totally legitimate question...)",
      "category": "steem",
      "children": 1,
      "created": "2016-08-30T17:06:09",
      "curator_payout_value": "0.000 HBD",
      "depth": 3,
      "is_paidout": false,
      "json_metadata": {
        "tags": [
          "steem"
        ]
      },
      "max_accepted_payout": "1000000.000 HBD",
      "net_rshares": 0,
      "parent_author": "gtg",
      "parent_permlink": "re-djm34-re-picokernel-bounty-community-bounty-for-open-source-gpu-miner-20160830t161109296z",
      "payout": 0.0,
      "payout_at": "2016-09-06T17:06:09",
      "pending_payout_value": "0.000 HBD",
      "percent_hbd": 10000,
      "permlink": "re-gtg-re-djm34-re-picokernel-bounty-community-bounty-for-open-source-gpu-miner-20160830t170611218z",
      "post_id": 1058491,
      "promoted": "0.000 HBD",
      "replies": [],
      "stats": {
        "flag_weight": 0.0,
        "gray": false,
        "hide": false,
        "total_votes": 0
      },
      "title": "RE: [Bounty] Community bounty for open source GPU miner.",
      "updated": "2016-08-30T17:07:15",
      "url": "/steem/@picokernel/bounty-community-bounty-for-open-source-gpu-miner#@djm34/re-gtg-re-djm34-re-picokernel-bounty-community-bounty-for-open-source-gpu-miner-20160830t170611218z"
    },
    {
      "active_votes": [
        {
          "rshares": 10013306404,
          "voter": "richman"
        },
        {
          "rshares": 13209570416,
          "voter": "carlidos"
        },
        {
          "rshares": 53474677,
          "voter": "riv"
        }
      ],
      "author": "complexring",
      "author_payout_value": "0.000 HBD",
      "author_reputation": 67.94,
      "beneficiaries": [],
      "blacklists": [],
      "body": "I don't see where @djm34 said that he doesn't trust @picokernel.  That is a rather harsh accusation when all this user has done is stated he doesn't believe they are gpu miners.  I see nothing else in his comment beyond that.",
      "category": "steem",
      "children": 3,
      "created": "2016-08-30T16:40:03",
      "curator_payout_value": "0.000 HBD",
      "depth": 3,
      "is_paidout": false,
      "json_metadata": {
        "tags": [
          "steem"
        ],
        "users": [
          "djm34",
          "picokernel"
        ]
      },
      "max_accepted_payout": "1000000.000 HBD",
      "net_rshares": 23276351497,
      "parent_author": "gtg",
      "parent_permlink": "re-djm34-re-picokernel-bounty-community-bounty-for-open-source-gpu-miner-20160830t161109296z",
      "payout": 0.01,
      "payout_at": "2016-09-06T16:40:03",
      "pending_payout_value": "0.010 HBD",
      "percent_hbd": 10000,
      "permlink": "re-gtg-re-djm34-re-picokernel-bounty-community-bounty-for-open-source-gpu-miner-20160830t164004703z",
      "post_id": 1058138,
      "promoted": "0.000 HBD",
      "replies": [],
      "stats": {
        "flag_weight": 0.0,
        "gray": false,
        "hide": false,
        "total_votes": 3
      },
      "title": "RE: [Bounty] Community bounty for open source GPU miner.",
      "updated": "2016-08-30T16:40:03",
      "url": "/steem/@picokernel/bounty-community-bounty-for-open-source-gpu-miner#@complexring/re-gtg-re-djm34-re-picokernel-bounty-community-bounty-for-open-source-gpu-miner-20160830t164004703z"
    },
    {
      "active_votes": [],
      "author": "emsenn",
      "author_payout_value": "0.000 HBD",
      "author_reputation": 47.61,
      "beneficiaries": [],
      "blacklists": [],
      "body": "Thanks! I'm really enjoying the site so far - beyond the technical aspects, the content here all seems pretty high-quality.",
      "category": "introduceyourself",
      "children": 0,
      "created": "2016-08-29T22:45:33",
      "curator_payout_value": "0.000 HBD",
      "depth": 2,
      "is_paidout": false,
      "json_metadata": {
        "tags": [
          "introduceyourself"
        ]
      },
      "max_accepted_payout": "1000000.000 HBD",
      "net_rshares": 0,
      "parent_author": "gtg",
      "parent_permlink": "re-emsenn-introducing-myself-bitcoin-early-adopter-content-producer-and-designer-20160829t213519226z",
      "payout": 0.0,
      "payout_at": "2016-09-05T22:45:33",
      "pending_payout_value": "0.000 HBD",
      "percent_hbd": 10000,
      "permlink": "re-gtg-re-emsenn-introducing-myself-bitcoin-early-adopter-content-producer-and-designer-20160829t224534386z",
      "post_id": 1048132,
      "promoted": "0.000 HBD",
      "replies": [],
      "stats": {
        "flag_weight": 0.0,
        "gray": false,
        "hide": false,
        "total_votes": 0
      },
      "title": "RE: Introducing Myself: Bitcoin Early Adopter, Content Producer & Designer",
      "updated": "2016-08-29T22:45:33",
      "url": "/introduceyourself/@emsenn/introducing-myself-bitcoin-early-adopter-content-producer-and-designer#@emsenn/re-gtg-re-emsenn-introducing-myself-bitcoin-early-adopter-content-producer-and-designer-20160829t224534386z"
    },
    {
      "active_votes": [],
      "author": "lilmisjenn",
      "author_payout_value": "0.000 HBD",
      "author_reputation": 54.45,
      "beneficiaries": [],
      "blacklists": [],
      "body": "It took me a long time until I could say I have them from my own garden. That is why I am so appreciative and can make such a silly post over such simplicity! It is a skill I have also worked on mastering over the years. Thanks for your comment and for appreciating my fruit tree! I shall grow it for all that cannot and be extra grateful for its produce. What is your climate like? I also have restrictions on what I can grow around here due to climate. But its a small sacrifice for the serenity.",
      "category": "food",
      "children": 2,
      "created": "2016-08-28T11:46:00",
      "curator_payout_value": "0.000 HBD",
      "depth": 2,
      "is_paidout": false,
      "json_metadata": {
        "tags": [
          "food"
        ]
      },
      "max_accepted_payout": "1000000.000 HBD",
      "net_rshares": 0,
      "parent_author": "gtg",
      "parent_permlink": "re-lilmisjenn-do-you-have-a-drinking-problem-20160826t085857261z",
      "payout": 0.0,
      "payout_at": "2016-09-04T11:46:00",
      "pending_payout_value": "0.000 HBD",
      "percent_hbd": 10000,
      "permlink": "re-gtg-re-lilmisjenn-do-you-have-a-drinking-problem-20160828t114559502z",
      "post_id": 1025461,
      "promoted": "0.000 HBD",
      "replies": [],
      "stats": {
        "flag_weight": 0.0,
        "gray": false,
        "hide": false,
        "total_votes": 0
      },
      "title": "RE: Do you have a drinking problem??",
      "updated": "2016-08-28T11:46:00",
      "url": "/food/@lilmisjenn/do-you-have-a-drinking-problem#@lilmisjenn/re-gtg-re-lilmisjenn-do-you-have-a-drinking-problem-20160828t114559502z"
    },
    {
      "active_votes": [],
      "author": "timcliff",
      "author_payout_value": "0.000 HBD",
      "author_reputation": 57.15,
      "beneficiaries": [],
      "blacklists": [],
      "body": "I've been mining since last Friday and haven't found a block yet, so there are no witness details for my account yet. I wanted to check the \"total_missed\" count, since it sounds like this post could be describing my issue. After talking to peeps on Steemit chat, it sounds like I need to change the keys I'm using. I'm currently using my 'owner private' key for both.",
      "category": "mining",
      "children": 1,
      "created": "2016-08-27T15:51:15",
      "curator_payout_value": "0.000 HBD",
      "depth": 3,
      "is_paidout": false,
      "json_metadata": {
        "tags": [
          "mining"
        ]
      },
      "max_accepted_payout": "1000000.000 HBD",
      "net_rshares": 0,
      "parent_author": "gtg",
      "parent_permlink": "re-timcliff-re-gtg-missing-rewards-while-mining-20160827t153756820z",
      "payout": 0.0,
      "payout_at": "2016-09-03T15:51:15",
      "pending_payout_value": "0.000 HBD",
      "percent_hbd": 10000,
      "permlink": "re-gtg-re-timcliff-re-gtg-missing-rewards-while-mining-20160827t155116406z",
      "post_id": 1014254,
      "promoted": "0.000 HBD",
      "replies": [],
      "stats": {
        "flag_weight": 0.0,
        "gray": false,
        "hide": false,
        "total_votes": 0
      },
      "title": "RE: Missing rewards while mining - common mistake with keys",
      "updated": "2016-08-27T15:51:15",
      "url": "/mining/@gtg/missing-rewards-while-mining#@timcliff/re-gtg-re-timcliff-re-gtg-missing-rewards-while-mining-20160827t155116406z"
    },
    {
      "active_votes": [],
      "author": "timcliff",
      "author_payout_value": "0.000 HBD",
      "author_reputation": 57.15,
      "beneficiaries": [],
      "blacklists": [],
      "body": "Is there a way to check the \"total_missed\" count without using cli_wallet?",
      "category": "mining",
      "children": 3,
      "created": "2016-08-27T14:13:18",
      "curator_payout_value": "0.000 HBD",
      "depth": 1,
      "is_paidout": false,
      "json_metadata": {
        "tags": [
          "mining"
        ]
      },
      "max_accepted_payout": "1000000.000 HBD",
      "net_rshares": 0,
      "parent_author": "gtg",
      "parent_permlink": "missing-rewards-while-mining",
      "payout": 0.0,
      "payout_at": "2016-09-03T14:13:18",
      "pending_payout_value": "0.000 HBD",
      "percent_hbd": 10000,
      "permlink": "re-gtg-missing-rewards-while-mining-20160827t141319137z",
      "post_id": 1013124,
      "promoted": "0.000 HBD",
      "replies": [],
      "stats": {
        "flag_weight": 0.0,
        "gray": false,
        "hide": false,
        "total_votes": 0
      },
      "title": "RE: Missing rewards while mining - common mistake with keys",
      "updated": "2016-08-27T14:13:18",
      "url": "/mining/@gtg/missing-rewards-while-mining#@timcliff/re-gtg-missing-rewards-while-mining-20160827t141319137z"
    },
    {
      "active_votes": [],
      "author": "eternalmoon",
      "author_payout_value": "0.000 HBD",
      "author_reputation": 25.44,
      "beneficiaries": [],
      "blacklists": [],
      "body": "I wanted to, I just didn't know how. But someone did link me to a thing. Thanks for the advice!\nP.S. Cats are adorable! :D",
      "category": "aboutme",
      "children": 1,
      "created": "2016-08-27T04:15:48",
      "curator_payout_value": "0.000 HBD",
      "depth": 2,
      "is_paidout": false,
      "json_metadata": {
        "tags": [
          "aboutme"
        ]
      },
      "max_accepted_payout": "1000000.000 HBD",
      "net_rshares": 0,
      "parent_author": "gtg",
      "parent_permlink": "re-eternalmoon-this-is-my-about-me-entry-enjoy-20160826t094835368z",
      "payout": 0.0,
      "payout_at": "2016-09-03T04:15:48",
      "pending_payout_value": "0.000 HBD",
      "percent_hbd": 10000,
      "permlink": "re-gtg-re-eternalmoon-this-is-my-about-me-entry-enjoy-20160827t041549494z",
      "post_id": 1008518,
      "promoted": "0.000 HBD",
      "replies": [],
      "stats": {
        "flag_weight": 0.0,
        "gray": false,
        "hide": false,
        "total_votes": 0
      },
      "title": "RE: This is my about me entry (: Enjoy~",
      "updated": "2016-08-27T04:15:48",
      "url": "/aboutme/@eternalmoon/this-is-my-about-me-entry-enjoy#@eternalmoon/re-gtg-re-eternalmoon-this-is-my-about-me-entry-enjoy-20160827t041549494z"
    },
    {
      "active_votes": [],
      "author": "ania",
      "author_payout_value": "0.000 HBD",
      "author_reputation": 29.16,
      "beneficiaries": [],
      "blacklists": [],
      "body": "Thank you Gandalf :)",
      "category": "introduceyourself",
      "children": 0,
      "created": "2016-08-26T21:16:45",
      "curator_payout_value": "0.000 HBD",
      "depth": 2,
      "is_paidout": false,
      "json_metadata": {
        "tags": [
          "introduceyourself"
        ]
      },
      "max_accepted_payout": "1000000.000 HBD",
      "net_rshares": 0,
      "parent_author": "gtg",
      "parent_permlink": "re-ania-hello-world-20160826t185305711z",
      "payout": 0.0,
      "payout_at": "2016-09-02T21:16:45",
      "pending_payout_value": "0.000 HBD",
      "percent_hbd": 10000,
      "permlink": "re-gtg-re-ania-hello-world-20160826t211629005z",
      "post_id": 1004257,
      "promoted": "0.000 HBD",
      "replies": [],
      "stats": {
        "flag_weight": 0.0,
        "gray": false,
        "hide": false,
        "total_votes": 0
      },
      "title": "RE: Hello World!",
      "updated": "2016-08-26T21:16:45",
      "url": "/introduceyourself/@ania/hello-world#@ania/re-gtg-re-ania-hello-world-20160826t211629005z"
    },
    {
      "active_votes": [],
      "author": "orcish",
      "author_payout_value": "0.000 HBD",
      "author_reputation": 58.85,
      "beneficiaries": [],
      "blacklists": [],
      "body": "Thank you :)",
      "category": "zee",
      "children": 0,
      "created": "2016-08-26T18:58:27",
      "curator_payout_value": "0.000 HBD",
      "depth": 2,
      "is_paidout": false,
      "json_metadata": {
        "tags": [
          "zee"
        ]
      },
      "max_accepted_payout": "1000000.000 HBD",
      "net_rshares": 0,
      "parent_author": "gtg",
      "parent_permlink": "re-orcish-my-introduction-20160826t080607987z",
      "payout": 0.0,
      "payout_at": "2016-09-02T18:58:27",
      "pending_payout_value": "0.000 HBD",
      "percent_hbd": 10000,
      "permlink": "re-gtg-re-orcish-my-introduction-20160826t185829224z",
      "post_id": 1002119,
      "promoted": "0.000 HBD",
      "replies": [],
      "stats": {
        "flag_weight": 0.0,
        "gray": false,
        "hide": false,
        "total_votes": 0
      },
      "title": "RE: My Introduction",
      "updated": "2016-08-26T18:58:27",
      "url": "/zee/@orcish/my-introduction#@orcish/re-gtg-re-orcish-my-introduction-20160826t185829224z"
    },
    {
      "active_votes": [],
      "author": "bumblebrii",
      "author_payout_value": "0.000 HBD",
      "author_reputation": 25.0,
      "beneficiaries": [],
      "blacklists": [],
      "body": "Oh yes of course. I subscribe to a lot of different artists for my coloring pages. One had sent me the link to her blog and kind of just ended up sticking around and read a few blogs. Next thing i know, I signed up haha.",
      "category": "introduceyourself",
      "children": 0,
      "created": "2016-08-26T18:20:12",
      "curator_payout_value": "0.000 HBD",
      "depth": 2,
      "is_paidout": false,
      "json_metadata": {
        "tags": [
          "introduceyourself"
        ]
      },
      "max_accepted_payout": "1000000.000 HBD",
      "net_rshares": 0,
      "parent_author": "gtg",
      "parent_permlink": "re-bumblebrii-about-me-20160826t094306616z",
      "payout": 0.0,
      "payout_at": "2016-09-02T18:20:12",
      "pending_payout_value": "0.000 HBD",
      "percent_hbd": 10000,
      "permlink": "re-gtg-re-bumblebrii-about-me-20160826t182001959z",
      "post_id": 1001583,
      "promoted": "0.000 HBD",
      "replies": [],
      "stats": {
        "flag_weight": 0.0,
        "gray": false,
        "hide": false,
        "total_votes": 0
      },
      "title": "RE: About me",
      "updated": "2016-08-26T18:20:12",
      "url": "/introduceyourself/@bumblebrii/about-me#@bumblebrii/re-gtg-re-bumblebrii-about-me-20160826t182001959z"
    },
    {
      "active_votes": [],
      "author": "mynomadicyear",
      "author_payout_value": "0.000 HBD",
      "author_reputation": 48.79,
      "beneficiaries": [],
      "blacklists": [],
      "body": "Hi gtg, thanks for stopping by :)",
      "category": "travel",
      "children": 0,
      "created": "2016-08-26T13:29:27",
      "curator_payout_value": "0.000 HBD",
      "depth": 2,
      "is_paidout": false,
      "json_metadata": {
        "tags": [
          "travel"
        ]
      },
      "max_accepted_payout": "1000000.000 HBD",
      "net_rshares": 0,
      "parent_author": "gtg",
      "parent_permlink": "re-mynomadicyear-16-months-out-of-a-suitcase-20160826t090811525z",
      "payout": 0.0,
      "payout_at": "2016-09-02T13:29:27",
      "pending_payout_value": "0.000 HBD",
      "percent_hbd": 10000,
      "permlink": "re-gtg-re-mynomadicyear-16-months-out-of-a-suitcase-20160826t132929538z",
      "post_id": 997619,
      "promoted": "0.000 HBD",
      "replies": [],
      "stats": {
        "flag_weight": 0.0,
        "gray": false,
        "hide": false,
        "total_votes": 0
      },
      "title": "RE: 16 Months Out Of A Suitcase",
      "updated": "2016-08-26T13:29:27",
      "url": "/travel/@mynomadicyear/16-months-out-of-a-suitcase#@mynomadicyear/re-gtg-re-mynomadicyear-16-months-out-of-a-suitcase-20160826t132929538z"
    }
  ]
}
