[
  {
    "about": "",
    "avatar_url": "",
    "context": {},
    "created_at": "2016-09-15 18:01:30",
    "id": 92464,
    "is_nsfw": false,
    "lang": "en",
    "name": "hive-104647",
    "num_authors": 0,
    "num_pending": 0,
    "subscribers": 2,
    "sum_pending": 0,
    "title": "@hive-104647",
    "type_id": 1
  },
  {
    "about": "",
    "admins": [
      "agartha"
    ],
    "avatar_url": "",
    "context": {},
    "created_at": "2016-09-15 18:01:30",
    "id": 92462,
    "is_nsfw": false,
    "lang": "en",
    "name": "hive-188204",
    "num_authors": 0,
    "num_pending": 0,
    "subscribers": 2,
    "sum_pending": 0,
    "title": "@hive-188204",
    "type_id": 1
  },
  {
    "about": "",
    "avatar_url": "",
    "context": {},
    "created_at": "2016-09-15 18:01:30",
    "id": 92463,
    "is_nsfw": false,
    "lang": "en",
    "name": "hive-149232",
    "num_authors": 0,
    "num_pending": 0,
    "subscribers": 1,
    "sum_pending": 0,
    "title": "@hive-149232",
    "type_id": 1
  },
  {
    "about": "this is about field",
    "avatar_url": "",
    "context": {},
    "created_at": "2016-09-15 18:01:30",
    "id": 92465,
    "is_nsfw": true,
    "lang": "pl",
    "name": "hive-186713",
    "num_authors": 0,
    "num_pending": 0,
    "subscribers": 0,
    "sum_pending": 0,
    "title": "Test group",
    "type_id": 1
  },
  {
    "about": "",
    "avatar_url": "",
    "context": {},
    "created_at": "2016-09-15 18:01:30",
    "id": 92468,
    "is_nsfw": false,
    "lang": "en",
    "name": "hive-167892",
    "num_authors": 0,
    "num_pending": 0,
    "subscribers": 0,
    "sum_pending": 0,
    "title": "@hive-167892",
    "type_id": 1
  },
  {
    "about": "",
    "avatar_url": "",
    "context": {},
    "created_at": "2016-09-15 18:01:30",
    "id": 92461,
    "is_nsfw": false,
    "lang": "en",
    "name": "hive-103459",
    "num_authors": 0,
    "num_pending": 0,
    "subscribers": 0,
    "sum_pending": 0,
    "title": "@hive-103459",
    "type_id": 1
  }
]
