[
  {
    "active_votes": [
      {
        "rshares": 93765183,
        "voter": "gandalf"
      },
      {
        "rshares": 503120540,
        "voter": "paco-steem"
      },
      {
        "rshares": 5941196935,
        "voter": "spaninv"
      },
      {
        "rshares": 9975325205,
        "voter": "johnerfx"
      },
      {
        "rshares": 382763916645,
        "voter": "taoteh1221"
      },
      {
        "rshares": 393291314,
        "voter": "stiletto"
      },
      {
        "rshares": 867516503,
        "voter": "johnerminer"
      },
      {
        "rshares": 2480411371,
        "voter": "gary-smith"
      },
      {
        "rshares": 49812626493,
        "voter": "gtg"
      },
      {
        "rshares": 7921157988,
        "voter": "dasha"
      },
      {
        "rshares": 30256483332,
        "voter": "r4fken"
      },
      {
        "rshares": 4368322380,
        "voter": "thegoodguy"
      },
      {
        "rshares": 1775754972,
        "voter": "screasey"
      },
      {
        "rshares": 14634652647,
        "voter": "artakan"
      },
      {
        "rshares": 539611572,
        "voter": "qonq99"
      },
      {
        "rshares": 4923096406,
        "voter": "fishborne"
      },
      {
        "rshares": 1377860390,
        "voter": "steeminer"
      },
      {
        "rshares": 726277176,
        "voter": "spinner"
      },
      {
        "rshares": 16175410131,
        "voter": "thebluepanda"
      },
      {
        "rshares": 2362437240,
        "voter": "ullikume"
      },
      {
        "rshares": 2988929662,
        "voter": "mione"
      },
      {
        "rshares": 851733457,
        "voter": "steeminion"
      },
      {
        "rshares": 14814536032,
        "voter": "sponge-bob"
      },
      {
        "rshares": 512292840,
        "voter": "kev7000"
      },
      {
        "rshares": 289407830,
        "voter": "steeminnow"
      },
      {
        "rshares": 11301045003,
        "voter": "brains"
      }
    ],
    "author": "gtg",
    "author_payout_value": "0.000 HBD",
    "author_reputation": 57.34,
    "beneficiaries": [],
    "blacklists": [],
    "body": "Suppose your miner node found `pow2`, but your `total_missed` count increased, instead of generating a block.\n\nIf this happens, double check your keys used in the `config.ini` file.\n\n```\nwitness = \"minerwitness\"\n\nminer = [\"minerwitness\",\"WIF_ACTIVE_PRIVATE_KEY\"]\nminer = [\"miner1\",\"WIF_ACTIVE_PRIVATE_KEY\"]\nminer = [\"miner2\",\"WIF_ACTIVE_PRIVATE_KEY\"]\nminer = [\"miner3\",\"WIF_ACTIVE_PRIVATE_KEY\"]\n\nmining-threads = 4\n\nprivate-key = WIF_SIGNING_PRIVATE_KEY\n```\n\nUsing keys without paying attention to their roles is a common mistake. @artakan [found out](https://steemit.com/mining/@artakan/important-info-for-steem-miner-do-not-use-your-steemit-com-account \"@artakan - Do not use your steemit.com account for mining\")\nthat issues with missing blocks tend to happen when you are using an account that was created through [steemit.com](https://steemit.com/ \"Blogging is the new mining\") but seems to work for the mined account.\n\nSo erroneous configuration might work for your mined account by pure coincidence. In other words, the same key has been defined for all roles, so:  `WIF_ACTIVE_PRIVATE_KEY` is exactly the same as `WIF_SIGNING_PRIVATE_KEY`.\n\n![witness](https://grey.house/img/witness2.jpg)\n\nIf you believe this idea is of use and value to Steem, please vote for me as a [witness](https://steemit.com/witness-category/@gtg/witness-gtg \"witness-gtg\")\neither on [Steemit's Witnesses List](https://steemit.com/~witnesses \"Witnesses\") \nor by using your `cli_wallet` command:\n`vote_for_witness \"YOURACCOUNT\" \"gtg\" true true`",
    "category": "mining",
    "children": 6,
    "created": "2016-08-21T12:29:18",
    "curator_payout_value": "0.000 HBD",
    "depth": 0,
    "is_paidout": false,
    "json_metadata": {
      "links": [
        "https://steemit.com/mining/@artakan/important-info-for-steem-miner-do-not-use-your-steemit-com-account"
      ],
      "tags": [
        "mining",
        "steem",
        "steem-mining"
      ],
      "users": [
        "artakan"
      ]
    },
    "max_accepted_payout": "1000000.000 HBD",
    "net_rshares": 568650179247,
    "payout": 0.432,
    "payout_at": "2016-08-28T12:29:18",
    "pending_payout_value": "0.432 HBD",
    "percent_hbd": 10000,
    "permlink": "missing-rewards-while-mining",
    "post_id": 919311,
    "promoted": "0.000 HBD",
    "replies": [],
    "stats": {
      "flag_weight": 0.0,
      "gray": false,
      "hide": false,
      "total_votes": 26
    },
    "title": "Missing rewards while mining - common mistake with keys",
    "updated": "2016-08-21T13:02:30",
    "url": "/mining/@gtg/missing-rewards-while-mining"
  },
  {
    "active_votes": [
      {
        "rshares": 15699644918310,
        "voter": "dantheman"
      },
      {
        "rshares": 28854876032,
        "voter": "anonymous"
      },
      {
        "rshares": 8484864209575,
        "voter": "rainman"
      },
      {
        "rshares": 37843185317140,
        "voter": "blocktrades"
      },
      {
        "rshares": 2090496972549,
        "voter": "steemroller"
      },
      {
        "rshares": 74736896239,
        "voter": "donaldtrump"
      },
      {
        "rshares": 335906168314,
        "voter": "modprobe"
      },
      {
        "rshares": 6327415081631,
        "voter": "wackou"
      },
      {
        "rshares": 33308040478,
        "voter": "ihash"
      },
      {
        "rshares": 1714790303449,
        "voter": "rossco99"
      },
      {
        "rshares": 912226370971,
        "voter": "liondani"
      },
      {
        "rshares": 2468266694,
        "voter": "boy"
      },
      {
        "rshares": 1975751593462,
        "voter": "xeroc"
      },
      {
        "rshares": 2995664453,
        "voter": "bue-witness"
      },
      {
        "rshares": 567206353,
        "voter": "bunny"
      },
      {
        "rshares": 140485443412,
        "voter": "complexring"
      },
      {
        "rshares": 41823927396,
        "voter": "bue"
      },
      {
        "rshares": 1323151152,
        "voter": "mini"
      },
      {
        "rshares": 170623771,
        "voter": "moon"
      },
      {
        "rshares": 32232314318,
        "voter": "aizensou"
      },
      {
        "rshares": 108216927683,
        "voter": "bonapartist"
      },
      {
        "rshares": 91926650,
        "voter": "gandalf"
      },
      {
        "rshares": 358786763103,
        "voter": "boatymcboatface"
      },
      {
        "rshares": 297215153038,
        "voter": "officialfuzzy"
      },
      {
        "rshares": 773689504778,
        "voter": "pfunk"
      },
      {
        "rshares": 699635263343,
        "voter": "cass"
      },
      {
        "rshares": 9031234362,
        "voter": "proctologic"
      },
      {
        "rshares": 490844799,
        "voter": "healthcare"
      },
      {
        "rshares": 715096804,
        "voter": "daniel.pan"
      },
      {
        "rshares": 17603047506,
        "voter": "dedriss"
      },
      {
        "rshares": 273299516223,
        "voter": "chitty"
      },
      {
        "rshares": 104430794832,
        "voter": "linouxis9"
      },
      {
        "rshares": 230014747,
        "voter": "helen.tan"
      },
      {
        "rshares": 19049044601,
        "voter": "daowisp"
      },
      {
        "rshares": 14623675138,
        "voter": "valtr"
      },
      {
        "rshares": 116313551950,
        "voter": "craig-grant"
      },
      {
        "rshares": 60023860440,
        "voter": "lovelace"
      },
      {
        "rshares": 22731092140,
        "voter": "joelinux"
      },
      {
        "rshares": 79387789605,
        "voter": "kingscrown"
      },
      {
        "rshares": 471129748,
        "voter": "paco-steem"
      },
      {
        "rshares": 426310899,
        "voter": "ereismatias"
      },
      {
        "rshares": 5639122835,
        "voter": "spaninv"
      },
      {
        "rshares": 7733788543,
        "voter": "nate-atkins"
      },
      {
        "rshares": 1293680763,
        "voter": "karask"
      },
      {
        "rshares": 1399620602,
        "voter": "coar"
      },
      {
        "rshares": 1450957464,
        "voter": "murh"
      },
      {
        "rshares": 363704119,
        "voter": "edtorrez"
      },
      {
        "rshares": 537523962057,
        "voter": "cyber"
      },
      {
        "rshares": 14807486260,
        "voter": "thecryptofiend"
      },
      {
        "rshares": 9767505930,
        "voter": "johnerfx"
      },
      {
        "rshares": 368352936,
        "voter": "stiletto"
      },
      {
        "rshares": 55074207308,
        "voter": "juanmiguelsalas"
      },
      {
        "rshares": 832120526,
        "voter": "sunnyray"
      },
      {
        "rshares": 1021367115,
        "voter": "fjccoin"
      },
      {
        "rshares": 848329794,
        "voter": "johnerminer"
      },
      {
        "rshares": 44252149522,
        "voter": "geoffrey"
      },
      {
        "rshares": 84721328962,
        "voter": "truthtaco"
      },
      {
        "rshares": 636119227,
        "voter": "ben99"
      },
      {
        "rshares": 23438529510,
        "voter": "jparty"
      },
      {
        "rshares": 688449090,
        "voter": "mammasitta"
      },
      {
        "rshares": 39092198167,
        "voter": "gtg"
      },
      {
        "rshares": 3985585444,
        "voter": "fuck.off"
      },
      {
        "rshares": 5429573755,
        "voter": "iloveporn"
      },
      {
        "rshares": 1940554482,
        "voter": "the.bot"
      },
      {
        "rshares": 6603022993,
        "voter": "johnbradshaw"
      },
      {
        "rshares": 4605030334,
        "voter": "the.whale"
      },
      {
        "rshares": 169187275390,
        "voter": "dashpaymag"
      },
      {
        "rshares": 261023475510,
        "voter": "asmolokalo"
      },
      {
        "rshares": 275298167273,
        "voter": "roelandp"
      },
      {
        "rshares": 2098337565,
        "voter": "romanskv"
      },
      {
        "rshares": 4363425866,
        "voter": "unicornfarts"
      },
      {
        "rshares": 6486686814,
        "voter": "kakradetome"
      },
      {
        "rshares": 18902778277,
        "voter": "firepower"
      },
      {
        "rshares": 5644023807,
        "voter": "cmtzco"
      },
      {
        "rshares": 36679008975,
        "voter": "menta"
      },
      {
        "rshares": 4605414402,
        "voter": "vote"
      },
      {
        "rshares": 4674772839,
        "voter": "manoami"
      },
      {
        "rshares": 4848852438,
        "voter": "kissmybutt"
      },
      {
        "rshares": 461256359,
        "voter": "chamviet"
      },
      {
        "rshares": 1128966666,
        "voter": "anwar78"
      },
      {
        "rshares": 353762811,
        "voter": "rxhector"
      },
      {
        "rshares": 13452861200,
        "voter": "bitshares101"
      },
      {
        "rshares": 19873104999,
        "voter": "ausbitbank"
      },
      {
        "rshares": 184112913,
        "voter": "ardina"
      },
      {
        "rshares": 16336147500,
        "voter": "chriscrypto"
      },
      {
        "rshares": 4125723797,
        "voter": "gikitiki"
      },
      {
        "rshares": 119466748741,
        "voter": "jesta"
      },
      {
        "rshares": 3640445804,
        "voter": "thegoodguy"
      },
      {
        "rshares": 75967203632,
        "voter": "paco"
      },
      {
        "rshares": 19068212733,
        "voter": "showmethecoinz"
      },
      {
        "rshares": 24373102947,
        "voter": "igster"
      },
      {
        "rshares": 218061986,
        "voter": "zoicneo"
      },
      {
        "rshares": 322673293,
        "voter": "dr2073"
      },
      {
        "rshares": 12376071844,
        "voter": "jpiper20"
      },
      {
        "rshares": 252909161,
        "voter": "natali22"
      },
      {
        "rshares": 8322538338,
        "voter": "mustafaomar"
      },
      {
        "rshares": 13618277527,
        "voter": "all-of-us"
      },
      {
        "rshares": 919285482,
        "voter": "nika"
      },
      {
        "rshares": 6588394536,
        "voter": "geronimo"
      },
      {
        "rshares": 1901709746,
        "voter": "cryptohustlin"
      },
      {
        "rshares": 2473087864,
        "voter": "lostnuggett"
      },
      {
        "rshares": 31417575434,
        "voter": "paquito"
      },
      {
        "rshares": 108742011,
        "voter": "sergey22"
      },
      {
        "rshares": 575279737,
        "voter": "steeminer"
      },
      {
        "rshares": 35468156360,
        "voter": "fatboy"
      },
      {
        "rshares": 2204627326,
        "voter": "trisnawati"
      },
      {
        "rshares": 389417359,
        "voter": "vadim"
      },
      {
        "rshares": 6721829299,
        "voter": "michaeldodridge"
      },
      {
        "rshares": 31188038738,
        "voter": "celebr1ty"
      },
      {
        "rshares": 7097922529,
        "voter": "lykkeliten"
      },
      {
        "rshares": 108632879,
        "voter": "steemster1"
      },
      {
        "rshares": 2854890205,
        "voter": "glitterpig"
      },
      {
        "rshares": 3046163199,
        "voter": "jed78"
      },
      {
        "rshares": 685101796,
        "voter": "metaflute"
      },
      {
        "rshares": 51143991,
        "voter": "sharon"
      },
      {
        "rshares": 8278623961,
        "voter": "rawnetics"
      },
      {
        "rshares": 16442949757,
        "voter": "thebluepanda"
      },
      {
        "rshares": 2339485159,
        "voter": "timcliff"
      },
      {
        "rshares": 727812194,
        "voter": "darknet"
      },
      {
        "rshares": 31463628969,
        "voter": "mibenkito"
      },
      {
        "rshares": 8270953480,
        "voter": "trending"
      },
      {
        "rshares": 66036998,
        "voter": "fruityloan"
      },
      {
        "rshares": 63377598,
        "voter": "dezconocido"
      },
      {
        "rshares": 64149962,
        "voter": "sizil"
      },
      {
        "rshares": 27539088793,
        "voter": "nonlinearone"
      },
      {
        "rshares": 51120963,
        "voter": "msjennifer"
      },
      {
        "rshares": 50828873,
        "voter": "ciao"
      },
      {
        "rshares": 9007787064,
        "voter": "thebotkiller"
      },
      {
        "rshares": 50521096,
        "voter": "steemo"
      },
      {
        "rshares": 18974329448,
        "voter": "nixonnox"
      },
      {
        "rshares": 50390768,
        "voter": "steema"
      },
      {
        "rshares": 165051822,
        "voter": "nonamer"
      },
      {
        "rshares": 52732264,
        "voter": "vishal1"
      },
      {
        "rshares": 50183394,
        "voter": "confucius"
      },
      {
        "rshares": 1506714481,
        "voter": "unrealisback"
      },
      {
        "rshares": 51153233,
        "voter": "jarvis"
      },
      {
        "rshares": 50692212,
        "voter": "fortuner"
      },
      {
        "rshares": 225683099,
        "voter": "mefisto"
      },
      {
        "rshares": 106783648,
        "voter": "cinderphoenix"
      },
      {
        "rshares": 225874014,
        "voter": "jimmytwoshoes"
      },
      {
        "rshares": 50684643,
        "voter": "johnbyrd"
      },
      {
        "rshares": 50682252,
        "voter": "thomasaustin"
      },
      {
        "rshares": 50673817,
        "voter": "widell"
      },
      {
        "rshares": 51613018,
        "voter": "vasilii"
      },
      {
        "rshares": 288593312,
        "voter": "steeminion"
      },
      {
        "rshares": 50311250,
        "voter": "revelbrooks"
      },
      {
        "rshares": 57636462,
        "voter": "x5cc7fd68"
      },
      {
        "rshares": 52631453,
        "voter": "mrlogic"
      },
      {
        "rshares": 16295017448,
        "voter": "someguy123"
      },
      {
        "rshares": 50416427,
        "voter": "curpose"
      },
      {
        "rshares": 60781652,
        "voter": "sharonekelly"
      },
      {
        "rshares": 169640892,
        "voter": "mrainp"
      },
      {
        "rshares": 55791783,
        "voter": "lsd123452"
      },
      {
        "rshares": 92590152,
        "voter": "runridefly"
      },
      {
        "rshares": 53142053,
        "voter": "fleshtheworld"
      },
      {
        "rshares": 53116957,
        "voter": "maximator15"
      },
      {
        "rshares": 373265099,
        "voter": "ivet"
      },
      {
        "rshares": 50588612,
        "voter": "troich"
      },
      {
        "rshares": 50271139,
        "voter": "hitherise"
      },
      {
        "rshares": 1418732000,
        "voter": "sponge-bob"
      },
      {
        "rshares": 574697529,
        "voter": "grm"
      },
      {
        "rshares": 3524895174,
        "voter": "ericbotticelli"
      },
      {
        "rshares": 50710305,
        "voter": "prof"
      },
      {
        "rshares": 55019922,
        "voter": "jhonione"
      },
      {
        "rshares": 126007971,
        "voter": "keverw"
      },
      {
        "rshares": 54052181,
        "voter": "topslim"
      },
      {
        "rshares": 50054445,
        "voter": "coad"
      },
      {
        "rshares": 50825587,
        "voter": "sofa"
      },
      {
        "rshares": 52918124,
        "voter": "xomtux"
      },
      {
        "rshares": 54693363,
        "voter": "steeminnow"
      },
      {
        "rshares": 51488252,
        "voter": "efroul"
      },
      {
        "rshares": 50383632,
        "voter": "zzzzzzzzz"
      },
      {
        "rshares": 51446137,
        "voter": "asshai"
      },
      {
        "rshares": 54572306,
        "voter": "cbdmegami"
      },
      {
        "rshares": 52397603,
        "voter": "doze49"
      },
      {
        "rshares": 50125313,
        "voter": "ladyboss"
      },
      {
        "rshares": 53279765,
        "voter": "jpitt241"
      }
    ],
    "author": "gtg",
    "author_payout_value": "0.000 HBD",
    "author_reputation": 57.34,
    "beneficiaries": [],
    "blacklists": [],
    "body": "As you know, witness nodes are an essential part of the STEEM universe.\n\nIf I have a witness node with as much as (or as little as) 3% of witness approval, I can choose the right time to shut it down, listen to my favourite music album, walk my cat, and then start it up again, most probably without missing a block.\nA full-time witness, or one of the top19 witnesses, needs to produce blocks 1600 times more frequently.\nMaintaining such a server in the long run is not an easy task.\n\nWitnesses are vulnerable to DDoS attacks. An attacker who knows the network location of your witness node can saturate your uplink to a level that makes you unable to produce blocks on time. Effectively, this means **voting the witness out using a network-level attack**. Finding the IP address of your witness node is easier than you might think. Even if you follow the guidelines for setting up your public seed node on a different machine than the one you used to get your witness running, your witness still needs to connect to other nodes in the network.\nSo what does this mean? Take a look at: http://seeds.quisquis.de/steem.html\n(service provided by cyrano.witness)\n\nDoes any of these IP addresses look familiar?\nThe attacker still doesn't know which of them is yours, right?\n\nAn attack that makes the target IP unavailable for 3 seconds? Not exactly a difficult thing to do, right? So the attacker needs to make a guess by choosing from a set of suspected IP addresses he has obtained. Guessing doesn't cost him much. Neither does a high volume, short period DDoS attack. After that, he can see that your `total_missed` count increases, and he knows he guessed correctly. And then you are out.\n\n![witness](https://grey.house/img/witness2.jpg)\n\n## A concept of infrastructure: ##\n\n2 witness nodes (primary and backup)\n4 dedicated seed nodes\n\nOne witness node has your current signing key and does its job. The other is for failover, backup purposes. For example, whenever you need to upgrade your witness binary, you do that on the backup witness node, then change your signing key, so the backup node and the primary node switch their roles.  \n**(Never leave your current signing key on two nodes at the same time!)**\n\nThese 4 seed nodes mentioned here only work on behalf of your witness i.e. they don\u2019t provide seed service on public network interfaces. \n_Your public seed node is not within the scope of this document._\n\nYour witness node connects **ONLY** to your seed nodes using VLAN or another private, low latency network solution of your choice. All other incoming/outgoing connections should be blocked except for the secure shell, preferably limited to access only from your IPs.\n\nEach seed node should be in a separate datacenter, ideally in a different part of the world, never in the same location as any of your (primary/backup) witness nodes. The purpose is to minimize the effects of a successful DDoS attack.\n\n_Please note that setting up all seed nodes in a single data center won\u2019t help. A DDoS attack targeted at that particular network will bring all your nodes down anyway._\n\n```\n                      +---+\n         +  +----+    |   |\n         |  |    |<-->| B |\n         +--+ S1 |<-->| i |\n         |  |    |<-->| g |\n         |  +----+    |   |\n+------+ |            | B |\n|      +-+  +----+    | a |\n| W(p) | |  |    |<-->| d |\n|      | +--+ S2 |<-->|   |\n+------+ |  |    |<-->| U |\n         |  +----+    | g |\n     VLAN|            | l |\n         |  +----+    | y |\n+------+ |  |    |<-->|   |\n|      | +--+ S3 |<-->| I |\n| W(b) | |  |    |<-->| n |\n|      +-+  +----+    | t |\n+------+ |            | e |\n         |  +----+    | r |\n         |  |    |<-->| n |\n         +--+ S4 |<-->| e |\n         |  |    |<-->| t |\n         +  +----+    |   |\n                      +---+\n```\n```\nW(p) - primary witness\nW(b) - backup witness\nS1-4 - seed nodes\n```\nOf course, you need to keep your seed nodes (at least one of them) running all the time, otherwise your witness will not be able to sync the blockchain.\nBut if you do the math, you will see that the odds that all your seed nodes stop working at the same time are much lower than the chances that this happens to your witness node. \n\n\nIf one of your seed nodes falls victim to a DDoS attack, you can, depending on the features offered by your infrastructure provider:\n- do nothing (until most of them are targeted at the same time)\n- change its external interface IP address, routing the old one to a black hole\n- set up a new, additional, temporary seed node somewhere else\n- replace that seed node with a new one in another location\n\nIf you believe this idea is of use and value to Steem, please vote for me as a [witness](https://steemit.com/witness-category/@gtg/witness-gtg \"witness-gtg\")\neither on [Steemit's Witnesses List](https://steemit.com/~witnesses \"Witnesses\") \nor by using your `cli_wallet` command:\n`vote_for_witness \"YOURACCOUNT\" \"gtg\" true true`",
    "category": "witness-category",
    "children": 14,
    "created": "2016-08-16T18:11:03",
    "curator_payout_value": "0.000 HBD",
    "depth": 0,
    "is_paidout": false,
    "json_metadata": {
      "links": [
        "https://steemit.com/witness-category/@gtg/witness-gtg"
      ],
      "tags": [
        "witness-category",
        "security",
        "steem",
        "steemit"
      ]
    },
    "max_accepted_payout": "1000000.000 HBD",
    "net_rshares": 80964590737004,
    "payout": 988.456,
    "payout_at": "2016-08-23T18:11:03",
    "pending_payout_value": "988.456 HBD",
    "percent_hbd": 10000,
    "permlink": "heavy-duty-witness-node-infrastructure",
    "post_id": 838527,
    "promoted": "0.000 HBD",
    "replies": [],
    "stats": {
      "flag_weight": 0.0,
      "gray": false,
      "hide": false,
      "total_votes": 177
    },
    "title": "Heavy duty witness node infrastructure",
    "updated": "2016-08-16T18:11:03",
    "url": "/witness-category/@gtg/heavy-duty-witness-node-infrastructure"
  },
  {
    "active_votes": [
      {
        "rshares": 7498426175709,
        "voter": "steempty"
      },
      {
        "rshares": 42312727614219,
        "voter": "blocktrades"
      },
      {
        "rshares": 305178325808,
        "voter": "justin"
      },
      {
        "rshares": 869557685770,
        "voter": "silver"
      },
      {
        "rshares": 5114872713665,
        "voter": "roadscape"
      },
      {
        "rshares": 2289539684123,
        "voter": "complexring"
      },
      {
        "rshares": 2180802207,
        "voter": "chloe"
      },
      {
        "rshares": 2185117237,
        "voter": "jen"
      },
      {
        "rshares": 14176153154,
        "voter": "danknugs"
      },
      {
        "rshares": 198373663832,
        "voter": "steemservices"
      },
      {
        "rshares": 30116948361,
        "voter": "aizensou"
      },
      {
        "rshares": 46091054,
        "voter": "kelly"
      },
      {
        "rshares": 6428425796,
        "voter": "bentley"
      },
      {
        "rshares": 91926650,
        "voter": "gandalf"
      },
      {
        "rshares": 345893040115,
        "voter": "boatymcboatface"
      },
      {
        "rshares": 27177508174,
        "voter": "proctologic"
      },
      {
        "rshares": 316897956,
        "voter": "sophia"
      },
      {
        "rshares": 21914098976,
        "voter": "hcf27"
      },
      {
        "rshares": 7368210672,
        "voter": "modeprator"
      },
      {
        "rshares": 103782757471,
        "voter": "edgeland"
      },
      {
        "rshares": 785540122070,
        "voter": "steemship"
      },
      {
        "rshares": 5786912627,
        "voter": "spaninv"
      },
      {
        "rshares": 196850398821,
        "voter": "pal"
      },
      {
        "rshares": 2792608078,
        "voter": "murh"
      },
      {
        "rshares": 98699236,
        "voter": "itay"
      },
      {
        "rshares": 9975325205,
        "voter": "johnerfx"
      },
      {
        "rshares": 206512826638,
        "voter": "taoteh1221"
      },
      {
        "rshares": 57136530202,
        "voter": "juanmiguelsalas"
      },
      {
        "rshares": 9128119179,
        "voter": "somedude"
      },
      {
        "rshares": 203906072916,
        "voter": "kaylinart"
      },
      {
        "rshares": 867610016,
        "voter": "johnerminer"
      },
      {
        "rshares": 32485842972,
        "voter": "geoffrey"
      },
      {
        "rshares": 2480411371,
        "voter": "gary-smith"
      },
      {
        "rshares": 23267718250,
        "voter": "jparty"
      },
      {
        "rshares": 1953019618,
        "voter": "mammasitta"
      },
      {
        "rshares": 25911121779,
        "voter": "gtg"
      },
      {
        "rshares": 4679981480,
        "voter": "madwallace"
      },
      {
        "rshares": 39716978937,
        "voter": "lauralemons"
      },
      {
        "rshares": 461256359,
        "voter": "chamviet"
      },
      {
        "rshares": 15413814887,
        "voter": "r4fken"
      },
      {
        "rshares": 6283643209,
        "voter": "endaksi1"
      },
      {
        "rshares": 16250564070,
        "voter": "picokernel"
      },
      {
        "rshares": 702264837,
        "voter": "furion"
      },
      {
        "rshares": 80421874395,
        "voter": "anyx"
      },
      {
        "rshares": 2241994263,
        "voter": "egjoshslim"
      },
      {
        "rshares": 120632910259,
        "voter": "paco"
      },
      {
        "rshares": 6621475753,
        "voter": "senseiteekay"
      },
      {
        "rshares": 226092177,
        "voter": "jesse5th"
      },
      {
        "rshares": 23810445079,
        "voter": "inertia"
      },
      {
        "rshares": 210829632,
        "voter": "glassice"
      },
      {
        "rshares": 203070157,
        "voter": "lenar79"
      },
      {
        "rshares": 15277675835,
        "voter": "arcurus"
      },
      {
        "rshares": 101769596658,
        "voter": "johnsmith"
      },
      {
        "rshares": 330264489,
        "voter": "steeminer"
      },
      {
        "rshares": 55123516,
        "voter": "cire81"
      },
      {
        "rshares": 20346345482,
        "voter": "celebr1ty"
      },
      {
        "rshares": 116522786,
        "voter": "kibela"
      },
      {
        "rshares": 4195953733,
        "voter": "sulev"
      },
      {
        "rshares": 1863529002,
        "voter": "glitterpig"
      },
      {
        "rshares": 88147854,
        "voter": "alrx6918"
      },
      {
        "rshares": 156246825,
        "voter": "vitz81"
      },
      {
        "rshares": 7842906910,
        "voter": "rawnetics"
      },
      {
        "rshares": 2110595726,
        "voter": "naturalista"
      },
      {
        "rshares": 47302483,
        "voter": "persianqueen"
      },
      {
        "rshares": 309993436467,
        "voter": "glitterfart"
      },
      {
        "rshares": 102759457,
        "voter": "caitlinm"
      },
      {
        "rshares": 71928410,
        "voter": "jellenmark"
      },
      {
        "rshares": 151302584,
        "voter": "agussudaryanto"
      },
      {
        "rshares": 12663424,
        "voter": "ciao"
      },
      {
        "rshares": 519527818,
        "voter": "iaco"
      },
      {
        "rshares": 14786662,
        "voter": "steemo"
      },
      {
        "rshares": 1568749518,
        "voter": "nixonnox"
      },
      {
        "rshares": 3195610059,
        "voter": "hanshotfirst"
      },
      {
        "rshares": 2458086,
        "voter": "steema"
      },
      {
        "rshares": 12950553,
        "voter": "confucius"
      },
      {
        "rshares": 911816960,
        "voter": "bledarus"
      },
      {
        "rshares": 1251336,
        "voter": "softpunk"
      },
      {
        "rshares": 3742919,
        "voter": "jarvis"
      },
      {
        "rshares": 37069491,
        "voter": "thecurator"
      },
      {
        "rshares": 229846452,
        "voter": "mefisto"
      },
      {
        "rshares": 104558988,
        "voter": "cinderphoenix"
      },
      {
        "rshares": 98540677,
        "voter": "steeminion"
      },
      {
        "rshares": 57959648,
        "voter": "piezolit"
      },
      {
        "rshares": 8108416,
        "voter": "brucy"
      },
      {
        "rshares": 35603456,
        "voter": "shukerona"
      },
      {
        "rshares": 56023735,
        "voter": "leticiapink"
      },
      {
        "rshares": 295195987,
        "voter": "steeminnow"
      }
    ],
    "author": "gtg",
    "author_payout_value": "703.088 HBD",
    "author_reputation": 57.34,
    "beneficiaries": [],
    "blacklists": [],
    "body": "Hello, World!\n\nMy intention is not to make it into top 19. I could name many  other candidates (clearly more than 19) with greater commitment to steem(it) who are a lot more appropriate as witnesses, but I'm sure I can be useful as a backup witness.\n\nI introduced myself here:\nhttps://steemit.com/introduceyourself/@gtg/hello-world\nThose of you who use https://steemit.chat know me as **Gandalf**.\nFor some time, I\u2019ve been using my magic powers (mostly those related to security and infrastructure) to improve steemit. For example, I\u2019ve improved our \"Perfect\" Forward Secrecy and made our communication with site more secure.\n\nMy **seed node** (EU based):\n`seed-node = gtg.steem.house:2001`\nYou can also use it to rsync data dir\n`rsync -Pa rsync://gtg.steem.house/witness_node_data_dir .`\n\nMy **witness node** is on a separate data center (an EU-based one as well).\nIf you believe I can be of value to steemit, please vote for me:\n`vote_for_witness YOURACCOUNT gtg true true`\n\n![witness](https://grey.house/img/witness.jpg)",
    "category": "witness-category",
    "children": 7,
    "created": "2016-08-05T14:02:24",
    "curator_payout_value": "231.879 HBD",
    "depth": 0,
    "is_paidout": true,
    "json_metadata": {
      "links": [
        "https://steemit.com/introduceyourself/@gtg/hello-world"
      ],
      "tags": [
        "witness-category"
      ]
    },
    "max_accepted_payout": "1000000.000 HBD",
    "net_rshares": 61504610477823,
    "payout": 934.967,
    "payout_at": "2016-09-05T05:17:57",
    "pending_payout_value": "0.000 HBD",
    "percent_hbd": 10000,
    "permlink": "witness-gtg",
    "post_id": 624896,
    "promoted": "0.000 HBD",
    "replies": [],
    "stats": {
      "flag_weight": 0.0,
      "gray": false,
      "hide": false,
      "total_votes": 87
    },
    "title": "Witness \"gtg\"",
    "updated": "2016-08-05T14:02:24",
    "url": "/witness-category/@gtg/witness-gtg"
  },
  {
    "active_votes": [
      {
        "rshares": 38083585540686,
        "voter": "blocktrades"
      },
      {
        "rshares": 45883600000000,
        "voter": "ned"
      },
      {
        "rshares": 4594552295389,
        "voter": "kushed"
      },
      {
        "rshares": 1927257067487,
        "voter": "complexring"
      },
      {
        "rshares": 187455494400,
        "voter": "ajvest"
      },
      {
        "rshares": 34340808496,
        "voter": "val"
      },
      {
        "rshares": 646003632963,
        "voter": "joseph"
      },
      {
        "rshares": 230396081685,
        "voter": "benjojo"
      },
      {
        "rshares": 85983803423,
        "voter": "pfunk"
      },
      {
        "rshares": 120751689146,
        "voter": "pheonike"
      },
      {
        "rshares": 112802797386,
        "voter": "tuck-fheman"
      },
      {
        "rshares": 1174538572,
        "voter": "konelectric"
      },
      {
        "rshares": 31568454182,
        "voter": "linouxis9"
      },
      {
        "rshares": 898294633,
        "voter": "pstrident"
      },
      {
        "rshares": 2756998998,
        "voter": "acidsun"
      },
      {
        "rshares": 4174672933,
        "voter": "gregory-f"
      },
      {
        "rshares": 493172670,
        "voter": "camilla"
      },
      {
        "rshares": 10864026919,
        "voter": "joelinux"
      },
      {
        "rshares": 33795434067,
        "voter": "steemship"
      },
      {
        "rshares": 2047225121,
        "voter": "bbqbear"
      },
      {
        "rshares": 181628031773,
        "voter": "pal"
      },
      {
        "rshares": 520072194,
        "voter": "vadimberkut8"
      },
      {
        "rshares": 17929937474,
        "voter": "hannixx42"
      },
      {
        "rshares": 559963665,
        "voter": "amartinezque"
      },
      {
        "rshares": 14445459115,
        "voter": "murh"
      },
      {
        "rshares": 523034756414,
        "voter": "creator"
      },
      {
        "rshares": 381996078,
        "voter": "bogdanberkut"
      },
      {
        "rshares": 37257808,
        "voter": "tinfoilfedora"
      },
      {
        "rshares": 359846513,
        "voter": "lightninggears"
      },
      {
        "rshares": 20776945981,
        "voter": "justtryme90"
      },
      {
        "rshares": 0,
        "voter": "johnerfx"
      },
      {
        "rshares": 5609198392,
        "voter": "kenny-crane"
      },
      {
        "rshares": 324300044,
        "voter": "benthegameboy"
      },
      {
        "rshares": 5587359077,
        "voter": "zach-beckett"
      },
      {
        "rshares": 0,
        "voter": "johnerminer"
      },
      {
        "rshares": 15853241355,
        "voter": "omarb"
      },
      {
        "rshares": 36403516579,
        "voter": "trogdor"
      },
      {
        "rshares": 3302319192,
        "voter": "graystone"
      },
      {
        "rshares": 271426386,
        "voter": "paloma-guerrero"
      },
      {
        "rshares": 264799023,
        "voter": "herethengone"
      },
      {
        "rshares": 79833977,
        "voter": "gtg"
      },
      {
        "rshares": 258707067,
        "voter": "merciesmay"
      },
      {
        "rshares": 226733452,
        "voter": "treeshaface"
      },
      {
        "rshares": 239793556,
        "voter": "mrhankeh"
      },
      {
        "rshares": 213292065,
        "voter": "kirill7"
      },
      {
        "rshares": 164435174,
        "voter": "rom1379"
      },
      {
        "rshares": 0,
        "voter": "deepsynergy"
      },
      {
        "rshares": 0,
        "voter": "ania"
      }
    ],
    "author": "gtg",
    "author_payout_value": "254.288 HBD",
    "author_reputation": 57.34,
    "beneficiaries": [],
    "blacklists": [],
    "body": "I'm Gandalf.\nThat's not my real name, but even my mom saved my number as ***Gandalf*** in her phone contact list.\nThat counts, right?\nI'm an IT Wizard, system admin, happily married, <strike>owner of a cat</strike>.\nOwned by a cat.\n\n![Nyunya](https://grey.house/img/niunia.jpg)\n\n**Nyunya** *(The Cat)* wants to watch everything I do, that's just her way of lending a helping paw. I\u2019m not sure if she is so fascinated by what I do or she wants to make sure I do it right.\n\nWhy am I here? What is my motivation?\nNot much different from that guiding my cat:\nCuriosity and to be a witness (node?) of what is emerging here.\n\nMay the STEEM be with you!",
    "category": "introduceyourself",
    "children": 3,
    "created": "2016-07-03T16:35:03",
    "curator_payout_value": "16.244 HBD",
    "depth": 0,
    "is_paidout": true,
    "json_metadata": {
      "image": [
        "https://grey.house/img/niunia.jpg"
      ],
      "tags": [
        "introduceyourself",
        "cats"
      ]
    },
    "max_accepted_payout": "1000000.000 HBD",
    "net_rshares": 92822975251510,
    "payout": 270.532,
    "payout_at": "2016-08-13T21:04:45",
    "pending_payout_value": "0.000 HBD",
    "percent_hbd": 10000,
    "permlink": "hello-world",
    "post_id": 51402,
    "promoted": "0.000 HBD",
    "replies": [],
    "stats": {
      "flag_weight": 0.0,
      "gray": false,
      "hide": false,
      "total_votes": 44
    },
    "title": "Hello, World!",
    "updated": "2016-07-10T12:39:42",
    "url": "/introduceyourself/@gtg/hello-world"
  }
]
