[
  [
    188,
    {
      "block": 2912870,
      "op": [
        "convert",
        {
          "amount": "127.144 HBD",
          "owner": "gtg",
          "requestid": 1467663446
        }
      ],
      "op_in_trx": 0,
      "timestamp": "2016-07-04T20:18:00",
      "trx_id": "8930ea36f61aef6fa7c5c79922cc9892f2d7373b",
      "trx_in_block": 0,
      "virtual_op": 0
    }
  ],
  [
    189,
    {
      "block": 2912956,
      "op": [
        "convert",
        {
          "amount": "0.002 HBD",
          "owner": "gtg",
          "requestid": 1467663726
        }
      ],
      "op_in_trx": 0,
      "timestamp": "2016-07-04T20:22:18",
      "trx_id": "804339e4617544b47018e165d7a8ed45ac38f002",
      "trx_in_block": 0,
      "virtual_op": 0
    }
  ]
]
