[
  [
    698,
    {
      "block": 3878021,
      "op": [
        "limit_order_cancel",
        {
          "orderid": 1470507044,
          "owner": "gtg"
        }
      ],
      "op_in_trx": 0,
      "timestamp": "2016-08-07T15:48:00",
      "trx_id": "ec9bc6087e2a0147d4065f13f9a4c76fc1bde230",
      "trx_in_block": 2,
      "virtual_op": 0
    }
  ],
  [
    811,
    {
      "block": 3955064,
      "op": [
        "limit_order_cancel",
        {
          "orderid": 1470646169,
          "owner": "gtg"
        }
      ],
      "op_in_trx": 0,
      "timestamp": "2016-08-10T08:22:09",
      "trx_id": "002eb462739f65940d0ec349aa3ef0fb9f02940c",
      "trx_in_block": 0,
      "virtual_op": 0
    }
  ]
]
