{
  "active_votes": [
    {
      "rshares": 30137301806887,
      "voter": "dantheman"
    },
    {
      "rshares": 785653864312,
      "voter": "mr11acdee"
    },
    {
      "rshares": 200133072703,
      "voter": "mr11acdee1"
    },
    {
      "rshares": 2408868638475,
      "voter": "fminerten"
    },
    {
      "rshares": 17122012279597,
      "voter": "itsascam"
    },
    {
      "rshares": 261458530339,
      "voter": "fmooo"
    },
    {
      "rshares": 7197622668387,
      "voter": "steempty"
    },
    {
      "rshares": 1384014176181,
      "voter": "anonymous"
    },
    {
      "rshares": 17632735620728,
      "voter": "rainman"
    },
    {
      "rshares": 692375579949,
      "voter": "berniesanders"
    },
    {
      "rshares": 128815738177,
      "voter": "penambang"
    },
    {
      "rshares": 423445974405,
      "voter": "berkah"
    },
    {
      "rshares": 13027572136343,
      "voter": "summon"
    },
    {
      "rshares": 42611500394872,
      "voter": "blocktrades"
    },
    {
      "rshares": 2558383041985,
      "voter": "simpson"
    },
    {
      "rshares": 724584992187,
      "voter": "neogen1"
    },
    {
      "rshares": 44623728822570,
      "voter": "dan"
    },
    {
      "rshares": 65406341911263,
      "voter": "ned"
    },
    {
      "rshares": 763473589045,
      "voter": "hermes"
    },
    {
      "rshares": 922944635688,
      "voter": "hermes-miner"
    },
    {
      "rshares": 2107297599050,
      "voter": "steemroller"
    },
    {
      "rshares": 526143367956,
      "voter": "thorium1"
    },
    {
      "rshares": 460826192042,
      "voter": "thorium2"
    },
    {
      "rshares": 393498373982,
      "voter": "modprobe"
    },
    {
      "rshares": 3622094578755,
      "voter": "datasecuritynode"
    },
    {
      "rshares": 16576848688347,
      "voter": "steemed"
    },
    {
      "rshares": 545835697827,
      "voter": "bunkermining"
    },
    {
      "rshares": 5233027491,
      "voter": "luigi1111"
    },
    {
      "rshares": 6083185068360,
      "voter": "riverhead"
    },
    {
      "rshares": 5924337720827,
      "voter": "wackou"
    },
    {
      "rshares": 3092264957517,
      "voter": "badassmother"
    },
    {
      "rshares": 235230561747,
      "voter": "bitshares.org"
    },
    {
      "rshares": 3232844969776,
      "voter": "lafona-miner"
    },
    {
      "rshares": 2264254648334,
      "voter": "samupaha"
    },
    {
      "rshares": 155622405963,
      "voter": "blockchainbunker"
    },
    {
      "rshares": 55988577443,
      "voter": "blocktech"
    },
    {
      "rshares": 14678298233,
      "voter": "neominer2016"
    },
    {
      "rshares": 233274861053,
      "voter": "abderus"
    },
    {
      "rshares": 10135766804,
      "voter": "olympus-steemy"
    },
    {
      "rshares": 258033403621,
      "voter": "hephaestus"
    },
    {
      "rshares": 129706741602,
      "voter": "aquarius.com"
    },
    {
      "rshares": 56561851174,
      "voter": "minosman"
    },
    {
      "rshares": 161640598592,
      "voter": "aphrodite"
    },
    {
      "rshares": 19696823781,
      "voter": "hotels.com"
    },
    {
      "rshares": 381813235279,
      "voter": "lafona"
    },
    {
      "rshares": 16261894888,
      "voter": "aries.com"
    },
    {
      "rshares": 93697253520,
      "voter": "rabbitminer"
    },
    {
      "rshares": 26453763534,
      "voter": "insurance.com"
    },
    {
      "rshares": 3342675716572,
      "voter": "bitcube"
    },
    {
      "rshares": 3062609525949,
      "voter": "fuzzyvest"
    },
    {
      "rshares": 116103513899,
      "voter": "fund.com"
    },
    {
      "rshares": 126591654535,
      "voter": "sandra"
    },
    {
      "rshares": 3365319779048,
      "voter": "kushed"
    },
    {
      "rshares": 164607232945,
      "voter": "svk"
    },
    {
      "rshares": 14188611194,
      "voter": "fury"
    },
    {
      "rshares": 15597510352,
      "voter": "heracles"
    },
    {
      "rshares": 1079929186285,
      "voter": "ihashfury"
    },
    {
      "rshares": 23084226214,
      "voter": "bunkerchainlabs"
    },
    {
      "rshares": 879061832267,
      "voter": "liondani"
    },
    {
      "rshares": 319808900940,
      "voter": "lafona5"
    },
    {
      "rshares": 196767158496,
      "voter": "theoretical"
    },
    {
      "rshares": 5089550254482,
      "voter": "roadscape"
    },
    {
      "rshares": 1717049204765,
      "voter": "jabbasteem"
    },
    {
      "rshares": 3362289332631,
      "voter": "wang"
    },
    {
      "rshares": 6888985535931,
      "voter": "steemit200"
    },
    {
      "rshares": 306332281,
      "voter": "dog"
    },
    {
      "rshares": 114681935831,
      "voter": "ozmaster"
    },
    {
      "rshares": 31152078902,
      "voter": "boy"
    },
    {
      "rshares": 1410839434211,
      "voter": "xeroc"
    },
    {
      "rshares": 199615486148,
      "voter": "steem-id"
    },
    {
      "rshares": 37851055923,
      "voter": "bue-witness"
    },
    {
      "rshares": 7397743873,
      "voter": "bunny"
    },
    {
      "rshares": 3452337203957,
      "voter": "complexring"
    },
    {
      "rshares": 1149978159715,
      "voter": "steemychicken1"
    },
    {
      "rshares": 5324244122257,
      "voter": "clayop"
    },
    {
      "rshares": 5456097899956,
      "voter": "arhag"
    },
    {
      "rshares": 397427254747,
      "voter": "ajvest"
    },
    {
      "rshares": 1869975003,
      "voter": "tigerminer"
    },
    {
      "rshares": 4844964785159,
      "voter": "witness.svk"
    },
    {
      "rshares": 179552297002,
      "voter": "lovejoy"
    },
    {
      "rshares": 1026793490321,
      "voter": "joseph"
    },
    {
      "rshares": 11784624543,
      "voter": "aizensou"
    },
    {
      "rshares": 4804410119591,
      "voter": "au1nethyb1"
    },
    {
      "rshares": 40777676987,
      "voter": "jason"
    },
    {
      "rshares": 95659467676,
      "voter": "b0y2k"
    },
    {
      "rshares": 2355931295464,
      "voter": "recursive"
    },
    {
      "rshares": 1367935815,
      "voter": "ah1"
    },
    {
      "rshares": 1044611381514,
      "voter": "boombastic"
    },
    {
      "rshares": 141498633399,
      "voter": "signalandnoise"
    },
    {
      "rshares": 22717420732,
      "voter": "lee3"
    },
    {
      "rshares": 6847813982,
      "voter": "sean0010"
    },
    {
      "rshares": 1104679417187,
      "voter": "benjojo"
    },
    {
      "rshares": 1202947326140,
      "voter": "steempower"
    },
    {
      "rshares": 133317147414,
      "voter": "officialfuzzy"
    },
    {
      "rshares": 477973669305,
      "voter": "pfunk"
    },
    {
      "rshares": 141260282424,
      "voter": "pairmike"
    },
    {
      "rshares": 536041282297,
      "voter": "cass"
    },
    {
      "rshares": 240777109181,
      "voter": "pheonike"
    },
    {
      "rshares": 19265992921,
      "voter": "proctologic"
    },
    {
      "rshares": 10126276264,
      "voter": "idol"
    },
    {
      "rshares": 11908044022,
      "voter": "jpb3"
    },
    {
      "rshares": 45633406431,
      "voter": "anon"
    },
    {
      "rshares": 39490015263,
      "voter": "stoner19"
    },
    {
      "rshares": 4117103350,
      "voter": "wpalczynski"
    },
    {
      "rshares": 93817916,
      "voter": "grumlin"
    },
    {
      "rshares": 27739162474,
      "voter": "rimantas"
    },
    {
      "rshares": 678606058357,
      "voter": "tuck-fheman"
    },
    {
      "rshares": 8843865339,
      "voter": "daniel.pan"
    },
    {
      "rshares": 26983697342,
      "voter": "jsc"
    },
    {
      "rshares": 167258514947,
      "voter": "peerplays"
    },
    {
      "rshares": 7631924256,
      "voter": "modeprator"
    },
    {
      "rshares": 716232375,
      "voter": "tpboy3"
    },
    {
      "rshares": 1928968302,
      "voter": "jemekite"
    },
    {
      "rshares": 19792055022,
      "voter": "dedriss"
    },
    {
      "rshares": 729499521077,
      "voter": "steemrollin"
    },
    {
      "rshares": 8704872200,
      "voter": "fbsvk"
    },
    {
      "rshares": 523035981,
      "voter": "jazzycrypt"
    },
    {
      "rshares": 0,
      "voter": "team"
    },
    {
      "rshares": 19367000425,
      "voter": "apollo"
    },
    {
      "rshares": 12501943155,
      "voter": "athena"
    },
    {
      "rshares": 258484215488,
      "voter": "spectral"
    },
    {
      "rshares": 38029218602,
      "voter": "steem-samiam"
    },
    {
      "rshares": 96693537504,
      "voter": "jchch"
    },
    {
      "rshares": 2019257976,
      "voter": "muses"
    },
    {
      "rshares": 327905282,
      "voter": "perseus"
    },
    {
      "rshares": 18739206395,
      "voter": "sadochismo"
    },
    {
      "rshares": 10707710371,
      "voter": "k-rapper"
    },
    {
      "rshares": 652140250,
      "voter": "pseunodim"
    },
    {
      "rshares": 90597309651,
      "voter": "coindup"
    },
    {
      "rshares": 6224000787,
      "voter": "jabberw0cky"
    },
    {
      "rshares": 86966791552,
      "voter": "linouxis9"
    },
    {
      "rshares": 411475865342,
      "voter": "kencode"
    },
    {
      "rshares": 3222348856,
      "voter": "patrice"
    },
    {
      "rshares": 12806877688,
      "voter": "alexgr"
    },
    {
      "rshares": 89646171298,
      "voter": "unosuke"
    },
    {
      "rshares": 21393403818,
      "voter": "yefet"
    },
    {
      "rshares": 19236535820,
      "voter": "nikolai"
    },
    {
      "rshares": 7317657602,
      "voter": "insomnia"
    },
    {
      "rshares": 7758118514,
      "voter": "bhokor"
    },
    {
      "rshares": 112298390397,
      "voter": "chris4210"
    },
    {
      "rshares": 18814065896,
      "voter": "daowisp"
    },
    {
      "rshares": 14038985812,
      "voter": "valtr"
    },
    {
      "rshares": 409600095062,
      "voter": "void"
    },
    {
      "rshares": 1235023195,
      "voter": "pstrident"
    },
    {
      "rshares": 28934019620,
      "voter": "mor"
    },
    {
      "rshares": 1017992053,
      "voter": "jocelyn"
    },
    {
      "rshares": 62801085136,
      "voter": "acidsun"
    },
    {
      "rshares": 10591095452,
      "voter": "dave-hughes"
    },
    {
      "rshares": 7146724169,
      "voter": "dylan-nicholas"
    },
    {
      "rshares": 78959744624,
      "voter": "edgeland"
    },
    {
      "rshares": 22942115479,
      "voter": "noisy"
    },
    {
      "rshares": 426079615019,
      "voter": "chryspano"
    },
    {
      "rshares": 68445513021,
      "voter": "nenad-ristic"
    },
    {
      "rshares": 156220082814,
      "voter": "craig-grant"
    },
    {
      "rshares": 15417338649,
      "voter": "sandwich"
    },
    {
      "rshares": 1151001789,
      "voter": "nastrom"
    },
    {
      "rshares": 16760708037,
      "voter": "blackjincrypto"
    },
    {
      "rshares": 553358570,
      "voter": "pavel-tyh"
    },
    {
      "rshares": 17281492719,
      "voter": "mod-tamichh"
    },
    {
      "rshares": 4078694316,
      "voter": "ppitonak"
    },
    {
      "rshares": 91700596553,
      "voter": "juanlibertad"
    },
    {
      "rshares": 11852504944,
      "voter": "ervin-lemark"
    },
    {
      "rshares": 17593980126,
      "voter": "max-infeld"
    },
    {
      "rshares": 145933311832,
      "voter": "camilla"
    },
    {
      "rshares": 9254144008,
      "voter": "gregory60"
    },
    {
      "rshares": 8435555848,
      "voter": "cyan91"
    },
    {
      "rshares": 93235899571,
      "voter": "jamtaylor"
    },
    {
      "rshares": 544292165,
      "voter": "mich-richardson"
    },
    {
      "rshares": 542640457,
      "voter": "panmeur"
    },
    {
      "rshares": 17746588369,
      "voter": "ninzacode"
    },
    {
      "rshares": 141135913671,
      "voter": "nkdk"
    },
    {
      "rshares": 2925630636,
      "voter": "carlos-cabeza"
    },
    {
      "rshares": 258070752,
      "voter": "romangelsi"
    },
    {
      "rshares": 800708252,
      "voter": "nuno-nutcrusherz"
    },
    {
      "rshares": 8022925446,
      "voter": "cryptorune"
    },
    {
      "rshares": 163301355315,
      "voter": "bleepcoin"
    },
    {
      "rshares": 16249368997,
      "voter": "joelinux"
    },
    {
      "rshares": 4433439390,
      "voter": "holabebe"
    },
    {
      "rshares": 8624569727,
      "voter": "rendra-permana"
    },
    {
      "rshares": 7079390655,
      "voter": "fran2k"
    },
    {
      "rshares": 820245342,
      "voter": "hbhades"
    },
    {
      "rshares": 796911650249,
      "voter": "steemship"
    },
    {
      "rshares": 489175008,
      "voter": "rolandk"
    },
    {
      "rshares": 25486505116,
      "voter": "fkn"
    },
    {
      "rshares": 462219662,
      "voter": "paco-steem"
    },
    {
      "rshares": 533702154,
      "voter": "deepbits"
    },
    {
      "rshares": 22121700643,
      "voter": "thedarkestplum"
    },
    {
      "rshares": 3199972814,
      "voter": "mranderson"
    },
    {
      "rshares": 618553917325,
      "voter": "cryptogee"
    },
    {
      "rshares": 4994736726,
      "voter": "spaninv"
    },
    {
      "rshares": 117059634610,
      "voter": "forrestwillie"
    },
    {
      "rshares": 474642802,
      "voter": "manu"
    },
    {
      "rshares": 418545956506,
      "voter": "bitacer"
    },
    {
      "rshares": 45564130010,
      "voter": "tsugimoto"
    },
    {
      "rshares": 549251127,
      "voter": "rod-campbell"
    },
    {
      "rshares": 42177466862,
      "voter": "james-show"
    },
    {
      "rshares": 463900378,
      "voter": "gekko"
    },
    {
      "rshares": 187302907779,
      "voter": "teamsteem"
    },
    {
      "rshares": 475247238,
      "voter": "gilang-ramadhan"
    },
    {
      "rshares": 1324236402770,
      "voter": "cryptoctopus"
    },
    {
      "rshares": 37411585066,
      "voter": "himalayanguru"
    },
    {
      "rshares": 623247286925,
      "voter": "nanzo-scoop"
    },
    {
      "rshares": 2461162252,
      "voter": "justiciar"
    },
    {
      "rshares": 4241367042,
      "voter": "generalizethis"
    },
    {
      "rshares": 285846892282,
      "voter": "pal"
    },
    {
      "rshares": 1195439344,
      "voter": "daycrypter"
    },
    {
      "rshares": 450591572,
      "voter": "bladetrigger"
    },
    {
      "rshares": 8354298750,
      "voter": "jerome-colley"
    },
    {
      "rshares": 458035613,
      "voter": "shilman"
    },
    {
      "rshares": 16303535479,
      "voter": "canhazlulz"
    },
    {
      "rshares": 469402972,
      "voter": "razem-io"
    },
    {
      "rshares": 436065621,
      "voter": "kamvreto"
    },
    {
      "rshares": 15770053876,
      "voter": "jonnybitcoin"
    },
    {
      "rshares": 828244336,
      "voter": "calva"
    },
    {
      "rshares": 1960529291,
      "voter": "acidyo"
    },
    {
      "rshares": 446097808,
      "voter": "jwiz168"
    },
    {
      "rshares": 746465737,
      "voter": "cryptocreative"
    },
    {
      "rshares": 11630264615,
      "voter": "fact"
    },
    {
      "rshares": 443627272,
      "voter": "nasato"
    },
    {
      "rshares": 93938086164,
      "voter": "limitless"
    },
    {
      "rshares": 434030418,
      "voter": "yoona-lee"
    },
    {
      "rshares": 47902873245,
      "voter": "hannixx42"
    },
    {
      "rshares": 1468814168,
      "voter": "jonathan-tokki"
    },
    {
      "rshares": 421651987,
      "voter": "andygreen"
    },
    {
      "rshares": 101965369922,
      "voter": "amartinezque"
    },
    {
      "rshares": 1827815181,
      "voter": "klye"
    },
    {
      "rshares": 33753144129,
      "voter": "oaldamster"
    },
    {
      "rshares": 1202380180,
      "voter": "coar"
    },
    {
      "rshares": 40712139201,
      "voter": "asch"
    },
    {
      "rshares": 333422038465,
      "voter": "kevinwong"
    },
    {
      "rshares": 232477794707,
      "voter": "stino-san"
    },
    {
      "rshares": 16671247102,
      "voter": "murh"
    },
    {
      "rshares": 18781702825,
      "voter": "mughat"
    },
    {
      "rshares": 456051360,
      "voter": "alex-dinu"
    },
    {
      "rshares": 414215546,
      "voter": "worstdevever"
    },
    {
      "rshares": 2803128400,
      "voter": "tie-warutho"
    },
    {
      "rshares": 445097456,
      "voter": "calamus056"
    },
    {
      "rshares": 418673397,
      "voter": "sascha"
    },
    {
      "rshares": 1209135503,
      "voter": "brian-lukassen"
    },
    {
      "rshares": 1595572912,
      "voter": "dmitry"
    },
    {
      "rshares": 419635782,
      "voter": "checkraiser"
    },
    {
      "rshares": 501052018,
      "voter": "rok-fabiani"
    },
    {
      "rshares": 411146852,
      "voter": "innocent22"
    },
    {
      "rshares": 40778144644,
      "voter": "nphacker"
    },
    {
      "rshares": 402032558,
      "voter": "dke"
    },
    {
      "rshares": 66869359243,
      "voter": "kennyrowe"
    },
    {
      "rshares": 2075519732,
      "voter": "error"
    },
    {
      "rshares": 18511357008,
      "voter": "dking7334"
    },
    {
      "rshares": 404633654,
      "voter": "apparobotnik"
    },
    {
      "rshares": 404514815,
      "voter": "phil-knolle"
    },
    {
      "rshares": 3074459600,
      "voter": "framelalife"
    },
    {
      "rshares": 294461272955,
      "voter": "blakemiles84"
    },
    {
      "rshares": 400478425,
      "voter": "hyug"
    },
    {
      "rshares": 101197783220,
      "voter": "oscarp"
    },
    {
      "rshares": 14031925865,
      "voter": "andu"
    },
    {
      "rshares": 17033169564,
      "voter": "ombc"
    },
    {
      "rshares": 399034397,
      "voter": "sirius"
    },
    {
      "rshares": 34852256394,
      "voter": "btcswag"
    },
    {
      "rshares": 393118548,
      "voter": "sang-sira-yan"
    },
    {
      "rshares": 19297808287,
      "voter": "vippero"
    },
    {
      "rshares": 42700898889,
      "voter": "ranko-k"
    },
    {
      "rshares": 386766171,
      "voter": "sn7w"
    },
    {
      "rshares": 380021230879,
      "voter": "cyber"
    },
    {
      "rshares": 359037392,
      "voter": "akaninyene-etuk"
    },
    {
      "rshares": 354676726,
      "voter": "chantelle"
    },
    {
      "rshares": 16264375937,
      "voter": "allahhh"
    },
    {
      "rshares": 34322623067,
      "voter": "shelly-dawson"
    },
    {
      "rshares": 217099924957,
      "voter": "java1959"
    },
    {
      "rshares": 241751705972,
      "voter": "billbutler"
    },
    {
      "rshares": 10644288848,
      "voter": "judyhopps"
    },
    {
      "rshares": 64251444497,
      "voter": "kanoptx"
    },
    {
      "rshares": 31783328526,
      "voter": "daenerys"
    },
    {
      "rshares": 23387827423,
      "voter": "paul-labossiere"
    },
    {
      "rshares": 17344661082,
      "voter": "marklyford"
    },
    {
      "rshares": 2802636311,
      "voter": "myself"
    },
    {
      "rshares": 18014462770,
      "voter": "justtryme90"
    },
    {
      "rshares": 11573833812,
      "voter": "fatjawjones"
    },
    {
      "rshares": 444721640,
      "voter": "flenger"
    },
    {
      "rshares": 16934036382,
      "voter": "drinkzya"
    },
    {
      "rshares": 1714067124,
      "voter": "zebbra2014"
    },
    {
      "rshares": 94949552542,
      "voter": "eric-boucher"
    },
    {
      "rshares": 92826347272,
      "voter": "leon-fu"
    },
    {
      "rshares": 7004089,
      "voter": "jesse-hummel"
    },
    {
      "rshares": 9073514070,
      "voter": "johnerfx"
    },
    {
      "rshares": 6197680341,
      "voter": "moch-yusuf"
    },
    {
      "rshares": 3893197598121,
      "voter": "satoshifund"
    },
    {
      "rshares": 96466691171,
      "voter": "coinbitgold"
    },
    {
      "rshares": 192243993179,
      "voter": "taoteh1221"
    },
    {
      "rshares": 352433783,
      "voter": "applecrisp"
    },
    {
      "rshares": 3365144994,
      "voter": "andre-ager"
    },
    {
      "rshares": 6418445079,
      "voter": "tom-sullivan"
    },
    {
      "rshares": 3242296093,
      "voter": "ian-harris"
    },
    {
      "rshares": 350187172,
      "voter": "arjoona"
    },
    {
      "rshares": 51726173561,
      "voter": "robsteady"
    },
    {
      "rshares": 3660726480,
      "voter": "karbonxx"
    },
    {
      "rshares": 13806358547,
      "voter": "syadastinasti"
    },
    {
      "rshares": 6551513174,
      "voter": "evan7"
    },
    {
      "rshares": 362478025,
      "voter": "stiletto"
    },
    {
      "rshares": 158490825049,
      "voter": "killerstorm"
    },
    {
      "rshares": 327863284709,
      "voter": "the-alien"
    },
    {
      "rshares": 54886295999,
      "voter": "martin-wichmann"
    },
    {
      "rshares": 339982869,
      "voter": "yonatann"
    },
    {
      "rshares": 10376700495,
      "voter": "gsus"
    },
    {
      "rshares": 362721535,
      "voter": "backdoorkain"
    },
    {
      "rshares": -61340145299,
      "voter": "neil-haran"
    },
    {
      "rshares": 205271445769,
      "voter": "churdtzu"
    },
    {
      "rshares": 80497692553,
      "voter": "hedge-x"
    },
    {
      "rshares": 338361427,
      "voter": "mike-mike"
    },
    {
      "rshares": 178115977957,
      "voter": "hisnameisolllie"
    },
    {
      "rshares": 123808960137,
      "voter": "wingz"
    },
    {
      "rshares": 689856960,
      "voter": "sashko"
    },
    {
      "rshares": 103848182782,
      "voter": "kenny-crane"
    },
    {
      "rshares": 2541776191,
      "voter": "rednetkjh"
    },
    {
      "rshares": 58096609999,
      "voter": "thecryptodrive"
    },
    {
      "rshares": 28992229630,
      "voter": "wongshiying"
    },
    {
      "rshares": 57840454403,
      "voter": "faddat"
    },
    {
      "rshares": 163287325902,
      "voter": "will-zewe"
    },
    {
      "rshares": 425735603,
      "voter": "antyivan"
    },
    {
      "rshares": 86449882436,
      "voter": "bravenewcoin"
    },
    {
      "rshares": 1797881419,
      "voter": "imyao"
    },
    {
      "rshares": 1082831977,
      "voter": "kennyskitchen"
    },
    {
      "rshares": 18181080713,
      "voter": "andrei"
    },
    {
      "rshares": 242815740202,
      "voter": "kaylinart"
    },
    {
      "rshares": 288820527269,
      "voter": "infovore"
    },
    {
      "rshares": 78530168425,
      "voter": "soulsistashakti"
    },
    {
      "rshares": 354542124,
      "voter": "johnnyd"
    },
    {
      "rshares": 6181671286,
      "voter": "kingofchaos"
    },
    {
      "rshares": 1353740645,
      "voter": "benthegameboy"
    },
    {
      "rshares": 413169597,
      "voter": "ssstand"
    },
    {
      "rshares": 4225727946,
      "voter": "raff-delfin"
    },
    {
      "rshares": 323508300,
      "voter": "rafikichi"
    },
    {
      "rshares": 131099832755,
      "voter": "beervangeer"
    },
    {
      "rshares": 288238599,
      "voter": "lyubovnam"
    },
    {
      "rshares": 582824085,
      "voter": "menace.coin"
    },
    {
      "rshares": 541453432,
      "voter": "dijitaal"
    },
    {
      "rshares": 27271450820,
      "voter": "adrian-vox"
    },
    {
      "rshares": 347974459,
      "voter": "magdalena"
    },
    {
      "rshares": 23519625512,
      "voter": "ossama-benjohn"
    },
    {
      "rshares": 133435137287,
      "voter": "schro"
    },
    {
      "rshares": 929048317,
      "voter": "johnerminer"
    },
    {
      "rshares": 60223129143,
      "voter": "jacobt"
    },
    {
      "rshares": 291722029,
      "voter": "hendra-khaidir"
    },
    {
      "rshares": 174619709067,
      "voter": "trogdor"
    },
    {
      "rshares": 3893316132,
      "voter": "x9twm"
    },
    {
      "rshares": 18927991035,
      "voter": "joelkatz"
    },
    {
      "rshares": 20802581099,
      "voter": "paradigm-lives"
    },
    {
      "rshares": 862806958,
      "voter": "tee-em"
    },
    {
      "rshares": 11831712037,
      "voter": "michaelx"
    },
    {
      "rshares": 83087391222,
      "voter": "thedashguy"
    },
    {
      "rshares": -31165657352,
      "voter": "cheftony"
    },
    {
      "rshares": 3096212778,
      "voter": "usefree"
    },
    {
      "rshares": 150479853780,
      "voter": "ikigai"
    },
    {
      "rshares": 1330865398,
      "voter": "grandpere"
    },
    {
      "rshares": 18692238830,
      "voter": "dasher"
    },
    {
      "rshares": 12505740100,
      "voter": "angie-hood"
    },
    {
      "rshares": 301942527,
      "voter": "dtbahoney"
    },
    {
      "rshares": 1165934177454,
      "voter": "sean-king"
    },
    {
      "rshares": 353590233,
      "voter": "nikolay-babenko"
    },
    {
      "rshares": 2864367888,
      "voter": "christoryan"
    },
    {
      "rshares": 297598632,
      "voter": "oleim"
    },
    {
      "rshares": 3543318150,
      "voter": "coinhoarder"
    },
    {
      "rshares": 18921304729,
      "voter": "geoffrey"
    },
    {
      "rshares": 9823424642,
      "voter": "romaan-namoor"
    },
    {
      "rshares": 290638257,
      "voter": "aser2"
    },
    {
      "rshares": 1544493371,
      "voter": "alefernandez"
    },
    {
      "rshares": 956104453,
      "voter": "alex-hulsmeier"
    },
    {
      "rshares": 81580696850,
      "voter": "truthtaco"
    },
    {
      "rshares": 3031056559,
      "voter": "saknan"
    },
    {
      "rshares": 165451370625,
      "voter": "lukestokes"
    },
    {
      "rshares": 757221551,
      "voter": "christoph3"
    },
    {
      "rshares": 8124404836,
      "voter": "honeythief"
    },
    {
      "rshares": 294136564,
      "voter": "daniel-schwarz"
    },
    {
      "rshares": 2119051323,
      "voter": "gary-smith"
    },
    {
      "rshares": 112090128,
      "voter": "ben99"
    },
    {
      "rshares": 14938072537,
      "voter": "jparty"
    },
    {
      "rshares": 549267128,
      "voter": "mammasitta"
    },
    {
      "rshares": 390381989,
      "voter": "bitcoinci"
    },
    {
      "rshares": 99935104626,
      "voter": "djleo"
    },
    {
      "rshares": 224584167150,
      "voter": "mauricemikkers"
    },
    {
      "rshares": 204836683,
      "voter": "c3zary"
    },
    {
      "rshares": 272732914,
      "voter": "tyler-fletcher"
    },
    {
      "rshares": 140950569884,
      "voter": "nolimit"
    },
    {
      "rshares": 19649030783,
      "voter": "paloma-guerrero"
    },
    {
      "rshares": 45307821063,
      "voter": "flyover"
    },
    {
      "rshares": 282425635,
      "voter": "rimas"
    },
    {
      "rshares": 12097159397,
      "voter": "true-profit"
    },
    {
      "rshares": 322644185,
      "voter": "erik-prestinary"
    },
    {
      "rshares": 17066588246,
      "voter": "jonnyrevolution"
    },
    {
      "rshares": 11800891363,
      "voter": "m0se"
    },
    {
      "rshares": 23232288084,
      "voter": "karnal"
    },
    {
      "rshares": 74569479810,
      "voter": "grittenald"
    },
    {
      "rshares": 28368831191,
      "voter": "riensen"
    },
    {
      "rshares": 238757051682,
      "voter": "inboundinken"
    },
    {
      "rshares": 17721540431,
      "voter": "rseixas"
    },
    {
      "rshares": 69015479335,
      "voter": "scrawl"
    },
    {
      "rshares": 12143728408,
      "voter": "omarbitcoin"
    },
    {
      "rshares": 5608429268,
      "voter": "magnebit"
    },
    {
      "rshares": 114627883321,
      "voter": "onighost"
    },
    {
      "rshares": 840346600,
      "voter": "superfreek"
    },
    {
      "rshares": 5768883667,
      "voter": "simoneighties"
    },
    {
      "rshares": 247282573,
      "voter": "wisehammer"
    },
    {
      "rshares": 52908066797,
      "voter": "pmartynov"
    },
    {
      "rshares": 10722806089,
      "voter": "frankjones"
    },
    {
      "rshares": 27833990677,
      "voter": "catchfire"
    },
    {
      "rshares": 6422364982,
      "voter": "quintanilla"
    },
    {
      "rshares": 3861929743,
      "voter": "rawlzsec"
    },
    {
      "rshares": 291227841,
      "voter": "mrhankeh"
    },
    {
      "rshares": 26755400780,
      "voter": "clement"
    },
    {
      "rshares": 14023743659,
      "voter": "isteemit"
    },
    {
      "rshares": 325713350,
      "voter": "renegadegaming"
    },
    {
      "rshares": 5585862639,
      "voter": "uaufund"
    },
    {
      "rshares": 4307571230,
      "voter": "azaan"
    },
    {
      "rshares": 5768218977,
      "voter": "dailyfeed"
    },
    {
      "rshares": 11440685177,
      "voter": "skapaneas"
    },
    {
      "rshares": 259499279,
      "voter": "micheletrainer"
    },
    {
      "rshares": 3865835802,
      "voter": "steskoff"
    },
    {
      "rshares": 1620974193,
      "voter": "greatguardian100"
    },
    {
      "rshares": 383999638,
      "voter": "claudwars"
    },
    {
      "rshares": 147836358,
      "voter": "gerber"
    },
    {
      "rshares": 34286093330,
      "voter": "norbu"
    },
    {
      "rshares": 17792862588,
      "voter": "grey580"
    },
    {
      "rshares": 258168797,
      "voter": "digi3d"
    },
    {
      "rshares": 247700204,
      "voter": "glongsword"
    },
    {
      "rshares": 2520793534,
      "voter": "arcaneinfo"
    },
    {
      "rshares": 318882993,
      "voter": "metropolit"
    },
    {
      "rshares": 2380574781,
      "voter": "spikykevin"
    },
    {
      "rshares": 261991126,
      "voter": "ladyclair"
    },
    {
      "rshares": 25485181028,
      "voter": "venuspcs"
    },
    {
      "rshares": 818879016,
      "voter": "lothendriel"
    },
    {
      "rshares": 4749750464,
      "voter": "brianblackman"
    },
    {
      "rshares": 893192087,
      "voter": "michaellamden68"
    },
    {
      "rshares": 1321720266,
      "voter": "dtsddace"
    },
    {
      "rshares": 7171051365,
      "voter": "cannav"
    },
    {
      "rshares": 4963742566,
      "voter": "thebatchman"
    },
    {
      "rshares": 1872724272,
      "voter": "sunshinecrypto"
    },
    {
      "rshares": 258268657,
      "voter": "nikodem"
    },
    {
      "rshares": 228856746959,
      "voter": "asmolokalo"
    },
    {
      "rshares": 1127826839,
      "voter": "stupidteenboy"
    },
    {
      "rshares": 2357208938,
      "voter": "ydm6669"
    },
    {
      "rshares": 19939962755,
      "voter": "brightnesssoulds"
    },
    {
      "rshares": 49073213512,
      "voter": "booja"
    },
    {
      "rshares": 266225165,
      "voter": "stompy"
    },
    {
      "rshares": 2874516158,
      "voter": "good-karma"
    },
    {
      "rshares": 176160331770,
      "voter": "roelandp"
    },
    {
      "rshares": 1273497871,
      "voter": "romanskv"
    },
    {
      "rshares": 244728988,
      "voter": "ridji"
    },
    {
      "rshares": 245245045,
      "voter": "pattywatty8"
    },
    {
      "rshares": 247234848,
      "voter": "ivp"
    },
    {
      "rshares": 200126634,
      "voter": "garik100"
    },
    {
      "rshares": 277313317,
      "voter": "gidlark"
    },
    {
      "rshares": 3612438682,
      "voter": "getssidetracked"
    },
    {
      "rshares": 1945756217,
      "voter": "steamit"
    },
    {
      "rshares": 9145323530,
      "voter": "aeico"
    },
    {
      "rshares": 7398212167,
      "voter": "kakradetome"
    },
    {
      "rshares": 1805743790,
      "voter": "diego24"
    },
    {
      "rshares": 1818699888,
      "voter": "kilrathi"
    },
    {
      "rshares": 107697466,
      "voter": "bitcointop"
    },
    {
      "rshares": 2276902015,
      "voter": "brunopro"
    },
    {
      "rshares": 4448925439,
      "voter": "riscadox"
    },
    {
      "rshares": 63701519484,
      "voter": "discombobulated"
    },
    {
      "rshares": 7223607732,
      "voter": "firepower"
    },
    {
      "rshares": 5328315758,
      "voter": "expanse"
    },
    {
      "rshares": 327668379,
      "voter": "rodomonte"
    },
    {
      "rshares": 952419292,
      "voter": "godcomplex"
    },
    {
      "rshares": 38459089876,
      "voter": "robrigo"
    },
    {
      "rshares": 7941522193,
      "voter": "hitmeasap"
    },
    {
      "rshares": 9292260751,
      "voter": "cmtzco"
    },
    {
      "rshares": 64328195203,
      "voter": "krypto"
    },
    {
      "rshares": 5500184506,
      "voter": "stealthtrader"
    },
    {
      "rshares": 888741288,
      "voter": "rambogoham"
    },
    {
      "rshares": 134163127407,
      "voter": "silentpower"
    },
    {
      "rshares": 1530019464,
      "voter": "shane4400"
    },
    {
      "rshares": 316743641,
      "voter": "putradham"
    },
    {
      "rshares": 253791038,
      "voter": "billybob"
    },
    {
      "rshares": 28631461052,
      "voter": "dany"
    },
    {
      "rshares": 21006890538,
      "voter": "hakise"
    },
    {
      "rshares": 0,
      "voter": "nession"
    },
    {
      "rshares": 252957511,
      "voter": "baklava"
    },
    {
      "rshares": 230720060,
      "voter": "stranger27"
    },
    {
      "rshares": 180529463,
      "voter": "aidar88"
    },
    {
      "rshares": 821982985,
      "voter": "burmik123"
    },
    {
      "rshares": 9881542067,
      "voter": "auxon"
    },
    {
      "rshares": 316707077,
      "voter": "jackkang"
    },
    {
      "rshares": 237664596,
      "voter": "avantyris785"
    },
    {
      "rshares": 252485637,
      "voter": "lokeshkumarpatel"
    },
    {
      "rshares": 436601864,
      "voter": "manoami"
    },
    {
      "rshares": 247507408,
      "voter": "turist799"
    },
    {
      "rshares": 24395742586,
      "voter": "jasonmcz"
    },
    {
      "rshares": 48882437576,
      "voter": "ozcap"
    },
    {
      "rshares": 9142656200,
      "voter": "rnevet"
    },
    {
      "rshares": 246890667,
      "voter": "murat"
    },
    {
      "rshares": 251367639,
      "voter": "jenifive"
    },
    {
      "rshares": 25044407924,
      "voter": "sonsy"
    },
    {
      "rshares": 46676325,
      "voter": "xem"
    },
    {
      "rshares": 470341824,
      "voter": "suchnewb"
    },
    {
      "rshares": 317185910,
      "voter": "zerohero"
    },
    {
      "rshares": 489612540,
      "voter": "chamviet"
    },
    {
      "rshares": 251339829,
      "voter": "doesntmatter"
    },
    {
      "rshares": 3729231447,
      "voter": "cultura.bitcoin"
    },
    {
      "rshares": 8993327139,
      "voter": "r4fken"
    },
    {
      "rshares": 713953222,
      "voter": "handsolo"
    },
    {
      "rshares": 132129192,
      "voter": "timotron"
    },
    {
      "rshares": 322411273,
      "voter": "damono"
    },
    {
      "rshares": 330738419,
      "voter": "jaysanz"
    },
    {
      "rshares": 250046416,
      "voter": "bolanath"
    },
    {
      "rshares": 863192565,
      "voter": "chaitanyaabhatt"
    },
    {
      "rshares": 237211606,
      "voter": "thealexander"
    },
    {
      "rshares": 782318424,
      "voter": "instancex"
    },
    {
      "rshares": 235291011,
      "voter": "ukrainian"
    },
    {
      "rshares": 637435939,
      "voter": "apocaloptimisto"
    },
    {
      "rshares": 992149584,
      "voter": "sputnik"
    },
    {
      "rshares": 7758035507,
      "voter": "imjustsayintho"
    },
    {
      "rshares": 1513273253,
      "voter": "anwar78"
    },
    {
      "rshares": 249396004,
      "voter": "kevindetreville"
    },
    {
      "rshares": 255239429,
      "voter": "omotherhen"
    },
    {
      "rshares": 432968659,
      "voter": "iamjmgx"
    },
    {
      "rshares": -1631063161,
      "voter": "sergei"
    },
    {
      "rshares": 8498882657,
      "voter": "killswitch"
    },
    {
      "rshares": 7535008507,
      "voter": "picokernel"
    },
    {
      "rshares": 1435405780,
      "voter": "endgame"
    },
    {
      "rshares": 592751910311,
      "voter": "slowwalker"
    },
    {
      "rshares": 856104054,
      "voter": "jay4u"
    },
    {
      "rshares": 2167055359,
      "voter": "obfuscate-me"
    },
    {
      "rshares": 243354768,
      "voter": "leonalicious"
    },
    {
      "rshares": 4441795386,
      "voter": "freiheit"
    },
    {
      "rshares": 131641351215,
      "voter": "domino"
    },
    {
      "rshares": 235031878,
      "voter": "katz"
    },
    {
      "rshares": 257289966,
      "voter": "giveaway"
    },
    {
      "rshares": 1952312358,
      "voter": "startrek99"
    },
    {
      "rshares": 81682451300,
      "voter": "jatochnietdan"
    },
    {
      "rshares": 2109254648,
      "voter": "thenerdydeviant"
    },
    {
      "rshares": 5632933738,
      "voter": "gatoso"
    },
    {
      "rshares": 783501937,
      "voter": "danny-g"
    },
    {
      "rshares": 720932780,
      "voter": "korneta"
    },
    {
      "rshares": 243528965,
      "voter": "seamusog"
    },
    {
      "rshares": 18757441771,
      "voter": "worldfamous"
    },
    {
      "rshares": 268820116,
      "voter": "turbosnail9"
    },
    {
      "rshares": 2749578515,
      "voter": "furion"
    },
    {
      "rshares": 14564057906,
      "voter": "bitshares101"
    },
    {
      "rshares": 6360476629,
      "voter": "seanmchughart"
    },
    {
      "rshares": 202762442,
      "voter": "busser"
    },
    {
      "rshares": 2921125464,
      "voter": "shemthepenman"
    },
    {
      "rshares": 227260928,
      "voter": "mesalex"
    },
    {
      "rshares": 2135449618,
      "voter": "owdy"
    },
    {
      "rshares": 658221834,
      "voter": "ch0c0latechip"
    },
    {
      "rshares": 74679095708,
      "voter": "crypt0"
    },
    {
      "rshares": 237682482,
      "voter": "mgpeter"
    },
    {
      "rshares": 246360429,
      "voter": "mirspirs"
    },
    {
      "rshares": 246312563,
      "voter": "sergey"
    },
    {
      "rshares": 226988106,
      "voter": "ghozia"
    },
    {
      "rshares": 523702236,
      "voter": "lukewarm"
    },
    {
      "rshares": 244273724,
      "voter": "naura168"
    },
    {
      "rshares": 6157637685,
      "voter": "lovenugz"
    },
    {
      "rshares": 9468979433,
      "voter": "strangerarray"
    },
    {
      "rshares": 221740762,
      "voter": "zuarzalfa"
    },
    {
      "rshares": 813229620454,
      "voter": "renohq"
    },
    {
      "rshares": 73743340190,
      "voter": "knircky"
    },
    {
      "rshares": 2175450593,
      "voter": "becerra18"
    },
    {
      "rshares": 1883031482,
      "voter": "on0tole"
    },
    {
      "rshares": 660406417,
      "voter": "alkemix"
    },
    {
      "rshares": 195672325,
      "voter": "mrgreen"
    },
    {
      "rshares": 3137799194,
      "voter": "cryptoscope"
    },
    {
      "rshares": 11437366125,
      "voter": "ausbitbank"
    },
    {
      "rshares": 2584874963,
      "voter": "jacor"
    },
    {
      "rshares": 18055668270,
      "voter": "ethereums1"
    },
    {
      "rshares": 1504688473,
      "voter": "nioctib"
    },
    {
      "rshares": 4855080584,
      "voter": "secom"
    },
    {
      "rshares": 276202615,
      "voter": "cosmin"
    },
    {
      "rshares": 298940525,
      "voter": "mixa"
    },
    {
      "rshares": 5205190288,
      "voter": "thovre"
    },
    {
      "rshares": 35669956231,
      "voter": "wesam"
    },
    {
      "rshares": 239486000,
      "voter": "denaver"
    },
    {
      "rshares": 345266498,
      "voter": "dicov"
    },
    {
      "rshares": 542220196,
      "voter": "coxzee"
    },
    {
      "rshares": 265036104,
      "voter": "zhuvazhuva"
    },
    {
      "rshares": 245090497,
      "voter": "masi"
    },
    {
      "rshares": 1003881655,
      "voter": "steem1653"
    },
    {
      "rshares": 3087956779,
      "voter": "jpdimensions"
    },
    {
      "rshares": 189248337,
      "voter": "losos"
    },
    {
      "rshares": 15594311665,
      "voter": "anyx"
    },
    {
      "rshares": 1354333457,
      "voter": "marcgodard"
    },
    {
      "rshares": 248822395,
      "voter": "akareyon"
    },
    {
      "rshares": 244533331,
      "voter": "alatay"
    },
    {
      "rshares": 3970174958,
      "voter": "sebastien"
    },
    {
      "rshares": 695142950,
      "voter": "cherish"
    },
    {
      "rshares": 243486080,
      "voter": "aqsa"
    },
    {
      "rshares": 75856532,
      "voter": "vkoreshkoff"
    },
    {
      "rshares": 1905340917,
      "voter": "steemit-life"
    },
    {
      "rshares": 1844922645,
      "voter": "felipemachado"
    },
    {
      "rshares": 238926268,
      "voter": "mnostl"
    },
    {
      "rshares": 662979589,
      "voter": "sitaru"
    },
    {
      "rshares": 214943692,
      "voter": "rdwn"
    },
    {
      "rshares": 1531070518,
      "voter": "barriexy"
    },
    {
      "rshares": 360910399,
      "voter": "maxkoud"
    },
    {
      "rshares": 250279488,
      "voter": "zizelevak"
    },
    {
      "rshares": 4070037246,
      "voter": "nepalipahad"
    },
    {
      "rshares": 29877252130,
      "voter": "w4lterwyte"
    },
    {
      "rshares": 33893354057,
      "voter": "jesta"
    },
    {
      "rshares": 2318141237,
      "voter": "perwest"
    },
    {
      "rshares": 6100532521,
      "voter": "guywinfield"
    },
    {
      "rshares": 242258951,
      "voter": "yoniroll"
    },
    {
      "rshares": 76048626,
      "voter": "yuridan"
    },
    {
      "rshares": 242378250,
      "voter": "yuri609"
    },
    {
      "rshares": 2539448396,
      "voter": "holzmichl"
    },
    {
      "rshares": 209336156,
      "voter": "eduardf"
    },
    {
      "rshares": 5341509043,
      "voter": "mastertrader777"
    },
    {
      "rshares": 247185958,
      "voter": "askokhas"
    },
    {
      "rshares": 985040027,
      "voter": "johnnydollar"
    },
    {
      "rshares": 2636248886,
      "voter": "bdavid"
    },
    {
      "rshares": 232424282,
      "voter": "rixky"
    },
    {
      "rshares": 277954824,
      "voter": "rohantatia"
    },
    {
      "rshares": 241533053,
      "voter": "suicidemime"
    },
    {
      "rshares": 2362058580,
      "voter": "paco"
    },
    {
      "rshares": 4652141212,
      "voter": "aaseb"
    },
    {
      "rshares": 653507708,
      "voter": "kirtash85"
    },
    {
      "rshares": 523798065,
      "voter": "ssmmaaddeellmmaa"
    },
    {
      "rshares": 232813615,
      "voter": "piaopiao"
    },
    {
      "rshares": 31009197337,
      "voter": "biophil"
    },
    {
      "rshares": 11843717686,
      "voter": "showmethecoinz"
    },
    {
      "rshares": 14346590874,
      "voter": "keithsmih"
    },
    {
      "rshares": 211369905,
      "voter": "elargroup"
    },
    {
      "rshares": 218239547,
      "voter": "lioliomir"
    },
    {
      "rshares": 8858505514,
      "voter": "greenhatter"
    },
    {
      "rshares": 2451124025,
      "voter": "thelindvall"
    },
    {
      "rshares": 336113124,
      "voter": "vianhandika"
    },
    {
      "rshares": 12060121843,
      "voter": "str11ngfello"
    },
    {
      "rshares": 11987241006,
      "voter": "amirali"
    },
    {
      "rshares": 241540590,
      "voter": "d3v667"
    },
    {
      "rshares": 4873152981,
      "voter": "senseiteekay"
    },
    {
      "rshares": 683190445,
      "voter": "magix"
    },
    {
      "rshares": 1975310729,
      "voter": "mjgrae"
    },
    {
      "rshares": 246860121,
      "voter": "illuminatidude"
    },
    {
      "rshares": 263262499,
      "voter": "suburbancaveman"
    },
    {
      "rshares": 1272715580,
      "voter": "rawmeen"
    },
    {
      "rshares": 245306323,
      "voter": "sexe"
    },
    {
      "rshares": 241279879,
      "voter": "fogspam"
    },
    {
      "rshares": 2894133069,
      "voter": "icaro"
    },
    {
      "rshares": 3859982190,
      "voter": "mrgoodlife"
    },
    {
      "rshares": 265462732,
      "voter": "christiaan"
    },
    {
      "rshares": 555254103,
      "voter": "lukeerico"
    },
    {
      "rshares": 2154658289,
      "voter": "jvper"
    },
    {
      "rshares": 8188981942,
      "voter": "diana.catherine"
    },
    {
      "rshares": 2666598375,
      "voter": "dwinblood"
    },
    {
      "rshares": 298628151,
      "voter": "adela77"
    },
    {
      "rshares": 217917098,
      "voter": "bigkush"
    },
    {
      "rshares": 148215028,
      "voter": "rnobrega"
    },
    {
      "rshares": 2125926007,
      "voter": "dyausdiu"
    },
    {
      "rshares": 259188141,
      "voter": "jrfantasma"
    },
    {
      "rshares": 6244686721,
      "voter": "meiisheree"
    },
    {
      "rshares": 8254906076,
      "voter": "igster"
    },
    {
      "rshares": 36456320583,
      "voter": "marcelhattingh"
    },
    {
      "rshares": 22025757848,
      "voter": "sephiroth"
    },
    {
      "rshares": 6261069655,
      "voter": "cryptosi"
    },
    {
      "rshares": 36661585098,
      "voter": "valen55"
    },
    {
      "rshares": 2463001669,
      "voter": "kaptainkrayola"
    },
    {
      "rshares": 235287367,
      "voter": "dr2073"
    },
    {
      "rshares": 4838822,
      "voter": "seagul"
    },
    {
      "rshares": 2342125816,
      "voter": "jaycobbell"
    },
    {
      "rshares": 240837864,
      "voter": "thegunnz"
    },
    {
      "rshares": 5464989264,
      "voter": "sylv3se"
    },
    {
      "rshares": 217300210,
      "voter": "aqris"
    },
    {
      "rshares": 179421826,
      "voter": "juvyjabian"
    },
    {
      "rshares": 2237275320,
      "voter": "dcryptogold"
    },
    {
      "rshares": 1234799970,
      "voter": "condra"
    },
    {
      "rshares": 392849545,
      "voter": "legion"
    },
    {
      "rshares": 240762814,
      "voter": "jmuriuki"
    },
    {
      "rshares": 13651550355,
      "voter": "overtheline"
    },
    {
      "rshares": 2581221676,
      "voter": "rukrasnov"
    },
    {
      "rshares": 160653721,
      "voter": "mianeri"
    },
    {
      "rshares": 590190350,
      "voter": "bycz"
    },
    {
      "rshares": 936073293,
      "voter": "hmfoucault"
    },
    {
      "rshares": 352434311,
      "voter": "kell234"
    },
    {
      "rshares": 875765980,
      "voter": "dmacshady"
    },
    {
      "rshares": 236075914,
      "voter": "gottod"
    },
    {
      "rshares": 221740334,
      "voter": "alladesria"
    },
    {
      "rshares": 333267000,
      "voter": "fireriseace"
    },
    {
      "rshares": 250260883,
      "voter": "alexoz"
    },
    {
      "rshares": 2970721035,
      "voter": "robinlight-cbd"
    },
    {
      "rshares": 207855557,
      "voter": "rigel"
    },
    {
      "rshares": 390176820,
      "voter": "mrshade"
    },
    {
      "rshares": 9303827927,
      "voter": "stephencurry"
    },
    {
      "rshares": 240686732,
      "voter": "leonir"
    },
    {
      "rshares": 2819985147,
      "voter": "fundurian"
    },
    {
      "rshares": 205607215,
      "voter": "allmonitors"
    },
    {
      "rshares": 235574056,
      "voter": "coinrun"
    },
    {
      "rshares": 2655136827,
      "voter": "screasey"
    },
    {
      "rshares": 4812557646,
      "voter": "generalspecific"
    },
    {
      "rshares": 1441308668,
      "voter": "vorsseli"
    },
    {
      "rshares": 8675971346,
      "voter": "tinyhomeliving"
    },
    {
      "rshares": 25887569,
      "voter": "luisucv34"
    },
    {
      "rshares": 1930649122,
      "voter": "grolelo"
    },
    {
      "rshares": 238683682,
      "voter": "breathe3000"
    },
    {
      "rshares": 421439422,
      "voter": "jillfeint"
    },
    {
      "rshares": 247737816,
      "voter": "shibley"
    },
    {
      "rshares": 240069308,
      "voter": "taylormadeapps"
    },
    {
      "rshares": 871989964,
      "voter": "anduweb"
    },
    {
      "rshares": 221228380,
      "voter": "ruslan"
    },
    {
      "rshares": 398192643,
      "voter": "chrishogan"
    },
    {
      "rshares": 93162386767,
      "voter": "kevinpham20"
    },
    {
      "rshares": 9121454164,
      "voter": "inertia"
    },
    {
      "rshares": 5581536753,
      "voter": "shla-rafia"
    },
    {
      "rshares": 239930623,
      "voter": "dwightfschrute"
    },
    {
      "rshares": 3622427516,
      "voter": "q00p"
    },
    {
      "rshares": 250657213,
      "voter": "sudnokpok"
    },
    {
      "rshares": 2452062126,
      "voter": "artific"
    },
    {
      "rshares": 2510613883,
      "voter": "alienation"
    },
    {
      "rshares": 5716763012,
      "voter": "pieter"
    },
    {
      "rshares": 239249298,
      "voter": "mistasmitty"
    },
    {
      "rshares": 239892052,
      "voter": "kubiiktop"
    },
    {
      "rshares": 3233471086,
      "voter": "lichtblick"
    },
    {
      "rshares": 7884169118,
      "voter": "creemej"
    },
    {
      "rshares": 197403726,
      "voter": "micden"
    },
    {
      "rshares": 358425940,
      "voter": "pavaya66"
    },
    {
      "rshares": 497864765,
      "voter": "starlord"
    },
    {
      "rshares": 459767696,
      "voter": "wojooo"
    },
    {
      "rshares": 230283471,
      "voter": "tryptamin"
    },
    {
      "rshares": 1236381021,
      "voter": "yuhhans"
    },
    {
      "rshares": 76461508,
      "voter": "dimon14"
    },
    {
      "rshares": 2277279137,
      "voter": "warrensteem"
    },
    {
      "rshares": 271337155,
      "voter": "cp4cfc"
    },
    {
      "rshares": 121530577,
      "voter": "maximkichev"
    },
    {
      "rshares": 2032303592,
      "voter": "madnation"
    },
    {
      "rshares": 263374442,
      "voter": "yanis"
    },
    {
      "rshares": 14361184475,
      "voter": "martin1"
    },
    {
      "rshares": 258557522,
      "voter": "cyrusxir"
    },
    {
      "rshares": 525910074,
      "voter": "satorus"
    },
    {
      "rshares": 226070870,
      "voter": "m34ndy0u"
    },
    {
      "rshares": 163210166,
      "voter": "natali22"
    },
    {
      "rshares": 230019046,
      "voter": "ghanto"
    },
    {
      "rshares": 239625003,
      "voter": "hichman"
    },
    {
      "rshares": 1144797062,
      "voter": "btcbtcbtc20155"
    },
    {
      "rshares": 234691121,
      "voter": "cats"
    },
    {
      "rshares": 48373793,
      "voter": "manthostsakirid"
    },
    {
      "rshares": 239368628,
      "voter": "tsunamimountain"
    },
    {
      "rshares": 239357941,
      "voter": "myleslumley"
    },
    {
      "rshares": 8659182015,
      "voter": "piramida"
    },
    {
      "rshares": 988518067,
      "voter": "pierregi"
    },
    {
      "rshares": 586429967,
      "voter": "everest"
    },
    {
      "rshares": 35929828937,
      "voter": "sbq777t"
    },
    {
      "rshares": 234805201,
      "voter": "ripexz"
    },
    {
      "rshares": 4701528,
      "voter": "hobbitjerry"
    },
    {
      "rshares": 239244864,
      "voter": "codex"
    },
    {
      "rshares": 335145970,
      "voter": "poneb"
    },
    {
      "rshares": 51600648,
      "voter": "delik"
    },
    {
      "rshares": 1544541449,
      "voter": "vyrl"
    },
    {
      "rshares": 0,
      "voter": "tatianachebrova"
    },
    {
      "rshares": 350353853,
      "voter": "the-future"
    },
    {
      "rshares": 558651334,
      "voter": "adamt"
    },
    {
      "rshares": 245920524,
      "voter": "mix68"
    },
    {
      "rshares": 196895969,
      "voter": "keyser"
    },
    {
      "rshares": 5924688776,
      "voter": "cryptojoy.com"
    },
    {
      "rshares": 1299811720,
      "voter": "nippel66"
    },
    {
      "rshares": 5299567709,
      "voter": "filip-martinka"
    },
    {
      "rshares": 4308178367,
      "voter": "kewpiedoll"
    },
    {
      "rshares": 289380906,
      "voter": "dudutaulois"
    },
    {
      "rshares": 234763284,
      "voter": "valeri"
    },
    {
      "rshares": 1474126961,
      "voter": "imp3"
    },
    {
      "rshares": 1472863780,
      "voter": "webokv"
    },
    {
      "rshares": 5990791866,
      "voter": "phenom"
    },
    {
      "rshares": 239479169,
      "voter": "brainstorage"
    },
    {
      "rshares": 1458041605,
      "voter": "slocum"
    },
    {
      "rshares": 240867882,
      "voter": "ragnarok"
    },
    {
      "rshares": 218529002,
      "voter": "yanulyarus"
    },
    {
      "rshares": 151517417,
      "voter": "pinklee"
    },
    {
      "rshares": 3773399789,
      "voter": "inti"
    },
    {
      "rshares": 10470567930,
      "voter": "juanitalee"
    },
    {
      "rshares": 2582499000,
      "voter": "ani22"
    },
    {
      "rshares": 239925874,
      "voter": "bugadu96"
    },
    {
      "rshares": 214207195,
      "voter": "willytrader"
    },
    {
      "rshares": 406943213,
      "voter": "ranajit"
    },
    {
      "rshares": 2678975856,
      "voter": "stevo"
    },
    {
      "rshares": 241131497,
      "voter": "sgnsteems"
    },
    {
      "rshares": 164912536,
      "voter": "keirb"
    },
    {
      "rshares": 299429771,
      "voter": "selfishinvesting"
    },
    {
      "rshares": 2103756068,
      "voter": "kimmar"
    },
    {
      "rshares": 240572953,
      "voter": "sjt10369"
    },
    {
      "rshares": 100715978933,
      "voter": "blueorgy"
    },
    {
      "rshares": 245564534,
      "voter": "solnu6ka"
    },
    {
      "rshares": 239184051,
      "voter": "leonirkl"
    },
    {
      "rshares": 234061960,
      "voter": "xirian76"
    },
    {
      "rshares": 1273986367,
      "voter": "benjiberigan"
    },
    {
      "rshares": 1655619364,
      "voter": "yonuts"
    },
    {
      "rshares": 249219717,
      "voter": "poseidon"
    },
    {
      "rshares": 371346814,
      "voter": "iamwne"
    },
    {
      "rshares": 238811238,
      "voter": "licianek"
    },
    {
      "rshares": 276677013,
      "voter": "yaha"
    },
    {
      "rshares": 262285195,
      "voter": "drakodreak"
    },
    {
      "rshares": 19350846805,
      "voter": "coininstant"
    },
    {
      "rshares": 5010979243,
      "voter": "calaber24p"
    },
    {
      "rshares": 4681680,
      "voter": "davidr"
    },
    {
      "rshares": 118711263,
      "voter": "jdenismusic"
    },
    {
      "rshares": 110269456,
      "voter": "theemperor"
    },
    {
      "rshares": 110101404,
      "voter": "all-of-us"
    },
    {
      "rshares": 114615278,
      "voter": "akc"
    },
    {
      "rshares": 186450810,
      "voter": "desmonid"
    },
    {
      "rshares": 120429743,
      "voter": "kovalserge"
    },
    {
      "rshares": 117104345,
      "voter": "madhatting"
    },
    {
      "rshares": 119260400,
      "voter": "thisischris225"
    },
    {
      "rshares": 512679601,
      "voter": "syre7"
    },
    {
      "rshares": 53832274471,
      "voter": "lionnnnnnnnn"
    },
    {
      "rshares": 144896389,
      "voter": "soulthug"
    },
    {
      "rshares": 186100753,
      "voter": "rules169"
    },
    {
      "rshares": 102912526,
      "voter": "stereolubov"
    },
    {
      "rshares": 124359714,
      "voter": "followmetotravel"
    },
    {
      "rshares": 119399264,
      "voter": "nedrob"
    },
    {
      "rshares": 978515518,
      "voter": "pinartemiz"
    },
    {
      "rshares": 261488110637,
      "voter": "steemydino"
    },
    {
      "rshares": 158735131,
      "voter": "solen"
    },
    {
      "rshares": 172486715,
      "voter": "gribgo"
    },
    {
      "rshares": 8021597031,
      "voter": "magz8716"
    },
    {
      "rshares": 1596582689,
      "voter": "jcweiss"
    },
    {
      "rshares": 120381637,
      "voter": "darwen"
    },
    {
      "rshares": 975972464,
      "voter": "heimindanger"
    },
    {
      "rshares": 156340035,
      "voter": "eclipse0"
    },
    {
      "rshares": 493765850,
      "voter": "geronimo"
    },
    {
      "rshares": 132257886,
      "voter": "ladeblah"
    },
    {
      "rshares": 118406157,
      "voter": "xolod"
    },
    {
      "rshares": 477258273,
      "voter": "dr-win"
    },
    {
      "rshares": 2277477931,
      "voter": "bones"
    },
    {
      "rshares": 792831837,
      "voter": "bagogong"
    },
    {
      "rshares": 61996169,
      "voter": "akronte"
    },
    {
      "rshares": 9621781710,
      "voter": "substance"
    },
    {
      "rshares": 122055729,
      "voter": "gfxmotion"
    },
    {
      "rshares": 3475795413,
      "voter": "cryptobro"
    },
    {
      "rshares": 165242422167,
      "voter": "gabbans"
    },
    {
      "rshares": 123995943,
      "voter": "rectusfemoris"
    },
    {
      "rshares": 296342078,
      "voter": "digitalarchitect"
    },
    {
      "rshares": 10706328019,
      "voter": "joshuanboles"
    },
    {
      "rshares": 512968886,
      "voter": "krystox"
    },
    {
      "rshares": 119041662,
      "voter": "mobileready"
    },
    {
      "rshares": 119218175,
      "voter": "ragetomaster"
    },
    {
      "rshares": 119036977,
      "voter": "moviefan"
    },
    {
      "rshares": 119077855,
      "voter": "qedqubit"
    },
    {
      "rshares": 122491033,
      "voter": "freefolk"
    },
    {
      "rshares": 748420522,
      "voter": "denverliu"
    },
    {
      "rshares": 131604008,
      "voter": "earnest"
    },
    {
      "rshares": 116712859,
      "voter": "yongbrad"
    },
    {
      "rshares": 119215204,
      "voter": "skyzalimit"
    },
    {
      "rshares": 1110619405,
      "voter": "sanbir"
    },
    {
      "rshares": 975989073,
      "voter": "jayjustmay"
    },
    {
      "rshares": 4519882645,
      "voter": "drako"
    },
    {
      "rshares": 115147529,
      "voter": "animus"
    },
    {
      "rshares": 652643004,
      "voter": "heltiko"
    },
    {
      "rshares": 829277253,
      "voter": "stealthstrike"
    },
    {
      "rshares": 118927842,
      "voter": "bitcoiner"
    },
    {
      "rshares": 3705432245,
      "voter": "exitmass"
    },
    {
      "rshares": 204936492,
      "voter": "vlad"
    },
    {
      "rshares": 116498138,
      "voter": "perkdave56"
    },
    {
      "rshares": 1050481860,
      "voter": "skorss"
    },
    {
      "rshares": 51608622912,
      "voter": "squirrellywrath"
    },
    {
      "rshares": 131196216,
      "voter": "munxgauzen"
    },
    {
      "rshares": 2715009440,
      "voter": "breakfastchief"
    },
    {
      "rshares": 454085885,
      "voter": "travelista"
    },
    {
      "rshares": 116455676,
      "voter": "lhl"
    },
    {
      "rshares": 20639511729,
      "voter": "beowulfoflegend"
    },
    {
      "rshares": 116450799,
      "voter": "chrisd"
    },
    {
      "rshares": 143633664,
      "voter": "ellamaeamor"
    },
    {
      "rshares": 2166733529,
      "voter": "liberosist"
    },
    {
      "rshares": 141455499,
      "voter": "kimex"
    },
    {
      "rshares": 114488517,
      "voter": "quigonjinn"
    },
    {
      "rshares": 109468262,
      "voter": "karawalla"
    },
    {
      "rshares": 317903488,
      "voter": "cryptohustlin"
    },
    {
      "rshares": 0,
      "voter": "rainchen"
    },
    {
      "rshares": 176885129,
      "voter": "sagar"
    },
    {
      "rshares": 116378388,
      "voter": "becool"
    },
    {
      "rshares": 2670540976,
      "voter": "biletskiy"
    },
    {
      "rshares": 55924424,
      "voter": "alexx"
    },
    {
      "rshares": 656699310,
      "voter": "celsius100"
    },
    {
      "rshares": 2351445,
      "voter": "oumar"
    },
    {
      "rshares": 158405763,
      "voter": "carpmanium"
    },
    {
      "rshares": 100006006,
      "voter": "bento"
    },
    {
      "rshares": 1716363841,
      "voter": "bitbo"
    },
    {
      "rshares": 1240350052,
      "voter": "rushd"
    },
    {
      "rshares": 118570993,
      "voter": "doothewop"
    },
    {
      "rshares": 168562095,
      "voter": "munchmunch"
    },
    {
      "rshares": 2326655575,
      "voter": "mookosoo"
    },
    {
      "rshares": 116242495,
      "voter": "dayush"
    },
    {
      "rshares": 147524429,
      "voter": "mephdxa21"
    },
    {
      "rshares": 118514310,
      "voter": "darkneofit"
    },
    {
      "rshares": 123392204,
      "voter": "dieterdp"
    },
    {
      "rshares": 123064110,
      "voter": "robohack"
    },
    {
      "rshares": 118503353,
      "voter": "maksim"
    },
    {
      "rshares": 118501949,
      "voter": "grxcii"
    },
    {
      "rshares": 533622029,
      "voter": "vapekings14"
    },
    {
      "rshares": 456729332,
      "voter": "cliro"
    },
    {
      "rshares": 119260170,
      "voter": "armen7777"
    },
    {
      "rshares": 543497216,
      "voter": "edy"
    },
    {
      "rshares": 399771879,
      "voter": "reilag"
    },
    {
      "rshares": 122246157,
      "voter": "bustillo"
    },
    {
      "rshares": 78940182,
      "voter": "viktor2poy"
    },
    {
      "rshares": 118406233,
      "voter": "nikoletta"
    },
    {
      "rshares": 3624570666,
      "voter": "muffin2013"
    },
    {
      "rshares": 123543038,
      "voter": "thomas1992"
    },
    {
      "rshares": 116067960,
      "voter": "tawitties"
    },
    {
      "rshares": 26081017,
      "voter": "qonq99"
    },
    {
      "rshares": 3795917800,
      "voter": "sokal"
    },
    {
      "rshares": 174692762,
      "voter": "cryptocurrency1"
    },
    {
      "rshares": 140312893,
      "voter": "sebytza05"
    },
    {
      "rshares": 184845852,
      "voter": "alexbraun"
    },
    {
      "rshares": 116021103,
      "voter": "lukfm"
    },
    {
      "rshares": 119078450,
      "voter": "levsha"
    },
    {
      "rshares": 118295057,
      "voter": "tomik"
    },
    {
      "rshares": 656472963,
      "voter": "valerian"
    },
    {
      "rshares": 1000876720,
      "voter": "neroru"
    },
    {
      "rshares": 214058134,
      "voter": "kirreall"
    },
    {
      "rshares": 118280841,
      "voter": "mpili"
    },
    {
      "rshares": 386958948,
      "voter": "zelgald1"
    },
    {
      "rshares": 115865452,
      "voter": "rd7783"
    },
    {
      "rshares": 117247287,
      "voter": "natenvos"
    },
    {
      "rshares": 115940497,
      "voter": "rodarauj"
    },
    {
      "rshares": 100183203,
      "voter": "slava"
    },
    {
      "rshares": 159723952,
      "voter": "startree"
    },
    {
      "rshares": 115130637,
      "voter": "annelong"
    },
    {
      "rshares": 115902509,
      "voter": "jack7744"
    },
    {
      "rshares": 140412553,
      "voter": "xand"
    },
    {
      "rshares": 97877800899,
      "voter": "jl777"
    },
    {
      "rshares": 145892382,
      "voter": "meteor78"
    },
    {
      "rshares": 391093887334,
      "voter": "james212"
    },
    {
      "rshares": 118154645,
      "voter": "sl-avik"
    },
    {
      "rshares": 118149506,
      "voter": "alexvandash"
    },
    {
      "rshares": 1228842207,
      "voter": "victoria2002"
    },
    {
      "rshares": 99527750,
      "voter": "alexvd"
    },
    {
      "rshares": 252232830,
      "voter": "queiroz"
    },
    {
      "rshares": 115703190,
      "voter": "nastya"
    },
    {
      "rshares": 9312497,
      "voter": "maurizio"
    },
    {
      "rshares": 136180688,
      "voter": "adrix"
    },
    {
      "rshares": 130915874,
      "voter": "pennilesthoughts"
    },
    {
      "rshares": 181079553,
      "voter": "ianvaughan"
    },
    {
      "rshares": 1190020618,
      "voter": "lostnuggett"
    },
    {
      "rshares": 165389348,
      "voter": "zaebars"
    },
    {
      "rshares": 129017518,
      "voter": "wizard"
    },
    {
      "rshares": 197895850,
      "voter": "jeison"
    },
    {
      "rshares": 113541231,
      "voter": "paquito"
    },
    {
      "rshares": 12416734228,
      "voter": "groovy"
    },
    {
      "rshares": 93064925,
      "voter": "yarly7"
    },
    {
      "rshares": 3996644565,
      "voter": "ben.zimmerman"
    },
    {
      "rshares": 118967923,
      "voter": "raymonjohnstone"
    },
    {
      "rshares": 3831027535,
      "voter": "masterinvestor"
    },
    {
      "rshares": 335749071,
      "voter": "sndphoenix"
    },
    {
      "rshares": 50752456,
      "voter": "makgorn"
    },
    {
      "rshares": 117640365,
      "voter": "boity"
    },
    {
      "rshares": 97450629,
      "voter": "jchubitnet"
    },
    {
      "rshares": 84965551,
      "voter": "sarancha80"
    },
    {
      "rshares": 117516156,
      "voter": "vorkuta"
    },
    {
      "rshares": 7983530696,
      "voter": "ajay555"
    },
    {
      "rshares": 15964110869,
      "voter": "arcurus"
    },
    {
      "rshares": 117465430,
      "voter": "charbelnamm"
    },
    {
      "rshares": 2845205231,
      "voter": "neurocyde"
    },
    {
      "rshares": 160533005,
      "voter": "mikeoleksyuk"
    },
    {
      "rshares": 367094731,
      "voter": "iran"
    },
    {
      "rshares": 116329323,
      "voter": "joost"
    },
    {
      "rshares": 87485307,
      "voter": "kindmorning"
    },
    {
      "rshares": 3984986260,
      "voter": "prufarchy"
    },
    {
      "rshares": 2703352571,
      "voter": "vongohren"
    },
    {
      "rshares": 120322271,
      "voter": "rayphu"
    },
    {
      "rshares": 221592525,
      "voter": "slepetc"
    },
    {
      "rshares": 2694089208,
      "voter": "alsprinting"
    },
    {
      "rshares": 117221636,
      "voter": "pedro8"
    },
    {
      "rshares": 13956653358,
      "voter": "deanero"
    },
    {
      "rshares": 111183209,
      "voter": "serje"
    },
    {
      "rshares": 115387960,
      "voter": "krassvs"
    },
    {
      "rshares": 576256183,
      "voter": "moon32walker"
    },
    {
      "rshares": 127362456,
      "voter": "politicasan2"
    },
    {
      "rshares": 339548356,
      "voter": "ladypenelope1"
    },
    {
      "rshares": 103313659,
      "voter": "sictransitgloria"
    },
    {
      "rshares": 68902095,
      "voter": "orestespaz"
    },
    {
      "rshares": 106174521,
      "voter": "cogliostro"
    },
    {
      "rshares": 118725926,
      "voter": "nathan-s-m"
    },
    {
      "rshares": 117130509,
      "voter": "sebytza055"
    },
    {
      "rshares": 123447375,
      "voter": "fleuri"
    },
    {
      "rshares": 117123444,
      "voter": "jefferi"
    },
    {
      "rshares": 119080566,
      "voter": "carlidos"
    },
    {
      "rshares": 46009230,
      "voter": "turretkilo"
    },
    {
      "rshares": 117041509,
      "voter": "drbits"
    },
    {
      "rshares": 68742887,
      "voter": "maxikingstealer"
    },
    {
      "rshares": 1064958135,
      "voter": "eristoddle"
    },
    {
      "rshares": 176095973,
      "voter": "livetofly"
    },
    {
      "rshares": 118699702,
      "voter": "chrisimi"
    },
    {
      "rshares": 47299864364,
      "voter": "johnsmith"
    },
    {
      "rshares": 157328514,
      "voter": "mystis"
    },
    {
      "rshares": 90043962,
      "voter": "marius19"
    },
    {
      "rshares": 341509953,
      "voter": "berrysmok"
    },
    {
      "rshares": 108285619,
      "voter": "bigb"
    },
    {
      "rshares": 116937476,
      "voter": "mikali4"
    },
    {
      "rshares": 6463774235,
      "voter": "cryptocameo"
    },
    {
      "rshares": 168879992,
      "voter": "cybernetic"
    },
    {
      "rshares": 118622960,
      "voter": "tokyo3"
    },
    {
      "rshares": 117045028,
      "voter": "dannylove"
    },
    {
      "rshares": 189670730,
      "voter": "bitcoin-news"
    },
    {
      "rshares": 107651545,
      "voter": "nourhan"
    },
    {
      "rshares": 114492410,
      "voter": "hielkd"
    },
    {
      "rshares": 67720035,
      "voter": "belovruslan"
    },
    {
      "rshares": 116725969,
      "voter": "youngyani"
    },
    {
      "rshares": 114427042,
      "voter": "sacode"
    },
    {
      "rshares": 565910409,
      "voter": "bbrewer"
    },
    {
      "rshares": 114384131,
      "voter": "clifjumpr"
    },
    {
      "rshares": 125634810,
      "voter": "akiregor"
    },
    {
      "rshares": 120800357,
      "voter": "streem"
    },
    {
      "rshares": 114227470,
      "voter": "movie"
    },
    {
      "rshares": 130192774,
      "voter": "leonaugus"
    }
  ],
  "author": "xeroc",
  "author_payout_value": "44529.188 HBD",
  "author_reputation": 69.58,
  "beneficiaries": [],
  "blacklists": [],
  "body": "![](https://i.imgsafe.org/2411b61f27.png)\n\n# Piston.web - Standalone User Interface\n\nMany may already know `piston` as a tool that simplifies interaction with Steem/Steemit. You can read, post, comment, edit, transfer funds and much more, if you are willing to use the command line.\n\nThis changes **now**. With `piston.web`, the toolbox now comes with **graphical user interface** that you can access via your browser. It is **fully independent of steemit.com**, which means that you can do what you love doing on Steem, even if steemit.com goes down.\n\n# Available Features\n\n* browsing steem posts\n* reading full posts and comments\n* reply to topics and comments\n* upvote/downvote\n* read account details\n  * recommended posts\n  * blog posts\n  * funds\n  * transaction history\n* integrated wallet\n* full encrypted (AES + BIP32) for private keys\n* import keys from account name and password\n\n# Screenshots\n\n## Browse:\n![](https://i.imgsafe.org/219c17ace1.png)\n\n## Account\n![](https://i.imgsafe.org/219c1dbdc5.png)\n\n## Funds:\n![](https://i.imgsafe.org/219c2ae8a0.png)\n\n## Post:\n![](https://i.imgsafe.org/219c26f1d0.png)\n\n## Wallet:\n![](https://i.imgsafe.org/219c2e7b58.png)\n\n# Installation\n\nUntil we leave pre-alpha, piston.web is on a different branch.\n\n    git clone https://github.com/xeroc/piston\n    cd piston\n    git checkout feature/standalone-web\n    make install-user\n    # install extra requirements for piston.web\n    pip install -r requirements-web.txt\n\n# Usage\n    \n    piston web\n\nOn first run, you will be asked to provide a passphrase for your new wallet. Empty password are allowed but result in private keys being stored in plain text.\n\nAfter that, you will see\n\n     * Running on http://127.0.0.1:5054/ (Press CTRL+C to quit)\n     * Restarting with stat\n     * Debugger is active!\n     * Debugger pin code: 227-869-909\n\nIgnore the debugging output and start using piston.web in your browser\nby accessing\n\n    http://127.0.0.1:5054/\n\nNOTE: piston.web will only be reachable from the same machine (localhost).\n\n# Technologies\n\n## Backend\n\nThe backend is written in python using\n\n* Flask (with Jinja2)\n* python-steem.\n\nIt offers the HTML files and a Socket-IO for real-time communications.\n\n## Frontend\n\nThese technologies have been used so far in piston.web:\n\n* Bootstrap\n* Markdown\n* Font-Awesome\n* Plain Javascript\n\n## Wallet\n\nThe wallet is only accessible from the backend. All keys are encrypted with a random master password that is stored in an SQLite3 database in its AES encrypted form. Each private key is encrypted with the master password using BIP32 and stored in a SQLite3 database.  The wallet will make backups of the SQLite3 database every week and keep several weeks of backup.\n\n# Todos\n\n* Transfer of funds\n* PowerUp, PowerDown\n* Trading\n* Account Administration (changing keys etc)\n* Allow to attach JSON object to posts\n* Secure socket.io with a password\n* layout and style improvements\n\n# Contributions\n\nCurrently, we are looking for the bravest of the bravest to help us test what is already there and give \n\n* bug reports\n* improvement proposals\n* feature request\n\nPlease use the [github issue tracker](https://github.com/xeroc/piston/issues) to make it easier for us to remember all the feedback.\n\n# Important Note\n\npiston.web is alpha software. For that reason, you need to expect it to break at any time. Use at your own risk.\n\n# Update 1\n\nI'd like to clarify that this GUI is **not** meant to replace steemit.com or be used as a hosted, public site. It rather offers a *personal*, *localhost-only* page that you can use to access your wallet. Exposing the piston.web to a publicly accessible port is **not** recommended!\n\n# Update 2\n\nI fixed the `sqlite3.OperationalError: unable to open database file` error earlier today so that people can actually take a look.\n\n# Update 3\n\nMore short-term fixes for the weekend-testers:\n\n    * [2016-07-23][bf3dae5] | [setup] make sure the user uses python3\n    * [2016-07-23][c31eec7] | [web] highlight own posts\n    * [2016-07-23][03e0d2f] | [web] fix reply identifier not in the form",
  "category": "piston",
  "children": 369,
  "created": "2016-07-22T16:14:09",
  "curator_payout_value": "2444.671 HBD",
  "depth": 0,
  "is_paidout": true,
  "json_metadata": {},
  "max_accepted_payout": "1000000.000 HBD",
  "net_rshares": 390122583822342,
  "payout": 46973.859,
  "payout_at": "2016-08-24T14:49:30",
  "pending_payout_value": "0.000 HBD",
  "percent_hbd": 10000,
  "permlink": "piston-web-first-open-source-steem-gui---searching-for-alpha-testers",
  "post_id": 276497,
  "promoted": "0.000 HBD",
  "replies": [],
  "stats": {
    "flag_weight": 1.0,
    "gray": false,
    "hide": false,
    "total_votes": 1565
  },
  "title": "[piston.web] First Open Source Steem GUI - Searching for alpha testers",
  "updated": "2016-07-23T12:19:12",
  "url": "/piston/@xeroc/piston-web-first-open-source-steem-gui---searching-for-alpha-testers"
}
