{
  "active_votes": [],
  "author": "alice",
  "author_payout_value": "0.000 HBD",
  "author_reputation": 25,
  "author_role": "member",
  "author_title": "",
  "beneficiaries": [],
  "blacklists": [],
  "body": "EDITED. This is my first post in this community !",
  "category": "hive-171487",
  "children": 1,
  "community": "hive-171487",
  "community_title": "Banana",
  "created": "2016-09-15T18:01:36",
  "curator_payout_value": "0.000 HBD",
  "depth": 0,
  "is_paidout": false,
  "json_metadata": {},
  "max_accepted_payout": "1000000.000 HBD",
  "net_rshares": 0,
  "payout": 0.0,
  "payout_at": "2016-09-22T18:01:36",
  "pending_payout_value": "0.000 HBD",
  "percent_hbd": 10000,
  "permlink": "My-first-post-hive-1",
  "post_id": 1256866,
  "promoted": "0.000 HBD",
  "replies": [],
  "stats": {
    "flag_weight": 0.0,
    "gray": false,
    "hide": false,
    "total_votes": 0
  },
  "title": "Hello",
  "updated": "2016-09-15T18:01:48",
  "url": "/hive-171487/@alice/My-first-post-hive-1"
}
