[
  {
    "active_votes": [],
    "author": "alice",
    "author_payout_value": "0.000 HBD",
    "author_reputation": 25,
    "beneficiaries": [],
    "blacklists": [],
    "body": "This is my first comment in this community.01",
    "category": "hive-198723",
    "children": 0,
    "created": "2016-09-15T18:01:39",
    "curator_payout_value": "0.000 HBD",
    "depth": 1,
    "is_paidout": false,
    "json_metadata": {},
    "max_accepted_payout": "1000000.000 HBD",
    "net_rshares": 0,
    "parent_author": "test-safari",
    "parent_permlink": "please-comment-hive3",
    "payout": 0.0,
    "payout_at": "2016-09-22T18:01:39",
    "pending_payout_value": "0.000 HBD",
    "percent_hbd": 10000,
    "permlink": "comment-to-please-comment-hive3",
    "post_id": 1256878,
    "promoted": "0.000 HBD",
    "replies": [],
    "stats": {
      "flag_weight": 0.0,
      "gray": false,
      "hide": false,
      "total_votes": 0
    },
    "title": "RE: Comment my post01",
    "updated": "2016-09-15T18:01:39",
    "url": "/hive-198723/@test-safari/please-comment-hive3#@alice/comment-to-please-comment-hive3"
  },
  {
    "active_votes": [],
    "author": "alice",
    "author_payout_value": "0.000 HBD",
    "author_reputation": 25,
    "beneficiaries": [],
    "blacklists": [],
    "body": "This is my third comment in this community.03",
    "category": "hive-157439",
    "children": 0,
    "created": "2016-09-15T18:01:39",
    "curator_payout_value": "0.000 HBD",
    "depth": 1,
    "is_paidout": false,
    "json_metadata": {},
    "max_accepted_payout": "1000000.000 HBD",
    "net_rshares": 0,
    "parent_author": "test-safari",
    "parent_permlink": "please-comment-hive2-03",
    "payout": 0.0,
    "payout_at": "2016-09-22T18:01:39",
    "pending_payout_value": "0.000 HBD",
    "percent_hbd": 10000,
    "permlink": "comment-to-please-comment-hive2-03",
    "post_id": 1256877,
    "promoted": "0.000 HBD",
    "replies": [],
    "stats": {
      "flag_weight": 0.0,
      "gray": false,
      "hide": false,
      "total_votes": 0
    },
    "title": "RE: Comment my post03",
    "updated": "2016-09-15T18:01:39",
    "url": "/hive-157439/@test-safari/please-comment-hive2-03#@alice/comment-to-please-comment-hive2-03"
  },
  {
    "active_votes": [],
    "author": "alice",
    "author_payout_value": "0.000 HBD",
    "author_reputation": 25,
    "beneficiaries": [],
    "blacklists": [],
    "body": "This is my second comment in this community.02",
    "category": "hive-157439",
    "children": 0,
    "created": "2016-09-15T18:01:39",
    "curator_payout_value": "0.000 HBD",
    "depth": 1,
    "is_paidout": false,
    "json_metadata": {},
    "max_accepted_payout": "1000000.000 HBD",
    "net_rshares": 0,
    "parent_author": "test-safari",
    "parent_permlink": "please-comment-hive2-02",
    "payout": 0.0,
    "payout_at": "2016-09-22T18:01:39",
    "pending_payout_value": "0.000 HBD",
    "percent_hbd": 10000,
    "permlink": "comment-to-please-comment-hive2-02",
    "post_id": 1256876,
    "promoted": "0.000 HBD",
    "replies": [],
    "stats": {
      "flag_weight": 0.0,
      "gray": true,
      "hide": false,
      "total_votes": 0
    },
    "title": "RE: Comment my post02",
    "updated": "2016-09-15T18:01:39",
    "url": "/hive-157439/@test-safari/please-comment-hive2-02#@alice/comment-to-please-comment-hive2-02"
  },
  {
    "active_votes": [],
    "author": "alice",
    "author_payout_value": "0.000 HBD",
    "author_reputation": 25,
    "beneficiaries": [],
    "blacklists": [],
    "body": "This is my first comment in this community.01",
    "category": "hive-157439",
    "children": 0,
    "created": "2016-09-15T18:01:39",
    "curator_payout_value": "0.000 HBD",
    "depth": 1,
    "is_paidout": false,
    "json_metadata": {},
    "max_accepted_payout": "1000000.000 HBD",
    "net_rshares": 0,
    "parent_author": "test-safari",
    "parent_permlink": "please-comment-hive2",
    "payout": 0.0,
    "payout_at": "2016-09-22T18:01:39",
    "pending_payout_value": "0.000 HBD",
    "percent_hbd": 10000,
    "permlink": "comment-to-please-comment-hive2",
    "post_id": 1256875,
    "promoted": "0.000 HBD",
    "replies": [],
    "stats": {
      "flag_weight": 0.0,
      "gray": false,
      "hide": false,
      "total_votes": 0
    },
    "title": "RE: Comment my post01",
    "updated": "2016-09-15T18:01:39",
    "url": "/hive-157439/@test-safari/please-comment-hive2#@alice/comment-to-please-comment-hive2"
  },
  {
    "active_votes": [],
    "author": "alice",
    "author_payout_value": "0.000 HBD",
    "author_reputation": 25,
    "author_role": "member",
    "author_title": "",
    "beneficiaries": [],
    "blacklists": [],
    "body": "This is my third comment in this community.03",
    "category": "hive-171487",
    "children": 0,
    "community": "hive-171487",
    "community_title": "Banana",
    "created": "2016-09-15T18:01:39",
    "curator_payout_value": "0.000 HBD",
    "depth": 1,
    "is_paidout": false,
    "json_metadata": {},
    "max_accepted_payout": "1000000.000 HBD",
    "net_rshares": 0,
    "parent_author": "test-safari",
    "parent_permlink": "please-comment-hive1-03",
    "payout": 0.0,
    "payout_at": "2016-09-22T18:01:39",
    "pending_payout_value": "0.000 HBD",
    "percent_hbd": 10000,
    "permlink": "comment-to-please-comment-hive1-03",
    "post_id": 1256874,
    "promoted": "0.000 HBD",
    "replies": [],
    "stats": {
      "flag_weight": 0.0,
      "gray": false,
      "hide": false,
      "total_votes": 0
    },
    "title": "RE: Comment my post03",
    "updated": "2016-09-15T18:01:39",
    "url": "/hive-171487/@test-safari/please-comment-hive1-03#@alice/comment-to-please-comment-hive1-03"
  },
  {
    "active_votes": [],
    "author": "alice",
    "author_payout_value": "0.000 HBD",
    "author_reputation": 25,
    "author_role": "member",
    "author_title": "",
    "beneficiaries": [],
    "blacklists": [],
    "body": "This is my second comment in this community.02",
    "category": "hive-171487",
    "children": 0,
    "community": "hive-171487",
    "community_title": "Banana",
    "created": "2016-09-15T18:01:39",
    "curator_payout_value": "0.000 HBD",
    "depth": 1,
    "is_paidout": false,
    "json_metadata": {},
    "max_accepted_payout": "1000000.000 HBD",
    "net_rshares": 0,
    "parent_author": "test-safari",
    "parent_permlink": "please-comment-hive1-02",
    "payout": 0.0,
    "payout_at": "2016-09-22T18:01:39",
    "pending_payout_value": "0.000 HBD",
    "percent_hbd": 10000,
    "permlink": "comment-to-please-comment-hive1-02",
    "post_id": 1256873,
    "promoted": "0.000 HBD",
    "replies": [],
    "stats": {
      "flag_weight": 0.0,
      "gray": true,
      "hide": false,
      "total_votes": 0
    },
    "title": "RE: Comment my post01",
    "updated": "2016-09-15T18:01:39",
    "url": "/hive-171487/@test-safari/please-comment-hive1-02#@alice/comment-to-please-comment-hive1-02"
  },
  {
    "active_votes": [],
    "author": "alice",
    "author_payout_value": "0.000 HBD",
    "author_reputation": 25,
    "author_role": "member",
    "author_title": "",
    "beneficiaries": [],
    "blacklists": [],
    "body": "This is my first comment in this community.01",
    "category": "hive-171487",
    "children": 0,
    "community": "hive-171487",
    "community_title": "Banana",
    "created": "2016-09-15T18:01:39",
    "curator_payout_value": "0.000 HBD",
    "depth": 1,
    "is_paidout": false,
    "json_metadata": {},
    "max_accepted_payout": "1000000.000 HBD",
    "net_rshares": 0,
    "parent_author": "test-safari",
    "parent_permlink": "please-comment-hive1",
    "payout": 0.0,
    "payout_at": "2016-09-22T18:01:39",
    "pending_payout_value": "0.000 HBD",
    "percent_hbd": 10000,
    "permlink": "comment-to-please-comment-hive1",
    "post_id": 1256871,
    "promoted": "0.000 HBD",
    "replies": [],
    "stats": {
      "flag_weight": 0.0,
      "gray": false,
      "hide": false,
      "total_votes": 0
    },
    "title": "RE: Comment my post01",
    "updated": "2016-09-15T18:01:39",
    "url": "/hive-171487/@test-safari/please-comment-hive1#@alice/comment-to-please-comment-hive1"
  }
]
