[
  {
    "active_votes": [],
    "author": "blocktrades",
    "author_payout_value": "0.000 HBD",
    "author_reputation": 25.0,
    "beneficiaries": [],
    "blacklists": [],
    "body": "When will the t-shirt ship?",
    "category": "steem",
    "children": 0,
    "created": "2016-09-15T19:38:48",
    "curator_payout_value": "0.000 HBD",
    "depth": 1,
    "is_paidout": false,
    "json_metadata": {
      "tags": [
        "steem"
      ]
    },
    "max_accepted_payout": "1000000.000 HBD",
    "net_rshares": 0,
    "parent_author": "cryptojoy.com",
    "parent_permlink": "help-steem-buy-steemit-apparel-day-2",
    "payout": 0.0,
    "payout_at": "2016-10-10T14:26:39",
    "pending_payout_value": "0.000 HBD",
    "percent_steem_dollars": 10000,
    "permlink": "re-cryptojoycom-help-steem-buy-steemit-apparel-day-2-20160915t193858376z",
    "post_id": 960966,
    "promoted": "0.000 HBD",
    "replies": [],
    "stats": {
      "flag_weight": 0.0,
      "gray": false,
      "hide": false,
      "total_votes": 0
    },
    "title": "RE: Help STEEM! Buy Steemit Apparel! Day #2",
    "updated": "2016-09-15T19:38:48",
    "url": "/steem/@cryptojoy.com/help-steem-buy-steemit-apparel-day-2#@blocktrades/re-cryptojoycom-help-steem-buy-steemit-apparel-day-2-20160915t193858376z"
  },
  {
    "active_votes": [],
    "author": "blocktrades",
    "author_payout_value": "0.000 HBD",
    "author_reputation": 25.0,
    "beneficiaries": [],
    "blacklists": [],
    "body": "Hmm, it may be an actual function of my weak vision. When I get further from the screen, it gets hard for me to see any of the dots. So next I tried to get very close to the screen (normally I keep my monitor pretty far away) and I was able to see about 8 of them at once. I'm guessing having a smaller monitor might help too, based on the article, since I suppose they would be less in  our peripheral vision then.",
    "category": "optical",
    "children": 0,
    "created": "2016-09-15T05:15:00",
    "curator_payout_value": "0.000 HBD",
    "depth": 3,
    "is_paidout": false,
    "json_metadata": {
      "tags": [
        "optical"
      ]
    },
    "max_accepted_payout": "1000000.000 HBD",
    "net_rshares": 0,
    "parent_author": "quigua",
    "parent_permlink": "re-blocktrades-re-ilovesteemit-can-you-see-all-twelve-dots-in-this-image-nope-you-cannot-20160915t044305573z",
    "payout": 0.0,
    "payout_at": "2016-09-16T03:40:58",
    "pending_payout_value": "0.000 HBD",
    "percent_steem_dollars": 10000,
    "permlink": "re-quigua-re-blocktrades-re-ilovesteemit-can-you-see-all-twelve-dots-in-this-image-nope-you-cannot-20160915t051505312z",
    "post_id": 955371,
    "promoted": "0.000 HBD",
    "replies": [],
    "stats": {
      "flag_weight": 0.0,
      "gray": false,
      "hide": false,
      "total_votes": 0
    },
    "title": "RE: Can you see all twelve dots in this image?   Nope.... you cannot.",
    "updated": "2016-09-15T05:15:00",
    "url": "/optical/@ilovesteemit/can-you-see-all-twelve-dots-in-this-image-nope-you-cannot#@blocktrades/re-quigua-re-blocktrades-re-ilovesteemit-can-you-see-all-twelve-dots-in-this-image-nope-you-cannot-20160915t051505312z"
  },
  {
    "active_votes": [],
    "author": "blocktrades",
    "author_payout_value": "0.000 HBD",
    "author_reputation": 25.0,
    "beneficiaries": [],
    "blacklists": [],
    "body": "I tried that same pattern, but the most I could see was 4 at a time. So now I wonder, is your brain remembering what it saw and assuming it's still there, or is there enough information that your brain is now better able to interpret what it's seeing in your peripheral vision...",
    "category": "optical",
    "children": 1,
    "created": "2016-09-15T05:08:57",
    "curator_payout_value": "0.000 HBD",
    "depth": 3,
    "is_paidout": false,
    "json_metadata": {
      "tags": [
        "optical"
      ]
    },
    "max_accepted_payout": "1000000.000 HBD",
    "net_rshares": 0,
    "parent_author": "quigua",
    "parent_permlink": "re-blocktrades-re-ilovesteemit-can-you-see-all-twelve-dots-in-this-image-nope-you-cannot-20160915t044305573z",
    "payout": 0.0,
    "payout_at": "2016-09-16T03:40:58",
    "pending_payout_value": "0.000 HBD",
    "percent_steem_dollars": 10000,
    "permlink": "re-quigua-re-blocktrades-re-ilovesteemit-can-you-see-all-twelve-dots-in-this-image-nope-you-cannot-20160915t050900278z",
    "post_id": 955350,
    "promoted": "0.000 HBD",
    "replies": [],
    "stats": {
      "flag_weight": 0.0,
      "gray": false,
      "hide": false,
      "total_votes": 0
    },
    "title": "RE: Can you see all twelve dots in this image?   Nope.... you cannot.",
    "updated": "2016-09-15T05:08:57",
    "url": "/optical/@ilovesteemit/can-you-see-all-twelve-dots-in-this-image-nope-you-cannot#@blocktrades/re-quigua-re-blocktrades-re-ilovesteemit-can-you-see-all-twelve-dots-in-this-image-nope-you-cannot-20160915t050900278z"
  },
  {
    "active_votes": [],
    "author": "blocktrades",
    "author_payout_value": "0.000 HBD",
    "author_reputation": 25.0,
    "beneficiaries": [],
    "blacklists": [],
    "body": "That's just insane... At my best, I can see 4 at a time. It's somewhat disturbing to see such a major limitation in our visual ability.",
    "category": "optical",
    "children": 4,
    "created": "2016-09-15T03:49:42",
    "curator_payout_value": "0.000 HBD",
    "depth": 1,
    "is_paidout": false,
    "json_metadata": {
      "tags": [
        "optical"
      ]
    },
    "max_accepted_payout": "1000000.000 HBD",
    "net_rshares": 0,
    "parent_author": "ilovesteemit",
    "parent_permlink": "can-you-see-all-twelve-dots-in-this-image-nope-you-cannot",
    "payout": 0.0,
    "payout_at": "2016-09-16T03:40:58",
    "pending_payout_value": "0.000 HBD",
    "percent_steem_dollars": 10000,
    "permlink": "re-ilovesteemit-can-you-see-all-twelve-dots-in-this-image-nope-you-cannot-20160915t034947752z",
    "post_id": 954946,
    "promoted": "0.000 HBD",
    "replies": [],
    "stats": {
      "flag_weight": 0.0,
      "gray": false,
      "hide": false,
      "total_votes": 0
    },
    "title": "RE: Can you see all twelve dots in this image?   Nope.... you cannot.",
    "updated": "2016-09-15T03:49:42",
    "url": "/optical/@ilovesteemit/can-you-see-all-twelve-dots-in-this-image-nope-you-cannot#@blocktrades/re-ilovesteemit-can-you-see-all-twelve-dots-in-this-image-nope-you-cannot-20160915t034947752z"
  },
  {
    "active_votes": [],
    "author": "blocktrades",
    "author_payout_value": "0.000 HBD",
    "author_reputation": 25.0,
    "beneficiaries": [],
    "blacklists": [],
    "body": "\"Right now, Steem has value because you can exchange it for bitcoin\": this isn't strictly true, although it's a position likely to be taken by a bitcoin maximalist. All the arguments used to explain how bitcoin can provide value without fiat can equally be used to argue for Steem (or indeed many altcoins). Bitcoin has two major advantages right now: 1) it's the main gateway for exchange to fiat and 2) more merchants will accept it than other crypto. But of these two advantages,  I believe it still mostly comes down to 1) right now.",
    "category": "money",
    "children": 0,
    "created": "2016-09-14T21:36:18",
    "curator_payout_value": "0.000 HBD",
    "depth": 3,
    "is_paidout": false,
    "json_metadata": {
      "tags": [
        "money"
      ]
    },
    "max_accepted_payout": "1000000.000 HBD",
    "net_rshares": 0,
    "parent_author": "slammr76",
    "parent_permlink": "re-blocktrades-re-funny-why-are-bitcoin-steem-and-other-cryptocoins-worth-real-money-20160914t203223509z",
    "payout": 0.0,
    "payout_at": "2016-10-15T17:12:42",
    "pending_payout_value": "0.000 HBD",
    "percent_steem_dollars": 10000,
    "permlink": "re-slammr76-re-blocktrades-re-funny-why-are-bitcoin-steem-and-other-cryptocoins-worth-real-money-20160914t213621916z",
    "post_id": 952710,
    "promoted": "0.000 HBD",
    "replies": [],
    "stats": {
      "flag_weight": 0.0,
      "gray": false,
      "hide": false,
      "total_votes": 0
    },
    "title": "RE: Why Are Bitcoin, Steem And Other Cryptocoins Worth \"Real\" Money?",
    "updated": "2016-09-14T21:36:18",
    "url": "/money/@funny/why-are-bitcoin-steem-and-other-cryptocoins-worth-real-money#@blocktrades/re-slammr76-re-blocktrades-re-funny-why-are-bitcoin-steem-and-other-cryptocoins-worth-real-money-20160914t213621916z"
  },
  {
    "active_votes": [],
    "author": "blocktrades",
    "author_payout_value": "0.000 HBD",
    "author_reputation": 25.0,
    "beneficiaries": [],
    "blacklists": [],
    "body": "Ok, you've received the official \"blocktrades post promotion\" :-) good luck with the repost",
    "category": "money",
    "children": 1,
    "created": "2016-09-14T17:13:36",
    "curator_payout_value": "0.000 HBD",
    "depth": 3,
    "is_paidout": false,
    "json_metadata": {
      "tags": [
        "money"
      ]
    },
    "max_accepted_payout": "1000000.000 HBD",
    "net_rshares": 0,
    "parent_author": "funny",
    "parent_permlink": "re-blocktrades-re-funny-why-are-bitcoin-steem-and-other-cryptocoins-worth-real-money-20160914t170230207z",
    "payout": 0.0,
    "payout_at": "2016-10-15T17:12:42",
    "pending_payout_value": "0.000 HBD",
    "percent_steem_dollars": 10000,
    "permlink": "re-funny-re-blocktrades-re-funny-why-are-bitcoin-steem-and-other-cryptocoins-worth-real-money-20160914t171338026z",
    "post_id": 950669,
    "promoted": "0.000 HBD",
    "replies": [],
    "stats": {
      "flag_weight": 0.0,
      "gray": false,
      "hide": false,
      "total_votes": 0
    },
    "title": "RE: Why Are Bitcoin, Steem And Other Cryptocoins Worth \"Real\" Money?",
    "updated": "2016-09-14T17:13:36",
    "url": "/money/@funny/why-are-bitcoin-steem-and-other-cryptocoins-worth-real-money#@blocktrades/re-funny-re-blocktrades-re-funny-why-are-bitcoin-steem-and-other-cryptocoins-worth-real-money-20160914t171338026z"
  },
  {
    "active_votes": [],
    "author": "blocktrades",
    "author_payout_value": "0.000 HBD",
    "author_reputation": 25.0,
    "beneficiaries": [],
    "blacklists": [],
    "body": "I think you're missing a key point with this statement: \" This is why cryptocurrency cannot stand on it's one without a fiat currency\". Ask yourself, why is fiat money worth anything, and I think you will eventually come to the conclusion that the answer is no different than the answer for cryptocurrency (hint: it's the first statement in your thesis).",
    "category": "money",
    "children": 7,
    "created": "2016-09-14T16:49:03",
    "curator_payout_value": "0.000 HBD",
    "depth": 1,
    "is_paidout": false,
    "json_metadata": {
      "tags": [
        "money"
      ]
    },
    "max_accepted_payout": "1000000.000 HBD",
    "net_rshares": 0,
    "parent_author": "funny",
    "parent_permlink": "why-are-bitcoin-steem-and-other-cryptocoins-worth-real-money",
    "payout": 0.0,
    "payout_at": "2016-10-15T17:12:42",
    "pending_payout_value": "0.000 HBD",
    "percent_steem_dollars": 10000,
    "permlink": "re-funny-why-are-bitcoin-steem-and-other-cryptocoins-worth-real-money-20160914t164907864z",
    "post_id": 950501,
    "promoted": "0.000 HBD",
    "replies": [],
    "stats": {
      "flag_weight": 0.0,
      "gray": false,
      "hide": false,
      "total_votes": 0
    },
    "title": "RE: Why Are Bitcoin, Steem And Other Cryptocoins Worth \"Real\" Money?",
    "updated": "2016-09-14T16:49:03",
    "url": "/money/@funny/why-are-bitcoin-steem-and-other-cryptocoins-worth-real-money#@blocktrades/re-funny-why-are-bitcoin-steem-and-other-cryptocoins-worth-real-money-20160914t164907864z"
  },
  {
    "active_votes": [],
    "author": "blocktrades",
    "author_payout_value": "0.000 HBD",
    "author_reputation": 25.0,
    "beneficiaries": [],
    "blacklists": [],
    "body": "Great, thank you! I looked through a couple of your posts including that one, just missed it in the comments :-)",
    "category": "adolf",
    "children": 1,
    "created": "2016-09-14T16:42:12",
    "curator_payout_value": "0.000 HBD",
    "depth": 3,
    "is_paidout": false,
    "json_metadata": {
      "tags": [
        "adolf"
      ]
    },
    "max_accepted_payout": "1000000.000 HBD",
    "net_rshares": 0,
    "parent_author": "lenatramper",
    "parent_permlink": "re-blocktrades-re-lenatramper-if-the-whole-earth-would-speak-like-adolf-hitler-20160914t160355256z",
    "payout": 0.0,
    "payout_at": "2016-10-15T15:59:45",
    "pending_payout_value": "0.000 HBD",
    "percent_steem_dollars": 10000,
    "permlink": "re-lenatramper-re-blocktrades-re-lenatramper-if-the-whole-earth-would-speak-like-adolf-hitler-20160914t164216448z",
    "post_id": 950449,
    "promoted": "0.000 HBD",
    "replies": [],
    "stats": {
      "flag_weight": 0.0,
      "gray": false,
      "hide": false,
      "total_votes": 0
    },
    "title": "RE: If The Whole Earth Would Speak Like Adolf Hitler!",
    "updated": "2016-09-14T16:42:12",
    "url": "/adolf/@lenatramper/if-the-whole-earth-would-speak-like-adolf-hitler#@blocktrades/re-lenatramper-re-blocktrades-re-lenatramper-if-the-whole-earth-would-speak-like-adolf-hitler-20160914t164216448z"
  },
  {
    "active_votes": [],
    "author": "blocktrades",
    "author_payout_value": "0.000 HBD",
    "author_reputation": 25.0,
    "beneficiaries": [],
    "blacklists": [],
    "body": "Hi Lena, can you post a link on your youtube channel about posting on steemit so that we can verify you are the real Lena? I've conditionally upvoted you in the meantime.",
    "category": "adolf",
    "children": 3,
    "created": "2016-09-14T15:59:00",
    "curator_payout_value": "0.000 HBD",
    "depth": 1,
    "is_paidout": false,
    "json_metadata": {
      "tags": [
        "adolf"
      ]
    },
    "max_accepted_payout": "1000000.000 HBD",
    "net_rshares": 0,
    "parent_author": "lenatramper",
    "parent_permlink": "if-the-whole-earth-would-speak-like-adolf-hitler",
    "payout": 0.0,
    "payout_at": "2016-10-15T15:59:45",
    "pending_payout_value": "0.000 HBD",
    "percent_steem_dollars": 10000,
    "permlink": "re-lenatramper-if-the-whole-earth-would-speak-like-adolf-hitler-20160914t155903950z",
    "post_id": 950174,
    "promoted": "0.000 HBD",
    "replies": [],
    "stats": {
      "flag_weight": 0.0,
      "gray": false,
      "hide": false,
      "total_votes": 0
    },
    "title": "RE: If The Whole Earth Would Speak Like Adolf Hitler!",
    "updated": "2016-09-14T15:59:00",
    "url": "/adolf/@lenatramper/if-the-whole-earth-would-speak-like-adolf-hitler#@blocktrades/re-lenatramper-if-the-whole-earth-would-speak-like-adolf-hitler-20160914t155903950z"
  },
  {
    "active_votes": [
      {
        "rshares": "9491055943",
        "voter": "theb0red1"
      }
    ],
    "author": "blocktrades",
    "author_payout_value": "0.000 HBD",
    "author_reputation": 25.0,
    "beneficiaries": [],
    "blacklists": [],
    "body": "Probably just means their steem wallet is acting up and needs to be synched.",
    "category": "poloniex",
    "children": 1,
    "created": "2016-09-14T01:36:03",
    "curator_payout_value": "0.000 HBD",
    "depth": 1,
    "is_paidout": false,
    "json_metadata": {
      "tags": [
        "poloniex"
      ]
    },
    "max_accepted_payout": "1000000.000 HBD",
    "net_rshares": 9491055943,
    "parent_author": "timcliff",
    "parent_permlink": "poloniex-transfers-disabled-for-steem-and-sbd",
    "payout": 0.0,
    "payout_at": "2016-10-15T08:53:15",
    "pending_payout_value": "0.000 HBD",
    "percent_steem_dollars": 10000,
    "permlink": "re-timcliff-poloniex-transfers-disabled-for-steem-and-sbd-20160914t013605178z",
    "post_id": 945826,
    "promoted": "0.000 HBD",
    "replies": [],
    "stats": {
      "flag_weight": 0.0,
      "gray": false,
      "hide": false,
      "total_votes": 1
    },
    "title": "RE: Poloniex Transfers Temporarily Disabled for Steem and SBD?",
    "updated": "2016-09-14T01:36:03",
    "url": "/poloniex/@timcliff/poloniex-transfers-disabled-for-steem-and-sbd#@blocktrades/re-timcliff-poloniex-transfers-disabled-for-steem-and-sbd-20160914t013605178z"
  },
  {
    "active_votes": [],
    "author": "blocktrades",
    "author_payout_value": "0.000 HBD",
    "author_reputation": 25.0,
    "beneficiaries": [],
    "blacklists": [],
    "body": "I suppose Steem and Ethereum symbols would be good ones :-)",
    "category": "food",
    "children": 0,
    "created": "2016-09-13T13:38:24",
    "curator_payout_value": "0.000 HBD",
    "depth": 5,
    "is_paidout": false,
    "json_metadata": {
      "tags": [
        "food"
      ]
    },
    "max_accepted_payout": "1000000.000 HBD",
    "net_rshares": 0,
    "parent_author": "smailer",
    "parent_permlink": "re-blocktrades-re-smailer-re-blocktrades-re-smailer-my-daytime-latte-art-tryings-blocktrades-fan-art-20160913t133200497z",
    "payout": 0.0,
    "payout_at": "2016-10-14T13:07:21",
    "pending_payout_value": "0.000 HBD",
    "percent_steem_dollars": 10000,
    "permlink": "re-smailer-re-blocktrades-re-smailer-re-blocktrades-re-smailer-my-daytime-latte-art-tryings-blocktrades-fan-art-20160913t133843469z",
    "post_id": 940172,
    "promoted": "0.000 HBD",
    "replies": [],
    "stats": {
      "flag_weight": 0.0,
      "gray": false,
      "hide": false,
      "total_votes": 0
    },
    "title": "RE: My Daytime latte-art tryings. Blocktrades fan art",
    "updated": "2016-09-13T13:38:24",
    "url": "/food/@smailer/my-daytime-latte-art-tryings-blocktrades-fan-art#@blocktrades/re-smailer-re-blocktrades-re-smailer-re-blocktrades-re-smailer-my-daytime-latte-art-tryings-blocktrades-fan-art-20160913t133843469z"
  },
  {
    "active_votes": [],
    "author": "blocktrades",
    "author_payout_value": "0.000 HBD",
    "author_reputation": 25.0,
    "beneficiaries": [],
    "blacklists": [],
    "body": "The other two symbols are the symbols for Bitcoin and BitShares.",
    "category": "food",
    "children": 3,
    "created": "2016-09-13T13:25:36",
    "curator_payout_value": "0.000 HBD",
    "depth": 3,
    "is_paidout": false,
    "json_metadata": {
      "tags": [
        "food"
      ]
    },
    "max_accepted_payout": "1000000.000 HBD",
    "net_rshares": 0,
    "parent_author": "smailer",
    "parent_permlink": "re-blocktrades-re-smailer-my-daytime-latte-art-tryings-blocktrades-fan-art-20160913t131414898z",
    "payout": 0.0,
    "payout_at": "2016-10-14T13:07:21",
    "pending_payout_value": "0.000 HBD",
    "percent_steem_dollars": 10000,
    "permlink": "re-smailer-re-blocktrades-re-smailer-my-daytime-latte-art-tryings-blocktrades-fan-art-20160913t132556933z",
    "post_id": 940076,
    "promoted": "0.000 HBD",
    "replies": [],
    "stats": {
      "flag_weight": 0.0,
      "gray": false,
      "hide": false,
      "total_votes": 0
    },
    "title": "RE: My Daytime latte-art tryings. Blocktrades fan art",
    "updated": "2016-09-13T13:25:45",
    "url": "/food/@smailer/my-daytime-latte-art-tryings-blocktrades-fan-art#@blocktrades/re-smailer-re-blocktrades-re-smailer-my-daytime-latte-art-tryings-blocktrades-fan-art-20160913t132556933z"
  },
  {
    "active_votes": [],
    "author": "blocktrades",
    "author_payout_value": "0.000 HBD",
    "author_reputation": 25.0,
    "beneficiaries": [],
    "blacklists": [],
    "body": "That is very cool!  It is hard to believe that you got the money symbols on the block. Thanks.",
    "category": "food",
    "children": 6,
    "created": "2016-09-13T13:11:45",
    "curator_payout_value": "0.000 HBD",
    "depth": 1,
    "is_paidout": false,
    "json_metadata": {
      "tags": [
        "food"
      ]
    },
    "max_accepted_payout": "1000000.000 HBD",
    "net_rshares": 0,
    "parent_author": "smailer",
    "parent_permlink": "my-daytime-latte-art-tryings-blocktrades-fan-art",
    "payout": 0.0,
    "payout_at": "2016-10-14T13:07:21",
    "pending_payout_value": "0.000 HBD",
    "percent_steem_dollars": 10000,
    "permlink": "re-smailer-my-daytime-latte-art-tryings-blocktrades-fan-art-20160913t131146653z",
    "post_id": 939958,
    "promoted": "0.000 HBD",
    "replies": [],
    "stats": {
      "flag_weight": 0.0,
      "gray": false,
      "hide": false,
      "total_votes": 0
    },
    "title": "RE: My Daytime latte-art tryings. Blocktrades fan art",
    "updated": "2016-09-13T13:15:21",
    "url": "/food/@smailer/my-daytime-latte-art-tryings-blocktrades-fan-art#@blocktrades/re-smailer-my-daytime-latte-art-tryings-blocktrades-fan-art-20160913t131146653z"
  },
  {
    "active_votes": [],
    "author": "blocktrades",
    "author_payout_value": "0.000 HBD",
    "author_reputation": 25.0,
    "beneficiaries": [],
    "blacklists": [],
    "body": "I guess there are not a lot of Stephen King fans on Steemit :) Great stuff!",
    "category": "animation",
    "children": 1,
    "created": "2016-09-13T11:45:21",
    "curator_payout_value": "0.000 HBD",
    "depth": 1,
    "is_paidout": false,
    "json_metadata": {
      "tags": [
        "animation"
      ]
    },
    "max_accepted_payout": "1000000.000 HBD",
    "net_rshares": 0,
    "parent_author": "fairz",
    "parent_permlink": "it-the-clown-parody",
    "payout": 0.0,
    "payout_at": "2016-10-14T11:44:39",
    "pending_payout_value": "0.000 HBD",
    "percent_steem_dollars": 10000,
    "permlink": "re-fairz-it-the-clown-parody-20160913t114531552z",
    "post_id": 939391,
    "promoted": "0.000 HBD",
    "replies": [],
    "stats": {
      "flag_weight": 0.0,
      "gray": false,
      "hide": false,
      "total_votes": 0
    },
    "title": "RE: it the clown parody",
    "updated": "2016-09-13T11:45:21",
    "url": "/animation/@fairz/it-the-clown-parody#@blocktrades/re-fairz-it-the-clown-parody-20160913t114531552z"
  },
  {
    "active_votes": [],
    "author": "blocktrades",
    "author_payout_value": "0.000 HBD",
    "author_reputation": 25.0,
    "beneficiaries": [],
    "blacklists": [],
    "body": "Can you send me the exact text of the error message you get?",
    "category": "witness-category",
    "children": 0,
    "created": "2016-09-12T19:20:42",
    "curator_payout_value": "0.000 HBD",
    "depth": 4,
    "is_paidout": false,
    "json_metadata": {
      "tags": [
        "witness-category"
      ]
    },
    "max_accepted_payout": "1000000.000 HBD",
    "net_rshares": 0,
    "parent_author": "alex.gaud",
    "parent_permlink": "re-blocktrades-re-alexgaud-re-blocktrades-witness-report-for-blocktrades-for-last-week-of-august-20160912t173311407z",
    "payout": 0.0,
    "payout_at": "2016-10-02T06:01:12",
    "pending_payout_value": "0.000 HBD",
    "percent_steem_dollars": 10000,
    "permlink": "re-alexgaud-re-blocktrades-re-alexgaud-re-blocktrades-witness-report-for-blocktrades-for-last-week-of-august-20160912t192059843z",
    "post_id": 933378,
    "promoted": "0.000 HBD",
    "replies": [],
    "stats": {
      "flag_weight": 0.0,
      "gray": false,
      "hide": false,
      "total_votes": 0
    },
    "title": "RE: Witness Report for BlockTrades for last week of August",
    "updated": "2016-09-12T19:20:42",
    "url": "/witness-category/@blocktrades/witness-report-for-blocktrades-for-last-week-of-august#@blocktrades/re-alexgaud-re-blocktrades-re-alexgaud-re-blocktrades-witness-report-for-blocktrades-for-last-week-of-august-20160912t192059843z"
  },
  {
    "active_votes": [],
    "author": "blocktrades",
    "author_payout_value": "0.000 HBD",
    "author_reputation": 25.0,
    "beneficiaries": [],
    "blacklists": [],
    "body": "Ok, so I am stuck. Since we are coming up on the time limit. Here is my misspelled wrong answer: \"Enter steemit unscrambler you need to post yv vote yeah.\" Hope this helps someone else win.",
    "category": "unscramble",
    "children": 1,
    "created": "2016-09-12T12:39:42",
    "curator_payout_value": "0.000 HBD",
    "depth": 1,
    "is_paidout": false,
    "json_metadata": {
      "tags": [
        "unscramble"
      ]
    },
    "max_accepted_payout": "1000000.000 HBD",
    "net_rshares": 0,
    "parent_author": "bola",
    "parent_permlink": "sentence-unscrambler-3",
    "payout": 0.0,
    "payout_at": "2016-10-12T21:07:00",
    "pending_payout_value": "0.000 HBD",
    "percent_steem_dollars": 10000,
    "permlink": "re-bola-sentence-unscrambler-3-20160912t123947144z",
    "post_id": 930105,
    "promoted": "0.000 HBD",
    "replies": [],
    "stats": {
      "flag_weight": 0.0,
      "gray": false,
      "hide": false,
      "total_votes": 0
    },
    "title": "RE: Sentence Unscrambler #3",
    "updated": "2016-09-12T12:39:42",
    "url": "/unscramble/@bola/sentence-unscrambler-3#@blocktrades/re-bola-sentence-unscrambler-3-20160912t123947144z"
  },
  {
    "active_votes": [
      {
        "rshares": "7564517162",
        "voter": "dumar022"
      }
    ],
    "author": "blocktrades",
    "author_payout_value": "0.000 HBD",
    "author_reputation": 25.0,
    "beneficiaries": [],
    "blacklists": [],
    "body": "This has totally happened to me.  I impulse buy cacti!",
    "category": "agriculture",
    "children": 1,
    "created": "2016-09-11T11:36:00",
    "curator_payout_value": "0.000 HBD",
    "depth": 1,
    "is_paidout": false,
    "json_metadata": {
      "tags": [
        "agriculture"
      ]
    },
    "max_accepted_payout": "1000000.000 HBD",
    "net_rshares": 7564517162,
    "parent_author": "dumar022",
    "parent_permlink": "i-never-plan-to-get-a-new-cactus-but-it-happens-all-the-time",
    "payout": 0.0,
    "payout_at": "2016-10-12T11:34:57",
    "pending_payout_value": "0.000 HBD",
    "percent_steem_dollars": 10000,
    "permlink": "re-dumar022-i-never-plan-to-get-a-new-cactus-but-it-happens-all-the-time-20160911t113601295z",
    "post_id": 920958,
    "promoted": "0.000 HBD",
    "replies": [],
    "stats": {
      "flag_weight": 0.0,
      "gray": false,
      "hide": false,
      "total_votes": 1
    },
    "title": "RE: I never plan to get a new cactus, but it happens all the time",
    "updated": "2016-09-11T11:36:00",
    "url": "/agriculture/@dumar022/i-never-plan-to-get-a-new-cactus-but-it-happens-all-the-time#@blocktrades/re-dumar022-i-never-plan-to-get-a-new-cactus-but-it-happens-all-the-time-20160911t113601295z"
  },
  {
    "active_votes": [
      {
        "rshares": "15903878521",
        "voter": "ausbitbank"
      },
      {
        "rshares": "7073029768",
        "voter": "krystle"
      }
    ],
    "author": "blocktrades",
    "author_payout_value": "0.000 HBD",
    "author_reputation": 25.0,
    "beneficiaries": [],
    "blacklists": [],
    "body": "He should really come join us, I think he will do well here.",
    "category": "hugothepoet",
    "children": 1,
    "created": "2016-09-10T18:55:12",
    "curator_payout_value": "0.000 HBD",
    "depth": 4,
    "is_paidout": false,
    "json_metadata": {
      "tags": [
        "hugothepoet"
      ]
    },
    "max_accepted_payout": "1000000.000 HBD",
    "net_rshares": 22976908289,
    "parent_author": "krystle",
    "parent_permlink": "re-blocktrades-re-eight-rad-re-hugothepoet-brexit-rap-battles-of-history-the-irony-of-it-all-new-original-rap-20160910t093958564z",
    "payout": 0.001,
    "payout_at": "2016-10-11T08:34:30",
    "pending_payout_value": "0.001 HBD",
    "percent_steem_dollars": 10000,
    "permlink": "re-krystle-re-blocktrades-re-eight-rad-re-hugothepoet-brexit-rap-battles-of-history-the-irony-of-it-all-new-original-rap-20160910t185524205z",
    "post_id": 913914,
    "promoted": "0.000 HBD",
    "replies": [],
    "stats": {
      "flag_weight": 0.0,
      "gray": false,
      "hide": false,
      "total_votes": 2
    },
    "title": "RE: BREXIT RAP BATTLES OF HISTORY \ud83c\udfb6 The Irony of it all [New original rap!]",
    "updated": "2016-09-10T18:55:12",
    "url": "/hugothepoet/@hugothepoet/brexit-rap-battles-of-history-the-irony-of-it-all-new-original-rap#@blocktrades/re-krystle-re-blocktrades-re-eight-rad-re-hugothepoet-brexit-rap-battles-of-history-the-irony-of-it-all-new-original-rap-20160910t185524205z"
  },
  {
    "active_votes": [
      {
        "rshares": "376197226120",
        "voter": "anonymous"
      },
      {
        "rshares": "3726080800",
        "voter": "boy"
      },
      {
        "rshares": "1826107331710",
        "voter": "xeroc"
      },
      {
        "rshares": "4523954071",
        "voter": "bue-witness"
      },
      {
        "rshares": "820967971",
        "voter": "bunny"
      },
      {
        "rshares": "66007719046",
        "voter": "bue"
      },
      {
        "rshares": "1996505467",
        "voter": "mini"
      },
      {
        "rshares": "256574080",
        "voter": "moon"
      },
      {
        "rshares": "84310213617",
        "voter": "aizensou"
      },
      {
        "rshares": "750128743",
        "voter": "healthcare"
      },
      {
        "rshares": "23461494708",
        "voter": "tuck-fheman"
      },
      {
        "rshares": "1168010396",
        "voter": "daniel.pan"
      },
      {
        "rshares": "346059306",
        "voter": "helen.tan"
      },
      {
        "rshares": "148177438977",
        "voter": "steve-walschot"
      },
      {
        "rshares": "405843063922",
        "voter": "blakemiles84"
      },
      {
        "rshares": "41752536948",
        "voter": "ranko-k"
      },
      {
        "rshares": "32144039009",
        "voter": "michaelx"
      },
      {
        "rshares": "497422404",
        "voter": "mrhankeh"
      },
      {
        "rshares": "54345968921",
        "voter": "isteemit"
      },
      {
        "rshares": "25770093488",
        "voter": "djm34"
      },
      {
        "rshares": "15421942808",
        "voter": "ausbitbank"
      },
      {
        "rshares": "14504583511",
        "voter": "jaycobbell"
      },
      {
        "rshares": "240001201",
        "voter": "madhayday"
      },
      {
        "rshares": "89569037",
        "voter": "wildchild"
      },
      {
        "rshares": "1545022337",
        "voter": "paynode"
      },
      {
        "rshares": "69130289",
        "voter": "stevescriber"
      },
      {
        "rshares": "51247757",
        "voter": "loli"
      },
      {
        "rshares": "51199976",
        "voter": "nano2nd"
      },
      {
        "rshares": "1133588152",
        "voter": "the-bitcoin-dood"
      },
      {
        "rshares": "9360930353",
        "voter": "jaredcwillis"
      },
      {
        "rshares": "12531640103",
        "voter": "someguy123"
      },
      {
        "rshares": "62789171",
        "voter": "iosif"
      },
      {
        "rshares": "1367333459",
        "voter": "kiwideb"
      },
      {
        "rshares": "376727424099",
        "voter": "charlieshrem"
      },
      {
        "rshares": "57693408449",
        "voter": "tracemayer"
      },
      {
        "rshares": "1248769762",
        "voter": "bitcoinparadise"
      },
      {
        "rshares": "84516562",
        "voter": "inarix03"
      },
      {
        "rshares": "2743341132",
        "voter": "ltm"
      },
      {
        "rshares": "145899294",
        "voter": "djangothegod"
      },
      {
        "rshares": "156875846",
        "voter": "orangutanklaus"
      }
    ],
    "author": "blocktrades",
    "author_payout_value": "0.000 HBD",
    "author_reputation": 25.0,
    "beneficiaries": [],
    "blacklists": [],
    "body": "Hmm, but can we really trust a digital currency promoted by Evil Corp?",
    "category": "steem",
    "children": 5,
    "created": "2016-09-10T17:29:33",
    "curator_payout_value": "0.000 HBD",
    "depth": 1,
    "is_paidout": false,
    "json_metadata": {
      "tags": [
        "steem"
      ]
    },
    "max_accepted_payout": "1000000.000 HBD",
    "net_rshares": 3593432043002,
    "parent_author": "charlieshrem",
    "parent_permlink": "how-to-live-completely-off-steem-using-a-virtual-and-physical-debit-card-topped-up-with-steem",
    "payout": 2.222,
    "payout_at": "2016-10-11T19:05:18",
    "pending_payout_value": "2.222 HBD",
    "percent_steem_dollars": 10000,
    "permlink": "re-charlieshrem-how-to-live-completely-off-steem-using-a-virtual-and-physical-debit-card-topped-up-with-steem-20160910t172944767z",
    "post_id": 913109,
    "promoted": "0.000 HBD",
    "replies": [],
    "stats": {
      "flag_weight": 0.0,
      "gray": false,
      "hide": false,
      "total_votes": 40
    },
    "title": "RE: How to Live Completely off STEEM: Using a Virtual & Physical Debit Card Topped Up with STEEM",
    "updated": "2016-09-10T17:29:33",
    "url": "/steem/@charlieshrem/how-to-live-completely-off-steem-using-a-virtual-and-physical-debit-card-topped-up-with-steem#@blocktrades/re-charlieshrem-how-to-live-completely-off-steem-using-a-virtual-and-physical-debit-card-topped-up-with-steem-20160910t172944767z"
  },
  {
    "active_votes": [],
    "author": "blocktrades",
    "author_payout_value": "0.000 HBD",
    "author_reputation": 25.0,
    "beneficiaries": [],
    "blacklists": [],
    "body": "If you had included a link to your source, I would have upvoted this some.",
    "category": "bitcoin",
    "children": 0,
    "created": "2016-09-10T17:05:36",
    "curator_payout_value": "0.000 HBD",
    "depth": 1,
    "is_paidout": false,
    "json_metadata": {
      "tags": [
        "bitcoin"
      ]
    },
    "max_accepted_payout": "1000000.000 HBD",
    "net_rshares": 0,
    "parent_author": "boss-money",
    "parent_permlink": "two-big-factors-are-driving-up-bitcoin-prices",
    "payout": 0.0,
    "payout_at": "2016-10-11T17:52:21",
    "pending_payout_value": "0.000 HBD",
    "percent_steem_dollars": 10000,
    "permlink": "re-boss-money-two-big-factors-are-driving-up-bitcoin-prices-20160910t170547587z",
    "post_id": 912911,
    "promoted": "0.000 HBD",
    "replies": [],
    "stats": {
      "flag_weight": 0.0,
      "gray": false,
      "hide": false,
      "total_votes": 0
    },
    "title": "RE: Two Big Factors Are Driving Up Bitcoin Prices",
    "updated": "2016-09-10T17:05:36",
    "url": "/bitcoin/@boss-money/two-big-factors-are-driving-up-bitcoin-prices#@blocktrades/re-boss-money-two-big-factors-are-driving-up-bitcoin-prices-20160910t170547587z"
  }
]
