[
  {
    "active_votes": [],
    "author": "zaitsevalesyaa",
    "author_payout_value": "0.000 HBD",
    "author_reputation": 55.66,
    "beneficiaries": [],
    "blacklists": [],
    "body": "Now on the contrary, much can be done with origami, many beautiful things :)",
    "category": "steemit",
    "children": 1,
    "created": "2016-09-15T07:19:21",
    "curator_payout_value": "0.000 HBD",
    "depth": 2,
    "is_paidout": false,
    "json_metadata": {
      "tags": [
        "steemit"
      ]
    },
    "max_accepted_payout": "1000000.000 HBD",
    "net_rshares": 0,
    "parent_author": "roses3913",
    "parent_permlink": "re-zaitsevalesyaa-the-art-of-origami-flowers-20160914t201051068z",
    "payout": 0.0,
    "payout_at": "2016-09-22T07:19:21",
    "pending_payout_value": "0.000 HBD",
    "percent_hbd": 10000,
    "permlink": "re-roses3913-re-zaitsevalesyaa-the-art-of-origami-flowers-20160915t061759748z",
    "post_id": 1251614,
    "promoted": "0.000 HBD",
    "replies": [],
    "stats": {
      "flag_weight": 0.0,
      "gray": false,
      "hide": false,
      "total_votes": 0
    },
    "title": "RE: The art of origami - flowers.",
    "updated": "2016-09-15T07:19:21",
    "url": "/steemit/@zaitsevalesyaa/the-art-of-origami-flowers#@zaitsevalesyaa/re-roses3913-re-zaitsevalesyaa-the-art-of-origami-flowers-20160915t061759748z"
  },
  {
    "active_votes": [],
    "author": "zaitsevalesyaa",
    "author_payout_value": "0.000 HBD",
    "author_reputation": 55.66,
    "beneficiaries": [],
    "blacklists": [],
    "body": "\u0421\u043f\u0430\u0441\u0438\u0431\u043e \u0431\u043e\u043b\u044c\u0448\u043e\u0435 \u0432\u0430\u043c:)",
    "category": "steemit",
    "children": 0,
    "created": "2016-09-14T19:18:24",
    "curator_payout_value": "0.000 HBD",
    "depth": 2,
    "is_paidout": false,
    "json_metadata": {
      "tags": [
        "steemit"
      ]
    },
    "max_accepted_payout": "1000000.000 HBD",
    "net_rshares": 0,
    "parent_author": "alex2016",
    "parent_permlink": "re-zaitsevalesyaa-2cpqpy-art-origami-flowers-20160914t141947012z",
    "payout": 0.0,
    "payout_at": "2016-09-21T19:18:24",
    "pending_payout_value": "0.000 HBD",
    "percent_hbd": 10000,
    "permlink": "re-alex2016-re-zaitsevalesyaa-2cpqpy-art-origami-flowers-20160914t181733972z",
    "post_id": 1246187,
    "promoted": "0.000 HBD",
    "replies": [],
    "stats": {
      "flag_weight": 0.0,
      "gray": false,
      "hide": false,
      "total_votes": 0
    },
    "title": "RE: Art origami - flowers.",
    "updated": "2016-09-14T19:18:24",
    "url": "/steemit/@zaitsevalesyaa/2cpqpy-art-origami-flowers#@zaitsevalesyaa/re-alex2016-re-zaitsevalesyaa-2cpqpy-art-origami-flowers-20160914t181733972z"
  },
  {
    "active_votes": [],
    "author": "zaitsevalesyaa",
    "author_payout_value": "0.000 HBD",
    "author_reputation": 55.66,
    "beneficiaries": [],
    "blacklists": [],
    "body": "\u0421\u043f\u0430\u0441\u0438\u0431\u043e \u0431\u043e\u043b\u044c\u0448\u043e\u0435!",
    "category": "steemit",
    "children": 0,
    "created": "2016-09-14T19:16:57",
    "curator_payout_value": "0.000 HBD",
    "depth": 2,
    "is_paidout": false,
    "json_metadata": {
      "tags": [
        "steemit"
      ]
    },
    "max_accepted_payout": "1000000.000 HBD",
    "net_rshares": 0,
    "parent_author": "frol",
    "parent_permlink": "re-zaitsevalesyaa-2cpqpy-art-origami-flowers-20160913t202726343z",
    "payout": 0.0,
    "payout_at": "2016-09-21T19:16:57",
    "pending_payout_value": "0.000 HBD",
    "percent_hbd": 10000,
    "permlink": "re-frol-re-zaitsevalesyaa-2cpqpy-art-origami-flowers-20160914t181559232z",
    "post_id": 1246171,
    "promoted": "0.000 HBD",
    "replies": [],
    "stats": {
      "flag_weight": 0.0,
      "gray": false,
      "hide": false,
      "total_votes": 0
    },
    "title": "RE: Art origami - flowers.",
    "updated": "2016-09-14T19:16:57",
    "url": "/steemit/@zaitsevalesyaa/2cpqpy-art-origami-flowers#@zaitsevalesyaa/re-frol-re-zaitsevalesyaa-2cpqpy-art-origami-flowers-20160914t181559232z"
  },
  {
    "active_votes": [],
    "author": "zaitsevalesyaa",
    "author_payout_value": "0.000 HBD",
    "author_reputation": 55.66,
    "beneficiaries": [],
    "blacklists": [],
    "body": "Thank you so much!",
    "category": "steemit",
    "children": 0,
    "created": "2016-09-14T19:16:00",
    "curator_payout_value": "0.000 HBD",
    "depth": 2,
    "is_paidout": false,
    "json_metadata": {
      "tags": [
        "steemit"
      ]
    },
    "max_accepted_payout": "1000000.000 HBD",
    "net_rshares": 0,
    "parent_author": "edgarsart",
    "parent_permlink": "re-zaitsevalesyaa-the-art-of-origami-snowdrop-flower-20160913t220450230z",
    "payout": 0.0,
    "payout_at": "2016-09-21T19:16:00",
    "pending_payout_value": "0.000 HBD",
    "percent_hbd": 10000,
    "permlink": "re-edgarsart-re-zaitsevalesyaa-the-art-of-origami-snowdrop-flower-20160914t181501221z",
    "post_id": 1246163,
    "promoted": "0.000 HBD",
    "replies": [],
    "stats": {
      "flag_weight": 0.0,
      "gray": false,
      "hide": false,
      "total_votes": 0
    },
    "title": "RE: The art of origami - snowdrop flower.",
    "updated": "2016-09-14T19:16:00",
    "url": "/steemit/@zaitsevalesyaa/the-art-of-origami-snowdrop-flower#@zaitsevalesyaa/re-edgarsart-re-zaitsevalesyaa-the-art-of-origami-snowdrop-flower-20160914t181501221z"
  },
  {
    "active_votes": [],
    "author": "zaitsevalesyaa",
    "author_payout_value": "0.000 HBD",
    "author_reputation": 55.66,
    "beneficiaries": [],
    "blacklists": [],
    "body": "Thank you so much:)",
    "category": "steemit",
    "children": 0,
    "created": "2016-09-13T17:57:21",
    "curator_payout_value": "0.000 HBD",
    "depth": 2,
    "is_paidout": false,
    "json_metadata": {
      "tags": [
        "steemit"
      ]
    },
    "max_accepted_payout": "1000000.000 HBD",
    "net_rshares": 0,
    "parent_author": "team101",
    "parent_permlink": "re-zaitsevalesyaa-2cpqpy-art-origami-flowers-20160913t175157627z",
    "payout": 0.0,
    "payout_at": "2016-09-20T17:57:21",
    "pending_payout_value": "0.000 HBD",
    "percent_hbd": 10000,
    "permlink": "re-team101-re-zaitsevalesyaa-2cpqpy-art-origami-flowers-20160913t165618460z",
    "post_id": 1234292,
    "promoted": "0.000 HBD",
    "replies": [],
    "stats": {
      "flag_weight": 0.0,
      "gray": false,
      "hide": false,
      "total_votes": 0
    },
    "title": "RE: Art origami - flowers.",
    "updated": "2016-09-13T17:57:21",
    "url": "/steemit/@zaitsevalesyaa/2cpqpy-art-origami-flowers#@zaitsevalesyaa/re-team101-re-zaitsevalesyaa-2cpqpy-art-origami-flowers-20160913t165618460z"
  },
  {
    "active_votes": [],
    "author": "zaitsevalesyaa",
    "author_payout_value": "0.000 HBD",
    "author_reputation": 55.66,
    "beneficiaries": [],
    "blacklists": [],
    "body": "It is a masterpiece. Beauty!!!",
    "category": "steemit",
    "children": 1,
    "created": "2016-09-11T19:51:54",
    "curator_payout_value": "0.000 HBD",
    "depth": 1,
    "is_paidout": false,
    "json_metadata": {
      "tags": [
        "steemit"
      ]
    },
    "max_accepted_payout": "1000000.000 HBD",
    "net_rshares": 0,
    "parent_author": "marius19",
    "parent_permlink": "my-peacock-colorful-origami",
    "payout": 0.0,
    "payout_at": "2016-09-18T19:51:54",
    "pending_payout_value": "0.000 HBD",
    "percent_hbd": 10000,
    "permlink": "re-marius19-my-peacock-colorful-origami-20160911t185114751z",
    "post_id": 1212188,
    "promoted": "0.000 HBD",
    "replies": [],
    "stats": {
      "flag_weight": 0.0,
      "gray": false,
      "hide": false,
      "total_votes": 0
    },
    "title": "RE: My peacock colorful origami",
    "updated": "2016-09-11T19:51:54",
    "url": "/steemit/@marius19/my-peacock-colorful-origami#@zaitsevalesyaa/re-marius19-my-peacock-colorful-origami-20160911t185114751z"
  },
  {
    "active_votes": [],
    "author": "zaitsevalesyaa",
    "author_payout_value": "0.000 HBD",
    "author_reputation": 55.66,
    "beneficiaries": [],
    "blacklists": [],
    "body": "Many thanks. Origami is a great lesson for everyone :)",
    "category": "steemit",
    "children": 0,
    "created": "2016-09-10T18:34:12",
    "curator_payout_value": "0.000 HBD",
    "depth": 2,
    "is_paidout": false,
    "json_metadata": {
      "tags": [
        "steemit"
      ]
    },
    "max_accepted_payout": "1000000.000 HBD",
    "net_rshares": 0,
    "parent_author": "modernbukowski",
    "parent_permlink": "re-zaitsevalesyaa-the-art-of-origami-little-butterflys-20160910t183210519z",
    "payout": 0.0,
    "payout_at": "2016-09-17T18:34:12",
    "pending_payout_value": "0.000 HBD",
    "percent_hbd": 10000,
    "permlink": "re-modernbukowski-re-zaitsevalesyaa-the-art-of-origami-little-butterflys-20160910t173416915z",
    "post_id": 1199090,
    "promoted": "0.000 HBD",
    "replies": [],
    "stats": {
      "flag_weight": 0.0,
      "gray": false,
      "hide": false,
      "total_votes": 0
    },
    "title": "RE: The art of Origami. Little butterflys.",
    "updated": "2016-09-10T18:34:12",
    "url": "/steemit/@zaitsevalesyaa/the-art-of-origami-little-butterflys#@zaitsevalesyaa/re-modernbukowski-re-zaitsevalesyaa-the-art-of-origami-little-butterflys-20160910t173416915z"
  }
]
