[
  {
    "active_votes": [
      {
        "rshares": 167583535821,
        "voter": "anyx"
      },
      {
        "rshares": 66269561540,
        "voter": "cheetah"
      },
      {
        "rshares": 99810337,
        "voter": "cheetah63"
      },
      {
        "rshares": 99799751,
        "voter": "cheetah64"
      },
      {
        "rshares": 120614958,
        "voter": "cheetah65"
      }
    ],
    "author": "cheetah",
    "author_payout_value": "0.000 HBD",
    "author_reputation": 64.17,
    "beneficiaries": [],
    "blacklists": [],
    "body": "Okay, I have banned @labradorsem.",
    "category": "food",
    "children": 0,
    "created": "2016-09-11T19:29:54",
    "curator_payout_value": "0.000 HBD",
    "depth": 2,
    "is_paidout": false,
    "json_metadata": {},
    "max_accepted_payout": "1000000.000 HBD",
    "net_rshares": 234173322407,
    "parent_author": "anyx",
    "parent_permlink": "re-labradorsem-diet-apple-pie-with-apples-and-pears-20160911t192856906z",
    "payout": 0.079,
    "payout_at": "2016-09-18T19:29:54",
    "pending_payout_value": "0.079 HBD",
    "percent_hbd": 10000,
    "permlink": "re-re-labradorsem-diet-apple-pie-with-apples-and-pears-20160911t192856906z-20160911t192943",
    "post_id": 1211956,
    "promoted": "0.000 HBD",
    "replies": [],
    "stats": {
      "flag_weight": 0.0,
      "gray": false,
      "hide": false,
      "total_votes": 5
    },
    "title": "RE: Diet apple pie with apples and pears",
    "updated": "2016-09-11T19:29:54",
    "url": "/food/@labradorsem/diet-apple-pie-with-apples-and-pears#@cheetah/re-re-labradorsem-diet-apple-pie-with-apples-and-pears-20160911t192856906z-20160911t192943"
  },
  {
    "active_votes": [
      {
        "rshares": 17230086000,
        "voter": "cheetah"
      },
      {
        "rshares": 99924819,
        "voter": "cheetah60"
      },
      {
        "rshares": 99909631,
        "voter": "cheetah61"
      },
      {
        "rshares": 99886729,
        "voter": "cheetah62"
      }
    ],
    "author": "cheetah",
    "author_payout_value": "0.000 HBD",
    "author_reputation": 64.17,
    "beneficiaries": [],
    "blacklists": [],
    "body": "Hi! I am a content-detection robot. This post is to help manual curators; I have NOT flagged you.\nHere is similar content:\nhttp://www.dailymail.co.uk/news/article-3784073/Girl-received-FluMist-nasal-spray-vaccination-against-H1N1-dies-virus-four-months-CDC-finds-ineffective.html",
    "category": "health",
    "children": 1,
    "created": "2016-09-11T19:12:24",
    "curator_payout_value": "0.000 HBD",
    "depth": 1,
    "is_paidout": false,
    "json_metadata": {},
    "max_accepted_payout": "1000000.000 HBD",
    "net_rshares": 17529807179,
    "parent_author": "wakeupnd",
    "parent_permlink": "family-anger-as-their-eight-year-old-daughter-dies-from-the-flu-after-using-flumist-nasal-spray-vaccine-that-the-cdc-now-admits",
    "payout": 0.005,
    "payout_at": "2016-09-18T19:12:24",
    "pending_payout_value": "0.005 HBD",
    "percent_hbd": 10000,
    "permlink": "re-family-anger-as-their-eight-year-old-daughter-dies-from-the-flu-after-using-flumist-nasal-spray-vaccine-that-the-cdc-now-admits-20160911t191217",
    "post_id": 1211739,
    "promoted": "0.000 HBD",
    "replies": [],
    "stats": {
      "flag_weight": 0.0,
      "gray": false,
      "hide": false,
      "total_votes": 4
    },
    "title": "RE: Family anger as their eight-year-old daughter dies from the flu after using FluMist nasal spray vaccine that the CDC now admits is 'ineffective'",
    "updated": "2016-09-11T19:12:24",
    "url": "/health/@wakeupnd/family-anger-as-their-eight-year-old-daughter-dies-from-the-flu-after-using-flumist-nasal-spray-vaccine-that-the-cdc-now-admits#@cheetah/re-family-anger-as-their-eight-year-old-daughter-dies-from-the-flu-after-using-flumist-nasal-spray-vaccine-that-the-cdc-now-admits-20160911t191217"
  },
  {
    "active_votes": [
      {
        "rshares": 171128278804,
        "voter": "anyx"
      },
      {
        "rshares": 17229926376,
        "voter": "cheetah"
      },
      {
        "rshares": 100056560,
        "voter": "cheetah55"
      },
      {
        "rshares": 100034443,
        "voter": "cheetah53"
      },
      {
        "rshares": 99969263,
        "voter": "cheetah54"
      }
    ],
    "author": "cheetah",
    "author_payout_value": "0.000 HBD",
    "author_reputation": 64.17,
    "beneficiaries": [],
    "blacklists": [],
    "body": "Warning! This user is on my black list, likely as a known plagiarist, spammer or ID thief. Please be cautious with this post!\nTo get off this list, please chat with us in the #steemitabuse-appeals channel in [steemit.chat](http://steemit.chat).",
    "category": "earning",
    "children": 0,
    "created": "2016-09-11T18:19:00",
    "curator_payout_value": "0.000 HBD",
    "depth": 1,
    "is_paidout": false,
    "json_metadata": {},
    "max_accepted_payout": "1000000.000 HBD",
    "net_rshares": 188658265446,
    "parent_author": "amansapps",
    "parent_permlink": "usd18-is-equal-to-monthly-usd5000-joining-4-corners",
    "payout": 0.056,
    "payout_at": "2016-09-18T18:19:00",
    "pending_payout_value": "0.056 HBD",
    "percent_hbd": 10000,
    "permlink": "re-usd18-is-equal-to-monthly-usd5000-joining-4-corners-20160911t181853",
    "post_id": 1211095,
    "promoted": "0.000 HBD",
    "replies": [],
    "stats": {
      "flag_weight": 0.0,
      "gray": false,
      "hide": false,
      "total_votes": 5
    },
    "title": "RE: $18 IS equal to monthly $5000 joining 4 Corners",
    "updated": "2016-09-11T18:19:00",
    "url": "/earning/@amansapps/usd18-is-equal-to-monthly-usd5000-joining-4-corners#@cheetah/re-usd18-is-equal-to-monthly-usd5000-joining-4-corners-20160911t181853"
  },
  {
    "active_votes": [
      {
        "rshares": 171113317466,
        "voter": "anyx"
      },
      {
        "rshares": 17229762731,
        "voter": "cheetah"
      },
      {
        "rshares": 100261624,
        "voter": "cheetah43"
      },
      {
        "rshares": 141949259,
        "voter": "cheetah44"
      },
      {
        "rshares": 121089288,
        "voter": "cheetah45"
      }
    ],
    "author": "cheetah",
    "author_payout_value": "0.000 HBD",
    "author_reputation": 64.17,
    "beneficiaries": [],
    "blacklists": [],
    "body": "Hi! I am a content-detection robot. This post is to help manual curators; I have NOT flagged you.\nHere is similar content:\nhttp://greyfalcon.us/An%20Overview%20Of%20The%20War%20On%20Terrorism.htm",
    "category": "terrorism",
    "children": 1,
    "created": "2016-09-11T18:06:18",
    "curator_payout_value": "0.000 HBD",
    "depth": 1,
    "is_paidout": false,
    "json_metadata": {},
    "max_accepted_payout": "1000000.000 HBD",
    "net_rshares": 188706380368,
    "parent_author": "william001",
    "parent_permlink": "remembering-nazi-germany-s-war-on-terrorism",
    "payout": 0.056,
    "payout_at": "2016-09-18T18:06:18",
    "pending_payout_value": "0.056 HBD",
    "percent_hbd": 10000,
    "permlink": "re-remembering-nazi-germany-s-war-on-terrorism-20160911t180608",
    "post_id": 1210955,
    "promoted": "0.000 HBD",
    "replies": [],
    "stats": {
      "flag_weight": 0.0,
      "gray": false,
      "hide": false,
      "total_votes": 5
    },
    "title": "RE: Remembering Nazi Germany's War On Terrorism",
    "updated": "2016-09-11T18:06:18",
    "url": "/terrorism/@william001/remembering-nazi-germany-s-war-on-terrorism#@cheetah/re-remembering-nazi-germany-s-war-on-terrorism-20160911t180608"
  },
  {
    "active_votes": [
      {
        "rshares": 171113317466,
        "voter": "anyx"
      },
      {
        "rshares": 64927439887,
        "voter": "cheetah"
      },
      {
        "rshares": 121293651,
        "voter": "cheetah40"
      },
      {
        "rshares": 100285774,
        "voter": "cheetah41"
      },
      {
        "rshares": 100095194,
        "voter": "cheetah42"
      }
    ],
    "author": "cheetah",
    "author_payout_value": "0.000 HBD",
    "author_reputation": 64.17,
    "beneficiaries": [],
    "blacklists": [],
    "body": "Okay, I have banned @amansapps.",
    "category": "earn",
    "children": 0,
    "created": "2016-09-11T17:33:30",
    "curator_payout_value": "0.000 HBD",
    "depth": 2,
    "is_paidout": false,
    "json_metadata": {},
    "max_accepted_payout": "1000000.000 HBD",
    "net_rshares": 236362431972,
    "parent_author": "predator",
    "parent_permlink": "re-amansapps-forced-bitcoin-matrix-20160911t173205002z",
    "payout": 0.071,
    "payout_at": "2016-09-18T17:33:30",
    "pending_payout_value": "0.071 HBD",
    "percent_hbd": 10000,
    "permlink": "re-re-amansapps-forced-bitcoin-matrix-20160911t173205002z-20160911t173322",
    "post_id": 1210645,
    "promoted": "0.000 HBD",
    "replies": [],
    "stats": {
      "flag_weight": 0.0,
      "gray": false,
      "hide": false,
      "total_votes": 5
    },
    "title": "RE: Forced bitcoin Matrix",
    "updated": "2016-09-11T17:33:30",
    "url": "/earn/@amansapps/forced-bitcoin-matrix#@cheetah/re-re-amansapps-forced-bitcoin-matrix-20160911t173205002z-20160911t173322"
  },
  {
    "active_votes": [
      {
        "rshares": 171113317466,
        "voter": "anyx"
      },
      {
        "rshares": 17225463686,
        "voter": "cheetah"
      },
      {
        "rshares": 100706960,
        "voter": "cheetah37"
      },
      {
        "rshares": 121078651,
        "voter": "cheetah38"
      },
      {
        "rshares": 100105437,
        "voter": "cheetah39"
      }
    ],
    "author": "cheetah",
    "author_payout_value": "0.000 HBD",
    "author_reputation": 64.17,
    "beneficiaries": [],
    "blacklists": [],
    "body": "Okay, I have banned @boss-money.",
    "category": "new",
    "children": 0,
    "created": "2016-09-11T17:29:51",
    "curator_payout_value": "0.000 HBD",
    "depth": 2,
    "is_paidout": false,
    "json_metadata": {},
    "max_accepted_payout": "1000000.000 HBD",
    "net_rshares": 188660672200,
    "parent_author": "predator",
    "parent_permlink": "re-boss-money-new-cars-for-2016-infiniti-20160911t172804384z",
    "payout": 0.056,
    "payout_at": "2016-09-18T17:29:51",
    "pending_payout_value": "0.056 HBD",
    "percent_hbd": 10000,
    "permlink": "re-re-boss-money-new-cars-for-2016-infiniti-20160911t172804384z-20160911t172944",
    "post_id": 1210610,
    "promoted": "0.000 HBD",
    "replies": [],
    "stats": {
      "flag_weight": 0.0,
      "gray": false,
      "hide": false,
      "total_votes": 5
    },
    "title": "RE: New Cars for 2016: Infiniti",
    "updated": "2016-09-11T17:29:51",
    "url": "/new/@boss-money/new-cars-for-2016-infiniti#@cheetah/re-re-boss-money-new-cars-for-2016-infiniti-20160911t172804384z-20160911t172944"
  },
  {
    "active_votes": [
      {
        "rshares": 174754026348,
        "voter": "anyx"
      },
      {
        "rshares": 17225156294,
        "voter": "cheetah"
      },
      {
        "rshares": 100573013,
        "voter": "cheetah35"
      },
      {
        "rshares": 100562283,
        "voter": "cheetah36"
      },
      {
        "rshares": 100129060,
        "voter": "cheetah34"
      }
    ],
    "author": "cheetah",
    "author_payout_value": "0.000 HBD",
    "author_reputation": 64.17,
    "beneficiaries": [],
    "blacklists": [],
    "body": "Warning! This user is on my black list, likely as a known plagiarist, spammer or ID thief. Please be cautious with this post!\nTo get off this list, please chat with us in the #steemitabuse-appeals channel in [steemit.chat](http://steemit.chat).",
    "category": "nfl",
    "children": 0,
    "created": "2016-09-11T17:06:00",
    "curator_payout_value": "0.000 HBD",
    "depth": 1,
    "is_paidout": false,
    "json_metadata": {},
    "max_accepted_payout": "1000000.000 HBD",
    "net_rshares": 192280446998,
    "parent_author": "wishit",
    "parent_permlink": "2fjyfy-cbs-tv-chiefs-vs-chargers-live-st-ream-2016-on-line-game-nfl-football-week-1-usa",
    "payout": 0.056,
    "payout_at": "2016-09-18T17:06:00",
    "pending_payout_value": "0.056 HBD",
    "percent_hbd": 10000,
    "permlink": "re-2fjyfy-cbs-tv-chiefs-vs-chargers-live-st-ream-2016-on-line-game-nfl-football-week-1-usa-20160911t170553",
    "post_id": 1210417,
    "promoted": "0.000 HBD",
    "replies": [],
    "stats": {
      "flag_weight": 0.0,
      "gray": false,
      "hide": false,
      "total_votes": 5
    },
    "title": "RE: [CBS**TV]~ Chiefs vs Chargers Live St-ream 2016 On-line Game. NFL Football Week-1 USA",
    "updated": "2016-09-11T17:06:00",
    "url": "/nfl/@wishit/2fjyfy-cbs-tv-chiefs-vs-chargers-live-st-ream-2016-on-line-game-nfl-football-week-1-usa#@cheetah/re-2fjyfy-cbs-tv-chiefs-vs-chargers-live-st-ream-2016-on-line-game-nfl-football-week-1-usa-20160911t170553"
  },
  {
    "active_votes": [
      {
        "rshares": 174754026348,
        "voter": "anyx"
      },
      {
        "rshares": 64925589109,
        "voter": "cheetah"
      },
      {
        "rshares": 144867260,
        "voter": "cheetah24"
      },
      {
        "rshares": 100872818,
        "voter": "cheetah25"
      },
      {
        "rshares": 187524153,
        "voter": "cheetah26"
      }
    ],
    "author": "cheetah",
    "author_payout_value": "0.000 HBD",
    "author_reputation": 64.17,
    "beneficiaries": [],
    "blacklists": [],
    "body": "Warning! This user is on my black list, likely as a known plagiarist, spammer or ID thief. Please be cautious with this post!\nTo get off this list, please chat with us in the #steemitabuse-appeals channel in [steemit.chat](http://steemit.chat).",
    "category": "nfl",
    "children": 0,
    "created": "2016-09-11T16:56:12",
    "curator_payout_value": "0.000 HBD",
    "depth": 1,
    "is_paidout": false,
    "json_metadata": {},
    "max_accepted_payout": "1000000.000 HBD",
    "net_rshares": 240112879688,
    "parent_author": "wishit",
    "parent_permlink": "44lops-cbs-tv-chiefs-vs-chargers-live-st-ream-2016-on-line-game-nfl-football-week-1-usa",
    "payout": 0.072,
    "payout_at": "2016-09-18T16:56:12",
    "pending_payout_value": "0.072 HBD",
    "percent_hbd": 10000,
    "permlink": "re-44lops-cbs-tv-chiefs-vs-chargers-live-st-ream-2016-on-line-game-nfl-football-week-1-usa-20160911t165603",
    "post_id": 1210326,
    "promoted": "0.000 HBD",
    "replies": [],
    "stats": {
      "flag_weight": 0.0,
      "gray": false,
      "hide": false,
      "total_votes": 5
    },
    "title": "RE: [CBS**TV]~ Chiefs vs Chargers Live St-ream 2016 On-line Game. NFL Football Week-1 USA",
    "updated": "2016-09-11T16:56:12",
    "url": "/nfl/@wishit/44lops-cbs-tv-chiefs-vs-chargers-live-st-ream-2016-on-line-game-nfl-football-week-1-usa#@cheetah/re-44lops-cbs-tv-chiefs-vs-chargers-live-st-ream-2016-on-line-game-nfl-football-week-1-usa-20160911t165603"
  },
  {
    "active_votes": [
      {
        "rshares": 174754026348,
        "voter": "anyx"
      },
      {
        "rshares": 17225156294,
        "voter": "cheetah"
      },
      {
        "rshares": 101777094,
        "voter": "cheetah14"
      },
      {
        "rshares": 171631587,
        "voter": "cheetah15"
      },
      {
        "rshares": 101859018,
        "voter": "cheetah16"
      }
    ],
    "author": "cheetah",
    "author_payout_value": "0.000 HBD",
    "author_reputation": 64.17,
    "beneficiaries": [],
    "blacklists": [],
    "body": "Warning! This user is on my black list, likely as a known plagiarist, spammer or ID thief. Please be cautious with this post!\nTo get off this list, please chat with us in the #steemitabuse-appeals channel in [steemit.chat](http://steemit.chat).",
    "category": "chifs",
    "children": 0,
    "created": "2016-09-11T16:47:18",
    "curator_payout_value": "0.000 HBD",
    "depth": 1,
    "is_paidout": false,
    "json_metadata": {},
    "max_accepted_payout": "1000000.000 HBD",
    "net_rshares": 192354450341,
    "parent_author": "wishit",
    "parent_permlink": "cbs-tv-chiefs-vs-chargers-live-st-ream-2016-on-line-game-nfl-football-week-1-usa",
    "payout": 0.056,
    "payout_at": "2016-09-18T16:47:18",
    "pending_payout_value": "0.056 HBD",
    "percent_hbd": 10000,
    "permlink": "re-cbs-tv-chiefs-vs-chargers-live-st-ream-2016-on-line-game-nfl-football-week-1-usa-20160911t164709",
    "post_id": 1210248,
    "promoted": "0.000 HBD",
    "replies": [],
    "stats": {
      "flag_weight": 0.0,
      "gray": false,
      "hide": false,
      "total_votes": 5
    },
    "title": "RE: [CBS**TV]~ Chiefs vs Chargers Live St-ream 2016 On-line Game. NFL Football Week-1 USA",
    "updated": "2016-09-11T16:47:18",
    "url": "/chifs/@wishit/cbs-tv-chiefs-vs-chargers-live-st-ream-2016-on-line-game-nfl-football-week-1-usa#@cheetah/re-cbs-tv-chiefs-vs-chargers-live-st-ream-2016-on-line-game-nfl-football-week-1-usa-20160911t164709"
  },
  {
    "active_votes": [
      {
        "rshares": 178394735231,
        "voter": "anyx"
      },
      {
        "rshares": 17224976626,
        "voter": "cheetah"
      },
      {
        "rshares": 102168682,
        "voter": "cheetah04"
      },
      {
        "rshares": 102161368,
        "voter": "cheetah05"
      },
      {
        "rshares": 102159434,
        "voter": "cheetah06"
      }
    ],
    "author": "cheetah",
    "author_payout_value": "0.000 HBD",
    "author_reputation": 64.17,
    "beneficiaries": [],
    "blacklists": [],
    "body": "Warning! This user is on my black list, likely as a known plagiarist, spammer or ID thief. Please be cautious with this post!\nTo get off this list, please chat with us in the #steemitabuse-appeals channel in [steemit.chat](http://steemit.chat).",
    "category": "wtf",
    "children": 0,
    "created": "2016-09-11T16:44:42",
    "curator_payout_value": "0.000 HBD",
    "depth": 1,
    "is_paidout": false,
    "json_metadata": {},
    "max_accepted_payout": "1000000.000 HBD",
    "net_rshares": 195926201341,
    "parent_author": "dicov",
    "parent_permlink": "vsyo-eshyo-banite-merzavchiki",
    "payout": 0.058,
    "payout_at": "2016-09-18T16:44:42",
    "pending_payout_value": "0.058 HBD",
    "percent_hbd": 10000,
    "permlink": "re-vsyo-eshyo-banite-merzavchiki-20160911t164435",
    "post_id": 1210229,
    "promoted": "0.000 HBD",
    "replies": [],
    "stats": {
      "flag_weight": 0.0,
      "gray": false,
      "hide": false,
      "total_votes": 5
    },
    "title": "RE: \u0412\u0441\u0451 \u0435\u0449\u0451 \u0431\u0430\u043d\u0438\u0442\u0435? \u041c\u0435\u0440\u0437\u0430\u0432\u0447\u0438\u043a\u0438? :)",
    "updated": "2016-09-11T16:44:42",
    "url": "/wtf/@dicov/vsyo-eshyo-banite-merzavchiki#@cheetah/re-vsyo-eshyo-banite-merzavchiki-20160911t164435"
  },
  {
    "active_votes": [
      {
        "rshares": 174754026348,
        "voter": "anyx"
      },
      {
        "rshares": 64924219623,
        "voter": "cheetah"
      },
      {
        "rshares": 99702754,
        "voter": "cheetah94"
      },
      {
        "rshares": 99579845,
        "voter": "cheetah95"
      },
      {
        "rshares": 99393484,
        "voter": "cheetah96"
      }
    ],
    "author": "cheetah",
    "author_payout_value": "0.000 HBD",
    "author_reputation": 64.17,
    "beneficiaries": [],
    "blacklists": [],
    "body": "Warning! This user is on my black list, likely as a known plagiarist, spammer or ID thief. Please be cautious with this post!\nTo get off this list, please chat with us in the #steemitabuse-appeals channel in [steemit.chat](http://steemit.chat).",
    "category": "falcon",
    "children": 0,
    "created": "2016-09-11T15:54:42",
    "curator_payout_value": "0.000 HBD",
    "depth": 1,
    "is_paidout": false,
    "json_metadata": {},
    "max_accepted_payout": "1000000.000 HBD",
    "net_rshares": 239976922054,
    "parent_author": "wishit",
    "parent_permlink": "https-awethu-amandla-mobi-petitions-fox-spots-st-ream-buccaneers-vs-falcons-live-on-line-nfl-football-week-1-reddit",
    "payout": 0.072,
    "payout_at": "2016-09-18T15:54:42",
    "pending_payout_value": "0.072 HBD",
    "percent_hbd": 10000,
    "permlink": "re-https-awethu-amandla-mobi-petitions-fox-spots-st-ream-buccaneers-vs-falcons-live-on-line-nfl-football-week-1-reddit-20160911t155435",
    "post_id": 1209760,
    "promoted": "0.000 HBD",
    "replies": [],
    "stats": {
      "flag_weight": 0.0,
      "gray": false,
      "hide": false,
      "total_votes": 5
    },
    "title": "RE: https://awethu.amandla.mobi/petitions/fox-spots-st-ream-buccaneers-vs-falcons-live-on-line-nfl-football-week-1-reddit",
    "updated": "2016-09-11T15:54:42",
    "url": "/falcon/@wishit/https-awethu-amandla-mobi-petitions-fox-spots-st-ream-buccaneers-vs-falcons-live-on-line-nfl-football-week-1-reddit#@cheetah/re-https-awethu-amandla-mobi-petitions-fox-spots-st-ream-buccaneers-vs-falcons-live-on-line-nfl-football-week-1-reddit-20160911t155435"
  },
  {
    "active_votes": [
      {
        "rshares": -178394735231,
        "voter": "anyx"
      },
      {
        "rshares": 1178736120,
        "voter": "anyx01"
      },
      {
        "rshares": 1020918855,
        "voter": "anyx02"
      },
      {
        "rshares": 929721495,
        "voter": "anyx03"
      },
      {
        "rshares": 746189372,
        "voter": "anyx04"
      },
      {
        "rshares": 586881289,
        "voter": "anyx05"
      },
      {
        "rshares": 496492552,
        "voter": "anyx06"
      },
      {
        "rshares": 17224613256,
        "voter": "cheetah"
      },
      {
        "rshares": 99672387,
        "voter": "cheetah84"
      },
      {
        "rshares": 99667762,
        "voter": "cheetah85"
      },
      {
        "rshares": 120282390,
        "voter": "cheetah86"
      }
    ],
    "author": "cheetah",
    "author_payout_value": "0.000 HBD",
    "author_reputation": 64.17,
    "beneficiaries": [],
    "blacklists": [],
    "body": "Hi! I am a content-detection robot. This post is to help manual curators; I have NOT flagged you.\nHere is similar content:\nhttp://www.walmart.ca/",
    "category": "curie",
    "children": 5,
    "created": "2016-09-11T15:50:57",
    "curator_payout_value": "0.000 HBD",
    "depth": 1,
    "is_paidout": false,
    "json_metadata": {},
    "max_accepted_payout": "1000000.000 HBD",
    "net_rshares": -155891559753,
    "parent_author": "curie",
    "parent_permlink": "project-curie-s-daily-curation-list-10-sept-11-sept-2016",
    "payout": 0.0,
    "payout_at": "2016-09-18T15:50:57",
    "pending_payout_value": "0.000 HBD",
    "percent_hbd": 10000,
    "permlink": "re-project-curie-s-daily-curation-list-10-sept-11-sept-2016-20160911t155046",
    "post_id": 1209721,
    "promoted": "0.000 HBD",
    "replies": [],
    "stats": {
      "flag_weight": 1.0,
      "gray": false,
      "hide": false,
      "total_votes": 11
    },
    "title": "RE: Project Curie's Daily Curation List (10 Sept - 11 Sept 2016)",
    "updated": "2016-09-11T15:50:57",
    "url": "/curie/@curie/project-curie-s-daily-curation-list-10-sept-11-sept-2016#@cheetah/re-project-curie-s-daily-curation-list-10-sept-11-sept-2016-20160911t155046"
  },
  {
    "active_votes": [
      {
        "rshares": 178394735231,
        "voter": "anyx"
      },
      {
        "rshares": 17224613256,
        "voter": "cheetah"
      },
      {
        "rshares": 99755485,
        "voter": "cheetah81"
      },
      {
        "rshares": 99713981,
        "voter": "cheetah82"
      },
      {
        "rshares": 99680784,
        "voter": "cheetah83"
      }
    ],
    "author": "cheetah",
    "author_payout_value": "0.000 HBD",
    "author_reputation": 64.17,
    "beneficiaries": [],
    "blacklists": [],
    "body": "Warning! This user is on my black list, likely as a known plagiarist, spammer or ID thief. Please be cautious with this post!\nTo get off this list, please chat with us in the #steemitabuse-appeals channel in [steemit.chat](http://steemit.chat).",
    "category": "sdsdw",
    "children": 0,
    "created": "2016-09-11T15:47:09",
    "curator_payout_value": "0.000 HBD",
    "depth": 1,
    "is_paidout": false,
    "json_metadata": {},
    "max_accepted_payout": "1000000.000 HBD",
    "net_rshares": 195918498737,
    "parent_author": "pronfllive",
    "parent_permlink": "http-www-eteamz-com-peirqyi",
    "payout": 0.056,
    "payout_at": "2016-09-18T15:47:09",
    "pending_payout_value": "0.056 HBD",
    "percent_hbd": 10000,
    "permlink": "re-http-www-eteamz-com-peirqyi-20160911t154702",
    "post_id": 1209674,
    "promoted": "0.000 HBD",
    "replies": [],
    "stats": {
      "flag_weight": 0.0,
      "gray": false,
      "hide": false,
      "total_votes": 5
    },
    "title": "RE: http://www.eteamz.com/peirqyi/",
    "updated": "2016-09-11T15:47:09",
    "url": "/sdsdw/@pronfllive/http-www-eteamz-com-peirqyi#@cheetah/re-http-www-eteamz-com-peirqyi-20160911t154702"
  },
  {
    "active_votes": [
      {
        "rshares": 178394735231,
        "voter": "anyx"
      },
      {
        "rshares": 66247821324,
        "voter": "cheetah"
      },
      {
        "rshares": 99998735,
        "voter": "cheetah71"
      },
      {
        "rshares": 120606126,
        "voter": "cheetah72"
      },
      {
        "rshares": 120408056,
        "voter": "cheetah73"
      }
    ],
    "author": "cheetah",
    "author_payout_value": "0.000 HBD",
    "author_reputation": 64.17,
    "beneficiaries": [],
    "blacklists": [],
    "body": "Warning! This user is on my black list, likely as a known plagiarist, spammer or ID thief. Please be cautious with this post!\nTo get off this list, please chat with us in the #steemitabuse-appeals channel in [steemit.chat](http://steemit.chat).",
    "category": "dsw",
    "children": 0,
    "created": "2016-09-11T15:35:03",
    "curator_payout_value": "0.000 HBD",
    "depth": 1,
    "is_paidout": false,
    "json_metadata": {},
    "max_accepted_payout": "1000000.000 HBD",
    "net_rshares": 244983569472,
    "parent_author": "pronfllive",
    "parent_permlink": "http-www-eteamz-com-piaeiuyui",
    "payout": 0.072,
    "payout_at": "2016-09-18T15:35:03",
    "pending_payout_value": "0.072 HBD",
    "percent_hbd": 10000,
    "permlink": "re-http-www-eteamz-com-piaeiuyui-20160911t153454",
    "post_id": 1209571,
    "promoted": "0.000 HBD",
    "replies": [],
    "stats": {
      "flag_weight": 0.0,
      "gray": false,
      "hide": false,
      "total_votes": 5
    },
    "title": "RE: http://www.eteamz.com/piaeiuyui/",
    "updated": "2016-09-11T15:35:03",
    "url": "/dsw/@pronfllive/http-www-eteamz-com-piaeiuyui#@cheetah/re-http-www-eteamz-com-piaeiuyui-20160911t153454"
  },
  {
    "active_votes": [
      {
        "rshares": 182035444113,
        "voter": "anyx"
      },
      {
        "rshares": 17224433544,
        "voter": "cheetah"
      },
      {
        "rshares": 99909631,
        "voter": "cheetah61"
      },
      {
        "rshares": 99886729,
        "voter": "cheetah62"
      },
      {
        "rshares": 99810337,
        "voter": "cheetah63"
      }
    ],
    "author": "cheetah",
    "author_payout_value": "0.000 HBD",
    "author_reputation": 64.17,
    "beneficiaries": [],
    "blacklists": [],
    "body": "Warning! This user is on my black list, likely as a known plagiarist, spammer or ID thief. Please be cautious with this post!\nTo get off this list, please chat with us in the #steemitabuse-appeals channel in [steemit.chat](http://steemit.chat).",
    "category": "nfl",
    "children": 0,
    "created": "2016-09-11T15:32:42",
    "curator_payout_value": "0.000 HBD",
    "depth": 1,
    "is_paidout": false,
    "json_metadata": {},
    "max_accepted_payout": "1000000.000 HBD",
    "net_rshares": 199559484354,
    "parent_author": "livehdvsstream",
    "parent_permlink": "tdin7-http-us-livesports-com-jacksonville-jaguars-vs-green-bay-packers-live",
    "payout": 0.058,
    "payout_at": "2016-09-18T15:32:42",
    "pending_payout_value": "0.058 HBD",
    "percent_hbd": 10000,
    "permlink": "re-tdin7-http-us-livesports-com-jacksonville-jaguars-vs-green-bay-packers-live-20160911t153233",
    "post_id": 1209558,
    "promoted": "0.000 HBD",
    "replies": [],
    "stats": {
      "flag_weight": 0.0,
      "gray": false,
      "hide": false,
      "total_votes": 5
    },
    "title": "RE: http://us-livesports.com/jacksonville-jaguars-vs-green-bay-packers-live/",
    "updated": "2016-09-11T15:32:42",
    "url": "/nfl/@livehdvsstream/tdin7-http-us-livesports-com-jacksonville-jaguars-vs-green-bay-packers-live#@cheetah/re-tdin7-http-us-livesports-com-jacksonville-jaguars-vs-green-bay-packers-live-20160911t153233"
  },
  {
    "active_votes": [
      {
        "rshares": 182035444113,
        "voter": "anyx"
      },
      {
        "rshares": 17224433544,
        "voter": "cheetah"
      },
      {
        "rshares": 100048214,
        "voter": "cheetah51"
      },
      {
        "rshares": 120915194,
        "voter": "cheetah52"
      },
      {
        "rshares": 100034443,
        "voter": "cheetah53"
      }
    ],
    "author": "cheetah",
    "author_payout_value": "0.000 HBD",
    "author_reputation": 64.17,
    "beneficiaries": [],
    "blacklists": [],
    "body": "Warning! This user is on my black list, likely as a known plagiarist, spammer or ID thief. Please be cautious with this post!\nTo get off this list, please chat with us in the #steemitabuse-appeals channel in [steemit.chat](http://steemit.chat).",
    "category": "nfl",
    "children": 0,
    "created": "2016-09-11T15:21:42",
    "curator_payout_value": "0.000 HBD",
    "depth": 1,
    "is_paidout": false,
    "json_metadata": {},
    "max_accepted_payout": "1000000.000 HBD",
    "net_rshares": 199580875508,
    "parent_author": "livehdvsstream",
    "parent_permlink": "http-us-livesports-com-jacksonville-jaguars-vs-green-bay-packers-live",
    "payout": 0.058,
    "payout_at": "2016-09-18T15:21:42",
    "pending_payout_value": "0.058 HBD",
    "percent_hbd": 10000,
    "permlink": "re-http-us-livesports-com-jacksonville-jaguars-vs-green-bay-packers-live-20160911t152133",
    "post_id": 1209483,
    "promoted": "0.000 HBD",
    "replies": [],
    "stats": {
      "flag_weight": 0.0,
      "gray": false,
      "hide": false,
      "total_votes": 5
    },
    "title": "RE: http://us-livesports.com/jacksonville-jaguars-vs-green-bay-packers-live/",
    "updated": "2016-09-11T15:21:42",
    "url": "/nfl/@livehdvsstream/http-us-livesports-com-jacksonville-jaguars-vs-green-bay-packers-live#@cheetah/re-http-us-livesports-com-jacksonville-jaguars-vs-green-bay-packers-live-20160911t152133"
  },
  {
    "active_votes": [
      {
        "rshares": 182035444113,
        "voter": "anyx"
      },
      {
        "rshares": 66247821324,
        "voter": "cheetah"
      },
      {
        "rshares": 101857729,
        "voter": "cheetah17"
      },
      {
        "rshares": 101760456,
        "voter": "cheetah18"
      },
      {
        "rshares": 123906339,
        "voter": "cheetah19"
      }
    ],
    "author": "cheetah",
    "author_payout_value": "0.000 HBD",
    "author_reputation": 64.17,
    "beneficiaries": [],
    "blacklists": [],
    "body": "Warning! This user is on my black list, likely as a known plagiarist, spammer or ID thief. Please be cautious with this post!\nTo get off this list, please chat with us in the #steemitabuse-appeals channel in [steemit.chat](http://steemit.chat).",
    "category": "nfl",
    "children": 0,
    "created": "2016-09-11T15:02:03",
    "curator_payout_value": "0.000 HBD",
    "depth": 1,
    "is_paidout": false,
    "json_metadata": {},
    "max_accepted_payout": "1000000.000 HBD",
    "net_rshares": 248610789961,
    "parent_author": "livehdvsstream",
    "parent_permlink": "http-us-livesports-com-buffalo-bills-vs-baltimore-ravens-live",
    "payout": 0.074,
    "payout_at": "2016-09-18T15:02:03",
    "pending_payout_value": "0.074 HBD",
    "percent_hbd": 10000,
    "permlink": "re-http-us-livesports-com-buffalo-bills-vs-baltimore-ravens-live-20160911t150154",
    "post_id": 1209316,
    "promoted": "0.000 HBD",
    "replies": [],
    "stats": {
      "flag_weight": 0.0,
      "gray": false,
      "hide": false,
      "total_votes": 5
    },
    "title": "RE: http://us-livesports.com/buffalo-bills-vs-baltimore-ravens-live/",
    "updated": "2016-09-11T15:02:03",
    "url": "/nfl/@livehdvsstream/http-us-livesports-com-buffalo-bills-vs-baltimore-ravens-live#@cheetah/re-http-us-livesports-com-buffalo-bills-vs-baltimore-ravens-live-20160911t150154"
  },
  {
    "active_votes": [
      {
        "rshares": 185676152995,
        "voter": "anyx"
      },
      {
        "rshares": 17223055010,
        "voter": "cheetah"
      },
      {
        "rshares": 99685752,
        "voter": "cheetah97"
      },
      {
        "rshares": 99579845,
        "voter": "cheetah95"
      },
      {
        "rshares": 99393484,
        "voter": "cheetah96"
      }
    ],
    "author": "cheetah",
    "author_payout_value": "0.000 HBD",
    "author_reputation": 64.17,
    "beneficiaries": [],
    "blacklists": [],
    "body": "Okay, I have banned @dailybest.",
    "category": "art",
    "children": 1,
    "created": "2016-09-11T12:48:15",
    "curator_payout_value": "0.000 HBD",
    "depth": 2,
    "is_paidout": false,
    "json_metadata": {},
    "max_accepted_payout": "1000000.000 HBD",
    "net_rshares": 203197867086,
    "parent_author": "pfunk",
    "parent_permlink": "re-dailybest-sketch-4-birds-in-love-20160911t123342655z",
    "payout": 0.068,
    "payout_at": "2016-09-18T12:48:15",
    "pending_payout_value": "0.068 HBD",
    "percent_hbd": 10000,
    "permlink": "re-re-dailybest-sketch-4-birds-in-love-20160911t123342655z-20160911t124805",
    "post_id": 1208302,
    "promoted": "0.000 HBD",
    "replies": [],
    "stats": {
      "flag_weight": 0.0,
      "gray": false,
      "hide": false,
      "total_votes": 5
    },
    "title": "RE: Sketch #4 Birds in Love",
    "updated": "2016-09-11T12:48:15",
    "url": "/art/@dailybest/sketch-4-birds-in-love#@cheetah/re-re-dailybest-sketch-4-birds-in-love-20160911t123342655z-20160911t124805"
  },
  {
    "active_votes": [
      {
        "rshares": 167487251596,
        "voter": "anyx"
      },
      {
        "rshares": 15898023819,
        "voter": "cheetah"
      },
      {
        "rshares": 120484844,
        "voter": "cheetah76"
      },
      {
        "rshares": 99698423,
        "voter": "cheetah77"
      },
      {
        "rshares": 99871230,
        "voter": "cheetah78"
      }
    ],
    "author": "cheetah",
    "author_payout_value": "0.000 HBD",
    "author_reputation": 64.17,
    "beneficiaries": [],
    "blacklists": [],
    "body": "Warning! This user is on my black list, likely as a known plagiarist, spammer or ID thief. Please be cautious with this post!\nTo get off this list, please chat with us in the #steemitabuse-appeals channel in [steemit.chat](http://steemit.chat).",
    "category": "photography",
    "children": 2,
    "created": "2016-09-11T09:32:24",
    "curator_payout_value": "0.000 HBD",
    "depth": 1,
    "is_paidout": false,
    "json_metadata": {},
    "max_accepted_payout": "1000000.000 HBD",
    "net_rshares": 183705329912,
    "parent_author": "yanik",
    "parent_permlink": "girl",
    "payout": 0.05,
    "payout_at": "2016-09-18T09:32:24",
    "pending_payout_value": "0.050 HBD",
    "percent_hbd": 10000,
    "permlink": "re-girl-20160911t093216",
    "post_id": 1206871,
    "promoted": "0.000 HBD",
    "replies": [],
    "stats": {
      "flag_weight": 0.0,
      "gray": false,
      "hide": false,
      "total_votes": 5
    },
    "title": "RE: Girl",
    "updated": "2016-09-11T09:32:24",
    "url": "/photography/@yanik/girl#@cheetah/re-girl-20160911t093216"
  },
  {
    "active_votes": [
      {
        "rshares": 1573633590,
        "voter": "predator"
      },
      {
        "rshares": 62266753814,
        "voter": "cheetah"
      },
      {
        "rshares": 99927659,
        "voter": "cheetah58"
      },
      {
        "rshares": 99927313,
        "voter": "cheetah59"
      },
      {
        "rshares": 99924819,
        "voter": "cheetah60"
      }
    ],
    "author": "cheetah",
    "author_payout_value": "0.000 HBD",
    "author_reputation": 64.17,
    "beneficiaries": [],
    "blacklists": [],
    "body": "Warning! This user is on my black list, likely as a known plagiarist, spammer or ID thief. Please be cautious with this post!\nTo get off this list, please chat with us in the #steemitabuse-appeals channel in [steemit.chat](http://steemit.chat).",
    "category": "art",
    "children": 1,
    "created": "2016-09-11T08:14:57",
    "curator_payout_value": "0.000 HBD",
    "depth": 1,
    "is_paidout": false,
    "json_metadata": {},
    "max_accepted_payout": "1000000.000 HBD",
    "net_rshares": 64140167195,
    "parent_author": "kyleb15",
    "parent_permlink": "i-love-steem-cheetah-true-apology",
    "payout": 0.023,
    "payout_at": "2016-09-18T08:14:57",
    "pending_payout_value": "0.023 HBD",
    "percent_hbd": 10000,
    "permlink": "re-i-love-steem-cheetah-true-apology-20160911t081449",
    "post_id": 1206382,
    "promoted": "0.000 HBD",
    "replies": [],
    "stats": {
      "flag_weight": 0.0,
      "gray": false,
      "hide": false,
      "total_votes": 5
    },
    "title": "RE: I love steem @cheetah true apology",
    "updated": "2016-09-11T08:14:57",
    "url": "/art/@kyleb15/i-love-steem-cheetah-true-apology#@cheetah/re-i-love-steem-cheetah-true-apology-20160911t081449"
  }
]
