[
  {
    "active_votes": [],
    "author": "steemit",
    "author_payout_value": "0.000 HBD",
    "author_reputation": 35.01,
    "beneficiaries": [],
    "blacklists": [],
    "body": "Muted in this community forever",
    "category": "hive-198723",
    "children": 0,
    "created": "2016-09-15T18:01:39",
    "curator_payout_value": "0.000 HBD",
    "depth": 1,
    "is_paidout": false,
    "json_metadata": {},
    "max_accepted_payout": "1000000.000 HBD",
    "net_rshares": 0,
    "parent_author": "test-safari",
    "parent_permlink": "parent-post-for-muted-steemit",
    "payout": 0.0,
    "payout_at": "2016-09-22T18:01:39",
    "pending_payout_value": "0.000 HBD",
    "percent_hbd": 10000,
    "permlink": "comment-to-post-in-community-muted",
    "post_id": 1256872,
    "promoted": "0.000 HBD",
    "replies": [],
    "stats": {
      "flag_weight": 0.0,
      "gray": true,
      "hide": false,
      "total_votes": 0
    },
    "title": "RE: steemit-will-comment-this-post",
    "updated": "2016-09-15T18:01:39",
    "url": "/hive-198723/@test-safari/parent-post-for-muted-steemit#@steemit/comment-to-post-in-community-muted"
  }
]
