{
  "current_median_history": {
    "base": "0.134 HBD",
    "quote": "1.000 HIVE"
  },
  "id": 0,
  "price_history": [
    {
      "base": "0.142 HBD",
      "quote": "1.000 HIVE"
    },
    {
      "base": "0.142 HBD",
      "quote": "1.000 HIVE"
    },
    {
      "base": "0.142 HBD",
      "quote": "1.000 HIVE"
    },
    {
      "base": "0.142 HBD",
      "quote": "1.000 HIVE"
    },
    {
      "base": "0.142 HBD",
      "quote": "1.000 HIVE"
    },
    {
      "base": "0.140 HBD",
      "quote": "1.000 HIVE"
    },
    {
      "base": "0.140 HBD",
      "quote": "1.000 HIVE"
    },
    {
      "base": "0.142 HBD",
      "quote": "1.000 HIVE"
    },
    {
      "base": "0.141 HBD",
      "quote": "1.000 HIVE"
    },
    {
      "base": "0.142 HBD",
      "quote": "1.000 HIVE"
    },
    {
      "base": "0.141 HBD",
      "quote": "1.000 HIVE"
    },
    {
      "base": "0.141 HBD",
      "quote": "1.000 HIVE"
    },
    {
      "base": "0.141 HBD",
      "quote": "1.000 HIVE"
    },
    {
      "base": "0.138 HBD",
      "quote": "1.000 HIVE"
    },
    {
      "base": "0.137 HBD",
      "quote": "1.000 HIVE"
    },
    {
      "base": "0.136 HBD",
      "quote": "1.000 HIVE"
    },
    {
      "base": "0.137 HBD",
      "quote": "1.000 HIVE"
    },
    {
      "base": "0.137 HBD",
      "quote": "1.000 HIVE"
    },
    {
      "base": "0.137 HBD",
      "quote": "1.000 HIVE"
    },
    {
      "base": "0.137 HBD",
      "quote": "1.000 HIVE"
    },
    {
      "base": "0.137 HBD",
      "quote": "1.000 HIVE"
    },
    {
      "base": "0.137 HBD",
      "quote": "1.000 HIVE"
    },
    {
      "base": "0.137 HBD",
      "quote": "1.000 HIVE"
    },
    {
      "base": "0.137 HBD",
      "quote": "1.000 HIVE"
    },
    {
      "base": "0.137 HBD",
      "quote": "1.000 HIVE"
    },
    {
      "base": "0.136 HBD",
      "quote": "1.000 HIVE"
    },
    {
      "base": "0.135 HBD",
      "quote": "1.000 HIVE"
    },
    {
      "base": "0.135 HBD",
      "quote": "1.000 HIVE"
    },
    {
      "base": "0.134 HBD",
      "quote": "1.000 HIVE"
    },
    {
      "base": "0.134 HBD",
      "quote": "1.000 HIVE"
    },
    {
      "base": "0.134 HBD",
      "quote": "1.000 HIVE"
    },
    {
      "base": "0.134 HBD",
      "quote": "1.000 HIVE"
    },
    {
      "base": "0.134 HBD",
      "quote": "1.000 HIVE"
    },
    {
      "base": "0.134 HBD",
      "quote": "1.000 HIVE"
    },
    {
      "base": "0.134 HBD",
      "quote": "1.000 HIVE"
    },
    {
      "base": "0.135 HBD",
      "quote": "1.000 HIVE"
    },
    {
      "base": "0.135 HBD",
      "quote": "1.000 HIVE"
    },
    {
      "base": "0.135 HBD",
      "quote": "1.000 HIVE"
    },
    {
      "base": "0.136 HBD",
      "quote": "1.000 HIVE"
    },
    {
      "base": "0.135 HBD",
      "quote": "1.000 HIVE"
    },
    {
      "base": "0.135 HBD",
      "quote": "1.000 HIVE"
    },
    {
      "base": "0.136 HBD",
      "quote": "1.000 HIVE"
    },
    {
      "base": "0.135 HBD",
      "quote": "1.000 HIVE"
    },
    {
      "base": "0.134 HBD",
      "quote": "1.000 HIVE"
    },
    {
      "base": "0.134 HBD",
      "quote": "1.000 HIVE"
    },
    {
      "base": "0.134 HBD",
      "quote": "1.000 HIVE"
    },
    {
      "base": "0.134 HBD",
      "quote": "1.000 HIVE"
    },
    {
      "base": "0.134 HBD",
      "quote": "1.000 HIVE"
    },
    {
      "base": "0.134 HBD",
      "quote": "1.000 HIVE"
    },
    {
      "base": "0.131 HBD",
      "quote": "1.000 HIVE"
    },
    {
      "base": "0.131 HBD",
      "quote": "1.000 HIVE"
    },
    {
      "base": "0.130 HBD",
      "quote": "1.000 HIVE"
    },
    {
      "base": "0.130 HBD",
      "quote": "1.000 HIVE"
    },
    {
      "base": "0.129 HBD",
      "quote": "1.000 HIVE"
    },
    {
      "base": "0.128 HBD",
      "quote": "1.000 HIVE"
    },
    {
      "base": "0.127 HBD",
      "quote": "1.000 HIVE"
    },
    {
      "base": "0.126 HBD",
      "quote": "1.000 HIVE"
    },
    {
      "base": "0.126 HBD",
      "quote": "1.000 HIVE"
    },
    {
      "base": "0.126 HBD",
      "quote": "1.000 HIVE"
    },
    {
      "base": "0.126 HBD",
      "quote": "1.000 HIVE"
    },
    {
      "base": "0.125 HBD",
      "quote": "1.000 HIVE"
    },
    {
      "base": "0.125 HBD",
      "quote": "1.000 HIVE"
    },
    {
      "base": "0.124 HBD",
      "quote": "1.000 HIVE"
    },
    {
      "base": "0.124 HBD",
      "quote": "1.000 HIVE"
    },
    {
      "base": "0.124 HBD",
      "quote": "1.000 HIVE"
    },
    {
      "base": "0.124 HBD",
      "quote": "1.000 HIVE"
    },
    {
      "base": "0.124 HBD",
      "quote": "1.000 HIVE"
    },
    {
      "base": "0.123 HBD",
      "quote": "1.000 HIVE"
    },
    {
      "base": "0.123 HBD",
      "quote": "1.000 HIVE"
    },
    {
      "base": "0.123 HBD",
      "quote": "1.000 HIVE"
    },
    {
      "base": "0.123 HBD",
      "quote": "1.000 HIVE"
    },
    {
      "base": "0.123 HBD",
      "quote": "1.000 HIVE"
    },
    {
      "base": "0.123 HBD",
      "quote": "1.000 HIVE"
    },
    {
      "base": "0.122 HBD",
      "quote": "1.000 HIVE"
    },
    {
      "base": "0.123 HBD",
      "quote": "1.000 HIVE"
    },
    {
      "base": "0.122 HBD",
      "quote": "1.000 HIVE"
    },
    {
      "base": "0.123 HBD",
      "quote": "1.000 HIVE"
    },
    {
      "base": "0.123 HBD",
      "quote": "1.000 HIVE"
    },
    {
      "base": "0.123 HBD",
      "quote": "1.000 HIVE"
    },
    {
      "base": "0.123 HBD",
      "quote": "1.000 HIVE"
    },
    {
      "base": "0.123 HBD",
      "quote": "1.000 HIVE"
    },
    {
      "base": "0.123 HBD",
      "quote": "1.000 HIVE"
    },
    {
      "base": "0.123 HBD",
      "quote": "1.000 HIVE"
    },
    {
      "base": "0.122 HBD",
      "quote": "1.000 HIVE"
    }
  ]
}
