[
  {
      "active_votes": [
          {
              "percent": "100",
              "reputation": 0,
              "rshares": "375241",
              "voter": "dantheman"
          },
          {
              "percent": "10000",
              "reputation": 0,
              "rshares": "886132",
              "voter": "mr11acdee"
          },
          {
              "percent": "10000",
              "reputation": 0,
              "rshares": "5100",
              "voter": "steemit78"
          },
          {
              "percent": "10000",
              "reputation": 0,
              "rshares": "1259167",
              "voter": "anonymous"
          },
          {
              "percent": "10000",
              "reputation": 0,
              "rshares": "318519",
              "voter": "hello"
          },
          {
              "percent": "10000",
              "reputation": 0,
              "rshares": "153384",
              "voter": "world"
          },
          {
              "percent": "0",
              "reputation": 0,
              "rshares": "-936400",
              "voter": "ned"
          },
          {
              "percent": "10000",
              "reputation": 0,
              "rshares": "59412",
              "voter": "fufubar1"
          },
          {
              "percent": "10000",
              "reputation": 0,
              "rshares": "14997",
              "voter": "anonymous1"
          },
          {
              "percent": "100",
              "reputation": 0,
              "rshares": "1441",
              "voter": "red"
          },
          {
              "percent": "10000",
              "reputation": 0,
              "rshares": "551390835500",
              "voter": "liondani"
          },
          {
              "percent": "10000",
              "reputation": 0,
              "rshares": "82748",
              "voter": "roadscape"
          },
          {
              "percent": "100",
              "reputation": 0,
              "rshares": "10772",
              "voter": "xeroc"
          },
          {
              "percent": "10000",
              "reputation": 0,
              "rshares": "7685088000",
              "voter": "markopaasila"
          },
          {
              "percent": "10000",
              "reputation": 0,
              "rshares": "454510724",
              "voter": "tshering-tamang"
          },
          {
              "percent": "10000",
              "reputation": 0,
              "rshares": "681946946",
              "voter": "romangelsi"
          },
          {
              "percent": "10000",
              "reputation": 0,
              "rshares": "504895891",
              "voter": "dedmatvey"
          },
          {
              "percent": "10000",
              "reputation": 0,
              "rshares": "498863058",
              "voter": "joelinux"
          },
          {
              "percent": "0",
              "reputation": 0,
              "rshares": "9590417",
              "voter": "piranhax"
          },
          {
              "percent": "10000",
              "reputation": 0,
              "rshares": "473258270",
              "voter": "ned-reddit-login"
          },
          {
              "percent": "3600",
              "reputation": 0,
              "rshares": "0",
              "voter": "fernando-sanz"
          },
          {
              "percent": "10000",
              "reputation": 0,
              "rshares": "425903066",
              "voter": "gekko"
          },
          {
              "percent": "10000",
              "reputation": 0,
              "rshares": "381805870",
              "voter": "gilang-ramadhan"
          },
          {
              "percent": "10000",
              "reputation": 0,
              "rshares": "392459059",
              "voter": "kamvreto"
          },
          {
              "percent": "10000",
              "reputation": 0,
              "rshares": "422984262",
              "voter": "acidyo"
          },
          {
              "percent": "10000",
              "reputation": 0,
              "rshares": "47179379651",
              "voter": "tosch"
          },
          {
              "percent": "10000",
              "reputation": 0,
              "rshares": "7831667988",
              "voter": "klye"
          },
          {
              "percent": "10000",
              "reputation": 0,
              "rshares": "1019950749",
              "voter": "coar"
          },
          {
              "percent": "1509",
              "reputation": 0,
              "rshares": "1746058458",
              "voter": "murh"
          },
          {
              "percent": "100",
              "reputation": 0,
              "rshares": "0",
              "voter": "ashe-oro"
          },
          {
              "percent": "10000",
              "reputation": 0,
              "rshares": "22639073725",
              "voter": "drinkzya"
          },
          {
              "percent": "10000",
              "reputation": 0,
              "rshares": "0",
              "voter": "hien-tran"
          },
          {
              "percent": "10000",
              "reputation": 0,
              "rshares": "742566481",
              "voter": "patrick-g"
          },
          {
              "percent": "10000",
              "reputation": 0,
              "rshares": "40624969",
              "voter": "ben99"
          },
          {
              "percent": "10000",
              "reputation": 0,
              "rshares": "0",
              "voter": "tskeene"
          },
          {
              "percent": "10000",
              "reputation": 0,
              "rshares": "1742755097",
              "voter": "sunshinecrypto"
          },
          {
              "percent": "10000",
              "reputation": 0,
              "rshares": "0",
              "voter": "roelandp"
          },
          {
              "percent": "10000",
              "reputation": 0,
              "rshares": "0",
              "voter": "stealthtrader"
          },
          {
              "percent": "10000",
              "reputation": 0,
              "rshares": "108855472",
              "voter": "kingtylervvs"
          },
          {
              "percent": "10000",
              "reputation": 0,
              "rshares": "0",
              "voter": "picokernel"
          },
          {
              "percent": "10000",
              "reputation": 0,
              "rshares": "0",
              "voter": "ausbitbank"
          },
          {
              "percent": "10000",
              "reputation": 0,
              "rshares": "485112237",
              "voter": "marinabogumil"
          },
          {
              "percent": "10000",
              "reputation": 0,
              "rshares": "0",
              "voter": "sebastien"
          },
          {
              "percent": "10000",
              "reputation": 0,
              "rshares": "917398502",
              "voter": "decrypt"
          },
          {
              "percent": "10000",
              "reputation": 0,
              "rshares": "5067187498",
              "voter": "senseiteekay"
          },
          {
              "percent": "10000",
              "reputation": 0,
              "rshares": "5154897955",
              "voter": "r33drum"
          },
          {
              "percent": "10000",
              "reputation": 0,
              "rshares": "5033902237",
              "voter": "cryptosi"
          },
          {
              "percent": "10000",
              "reputation": 0,
              "rshares": "1037079223",
              "voter": "condra"
          },
          {
              "percent": "10000",
              "reputation": 0,
              "rshares": "233032838",
              "voter": "jearson"
          },
          {
              "percent": "10000",
              "reputation": 0,
              "rshares": "240809500",
              "voter": "tritium"
          },
          {
              "percent": "10000",
              "reputation": 0,
              "rshares": "123321995",
              "voter": "allmonitors"
          },
          {
              "percent": "10000",
              "reputation": 0,
              "rshares": "226074637",
              "voter": "artjedi"
          },
          {
              "percent": "10000",
              "reputation": 0,
              "rshares": "931542394",
              "voter": "anduweb"
          },
          {
              "percent": "10000",
              "reputation": 0,
              "rshares": "2292983350",
              "voter": "inertia"
          },
          {
              "percent": "10000",
              "reputation": 0,
              "rshares": "128561059",
              "voter": "maximkichev"
          },
          {
              "percent": "10000",
              "reputation": 0,
              "rshares": "183438273",
              "voter": "a9inchcock"
          },
          {
              "percent": "10000",
              "reputation": 0,
              "rshares": "266262926",
              "voter": "desmonid"
          },
          {
              "percent": "10000",
              "reputation": 0,
              "rshares": "71498008",
              "voter": "madhatting"
          },
          {
              "percent": "10000",
              "reputation": 0,
              "rshares": "23726644841",
              "voter": "ubg"
          },
          {
              "percent": "10000",
              "reputation": 0,
              "rshares": "3741408303",
              "voter": "royaltiffany"
          },
          {
              "percent": "10000",
              "reputation": 0,
              "rshares": "131577259",
              "voter": "gribgo"
          },
          {
              "percent": "10000",
              "reputation": 0,
              "rshares": "12371398765",
              "voter": "deanliu"
          },
          {
              "percent": "10000",
              "reputation": 0,
              "rshares": "28907874049",
              "voter": "orm"
          },
          {
              "percent": "10000",
              "reputation": 0,
              "rshares": "528988007",
              "voter": "qonq99"
          },
          {
              "percent": "10000",
              "reputation": 0,
              "rshares": "129537329",
              "voter": "rd7783"
          },
          {
              "percent": "10000",
              "reputation": 0,
              "rshares": "615020728",
              "voter": "slava"
          },
          {
              "percent": "10000",
              "reputation": 0,
              "rshares": "0",
              "voter": "flyboyzombie"
          },
          {
              "percent": "1",
              "reputation": 0,
              "rshares": "0",
              "voter": "social"
          },
          {
              "percent": "10000",
              "reputation": 0,
              "rshares": "100102503",
              "voter": "sictransitgloria"
          },
          {
              "percent": "10000",
              "reputation": 0,
              "rshares": "95219365",
              "voter": "curator"
          },
          {
              "percent": "10000",
              "reputation": 0,
              "rshares": "232295871",
              "voter": "dubovoy"
          },
          {
              "percent": "10000",
              "reputation": 0,
              "rshares": "0",
              "voter": "solos"
          },
          {
              "percent": "10000",
              "reputation": 0,
              "rshares": "0",
              "voter": "alvintang"
          },
          {
              "percent": "10000",
              "reputation": 0,
              "rshares": "96945805",
              "voter": "creatorgalaxy"
          },
          {
              "percent": "10000",
              "reputation": 0,
              "rshares": "99813231",
              "voter": "trigonice29"
          },
          {
              "percent": "10000",
              "reputation": 0,
              "rshares": "0",
              "voter": "blysards"
          },
          {
              "percent": "10000",
              "reputation": 0,
              "rshares": "0",
              "voter": "nick.kharchenko"
          },
          {
              "percent": "10000",
              "reputation": 0,
              "rshares": "3721016208",
              "voter": "uwe69"
          },
          {
              "percent": "10000",
              "reputation": 0,
              "rshares": "1279854",
              "voter": "nigmat"
          },
          {
              "percent": "10000",
              "reputation": 0,
              "rshares": "13974353753",
              "voter": "magicmonk"
          },
          {
              "percent": "10000",
              "reputation": 0,
              "rshares": "4968585456",
              "voter": "satoshifpv"
          },
          {
              "percent": "10000",
              "reputation": 0,
              "rshares": "1660613178",
              "voter": "naturalista"
          },
          {
              "percent": "10000",
              "reputation": 0,
              "rshares": "10847083143",
              "voter": "metrox"
          },
          {
              "percent": "10000",
              "reputation": 0,
              "rshares": "18340928",
              "voter": "bestmalik"
          },
          {
              "percent": "10000",
              "reputation": 0,
              "rshares": "59563315",
              "voter": "kolyan31"
          },
          {
              "percent": "10000",
              "reputation": 0,
              "rshares": "710989138",
              "voter": "romancs"
          },
          {
              "percent": "10000",
              "reputation": 0,
              "rshares": "59366614",
              "voter": "luke490"
          },
          {
              "percent": "10000",
              "reputation": 0,
              "rshares": "58762473",
              "voter": "bro66"
          },
          {
              "percent": "10000",
              "reputation": 0,
              "rshares": "201822591",
              "voter": "future24"
          },
          {
              "percent": "10000",
              "reputation": 0,
              "rshares": "58623688",
              "voter": "mythras"
          },
          {
              "percent": "10000",
              "reputation": 0,
              "rshares": "56536509",
              "voter": "imarealboy777"
          },
          {
              "percent": "0",
              "reputation": 0,
              "rshares": "0",
              "voter": "matrixdweller"
          },
          {
              "percent": "10000",
              "reputation": 0,
              "rshares": "48299362",
              "voter": "smartguylabcoat"
          },
          {
              "percent": "10000",
              "reputation": 0,
              "rshares": "59157099",
              "voter": "mabiturm"
          },
          {
              "percent": "10000",
              "reputation": 0,
              "rshares": "48283979",
              "voter": "captainamerica"
          },
          {
              "percent": "10000",
              "reputation": 0,
              "rshares": "54761612",
              "voter": "edbriv"
          },
          {
              "percent": "10000",
              "reputation": 0,
              "rshares": "0",
              "voter": "anarchyhasnogods"
          },
          {
              "percent": "10000",
              "reputation": 0,
              "rshares": "865125771",
              "voter": "rittr"
          },
          {
              "percent": "10000",
              "reputation": 0,
              "rshares": "0",
              "voter": "tumutanzi"
          },
          {
              "percent": "10000",
              "reputation": 0,
              "rshares": "92614447",
              "voter": "jelloducky"
          },
          {
              "percent": "10000",
              "reputation": 0,
              "rshares": "52740989",
              "voter": "tcstix"
          },
          {
              "percent": "10000",
              "reputation": 0,
              "rshares": "49467477",
              "voter": "friedwater"
          },
          {
              "percent": "10000",
              "reputation": 0,
              "rshares": "57366185",
              "voter": "denisdiaz"
          },
          {
              "percent": "10000",
              "reputation": 0,
              "rshares": "0",
              "voter": "gbonikz"
          },
          {
              "percent": "10000",
              "reputation": 0,
              "rshares": "132070449",
              "voter": "loganarchy"
          },
          {
              "percent": "10000",
              "reputation": 0,
              "rshares": "48811442",
              "voter": "love-spirit-nerd"
          },
          {
              "percent": "10000",
              "reputation": 0,
              "rshares": "0",
              "voter": "darkflame"
          },
          {
              "percent": "10000",
              "reputation": 0,
              "rshares": "0",
              "voter": "sneak"
          },
          {
              "percent": "10000",
              "reputation": 0,
              "rshares": "0",
              "voter": "jacobcards"
          },
          {
              "percent": "10000",
              "reputation": 0,
              "rshares": "51549585",
              "voter": "dikanevn"
          },
          {
              "percent": "10000",
              "reputation": 0,
              "rshares": "0",
              "voter": "shieha"
          },
          {
              "percent": "10000",
              "reputation": 0,
              "rshares": "54017869",
              "voter": "zelious"
          },
          {
              "percent": "0",
              "reputation": 0,
              "rshares": "0",
              "voter": "allyouneedtoknow"
          },
          {
              "percent": "10000",
              "reputation": 0,
              "rshares": "0",
              "voter": "justyy"
          },
          {
              "percent": "10000",
              "reputation": 0,
              "rshares": "50129944",
              "voter": "freebornangel"
          },
          {
              "percent": "10000",
              "reputation": 0,
              "rshares": "53196086",
              "voter": "f1111111"
          },
          {
              "percent": "10000",
              "reputation": 0,
              "rshares": "0",
              "voter": "anomaly"
          },
          {
              "percent": "10000",
              "reputation": 0,
              "rshares": "52394017140",
              "voter": "jack8831"
          },
          {
              "percent": "10000",
              "reputation": 0,
              "rshares": "0",
              "voter": "buckland"
          },
          {
              "percent": "10",
              "reputation": 0,
              "rshares": "0",
              "voter": "guest123"
          },
          {
              "percent": "10000",
              "reputation": 0,
              "rshares": "0",
              "voter": "syahhiran"
          },
          {
              "percent": "10000",
              "reputation": 0,
              "rshares": "0",
              "voter": "rarcntv"
          },
          {
              "percent": "10000",
              "reputation": 0,
              "rshares": "0",
              "voter": "nataleeoliver"
          },
          {
              "percent": "10000",
              "reputation": 0,
              "rshares": "0",
              "voter": "goldmatters"
          },
          {
              "percent": "10000",
              "reputation": 0,
              "rshares": "0",
              "voter": "gamer00"
          },
          {
              "percent": "10000",
              "reputation": 0,
              "rshares": "0",
              "voter": "curiesea"
          },
          {
              "percent": "10000",
              "reputation": 0,
              "rshares": "0",
              "voter": "missmarzipan"
          },
          {
              "percent": "3000",
              "reputation": 0,
              "rshares": "0",
              "voter": "thejohalfiles"
          },
          {
              "percent": "10000",
              "reputation": 0,
              "rshares": "0",
              "voter": "steemwart"
          },
          {
              "percent": "10000",
              "reputation": 0,
              "rshares": "0",
              "voter": "mapesa"
          },
          {
              "percent": "10000",
              "reputation": 0,
              "rshares": "0",
              "voter": "max-max"
          },
          {
              "percent": "10000",
              "reputation": 0,
              "rshares": "0",
              "voter": "joshuaatiemo"
          },
          {
              "percent": "10000",
              "reputation": 0,
              "rshares": "0",
              "voter": "jumaidafajar"
          },
          {
              "percent": "10000",
              "reputation": 0,
              "rshares": "0",
              "voter": "leolina1"
          },
          {
              "percent": "10000",
              "reputation": 0,
              "rshares": "0",
              "voter": "rebatesteem"
          },
          {
              "percent": "10000",
              "reputation": 0,
              "rshares": "0",
              "voter": "aidancloquell"
          },
          {
              "percent": "10000",
              "reputation": 0,
              "rshares": "0",
              "voter": "rm802"
          },
          {
              "percent": "10000",
              "reputation": 0,
              "rshares": "0",
              "voter": "krasotka"
          },
          {
              "percent": "10000",
              "reputation": 0,
              "rshares": "0",
              "voter": "alamyrjunior"
          },
          {
              "percent": "10000",
              "reputation": 0,
              "rshares": "0",
              "voter": "networker5"
          },
          {
              "percent": "10000",
              "reputation": 0,
              "rshares": "0",
              "voter": "evdoggformayor"
          },
          {
              "percent": "10000",
              "reputation": 0,
              "rshares": "0",
              "voter": "askari"
          },
          {
              "percent": "10000",
              "reputation": 0,
              "rshares": "0",
              "voter": "blockrush"
          },
          {
              "percent": "10000",
              "reputation": 0,
              "rshares": "0",
              "voter": "barvon"
          },
          {
              "percent": "10000",
              "reputation": 0,
              "rshares": "0",
              "voter": "fajarsdq"
          },
          {
              "percent": "10000",
              "reputation": 0,
              "rshares": "0",
              "voter": "juandemarte"
          },
          {
              "percent": "10000",
              "reputation": 0,
              "rshares": "0",
              "voter": "lazarescu.irinel"
          },
          {
              "percent": "10000",
              "reputation": 0,
              "rshares": "0",
              "voter": "thedeplorable1"
          },
          {
              "percent": "10000",
              "reputation": 0,
              "rshares": "0",
              "voter": "kalemandra"
          },
          {
              "percent": "5000",
              "reputation": 0,
              "rshares": "0",
              "voter": "ades"
          },
          {
              "percent": "10000",
              "reputation": 0,
              "rshares": "0",
              "voter": "rizkiavonna"
          },
          {
              "percent": "10000",
              "reputation": 0,
              "rshares": "0",
              "voter": "tohamy7"
          },
          {
              "percent": "10000",
              "reputation": 0,
              "rshares": "0",
              "voter": "justinashby"
          },
          {
              "percent": "10000",
              "reputation": 0,
              "rshares": "0",
              "voter": "thereikiforest"
          },
          {
              "percent": "10000",
              "reputation": 0,
              "rshares": "0",
              "voter": "serendipitie"
          },
          {
              "percent": "10000",
              "reputation": 0,
              "rshares": "0",
              "voter": "anwarabdullah"
          },
          {
              "percent": "10000",
              "reputation": 0,
              "rshares": "0",
              "voter": "rocketbeee"
          },
          {
              "percent": "10000",
              "reputation": 0,
              "rshares": "0",
              "voter": "ackza"
          },
          {
              "percent": "10000",
              "reputation": 0,
              "rshares": "0",
              "voter": "nilim"
          },
          {
              "percent": "10000",
              "reputation": 0,
              "rshares": "0",
              "voter": "renatrazumov"
          },
          {
              "percent": "10000",
              "reputation": 0,
              "rshares": "0",
              "voter": "jelkasmi"
          },
          {
              "percent": "10000",
              "reputation": 0,
              "rshares": "0",
              "voter": "dimitrya123"
          },
          {
              "percent": "10000",
              "reputation": 0,
              "rshares": "0",
              "voter": "crawfish37"
          },
          {
              "percent": "10000",
              "reputation": 0,
              "rshares": "0",
              "voter": "laodr"
          },
          {
              "percent": "10000",
              "reputation": 0,
              "rshares": "0",
              "voter": "lkisaid"
          },
          {
              "percent": "10000",
              "reputation": 0,
              "rshares": "0",
              "voter": "mikev"
          },
          {
              "percent": "10000",
              "reputation": 0,
              "rshares": "0",
              "voter": "hakan0356"
          },
          {
              "percent": "10000",
              "reputation": 0,
              "rshares": "0",
              "voter": "tasartcraft"
          },
          {
              "percent": "10000",
              "reputation": 0,
              "rshares": "0",
              "voter": "urmokas"
          },
          {
              "percent": "10000",
              "reputation": 0,
              "rshares": "0",
              "voter": "michael-fagundes"
          },
          {
              "percent": "0",
              "reputation": 0,
              "rshares": "0",
              "voter": "kalamur"
          },
          {
              "percent": "0",
              "reputation": 0,
              "rshares": "0",
              "voter": "abhinavsharma"
          },
          {
              "percent": "10000",
              "reputation": 0,
              "rshares": "0",
              "voter": "contentguy"
          },
          {
              "percent": "10000",
              "reputation": 0,
              "rshares": "0",
              "voter": "globocop"
          },
          {
              "percent": "10000",
              "reputation": 0,
              "rshares": "0",
              "voter": "hafizul"
          },
          {
              "percent": "10000",
              "reputation": 0,
              "rshares": "0",
              "voter": "hothelp1by1"
          },
          {
              "percent": "10000",
              "reputation": 0,
              "rshares": "0",
              "voter": "vannfrik"
          },
          {
              "percent": "10000",
              "reputation": 0,
              "rshares": "0",
              "voter": "manuel78"
          },
          {
              "percent": "10000",
              "reputation": 0,
              "rshares": "0",
              "voter": "brado"
          },
          {
              "percent": "10000",
              "reputation": 0,
              "rshares": "0",
              "voter": "strateg"
          },
          {
              "percent": "0",
              "reputation": 0,
              "rshares": "0",
              "voter": "quinsmacqueen"
          },
          {
              "percent": "10000",
              "reputation": 0,
              "rshares": "0",
              "voter": "brucebrownftw"
          },
          {
              "percent": "10000",
              "reputation": 0,
              "rshares": "0",
              "voter": "mrstaf"
          },
          {
              "percent": "10000",
              "reputation": 0,
              "rshares": "0",
              "voter": "avvah"
          },
          {
              "percent": "100",
              "reputation": 0,
              "rshares": "0",
              "voter": "stackin"
          },
          {
              "percent": "10000",
              "reputation": 0,
              "rshares": "0",
              "voter": "laloelectrix"
          },
          {
              "percent": "10000",
              "reputation": 0,
              "rshares": "0",
              "voter": "heejaekim"
          },
          {
              "percent": "10000",
              "reputation": 0,
              "rshares": "0",
              "voter": "thethreehugs"
          },
          {
              "percent": "10000",
              "reputation": 0,
              "rshares": "0",
              "voter": "otitrader"
          },
          {
              "percent": "10000",
              "reputation": 0,
              "rshares": "0",
              "voter": "clixmoney"
          },
          {
              "percent": "10000",
              "reputation": 0,
              "rshares": "0",
              "voter": "tryword"
          },
          {
              "percent": "10000",
              "reputation": 0,
              "rshares": "0",
              "voter": "dioneaguiar"
          },
          {
              "percent": "10000",
              "reputation": 0,
              "rshares": "0",
              "voter": "yann.moalic"
          },
          {
              "percent": "10000",
              "reputation": 0,
              "rshares": "0",
              "voter": "shaunf"
          },
          {
              "percent": "10000",
              "reputation": 0,
              "rshares": "0",
              "voter": "cleemit"
          },
          {
              "percent": "10000",
              "reputation": 0,
              "rshares": "0",
              "voter": "deeluvli1"
          },
          {
              "percent": "10000",
              "reputation": 0,
              "rshares": "0",
              "voter": "noval"
          },
          {
              "percent": "10000",
              "reputation": 0,
              "rshares": "0",
              "voter": "pixzelplethora"
          },
          {
              "percent": "10000",
              "reputation": 0,
              "rshares": "0",
              "voter": "smart3dweb"
          },
          {
              "percent": "10000",
              "reputation": 0,
              "rshares": "0",
              "voter": "joey-cryptoboy"
          },
          {
              "percent": "10000",
              "reputation": 0,
              "rshares": "0",
              "voter": "mateorite"
          },
          {
              "percent": "10000",
              "reputation": 0,
              "rshares": "0",
              "voter": "somaflaco"
          },
          {
              "percent": "10000",
              "reputation": 0,
              "rshares": "0",
              "voter": "enki74"
          },
          {
              "percent": "10000",
              "reputation": 0,
              "rshares": "0",
              "voter": "jungleebitcoin"
          },
          {
              "percent": "10000",
              "reputation": 0,
              "rshares": "0",
              "voter": "correctdrop"
          },
          {
              "percent": "10000",
              "reputation": 0,
              "rshares": "0",
              "voter": "clintjunior"
          },
          {
              "percent": "10000",
              "reputation": 0,
              "rshares": "0",
              "voter": "tediursa24"
          },
          {
              "percent": "10000",
              "reputation": 0,
              "rshares": "0",
              "voter": "mxzn"
          },
          {
              "percent": "10000",
              "reputation": 0,
              "rshares": "0",
              "voter": "hgmsilvergold"
          },
          {
              "percent": "10000",
              "reputation": 0,
              "rshares": "0",
              "voter": "antares007"
          },
          {
              "percent": "10000",
              "reputation": 0,
              "rshares": "0",
              "voter": "tridenspoon333"
          },
          {
              "percent": "10000",
              "reputation": 0,
              "rshares": "0",
              "voter": "vipek1996"
          },
          {
              "percent": "10000",
              "reputation": 0,
              "rshares": "0",
              "voter": "prima-nia"
          },
          {
              "percent": "10000",
              "reputation": 0,
              "rshares": "0",
              "voter": "redris"
          },
          {
              "percent": "10000",
              "reputation": 0,
              "rshares": "0",
              "voter": "savetheanimals"
          },
          {
              "percent": "10000",
              "reputation": 0,
              "rshares": "0",
              "voter": "tarunmewara"
          },
          {
              "percent": "-10000",
              "reputation": 0,
              "rshares": "0",
              "voter": "overkillcoin"
          },
          {
              "percent": "10000",
              "reputation": 0,
              "rshares": "0",
              "voter": "tuakanamorgan"
          },
          {
              "percent": "10000",
              "reputation": 0,
              "rshares": "0",
              "voter": "anacristinasilva"
          },
          {
              "percent": "10000",
              "reputation": 0,
              "rshares": "0",
              "voter": "filmonaut"
          },
          {
              "percent": "-100",
              "reputation": 0,
              "rshares": "0",
              "voter": "firstamendment"
          },
          {
              "percent": "10000",
              "reputation": 0,
              "rshares": "0",
              "voter": "timcrypto"
          },
          {
              "percent": "10000",
              "reputation": 0,
              "rshares": "0",
              "voter": "cryptotem"
          },
          {
              "percent": "10000",
              "reputation": 0,
              "rshares": "0",
              "voter": "mikej"
          },
          {
              "percent": "10000",
              "reputation": 0,
              "rshares": "0",
              "voter": "hwrs"
          },
          {
              "percent": "10000",
              "reputation": 0,
              "rshares": "0",
              "voter": "sinai770judea"
          },
          {
              "percent": "10000",
              "reputation": 0,
              "rshares": "0",
              "voter": "tuneralliance"
          },
          {
              "percent": "10000",
              "reputation": 0,
              "rshares": "0",
              "voter": "zeji"
          },
          {
              "percent": "10000",
              "reputation": 0,
              "rshares": "0",
              "voter": "ricoalfianda"
          },
          {
              "percent": "10000",
              "reputation": 0,
              "rshares": "0",
              "voter": "satfit"
          },
          {
              "percent": "10000",
              "reputation": 0,
              "rshares": "0",
              "voter": "machhour"
          },
          {
              "percent": "10000",
              "reputation": 0,
              "rshares": "0",
              "voter": "bitgenio"
          },
          {
              "percent": "10000",
              "reputation": 0,
              "rshares": "0",
              "voter": "ahmedmansi"
          },
          {
              "percent": "10000",
              "reputation": 0,
              "rshares": "0",
              "voter": "theoccultcorner"
          },
          {
              "percent": "10000",
              "reputation": 0,
              "rshares": "0",
              "voter": "reseller"
          },
          {
              "percent": "10000",
              "reputation": 0,
              "rshares": "0",
              "voter": "ainsleyjo1952"
          },
          {
              "percent": "10000",
              "reputation": 0,
              "rshares": "0",
              "voter": "novi"
          },
          {
              "percent": "10000",
              "reputation": 0,
              "rshares": "0",
              "voter": "androsform"
          },
          {
              "percent": "10000",
              "reputation": 0,
              "rshares": "0",
              "voter": "jooyoung"
          },
          {
              "percent": "10000",
              "reputation": 0,
              "rshares": "0",
              "voter": "dobro88888888"
          },
          {
              "percent": "10000",
              "reputation": 0,
              "rshares": "0",
              "voter": "ghaaspur"
          },
          {
              "percent": "10000",
              "reputation": 0,
              "rshares": "0",
              "voter": "xodyd2da"
          },
          {
              "percent": "10000",
              "reputation": 0,
              "rshares": "0",
              "voter": "trisun"
          },
          {
              "percent": "-10000",
              "reputation": 0,
              "rshares": "0",
              "voter": "tngflx"
          },
          {
              "percent": "10000",
              "reputation": 0,
              "rshares": "0",
              "voter": "karaban"
          },
          {
              "percent": "10000",
              "reputation": 0,
              "rshares": "0",
              "voter": "empath"
          },
          {
              "percent": "0",
              "reputation": 0,
              "rshares": "0",
              "voter": "pcbildrnoob"
          },
          {
              "percent": "10000",
              "reputation": 0,
              "rshares": "0",
              "voter": "joecaffeine"
          },
          {
              "percent": "10000",
              "reputation": 0,
              "rshares": "0",
              "voter": "laolballs"
          },
          {
              "percent": "10000",
              "reputation": 0,
              "rshares": "0",
              "voter": "braamsteyn7777"
          },
          {
              "percent": "10000",
              "reputation": 0,
              "rshares": "0",
              "voter": "udibekwe"
          },
          {
              "percent": "10000",
              "reputation": 0,
              "rshares": "0",
              "voter": "jackolanternbob"
          },
          {
              "percent": "10000",
              "reputation": 0,
              "rshares": "0",
              "voter": "rondoncr"
          },
          {
              "percent": "10000",
              "reputation": 0,
              "rshares": "0",
              "voter": "doubledeeyt"
          },
          {
              "percent": "10000",
              "reputation": 0,
              "rshares": "0",
              "voter": "joshvel"
          },
          {
              "percent": "10000",
              "reputation": 0,
              "rshares": "0",
              "voter": "lembach3d"
          },
          {
              "percent": "10000",
              "reputation": 0,
              "rshares": "0",
              "voter": "vulturestkn"
          },
          {
              "percent": "10000",
              "reputation": 0,
              "rshares": "0",
              "voter": "darknessprincess"
          },
          {
              "percent": "10000",
              "reputation": 0,
              "rshares": "0",
              "voter": "misrori"
          },
          {
              "percent": "10000",
              "reputation": 0,
              "rshares": "0",
              "voter": "afrikanprince"
          },
          {
              "percent": "10000",
              "reputation": 0,
              "rshares": "0",
              "voter": "jjprac"
          },
          {
              "percent": "10000",
              "reputation": 0,
              "rshares": "0",
              "voter": "ayuwandira"
          },
          {
              "percent": "10000",
              "reputation": 0,
              "rshares": "0",
              "voter": "ilicoin"
          },
          {
              "percent": "10000",
              "reputation": 0,
              "rshares": "0",
              "voter": "pkvlogs"
          },
          {
              "percent": "10000",
              "reputation": 0,
              "rshares": "0",
              "voter": "bitstudio"
          },
          {
              "percent": "-1000",
              "reputation": 0,
              "rshares": "0",
              "voter": "taintedblood"
          },
          {
              "percent": "10000",
              "reputation": 0,
              "rshares": "0",
              "voter": "epsicktick"
          },
          {
              "percent": "10000",
              "reputation": 0,
              "rshares": "0",
              "voter": "csggene3"
          },
          {
              "percent": "10000",
              "reputation": 0,
              "rshares": "0",
              "voter": "tothemoonin2017"
          },
          {
              "percent": "10000",
              "reputation": 0,
              "rshares": "0",
              "voter": "geek4geek"
          },
          {
              "percent": "2500",
              "reputation": 0,
              "rshares": "0",
              "voter": "kharrazi"
          },
          {
              "percent": "10000",
              "reputation": 0,
              "rshares": "0",
              "voter": "zufrizal"
          },
          {
              "percent": "10000",
              "reputation": 0,
              "rshares": "0",
              "voter": "academix87"
          },
          {
              "percent": "500",
              "reputation": 0,
              "rshares": "0",
              "voter": "planetenamek"
          },
          {
              "percent": "10000",
              "reputation": 0,
              "rshares": "0",
              "voter": "muliaeko"
          },
          {
              "percent": "10000",
              "reputation": 0,
              "rshares": "0",
              "voter": "boyjack"
          },
          {
              "percent": "10000",
              "reputation": 0,
              "rshares": "0",
              "voter": "jatniel"
          },
          {
              "percent": "10000",
              "reputation": 0,
              "rshares": "0",
              "voter": "juanangel40bcn"
          },
          {
              "percent": "10000",
              "reputation": 0,
              "rshares": "0",
              "voter": "jodywrites"
          },
          {
              "percent": "10000",
              "reputation": 0,
              "rshares": "0",
              "voter": "permatek"
          },
          {
              "percent": "10000",
              "reputation": 0,
              "rshares": "0",
              "voter": "cyberspace"
          },
          {
              "percent": "10000",
              "reputation": 0,
              "rshares": "0",
              "voter": "fareehasheharyar"
          },
          {
              "percent": "10000",
              "reputation": 0,
              "rshares": "0",
              "voter": "saynie"
          },
          {
              "percent": "10000",
              "reputation": 0,
              "rshares": "0",
              "voter": "plainoldme"
          },
          {
              "percent": "10000",
              "reputation": 0,
              "rshares": "0",
              "voter": "razaqbarry"
          },
          {
              "percent": "10000",
              "reputation": 0,
              "rshares": "0",
              "voter": "antoniokarteli"
          },
          {
              "percent": "10000",
              "reputation": 0,
              "rshares": "0",
              "voter": "dream.trip"
          },
          {
              "percent": "10000",
              "reputation": 0,
              "rshares": "0",
              "voter": "reinhardbaust"
          },
          {
              "percent": "10000",
              "reputation": 0,
              "rshares": "0",
              "voter": "newpioneer"
          },
          {
              "percent": "10000",
              "reputation": 0,
              "rshares": "0",
              "voter": "melvinbonner"
          },
          {
              "percent": "10000",
              "reputation": 0,
              "rshares": "0",
              "voter": "zulfahmi2141"
          },
          {
              "percent": "10000",
              "reputation": 0,
              "rshares": "0",
              "voter": "maninjapan1989"
          },
          {
              "percent": "10000",
              "reputation": 0,
              "rshares": "0",
              "voter": "andravasko"
          },
          {
              "percent": "10000",
              "reputation": 0,
              "rshares": "0",
              "voter": "gilma"
          },
          {
              "percent": "10000",
              "reputation": 0,
              "rshares": "0",
              "voter": "tom74"
          },
          {
              "percent": "10000",
              "reputation": 0,
              "rshares": "0",
              "voter": "josephfugata"
          },
          {
              "percent": "10000",
              "reputation": 0,
              "rshares": "0",
              "voter": "bitcointauji"
          },
          {
              "percent": "10000",
              "reputation": 0,
              "rshares": "0",
              "voter": "gray00"
          },
          {
              "percent": "10000",
              "reputation": 0,
              "rshares": "0",
              "voter": "divyang101"
          },
          {
              "percent": "10000",
              "reputation": 0,
              "rshares": "0",
              "voter": "bahagia-arbi"
          },
          {
              "percent": "10000",
              "reputation": 0,
              "rshares": "0",
              "voter": "bhim"
          },
          {
              "percent": "10000",
              "reputation": 0,
              "rshares": "0",
              "voter": "bickell"
          },
          {
              "percent": "10000",
              "reputation": 0,
              "rshares": "0",
              "voter": "tfpostman"
          },
          {
              "percent": "10000",
              "reputation": 0,
              "rshares": "0",
              "voter": "anujkumar"
          },
          {
              "percent": "5100",
              "reputation": 0,
              "rshares": "0",
              "voter": "fbslo"
          },
          {
              "percent": "10000",
              "reputation": 0,
              "rshares": "0",
              "voter": "renijuliani"
          },
          {
              "percent": "10000",
              "reputation": 0,
              "rshares": "0",
              "voter": "setio"
          },
          {
              "percent": "10000",
              "reputation": 0,
              "rshares": "0",
              "voter": "mooncryption"
          },
          {
              "percent": "10000",
              "reputation": 0,
              "rshares": "0",
              "voter": "shintamonica"
          },
          {
              "percent": "10000",
              "reputation": 0,
              "rshares": "0",
              "voter": "caratzky"
          },
          {
              "percent": "10000",
              "reputation": 0,
              "rshares": "0",
              "voter": "komrad"
          },
          {
              "percent": "10000",
              "reputation": 0,
              "rshares": "0",
              "voter": "therivernile"
          },
          {
              "percent": "10000",
              "reputation": 0,
              "rshares": "0",
              "voter": "deep.gohil"
          },
          {
              "percent": "10000",
              "reputation": 0,
              "rshares": "0",
              "voter": "thomasduder"
          },
          {
              "percent": "10000",
              "reputation": 0,
              "rshares": "0",
              "voter": "sensistar"
          },
          {
              "percent": "10000",
              "reputation": 0,
              "rshares": "0",
              "voter": "abdelone"
          },
          {
              "percent": "10000",
              "reputation": 0,
              "rshares": "0",
              "voter": "gegec"
          },
          {
              "percent": "10000",
              "reputation": 0,
              "rshares": "0",
              "voter": "ambmicheal"
          },
          {
              "percent": "10000",
              "reputation": 0,
              "rshares": "0",
              "voter": "rincewind"
          },
          {
              "percent": "10000",
              "reputation": 0,
              "rshares": "0",
              "voter": "alishannoor"
          },
          {
              "percent": "10000",
              "reputation": 0,
              "rshares": "0",
              "voter": "ahhjoeinhk"
          },
          {
              "percent": "10000",
              "reputation": 0,
              "rshares": "0",
              "voter": "kalhiade"
          },
          {
              "percent": "10000",
              "reputation": 0,
              "rshares": "0",
              "voter": "faridrizkia"
          },
          {
              "percent": "10000",
              "reputation": 0,
              "rshares": "0",
              "voter": "teamslovenia"
          },
          {
              "percent": "10000",
              "reputation": 0,
              "rshares": "0",
              "voter": "xiaoshancun"
          },
          {
              "percent": "10000",
              "reputation": 0,
              "rshares": "0",
              "voter": "mikewebb274"
          },
          {
              "percent": "10000",
              "reputation": 0,
              "rshares": "0",
              "voter": "andrath"
          },
          {
              "percent": "10000",
              "reputation": 0,
              "rshares": "0",
              "voter": "torosan"
          },
          {
              "percent": "10000",
              "reputation": 0,
              "rshares": "0",
              "voter": "ghayas"
          },
          {
              "percent": "10000",
              "reputation": 0,
              "rshares": "0",
              "voter": "krevasilis"
          },
          {
              "percent": "100",
              "reputation": 0,
              "rshares": "0",
              "voter": "koinbot"
          },
          {
              "percent": "10000",
              "reputation": 0,
              "rshares": "0",
              "voter": "synergy-now"
          },
          {
              "percent": "10000",
              "reputation": 0,
              "rshares": "0",
              "voter": "steemblogs"
          },
          {
              "percent": "10000",
              "reputation": 0,
              "rshares": "0",
              "voter": "tujuhpelita"
          },
          {
              "percent": "10000",
              "reputation": 0,
              "rshares": "0",
              "voter": "palani"
          },
          {
              "percent": "10000",
              "reputation": 0,
              "rshares": "0",
              "voter": "as-i-see-it"
          },
          {
              "percent": "10000",
              "reputation": 0,
              "rshares": "0",
              "voter": "heyeshuang"
          },
          {
              "percent": "10000",
              "reputation": 0,
              "rshares": "0",
              "voter": "arslan786"
          },
          {
              "percent": "10000",
              "reputation": 0,
              "rshares": "0",
              "voter": "cgf117"
          },
          {
              "percent": "10000",
              "reputation": 0,
              "rshares": "0",
              "voter": "amazingtech100"
          },
          {
              "percent": "0",
              "reputation": 0,
              "rshares": "0",
              "voter": "dreamm"
          },
          {
              "percent": "10000",
              "reputation": 0,
              "rshares": "0",
              "voter": "sweetssssj"
          },
          {
              "percent": "10000",
              "reputation": 0,
              "rshares": "0",
              "voter": "ceikdo"
          },
          {
              "percent": "10000",
              "reputation": 0,
              "rshares": "0",
              "voter": "sunsquall"
          },
          {
              "percent": "10000",
              "reputation": 0,
              "rshares": "0",
              "voter": "muhammadilyas93"
          },
          {
              "percent": "10000",
              "reputation": 0,
              "rshares": "0",
              "voter": "cre47iv3"
          },
          {
              "percent": "10000",
              "reputation": 0,
              "rshares": "0",
              "voter": "joao-cacador"
          },
          {
              "percent": "3554",
              "reputation": 0,
              "rshares": "0",
              "voter": "jamsphonna"
          },
          {
              "percent": "-1000",
              "reputation": 0,
              "rshares": "0",
              "voter": "abbak7"
          },
          {
              "percent": "10000",
              "reputation": 0,
              "rshares": "0",
              "voter": "thelifeofjord"
          },
          {
              "percent": "10000",
              "reputation": 0,
              "rshares": "0",
              "voter": "utpoldebnath"
          },
          {
              "percent": "10000",
              "reputation": 0,
              "rshares": "0",
              "voter": "sagorkhan"
          },
          {
              "percent": "10000",
              "reputation": 0,
              "rshares": "0",
              "voter": "shivpremi"
          },
          {
              "percent": "100",
              "reputation": 0,
              "rshares": "0",
              "voter": "shabbirahmad"
          },
          {
              "percent": "10000",
              "reputation": 0,
              "rshares": "0",
              "voter": "ibeljr"
          },
          {
              "percent": "10000",
              "reputation": 0,
              "rshares": "0",
              "voter": "umelard"
          },
          {
              "percent": "10000",
              "reputation": 0,
              "rshares": "0",
              "voter": "stijndehaan"
          },
          {
              "percent": "10000",
              "reputation": 0,
              "rshares": "0",
              "voter": "iamericmorrison"
          },
          {
              "percent": "10000",
              "reputation": 0,
              "rshares": "0",
              "voter": "shiningstar"
          },
          {
              "percent": "1",
              "reputation": 0,
              "rshares": "0",
              "voter": "steemprojects1"
          },
          {
              "percent": "5",
              "reputation": 0,
              "rshares": "0",
              "voter": "steemprojects2"
          },
          {
              "percent": "10000",
              "reputation": 0,
              "rshares": "0",
              "voter": "stuvi"
          },
          {
              "percent": "10000",
              "reputation": 0,
              "rshares": "0",
              "voter": "zia161"
          },
          {
              "percent": "10000",
              "reputation": 0,
              "rshares": "0",
              "voter": "arslanq"
          },
          {
              "percent": "10000",
              "reputation": 0,
              "rshares": "0",
              "voter": "kevca16"
          },
          {
              "percent": "10000",
              "reputation": 0,
              "rshares": "0",
              "voter": "mcreg"
          },
          {
              "percent": "10000",
              "reputation": 0,
              "rshares": "0",
              "voter": "waheebisb"
          },
          {
              "percent": "10000",
              "reputation": 0,
              "rshares": "0",
              "voter": "rizaokur"
          },
          {
              "percent": "10000",
              "reputation": 0,
              "rshares": "0",
              "voter": "seanstein"
          },
          {
              "percent": "10000",
              "reputation": 0,
              "rshares": "0",
              "voter": "piszozo"
          },
          {
              "percent": "10000",
              "reputation": 0,
              "rshares": "0",
              "voter": "vicmariki"
          },
          {
              "percent": "500",
              "reputation": 0,
              "rshares": "0",
              "voter": "contribution"
          },
          {
              "percent": "10000",
              "reputation": 0,
              "rshares": "0",
              "voter": "oep"
          },
          {
              "percent": "10000",
              "reputation": 0,
              "rshares": "0",
              "voter": "akshitgrover"
          },
          {
              "percent": "10000",
              "reputation": 0,
              "rshares": "0",
              "voter": "jackson12"
          },
          {
              "percent": "10000",
              "reputation": 0,
              "rshares": "0",
              "voter": "dtldesign"
          },
          {
              "percent": "10000",
              "reputation": 0,
              "rshares": "0",
              "voter": "h4ck3rm1k3st33m"
          },
          {
              "percent": "10000",
              "reputation": 0,
              "rshares": "0",
              "voter": "smokeasare165"
          },
          {
              "percent": "10000",
              "reputation": 0,
              "rshares": "0",
              "voter": "tinoschloegl"
          },
          {
              "percent": "10000",
              "reputation": 0,
              "rshares": "0",
              "voter": "liftu"
          },
          {
              "percent": "10000",
              "reputation": 0,
              "rshares": "0",
              "voter": "atul8888"
          },
          {
              "percent": "10000",
              "reputation": 0,
              "rshares": "0",
              "voter": "goroshkodo"
          },
          {
              "percent": "10000",
              "reputation": 0,
              "rshares": "0",
              "voter": "tarmizislow"
          },
          {
              "percent": "10000",
              "reputation": 0,
              "rshares": "0",
              "voter": "nurmasyithah"
          },
          {
              "percent": "10000",
              "reputation": 0,
              "rshares": "0",
              "voter": "ritikagupta"
          },
          {
              "percent": "10000",
              "reputation": 0,
              "rshares": "0",
              "voter": "anniemohler"
          },
          {
              "percent": "10000",
              "reputation": 0,
              "rshares": "0",
              "voter": "olaivart"
          },
          {
              "percent": "10000",
              "reputation": 0,
              "rshares": "0",
              "voter": "thedrewshow"
          },
          {
              "percent": "-10000",
              "reputation": 0,
              "rshares": "0",
              "voter": "alpha27"
          },
          {
              "percent": "10000",
              "reputation": 0,
              "rshares": "0",
              "voter": "adventuretours"
          },
          {
              "percent": "10000",
              "reputation": 0,
              "rshares": "0",
              "voter": "advexon"
          },
          {
              "percent": "10000",
              "reputation": 0,
              "rshares": "0",
              "voter": "cloudconnect"
          },
          {
              "percent": "10000",
              "reputation": 0,
              "rshares": "0",
              "voter": "ontheverge"
          },
          {
              "percent": "10000",
              "reputation": 0,
              "rshares": "0",
              "voter": "celsomichida"
          },
          {
              "percent": "10000",
              "reputation": 0,
              "rshares": "0",
              "voter": "cannan"
          },
          {
              "percent": "10000",
              "reputation": 0,
              "rshares": "0",
              "voter": "cloudbuster"
          },
          {
              "percent": "10000",
              "reputation": 0,
              "rshares": "0",
              "voter": "adrienoor"
          },
          {
              "percent": "10000",
              "reputation": 0,
              "rshares": "0",
              "voter": "hussnain"
          },
          {
              "percent": "10000",
              "reputation": 0,
              "rshares": "0",
              "voter": "shanloth"
          },
          {
              "percent": "10000",
              "reputation": 0,
              "rshares": "0",
              "voter": "samirnyaupane"
          },
          {
              "percent": "10000",
              "reputation": 0,
              "rshares": "0",
              "voter": "slackeramericana"
          },
          {
              "percent": "10000",
              "reputation": 0,
              "rshares": "0",
              "voter": "thabiggdogg"
          },
          {
              "percent": "10000",
              "reputation": 0,
              "rshares": "0",
              "voter": "gilnambatac"
          },
          {
              "percent": "10000",
              "reputation": 0,
              "rshares": "0",
              "voter": "withgraham"
          },
          {
              "percent": "10000",
              "reputation": 0,
              "rshares": "0",
              "voter": "sephirot"
          },
          {
              "percent": "10000",
              "reputation": 0,
              "rshares": "0",
              "voter": "coffeeman"
          },
          {
              "percent": "10000",
              "reputation": 0,
              "rshares": "0",
              "voter": "stefunniy"
          },
          {
              "percent": "10000",
              "reputation": 0,
              "rshares": "0",
              "voter": "ghanexs"
          },
          {
              "percent": "10000",
              "reputation": 0,
              "rshares": "0",
              "voter": "razipelangi"
          },
          {
              "percent": "10000",
              "reputation": 0,
              "rshares": "0",
              "voter": "dreamdiary"
          },
          {
              "percent": "10000",
              "reputation": 0,
              "rshares": "0",
              "voter": "crypto4euro"
          },
          {
              "percent": "10000",
              "reputation": 0,
              "rshares": "0",
              "voter": "rtsampa"
          },
          {
              "percent": "10000",
              "reputation": 0,
              "rshares": "0",
              "voter": "mahi2raj"
          },
          {
              "percent": "10000",
              "reputation": 0,
              "rshares": "0",
              "voter": "danyflores"
          },
          {
              "percent": "10000",
              "reputation": 0,
              "rshares": "0",
              "voter": "oraclefrequency"
          },
          {
              "percent": "10000",
              "reputation": 0,
              "rshares": "0",
              "voter": "kartikohri1712"
          },
          {
              "percent": "10000",
              "reputation": 0,
              "rshares": "0",
              "voter": "cryptoaltcoin"
          },
          {
              "percent": "10000",
              "reputation": 0,
              "rshares": "0",
              "voter": "einarscorner"
          },
          {
              "percent": "10000",
              "reputation": 0,
              "rshares": "0",
              "voter": "dudithedoctor"
          },
          {
              "percent": "100",
              "reputation": 0,
              "rshares": "0",
              "voter": "dirapa"
          },
          {
              "percent": "10000",
              "reputation": 0,
              "rshares": "0",
              "voter": "arfouche"
          },
          {
              "percent": "10000",
              "reputation": 0,
              "rshares": "0",
              "voter": "kristenbruce"
          },
          {
              "percent": "10000",
              "reputation": 0,
              "rshares": "0",
              "voter": "okclear"
          },
          {
              "percent": "10000",
              "reputation": 0,
              "rshares": "0",
              "voter": "mysearchisover"
          },
          {
              "percent": "10000",
              "reputation": 0,
              "rshares": "0",
              "voter": "dropd"
          },
          {
              "percent": "10000",
              "reputation": 0,
              "rshares": "0",
              "voter": "rulilesmana"
          },
          {
              "percent": "10000",
              "reputation": 0,
              "rshares": "0",
              "voter": "cryptomaniac6"
          },
          {
              "percent": "10000",
              "reputation": 0,
              "rshares": "0",
              "voter": "kim3ra"
          },
          {
              "percent": "10000",
              "reputation": 0,
              "rshares": "0",
              "voter": "movement19"
          },
          {
              "percent": "10000",
              "reputation": 0,
              "rshares": "0",
              "voter": "aacr07"
          },
          {
              "percent": "10000",
              "reputation": 0,
              "rshares": "0",
              "voter": "layra"
          },
          {
              "percent": "10000",
              "reputation": 0,
              "rshares": "0",
              "voter": "vardhanbtc"
          },
          {
              "percent": "10000",
              "reputation": 0,
              "rshares": "0",
              "voter": "azeemprime"
          },
          {
              "percent": "10000",
              "reputation": 0,
              "rshares": "0",
              "voter": "dbnx"
          },
          {
              "percent": "10000",
              "reputation": 0,
              "rshares": "0",
              "voter": "shredz7"
          },
          {
              "percent": "10000",
              "reputation": 0,
              "rshares": "0",
              "voter": "bitstreamgains"
          },
          {
              "percent": "10000",
              "reputation": 0,
              "rshares": "0",
              "voter": "hendrimaca"
          },
          {
              "percent": "10000",
              "reputation": 0,
              "rshares": "0",
              "voter": "aan01"
          },
          {
              "percent": "10000",
              "reputation": 0,
              "rshares": "0",
              "voter": "successmindset"
          },
          {
              "percent": "10000",
              "reputation": 0,
              "rshares": "0",
              "voter": "hatu"
          },
          {
              "percent": "10000",
              "reputation": 0,
              "rshares": "0",
              "voter": "khabirulhafiz"
          },
          {
              "percent": "10000",
              "reputation": 0,
              "rshares": "0",
              "voter": "yady"
          },
          {
              "percent": "10000",
              "reputation": 0,
              "rshares": "0",
              "voter": "samsonjura1"
          },
          {
              "percent": "10000",
              "reputation": 0,
              "rshares": "0",
              "voter": "ambitiouslife"
          },
          {
              "percent": "10000",
              "reputation": 0,
              "rshares": "0",
              "voter": "whyse"
          },
          {
              "percent": "10000",
              "reputation": 0,
              "rshares": "0",
              "voter": "skyflow"
          },
          {
              "percent": "10000",
              "reputation": 0,
              "rshares": "0",
              "voter": "kimtoma"
          },
          {
              "percent": "10000",
              "reputation": 0,
              "rshares": "0",
              "voter": "asherunderwood"
          },
          {
              "percent": "10000",
              "reputation": 0,
              "rshares": "0",
              "voter": "lorden"
          },
          {
              "percent": "10000",
              "reputation": 0,
              "rshares": "0",
              "voter": "juicyvegandwarf"
          },
          {
              "percent": "10000",
              "reputation": 0,
              "rshares": "0",
              "voter": "ushan007"
          },
          {
              "percent": "10000",
              "reputation": 0,
              "rshares": "0",
              "voter": "ihsan6837"
          },
          {
              "percent": "10000",
              "reputation": 0,
              "rshares": "0",
              "voter": "suryarose"
          },
          {
              "percent": "10000",
              "reputation": 0,
              "rshares": "0",
              "voter": "sol7142"
          },
          {
              "percent": "10000",
              "reputation": 0,
              "rshares": "0",
              "voter": "fikrialoy"
          },
          {
              "percent": "10000",
              "reputation": 0,
              "rshares": "0",
              "voter": "mr-lahey"
          },
          {
              "percent": "10000",
              "reputation": 0,
              "rshares": "0",
              "voter": "mahsabmirza"
          },
          {
              "percent": "1000",
              "reputation": 0,
              "rshares": "0",
              "voter": "pwangdu"
          },
          {
              "percent": "10000",
              "reputation": 0,
              "rshares": "0",
              "voter": "salda"
          },
          {
              "percent": "10000",
              "reputation": 0,
              "rshares": "0",
              "voter": "muzzlealem"
          },
          {
              "percent": "10000",
              "reputation": 0,
              "rshares": "0",
              "voter": "pakjos"
          },
          {
              "percent": "10000",
              "reputation": 0,
              "rshares": "0",
              "voter": "mhdfadhal"
          },
          {
              "percent": "10000",
              "reputation": 0,
              "rshares": "0",
              "voter": "dannykastner"
          },
          {
              "percent": "10000",
              "reputation": 0,
              "rshares": "0",
              "voter": "ibul11"
          },
          {
              "percent": "10000",
              "reputation": 0,
              "rshares": "0",
              "voter": "nigtroy"
          },
          {
              "percent": "10000",
              "reputation": 0,
              "rshares": "0",
              "voter": "uripsurya"
          },
          {
              "percent": "10000",
              "reputation": 0,
              "rshares": "0",
              "voter": "jazman.zhens"
          },
          {
              "percent": "10000",
              "reputation": 0,
              "rshares": "0",
              "voter": "intervote"
          },
          {
              "percent": "10000",
              "reputation": 0,
              "rshares": "0",
              "voter": "mahend"
          },
          {
              "percent": "10000",
              "reputation": 0,
              "rshares": "0",
              "voter": "anandasungkar"
          },
          {
              "percent": "10000",
              "reputation": 0,
              "rshares": "0",
              "voter": "homeless.global"
          },
          {
              "percent": "10000",
              "reputation": 0,
              "rshares": "0",
              "voter": "intansteemityes"
          },
          {
              "percent": "10000",
              "reputation": 0,
              "rshares": "0",
              "voter": "perminus-gaita"
          },
          {
              "percent": "10000",
              "reputation": 0,
              "rshares": "0",
              "voter": "phost"
          },
          {
              "percent": "10000",
              "reputation": 0,
              "rshares": "0",
              "voter": "debart"
          },
          {
              "percent": "10000",
              "reputation": 0,
              "rshares": "0",
              "voter": "blurrydude"
          },
          {
              "percent": "10000",
              "reputation": 0,
              "rshares": "0",
              "voter": "tsnaks"
          },
          {
              "percent": "10000",
              "reputation": 0,
              "rshares": "0",
              "voter": "legendchew"
          },
          {
              "percent": "100",
              "reputation": 0,
              "rshares": "0",
              "voter": "cryptonegocios"
          },
          {
              "percent": "10000",
              "reputation": 0,
              "rshares": "0",
              "voter": "alexcozzy"
          },
          {
              "percent": "10000",
              "reputation": 0,
              "rshares": "0",
              "voter": "joe.ster"
          },
          {
              "percent": "10000",
              "reputation": 0,
              "rshares": "0",
              "voter": "pandu13"
          },
          {
              "percent": "10000",
              "reputation": 0,
              "rshares": "0",
              "voter": "sasakhan"
          },
          {
              "percent": "10000",
              "reputation": 0,
              "rshares": "0",
              "voter": "faisalyus"
          },
          {
              "percent": "10000",
              "reputation": 0,
              "rshares": "0",
              "voter": "sawyn"
          },
          {
              "percent": "10000",
              "reputation": 0,
              "rshares": "0",
              "voter": "diegocedenno"
          },
          {
              "percent": "10000",
              "reputation": 0,
              "rshares": "0",
              "voter": "calebotamus"
          },
          {
              "percent": "10000",
              "reputation": 0,
              "rshares": "0",
              "voter": "lsanneh78128"
          },
          {
              "percent": "10000",
              "reputation": 0,
              "rshares": "0",
              "voter": "nazaruddin885"
          },
          {
              "percent": "10000",
              "reputation": 0,
              "rshares": "0",
              "voter": "chaseburnett"
          },
          {
              "percent": "10000",
              "reputation": 0,
              "rshares": "0",
              "voter": "sisirhasan"
          },
          {
              "percent": "10000",
              "reputation": 0,
              "rshares": "0",
              "voter": "donyanyo"
          },
          {
              "percent": "10000",
              "reputation": 0,
              "rshares": "0",
              "voter": "oregontravel"
          },
          {
              "percent": "-10000",
              "reputation": 0,
              "rshares": "0",
              "voter": "luegenbaron"
          },
          {
              "percent": "10000",
              "reputation": 0,
              "rshares": "0",
              "voter": "edkrassenstein"
          },
          {
              "percent": "10000",
              "reputation": 0,
              "rshares": "0",
              "voter": "munawirawin"
          },
          {
              "percent": "10000",
              "reputation": 0,
              "rshares": "0",
              "voter": "salgetra"
          },
          {
              "percent": "-10000",
              "reputation": 0,
              "rshares": "0",
              "voter": "zaxan"
          },
          {
              "percent": "10000",
              "reputation": 0,
              "rshares": "0",
              "voter": "rollings"
          },
          {
              "percent": "10000",
              "reputation": 0,
              "rshares": "0",
              "voter": "kyle07"
          },
          {
              "percent": "10000",
              "reputation": 0,
              "rshares": "0",
              "voter": "pchanger"
          },
          {
              "percent": "10000",
              "reputation": 0,
              "rshares": "0",
              "voter": "uncleboy"
          },
          {
              "percent": "10000",
              "reputation": 0,
              "rshares": "0",
              "voter": "alfhi"
          },
          {
              "percent": "0",
              "reputation": 0,
              "rshares": "0",
              "voter": "htetmyathtut"
          },
          {
              "percent": "10000",
              "reputation": 0,
              "rshares": "0",
              "voter": "trisolaran"
          },
          {
              "percent": "10000",
              "reputation": 0,
              "rshares": "0",
              "voter": "arafs"
          },
          {
              "percent": "10000",
              "reputation": 0,
              "rshares": "0",
              "voter": "abysoyjoy"
          },
          {
              "percent": "10000",
              "reputation": 0,
              "rshares": "0",
              "voter": "stylo419"
          },
          {
              "percent": "10000",
              "reputation": 0,
              "rshares": "0",
              "voter": "cookntell"
          },
          {
              "percent": "10000",
              "reputation": 0,
              "rshares": "0",
              "voter": "rakkarage"
          },
          {
              "percent": "10000",
              "reputation": 0,
              "rshares": "0",
              "voter": "grasozauru"
          },
          {
              "percent": "10000",
              "reputation": 0,
              "rshares": "0",
              "voter": "norabx"
          },
          {
              "percent": "10000",
              "reputation": 0,
              "rshares": "0",
              "voter": "joyvancouver"
          },
          {
              "percent": "10000",
              "reputation": 0,
              "rshares": "0",
              "voter": "antchatz"
          },
          {
              "percent": "10000",
              "reputation": 0,
              "rshares": "0",
              "voter": "tutchpa"
          },
          {
              "percent": "-10000",
              "reputation": 0,
              "rshares": "0",
              "voter": "cosmophobia"
          },
          {
              "percent": "6600",
              "reputation": 0,
              "rshares": "0",
              "voter": "rajaji"
          },
          {
              "percent": "10000",
              "reputation": 0,
              "rshares": "0",
              "voter": "liqquid"
          },
          {
              "percent": "10000",
              "reputation": 0,
              "rshares": "0",
              "voter": "aceh-post"
          },
          {
              "percent": "10000",
              "reputation": 0,
              "rshares": "0",
              "voter": "dannanares"
          },
          {
              "percent": "10000",
              "reputation": 0,
              "rshares": "0",
              "voter": "husana"
          },
          {
              "percent": "10000",
              "reputation": 0,
              "rshares": "0",
              "voter": "davidmichael"
          },
          {
              "percent": "10000",
              "reputation": 0,
              "rshares": "0",
              "voter": "wprpn"
          },
          {
              "percent": "10000",
              "reputation": 0,
              "rshares": "0",
              "voter": "datuparulas17"
          },
          {
              "percent": "10000",
              "reputation": 0,
              "rshares": "0",
              "voter": "trie"
          },
          {
              "percent": "-10000",
              "reputation": 0,
              "rshares": "0",
              "voter": "chirstonawba"
          },
          {
              "percent": "10000",
              "reputation": 0,
              "rshares": "0",
              "voter": "sulaiman86"
          },
          {
              "percent": "10000",
              "reputation": 0,
              "rshares": "0",
              "voter": "electronicsworld"
          },
          {
              "percent": "10000",
              "reputation": 0,
              "rshares": "0",
              "voter": "engrravijain"
          },
          {
              "percent": "10000",
              "reputation": 0,
              "rshares": "0",
              "voter": "alfredolopez1980"
          },
          {
              "percent": "10000",
              "reputation": 0,
              "rshares": "0",
              "voter": "gustavomonraz"
          },
          {
              "percent": "10000",
              "reputation": 0,
              "rshares": "0",
              "voter": "tahoorsaleem"
          },
          {
              "percent": "10000",
              "reputation": 0,
              "rshares": "0",
              "voter": "starfinger13"
          },
          {
              "percent": "10000",
              "reputation": 0,
              "rshares": "0",
              "voter": "conscalisthenics"
          },
          {
              "percent": "10000",
              "reputation": 0,
              "rshares": "0",
              "voter": "syd44723"
          },
          {
              "percent": "10000",
              "reputation": 0,
              "rshares": "0",
              "voter": "sutter"
          },
          {
              "percent": "10000",
              "reputation": 0,
              "rshares": "0",
              "voter": "samsonite18654"
          },
          {
              "percent": "10000",
              "reputation": 0,
              "rshares": "0",
              "voter": "iqra.naz"
          },
          {
              "percent": "10000",
              "reputation": 0,
              "rshares": "0",
              "voter": "drezz"
          },
          {
              "percent": "10000",
              "reputation": 0,
              "rshares": "0",
              "voter": "cutelace"
          },
          {
              "percent": "10000",
              "reputation": 0,
              "rshares": "0",
              "voter": "chirstonawba5"
          },
          {
              "percent": "8500",
              "reputation": 0,
              "rshares": "0",
              "voter": "devkapoor423"
          },
          {
              "percent": "10000",
              "reputation": 0,
              "rshares": "0",
              "voter": "blanchy"
          },
          {
              "percent": "10000",
              "reputation": 0,
              "rshares": "0",
              "voter": "rakeshban357"
          },
          {
              "percent": "10000",
              "reputation": 0,
              "rshares": "0",
              "voter": "douglasjames"
          },
          {
              "percent": "10000",
              "reputation": 0,
              "rshares": "0",
              "voter": "michaelabbas"
          },
          {
              "percent": "10000",
              "reputation": 0,
              "rshares": "0",
              "voter": "gonewithwind"
          },
          {
              "percent": "10000",
              "reputation": 0,
              "rshares": "0",
              "voter": "snow.owl"
          },
          {
              "percent": "10000",
              "reputation": 0,
              "rshares": "0",
              "voter": "tonthatthienvu"
          },
          {
              "percent": "10000",
              "reputation": 0,
              "rshares": "0",
              "voter": "strangeworldnews"
          },
          {
              "percent": "10000",
              "reputation": 0,
              "rshares": "0",
              "voter": "dogra"
          },
          {
              "percent": "10000",
              "reputation": 0,
              "rshares": "0",
              "voter": "umairx97"
          },
          {
              "percent": "10000",
              "reputation": 0,
              "rshares": "0",
              "voter": "coolpeopleifb"
          },
          {
              "percent": "10000",
              "reputation": 0,
              "rshares": "0",
              "voter": "gabu01"
          },
          {
              "percent": "10000",
              "reputation": 0,
              "rshares": "0",
              "voter": "magicalbot"
          },
          {
              "percent": "10000",
              "reputation": 0,
              "rshares": "0",
              "voter": "f21steem"
          },
          {
              "percent": "10000",
              "reputation": 0,
              "rshares": "0",
              "voter": "hoobit"
          },
          {
              "percent": "10000",
              "reputation": 0,
              "rshares": "0",
              "voter": "ivancraigcaine"
          },
          {
              "percent": "10000",
              "reputation": 0,
              "rshares": "0",
              "voter": "kranko"
          },
          {
              "percent": "10000",
              "reputation": 0,
              "rshares": "0",
              "voter": "successinwork"
          },
          {
              "percent": "0",
              "reputation": 0,
              "rshares": "0",
              "voter": "abfelix96"
          },
          {
              "percent": "0",
              "reputation": 0,
              "rshares": "0",
              "voter": "maldonadog"
          },
          {
              "percent": "-10000",
              "reputation": 0,
              "rshares": "0",
              "voter": "drakeler"
          },
          {
              "percent": "10000",
              "reputation": 0,
              "rshares": "0",
              "voter": "cyrex88"
          },
          {
              "percent": "10000",
              "reputation": 0,
              "rshares": "0",
              "voter": "rikyu"
          },
          {
              "percent": "10000",
              "reputation": 0,
              "rshares": "0",
              "voter": "krimimimi"
          },
          {
              "percent": "10000",
              "reputation": 0,
              "rshares": "0",
              "voter": "johannav"
          }
      ],
      "author": "steemit",
      "author_reputation": 12948582322,
      "beneficiaries": [],
      "body": "Steemit is a social media platform where anyone can earn STEEM points by posting. The more people who like a post, the more STEEM the poster earns. Anyone can sell their STEEM for cash or vest it to boost their voting power.",
      "body_length": 224,
      "cashout_time": "1969-12-31T23:59:59",
      "category": "meta",
      "children": 430,
      "created": "2016-03-30T18:30:18",
      "curator_payout_value": "0.756 HBD",
      "depth": 0,
      "json_metadata": "{}",
      "last_payout": "2016-08-24T19:59:42",
      "last_update": "2016-03-30T18:30:18",
      "max_accepted_payout": "1000000.000 HBD",
      "net_rshares": 830053779138,
      "parent_author": "",
      "parent_permlink": "meta",
      "pending_payout_value": "0.000 HBD",
      "percent_steem_dollars": 10000,
      "permlink": "firstpost",
      "post_id": 1,
      "promoted": "0.000 HBD",
      "replies": [],
      "root_title": "Welcome to Steem!",
      "title": "Welcome to Steem!",
      "total_payout_value": "0.942 HBD",
      "url": "/meta/@steemit/firstpost"
  }
]