{
  "witnesses": [
    "themarkymark",
    "abit",
    "steempeak",
    "someguy123",
    "followbtcnews",
    "ocd-witness",
    "steempress",
    "cervantes",
    "roelandp",
    "anyx",
    "good-karma",
    "ausbitbank",
    "kevinwong",
    "blocktrades",
    "yabapmatt",
    "emrebeyler",
    "therealwolf",
    "pharesim",
    "stoodkev",
    "arcange",
    "gtg"
  ]
}
