[
  {
      "about": "To highlight true Gems of Hive community with User Retention as primary objective.",
      "admins": [
          "bluemist"
      ],
      "avatar_url": "",
      "context": {},
      "created_at": "2020-02-26 11:33:33",
      "id": 1369030,
      "is_nsfw": false,
      "lang": "en",
      "name": "hive-148441",
      "num_authors": 1706,
      "num_pending": 11787,
      "subscribers": 5513,
      "sum_pending": 13549,
      "title": "GEMS",
      "type_id": 1
  }
]