[
  {
    "active_votes": [
      {
        "rshares": 11000000,
        "voter": "alice"
      }
    ],
    "author": "ignoreall",
    "author_payout_value": "0.000 HBD",
    "author_reputation": 25.0,
    "author_role": "guest",
    "author_title": "",
    "beneficiaries": [],
    "blacklists": [],
    "body": "I want to write something to the community as well",
    "category": "hive-135485",
    "children": 0,
    "community": "hive-135485",
    "community_title": "World News",
    "created": "2016-09-15T18:02:00",
    "curator_payout_value": "0.000 HBD",
    "depth": 0,
    "is_paidout": false,
    "json_metadata": {},
    "max_accepted_payout": "1000000.000 HBD",
    "net_rshares": 11000000,
    "payout": 0.001,
    "payout_at": "2016-09-22T18:02:00",
    "pending_payout_value": "0.001 HBD",
    "percent_hbd": 10000,
    "permlink": "regular-post",
    "post_id": 1256955,
    "promoted": "0.000 HBD",
    "replies": [],
    "stats": {
      "flag_weight": 0.0,
      "gray": false,
      "hide": false,
      "total_votes": 1
    },
    "title": "Regular community post",
    "updated": "2016-09-15T18:02:00",
    "url": "/hive-135485/@ignoreall/regular-post"
  },
  {
    "active_votes": [],
    "author": "test-creator",
    "author_payout_value": "0.000 HBD",
    "author_reputation": 25.0,
    "author_role": "guest",
    "author_title": "",
    "beneficiaries": [],
    "blacklists": [],
    "body": "hello from non-pinned post 2",
    "category": "hive-135485",
    "children": 0,
    "community": "hive-135485",
    "community_title": "World News",
    "created": "2016-09-15T18:01:51",
    "curator_payout_value": "0.000 HBD",
    "depth": 0,
    "is_paidout": false,
    "json_metadata": {},
    "max_accepted_payout": "1000000.000 HBD",
    "net_rshares": 0,
    "payout": 0.0,
    "payout_at": "2016-09-22T18:01:51",
    "pending_payout_value": "0.000 HBD",
    "percent_hbd": 10000,
    "permlink": "nonpinpost2",
    "post_id": 1256934,
    "promoted": "0.000 HBD",
    "replies": [],
    "stats": {
      "flag_weight": 0.0,
      "gray": false,
      "hide": false,
      "total_votes": 0
    },
    "title": "Not pinned post 2",
    "updated": "2016-09-15T18:01:51",
    "url": "/hive-135485/@test-creator/nonpinpost2"
  },
  {
    "active_votes": [],
    "author": "test-creator",
    "author_payout_value": "0.000 HBD",
    "author_reputation": 25.0,
    "author_role": "guest",
    "author_title": "",
    "beneficiaries": [],
    "blacklists": [],
    "body": "This is my muted post in hive-135485 community",
    "category": "hive-135485",
    "children": 0,
    "community": "hive-135485",
    "community_title": "World News",
    "created": "2016-09-15T18:01:51",
    "curator_payout_value": "0.000 HBD",
    "depth": 0,
    "is_paidout": false,
    "json_metadata": {},
    "max_accepted_payout": "1000000.000 HBD",
    "net_rshares": 0,
    "payout": 0.0,
    "payout_at": "2016-09-22T18:01:51",
    "pending_payout_value": "0.000 HBD",
    "percent_hbd": 10000,
    "permlink": "muted-post",
    "post_id": 1256927,
    "promoted": "0.000 HBD",
    "replies": [],
    "stats": {
      "flag_weight": 0.0,
      "gray": true,
      "hide": false,
      "total_votes": 0
    },
    "title": "My muted post",
    "updated": "2016-09-15T18:01:51",
    "url": "/hive-135485/@test-creator/muted-post"
  },
  {
    "active_votes": [],
    "author": "test-creator",
    "author_payout_value": "0.000 HBD",
    "author_reputation": 25.0,
    "author_role": "guest",
    "author_title": "",
    "beneficiaries": [],
    "blacklists": [],
    "body": "This is my post in hive-135485 community reblogged by test-reblog-03",
    "category": "hive-135485",
    "children": 0,
    "community": "hive-135485",
    "community_title": "World News",
    "created": "2016-09-15T18:01:51",
    "curator_payout_value": "0.000 HBD",
    "depth": 0,
    "is_paidout": false,
    "json_metadata": {},
    "max_accepted_payout": "1000000.000 HBD",
    "net_rshares": 0,
    "payout": 0.0,
    "payout_at": "2016-09-22T18:01:51",
    "pending_payout_value": "0.000 HBD",
    "percent_hbd": 10000,
    "permlink": "reblogged-post",
    "post_id": 1256926,
    "promoted": "0.000 HBD",
    "replies": [],
    "stats": {
      "flag_weight": 0.0,
      "gray": false,
      "hide": false,
      "total_votes": 0
    },
    "title": "My first post",
    "updated": "2016-09-15T18:01:51",
    "url": "/hive-135485/@test-creator/reblogged-post"
  },
  {
    "active_votes": [],
    "author": "test-creator",
    "author_payout_value": "0.000 HBD",
    "author_reputation": 25.0,
    "author_role": "guest",
    "author_title": "",
    "beneficiaries": [],
    "blacklists": [],
    "body": "This is my first post in hive-135485 community",
    "category": "hive-135485",
    "children": 0,
    "community": "hive-135485",
    "community_title": "World News",
    "created": "2016-09-15T18:01:51",
    "curator_payout_value": "0.000 HBD",
    "depth": 0,
    "is_paidout": false,
    "json_metadata": {},
    "max_accepted_payout": "1000000.000 HBD",
    "net_rshares": 0,
    "payout": 0.0,
    "payout_at": "2016-09-22T18:01:51",
    "pending_payout_value": "0.000 HBD",
    "percent_hbd": 10000,
    "permlink": "first-post",
    "post_id": 1256925,
    "promoted": "0.000 HBD",
    "replies": [],
    "stats": {
      "flag_weight": 0.0,
      "gray": false,
      "hide": false,
      "total_votes": 0
    },
    "title": "My first post",
    "updated": "2016-09-15T18:01:51",
    "url": "/hive-135485/@test-creator/first-post"
  },
  {
    "active_votes": [],
    "author": "test-safari",
    "author_payout_value": "0.000 HBD",
    "author_reputation": 25.0,
    "author_role": "admin",
    "author_title": "Bill Gates",
    "beneficiaries": [],
    "blacklists": [],
    "body": "tell me secret 02",
    "category": "hive-135485",
    "children": 0,
    "community": "hive-135485",
    "community_title": "World News",
    "created": "2016-09-15T18:01:30",
    "curator_payout_value": "0.000 HBD",
    "depth": 0,
    "is_paidout": false,
    "json_metadata": {},
    "max_accepted_payout": "1000000.000 HBD",
    "net_rshares": 0,
    "payout": 0.0,
    "payout_at": "2016-09-22T18:01:30",
    "pending_payout_value": "0.000 HBD",
    "percent_hbd": 10000,
    "permlink": "secrets2",
    "post_id": 1256844,
    "promoted": "0.011 HBD",
    "replies": [],
    "stats": {
      "flag_weight": 0.0,
      "gray": false,
      "hide": false,
      "total_votes": 0
    },
    "title": "I love secrets 02",
    "updated": "2016-09-15T18:01:30",
    "url": "/hive-135485/@test-safari/secrets2"
  },
  {
    "active_votes": [],
    "author": "test-safari",
    "author_payout_value": "0.000 HBD",
    "author_reputation": 25.0,
    "author_role": "admin",
    "author_title": "Bill Gates",
    "beneficiaries": [],
    "blacklists": [],
    "body": "tell me secret 01",
    "category": "hive-135485",
    "children": 2,
    "community": "hive-135485",
    "community_title": "World News",
    "created": "2016-09-15T18:01:30",
    "curator_payout_value": "0.000 HBD",
    "depth": 0,
    "is_paidout": false,
    "json_metadata": {},
    "max_accepted_payout": "1000000.000 HBD",
    "net_rshares": 0,
    "payout": 0.0,
    "payout_at": "2016-09-22T18:01:30",
    "pending_payout_value": "0.000 HBD",
    "percent_hbd": 10000,
    "permlink": "secrets1",
    "post_id": 1256843,
    "promoted": "0.000 HBD",
    "replies": [],
    "stats": {
      "flag_weight": 0.0,
      "gray": true,
      "hide": false,
      "total_votes": 0
    },
    "title": "I love secrets 01",
    "updated": "2016-09-15T18:01:30",
    "url": "/hive-135485/@test-safari/secrets1"
  }
]
