[
  {
    "active_votes": [
      {
        "rshares": 28370463371572,
        "voter": "dantheman"
      },
      {
        "rshares": 31307487536364,
        "voter": "smooth"
      },
      {
        "rshares": 231809639013,
        "voter": "anonymous"
      },
      {
        "rshares": 2321962618319,
        "voter": "diaphanous"
      },
      {
        "rshares": 1469558503443,
        "voter": "commedy"
      },
      {
        "rshares": 4287714457313,
        "voter": "riverhead"
      },
      {
        "rshares": 1856006073992,
        "voter": "badassmother"
      },
      {
        "rshares": 1271804694676,
        "voter": "rossco99"
      },
      {
        "rshares": 2206068741954,
        "voter": "wang"
      },
      {
        "rshares": 1950753758979,
        "voter": "xeroc"
      },
      {
        "rshares": 1534707047296,
        "voter": "joseph"
      },
      {
        "rshares": 452874558937,
        "voter": "recursive3"
      },
      {
        "rshares": 620996029765,
        "voter": "masteryoda"
      },
      {
        "rshares": 3120582597678,
        "voter": "recursive"
      },
      {
        "rshares": 440845842,
        "voter": "lee2"
      },
      {
        "rshares": 26932201065,
        "voter": "lee3"
      },
      {
        "rshares": 8677295375,
        "voter": "lee4"
      },
      {
        "rshares": 22149018521,
        "voter": "lee5"
      },
      {
        "rshares": 5942299654212,
        "voter": "smooth.witness"
      },
      {
        "rshares": 8927291120,
        "voter": "idol"
      },
      {
        "rshares": 4941942978,
        "voter": "sakr"
      },
      {
        "rshares": 57625926227,
        "voter": "unosuke"
      },
      {
        "rshares": 1536592488,
        "voter": "jocelyn"
      },
      {
        "rshares": 14818263059,
        "voter": "gregory-f"
      },
      {
        "rshares": 154334962550,
        "voter": "edgeland"
      },
      {
        "rshares": 8836453529,
        "voter": "gregory60"
      },
      {
        "rshares": 29596510808,
        "voter": "full-measure"
      },
      {
        "rshares": 104880949618,
        "voter": "eeks"
      },
      {
        "rshares": 24694558802,
        "voter": "fkn"
      },
      {
        "rshares": 468281676,
        "voter": "paco-steem"
      },
      {
        "rshares": 5641697991,
        "voter": "spaninv"
      },
      {
        "rshares": 32459455171,
        "voter": "elishagh1"
      },
      {
        "rshares": 40391466193,
        "voter": "himalayanguru"
      },
      {
        "rshares": 584291107228,
        "voter": "nanzo-scoop"
      },
      {
        "rshares": 178471627922,
        "voter": "steve-walschot"
      },
      {
        "rshares": 9857825141,
        "voter": "kefkius"
      },
      {
        "rshares": 177420844935,
        "voter": "mummyimperfect"
      },
      {
        "rshares": 106635691300,
        "voter": "asch"
      },
      {
        "rshares": 616864092786,
        "voter": "kevinwong"
      },
      {
        "rshares": 1061266533,
        "voter": "murh"
      },
      {
        "rshares": 6230798580,
        "voter": "cryptofunk"
      },
      {
        "rshares": 579494558,
        "voter": "kodi"
      },
      {
        "rshares": 2003359924,
        "voter": "error"
      },
      {
        "rshares": 11584833708,
        "voter": "andu"
      },
      {
        "rshares": 40553122820,
        "voter": "ranko-k"
      },
      {
        "rshares": 962089879337,
        "voter": "cyber"
      },
      {
        "rshares": 58188888655,
        "voter": "theshell"
      },
      {
        "rshares": 49581045086,
        "voter": "ak2020"
      },
      {
        "rshares": 3848697023555,
        "voter": "satoshifund"
      },
      {
        "rshares": 402139444,
        "voter": "applecrisp"
      },
      {
        "rshares": 36407027386,
        "voter": "altoz"
      },
      {
        "rshares": 365370465,
        "voter": "stiletto"
      },
      {
        "rshares": 55577467736,
        "voter": "juanmiguelsalas"
      },
      {
        "rshares": 219283354085,
        "voter": "will-zewe"
      },
      {
        "rshares": 87300558689,
        "voter": "herzmeister"
      },
      {
        "rshares": 275016906945,
        "voter": "trogdor"
      },
      {
        "rshares": 5287820211,
        "voter": "tee-em"
      },
      {
        "rshares": 31346001722,
        "voter": "michaelx"
      },
      {
        "rshares": 179395106552,
        "voter": "thedashguy"
      },
      {
        "rshares": 4682885200,
        "voter": "usefree"
      },
      {
        "rshares": 189626835254,
        "voter": "mexbit"
      },
      {
        "rshares": 5821262190,
        "voter": "mark-waser"
      },
      {
        "rshares": 118356217412,
        "voter": "geoffrey"
      },
      {
        "rshares": 208362110567,
        "voter": "kimziv"
      },
      {
        "rshares": 46266779182,
        "voter": "honeythief"
      },
      {
        "rshares": 75334808165,
        "voter": "emily-cook"
      },
      {
        "rshares": 2187607792,
        "voter": "superfreek"
      },
      {
        "rshares": 484636799,
        "voter": "mrhankeh"
      },
      {
        "rshares": 17908924002,
        "voter": "grey580"
      },
      {
        "rshares": 275327756,
        "voter": "ladyclair"
      },
      {
        "rshares": 68449861599,
        "voter": "bacchist"
      },
      {
        "rshares": 60315479782,
        "voter": "good-karma"
      },
      {
        "rshares": 3350419346,
        "voter": "orly"
      },
      {
        "rshares": 5271030976,
        "voter": "riscadox"
      },
      {
        "rshares": 24867575018,
        "voter": "katyakov"
      },
      {
        "rshares": 373878481829,
        "voter": "fabio"
      },
      {
        "rshares": 25057642057,
        "voter": "tcfxyz"
      },
      {
        "rshares": 6939984054,
        "voter": "futurefood"
      },
      {
        "rshares": 734082781,
        "voter": "rxhector"
      },
      {
        "rshares": 118094280271,
        "voter": "furion"
      },
      {
        "rshares": 105911917280,
        "voter": "cdubendo"
      },
      {
        "rshares": 578386960,
        "voter": "barbara2"
      },
      {
        "rshares": 642869652,
        "voter": "ch0c0latechip"
      },
      {
        "rshares": 594982040,
        "voter": "doge4lyf"
      },
      {
        "rshares": 12668641443,
        "voter": "gord0b"
      },
      {
        "rshares": 2632460141,
        "voter": "steem1653"
      },
      {
        "rshares": 136322030,
        "voter": "cynetyc"
      },
      {
        "rshares": 25221166135,
        "voter": "steemit-life"
      },
      {
        "rshares": 80777327,
        "voter": "snowden"
      },
      {
        "rshares": 5357326058,
        "voter": "thegoodguy"
      },
      {
        "rshares": 14168336425,
        "voter": "aaseb"
      },
      {
        "rshares": 4209533734,
        "voter": "karen13"
      },
      {
        "rshares": 6017253623,
        "voter": "cryptosi"
      },
      {
        "rshares": 251367062418,
        "voter": "nabilov"
      },
      {
        "rshares": 8751103405,
        "voter": "noodhoog"
      },
      {
        "rshares": 46859060143,
        "voter": "milestone"
      },
      {
        "rshares": 33739229218,
        "voter": "creemej"
      },
      {
        "rshares": 87223247,
        "voter": "wildchild"
      },
      {
        "rshares": 15070803886,
        "voter": "nippel66"
      },
      {
        "rshares": 24417687626,
        "voter": "phenom"
      },
      {
        "rshares": 4545051592,
        "voter": "poseidon"
      },
      {
        "rshares": 7946812357,
        "voter": "smolalit"
      },
      {
        "rshares": 362515598946,
        "voter": "calaber24p"
      },
      {
        "rshares": 147403710,
        "voter": "jdenismusic"
      },
      {
        "rshares": 3365797955,
        "voter": "simon.braki.love"
      },
      {
        "rshares": 82782405213,
        "voter": "thylbom"
      },
      {
        "rshares": 3709588060,
        "voter": "bitcoiner"
      },
      {
        "rshares": 32544157928,
        "voter": "deanliu"
      },
      {
        "rshares": 4996306142,
        "voter": "dmitriybtc"
      },
      {
        "rshares": 204618396015,
        "voter": "jl777"
      },
      {
        "rshares": 30989614870,
        "voter": "zaebars"
      },
      {
        "rshares": 20026634941,
        "voter": "positive"
      },
      {
        "rshares": 1809205777,
        "voter": "yarly"
      },
      {
        "rshares": 272641013,
        "voter": "yarly2"
      },
      {
        "rshares": 273048922,
        "voter": "yarly3"
      },
      {
        "rshares": 157733805,
        "voter": "yarly4"
      },
      {
        "rshares": 158624349,
        "voter": "yarly5"
      },
      {
        "rshares": 90416287,
        "voter": "yarly7"
      },
      {
        "rshares": 799615699,
        "voter": "raymonjohnstone"
      },
      {
        "rshares": 17267341753,
        "voter": "proto"
      },
      {
        "rshares": 34309455805,
        "voter": "sisterholics"
      },
      {
        "rshares": 437620869,
        "voter": "yarly10"
      },
      {
        "rshares": 234191245,
        "voter": "yarly11"
      },
      {
        "rshares": 8781903824,
        "voter": "royalmacro"
      },
      {
        "rshares": 81879061,
        "voter": "yarly12"
      },
      {
        "rshares": 674282213,
        "voter": "fnait"
      },
      {
        "rshares": 599033376,
        "voter": "keepcalmand"
      },
      {
        "rshares": 146224042,
        "voter": "steemster1"
      },
      {
        "rshares": 3022447454,
        "voter": "dmilash"
      },
      {
        "rshares": 2002851358,
        "voter": "andreynoch"
      },
      {
        "rshares": 13359143286,
        "voter": "mahekg"
      },
      {
        "rshares": 50579277183,
        "voter": "gomeravibz"
      },
      {
        "rshares": 8734185109,
        "voter": "taker"
      },
      {
        "rshares": 12064042634,
        "voter": "nekromarinist"
      },
      {
        "rshares": 57873464,
        "voter": "sharon"
      },
      {
        "rshares": 10419645487,
        "voter": "dumar022"
      },
      {
        "rshares": 2157207095,
        "voter": "merej99"
      },
      {
        "rshares": 58971492,
        "voter": "lillianjones"
      },
      {
        "rshares": 1213299204686,
        "voter": "laonie"
      },
      {
        "rshares": 157521707420,
        "voter": "twinner"
      },
      {
        "rshares": 23391691291,
        "voter": "rawnetics"
      },
      {
        "rshares": 22969142749,
        "voter": "laonie1"
      },
      {
        "rshares": 23485900426,
        "voter": "laonie2"
      },
      {
        "rshares": 23494195522,
        "voter": "laonie3"
      },
      {
        "rshares": 24562882668,
        "voter": "laoyao"
      },
      {
        "rshares": 42639811498,
        "voter": "myfirst"
      },
      {
        "rshares": 246279861104,
        "voter": "somebody"
      },
      {
        "rshares": 9450505564,
        "voter": "flysaga"
      },
      {
        "rshares": 5831615639,
        "voter": "brendio"
      },
      {
        "rshares": 2918578376,
        "voter": "gmurph"
      },
      {
        "rshares": 3690744042,
        "voter": "chris.roy"
      },
      {
        "rshares": 54405024034,
        "voter": "midnightoil"
      },
      {
        "rshares": 4190391188,
        "voter": "ullikume"
      },
      {
        "rshares": 23489872560,
        "voter": "laonie4"
      },
      {
        "rshares": 23487615266,
        "voter": "laonie5"
      },
      {
        "rshares": 23484637540,
        "voter": "laonie6"
      },
      {
        "rshares": 23480497322,
        "voter": "laonie7"
      },
      {
        "rshares": 3323984357,
        "voter": "kurtbeil"
      },
      {
        "rshares": 23477049244,
        "voter": "laonie8"
      },
      {
        "rshares": 23474334690,
        "voter": "laonie9"
      },
      {
        "rshares": 136078574669,
        "voter": "xiaohui"
      },
      {
        "rshares": 21112646631,
        "voter": "jphamer1"
      },
      {
        "rshares": 88206053,
        "voter": "bigsambucca"
      },
      {
        "rshares": 6791986484,
        "voter": "elfkitchen"
      },
      {
        "rshares": 99935909954,
        "voter": "joele"
      },
      {
        "rshares": 5855738054,
        "voter": "oflyhigh"
      },
      {
        "rshares": 15860159560,
        "voter": "randyclemens"
      },
      {
        "rshares": 2343183825,
        "voter": "paynode"
      },
      {
        "rshares": 4366149629,
        "voter": "xiaokongcom"
      },
      {
        "rshares": 59437351,
        "voter": "msjennifer"
      },
      {
        "rshares": 54654502,
        "voter": "ciao"
      },
      {
        "rshares": 62928860,
        "voter": "session101"
      },
      {
        "rshares": 52985539,
        "voter": "steemo"
      },
      {
        "rshares": 8801395051,
        "voter": "xianjun"
      },
      {
        "rshares": 52848854,
        "voter": "steema"
      },
      {
        "rshares": 72192938,
        "voter": "sijoittaja"
      },
      {
        "rshares": 69662169,
        "voter": "confucius"
      },
      {
        "rshares": 72135954,
        "voter": "stevescriber"
      },
      {
        "rshares": 51247757,
        "voter": "loli"
      },
      {
        "rshares": 91519215715,
        "voter": "miacats"
      },
      {
        "rshares": 52419023,
        "voter": "nano2nd"
      },
      {
        "rshares": 53661976,
        "voter": "jarvis"
      },
      {
        "rshares": 591109646,
        "voter": "microluck"
      },
      {
        "rshares": 74131936,
        "voter": "razberrijam"
      },
      {
        "rshares": 53106127,
        "voter": "fortuner"
      },
      {
        "rshares": 2022702929,
        "voter": "chinadaily"
      },
      {
        "rshares": 88481667,
        "voter": "pompe72"
      },
      {
        "rshares": 802011524540,
        "voter": "dollarvigilante"
      },
      {
        "rshares": 101627835,
        "voter": "pollina"
      },
      {
        "rshares": 50698107,
        "voter": "johnbyrd"
      },
      {
        "rshares": 50682252,
        "voter": "thomasaustin"
      },
      {
        "rshares": 50680459,
        "voter": "thermor"
      },
      {
        "rshares": 50691211,
        "voter": "ficholl"
      },
      {
        "rshares": 51852278,
        "voter": "widell"
      },
      {
        "rshares": 3635091595,
        "voter": "movievertigo"
      },
      {
        "rshares": 50311250,
        "voter": "revelbrooks"
      },
      {
        "rshares": 23468154723,
        "voter": "laonie10"
      },
      {
        "rshares": 2982691190,
        "voter": "netaterra"
      },
      {
        "rshares": 21980957828,
        "voter": "andrewawerdna"
      },
      {
        "rshares": 5712937692,
        "voter": "trev"
      },
      {
        "rshares": 1874035641,
        "voter": "erroneous-logic"
      },
      {
        "rshares": 302425178,
        "voter": "sergeypotapov"
      },
      {
        "rshares": 65868377,
        "voter": "lensessions"
      },
      {
        "rshares": 59126308,
        "voter": "wmhammer"
      },
      {
        "rshares": 45978108133,
        "voter": "emancipatedhuman"
      },
      {
        "rshares": 15340272043,
        "voter": "pressfortruth"
      },
      {
        "rshares": 6654726855,
        "voter": "hilarski"
      },
      {
        "rshares": 8773942171,
        "voter": "craigwilliamz"
      },
      {
        "rshares": 8856106682,
        "voter": "onetree"
      },
      {
        "rshares": 101945845,
        "voter": "slorunner"
      },
      {
        "rshares": 2029369552,
        "voter": "shadowspub"
      },
      {
        "rshares": 32463005362,
        "voter": "daut44"
      },
      {
        "rshares": 50416427,
        "voter": "curpose"
      },
      {
        "rshares": 59693834,
        "voter": "suprepachyderm"
      },
      {
        "rshares": 1615332211,
        "voter": "themonetaryfew"
      },
      {
        "rshares": 989363278,
        "voter": "dajohns1420"
      },
      {
        "rshares": 2196907450,
        "voter": "runridefly"
      },
      {
        "rshares": 3915304227,
        "voter": "newandold"
      },
      {
        "rshares": 57856784,
        "voter": "jamesyk"
      },
      {
        "rshares": 112983030208,
        "voter": "shenanigator"
      },
      {
        "rshares": 58197677,
        "voter": "jcomeauictx"
      },
      {
        "rshares": 12901147949,
        "voter": "quinneaker"
      },
      {
        "rshares": 752032432,
        "voter": "freeinthought"
      },
      {
        "rshares": 1783693666,
        "voter": "funkywanderer"
      },
      {
        "rshares": 4900461398,
        "voter": "richardcrill"
      },
      {
        "rshares": 22621459650,
        "voter": "laonie11"
      },
      {
        "rshares": 2205784762,
        "voter": "jeremyfromwi"
      },
      {
        "rshares": 50588612,
        "voter": "troich"
      },
      {
        "rshares": 4662965424,
        "voter": "nadin3"
      },
      {
        "rshares": 588228551,
        "voter": "profanarky"
      },
      {
        "rshares": 3411072843,
        "voter": "xanoxt"
      },
      {
        "rshares": 1625414479,
        "voter": "davidjkelley"
      },
      {
        "rshares": 50593879,
        "voter": "crion"
      },
      {
        "rshares": 174778016,
        "voter": "greatness"
      },
      {
        "rshares": 50271139,
        "voter": "hitherise"
      },
      {
        "rshares": 50262756,
        "voter": "wiss"
      },
      {
        "rshares": 56782516,
        "voter": "sebastianbauer"
      },
      {
        "rshares": 55667728,
        "voter": "fizzgig"
      },
      {
        "rshares": 26571803569,
        "voter": "sponge-bob"
      },
      {
        "rshares": 4044716723,
        "voter": "l0k1"
      },
      {
        "rshares": 15232622426,
        "voter": "digital-wisdom"
      },
      {
        "rshares": 3710973264,
        "voter": "ethical-ai"
      },
      {
        "rshares": 51033798,
        "voter": "stroully"
      },
      {
        "rshares": 3752641890,
        "voter": "titusfrost"
      },
      {
        "rshares": 6682880996,
        "voter": "jwaser"
      },
      {
        "rshares": 50712038,
        "voter": "thadm"
      },
      {
        "rshares": 2353724275,
        "voter": "zettar"
      },
      {
        "rshares": 1655277599,
        "voter": "smisi"
      },
      {
        "rshares": 17357974240,
        "voter": "bluehorseshoe"
      },
      {
        "rshares": 53413720,
        "voter": "lighter"
      },
      {
        "rshares": 50370757,
        "voter": "yorsens"
      },
      {
        "rshares": 263853222,
        "voter": "maarnio"
      },
      {
        "rshares": 50931848,
        "voter": "analyzethis"
      },
      {
        "rshares": 2617343597,
        "voter": "bwaser"
      },
      {
        "rshares": 50840303,
        "voter": "sofa"
      },
      {
        "rshares": 323483227,
        "voter": "panther"
      },
      {
        "rshares": 53871683,
        "voter": "doggnostic"
      },
      {
        "rshares": 659649765,
        "voter": "ct-gurus"
      },
      {
        "rshares": 53593366,
        "voter": "jenny-talls"
      },
      {
        "rshares": 411677045923,
        "voter": "charlieshrem"
      },
      {
        "rshares": 61827447459,
        "voter": "tracemayer"
      },
      {
        "rshares": 54239080444,
        "voter": "brains"
      },
      {
        "rshares": 50450987,
        "voter": "waldemar-kuhn"
      },
      {
        "rshares": 1415009195,
        "voter": "steemafon"
      },
      {
        "rshares": 1352324852,
        "voter": "bitcoinparadise"
      },
      {
        "rshares": 5753524189,
        "voter": "chick1"
      },
      {
        "rshares": 3605995609,
        "voter": "rigaronib"
      },
      {
        "rshares": 50584036,
        "voter": "aoki"
      },
      {
        "rshares": 50516543,
        "voter": "typingagent"
      },
      {
        "rshares": 50528809,
        "voter": "cwb"
      },
      {
        "rshares": 62515317,
        "voter": "freebornangel"
      },
      {
        "rshares": 271440423,
        "voter": "anomaly"
      },
      {
        "rshares": 2401297947,
        "voter": "ellepdub"
      },
      {
        "rshares": 63405661,
        "voter": "inarix03"
      },
      {
        "rshares": 98577200,
        "voter": "ola1"
      },
      {
        "rshares": 51615652,
        "voter": "rayzzz"
      },
      {
        "rshares": 12115690216,
        "voter": "herpetologyguy"
      },
      {
        "rshares": 4712300251,
        "voter": "morgan.waser"
      },
      {
        "rshares": 157644916,
        "voter": "iggy"
      },
      {
        "rshares": 51636819,
        "voter": "mbizryu0"
      },
      {
        "rshares": 51631638,
        "voter": "archij"
      },
      {
        "rshares": 51530815,
        "voter": "movie7283"
      },
      {
        "rshares": 51527606,
        "voter": "ppcompp2"
      },
      {
        "rshares": 51520427,
        "voter": "jj1968"
      },
      {
        "rshares": 51516489,
        "voter": "cineger"
      },
      {
        "rshares": 51497383,
        "voter": "sksduddk"
      },
      {
        "rshares": 51490214,
        "voter": "jjc0719"
      },
      {
        "rshares": 51235131,
        "voter": "glassheart"
      },
      {
        "rshares": 51215236,
        "voter": "deli"
      },
      {
        "rshares": 1233685675,
        "voter": "anns"
      },
      {
        "rshares": 50798322,
        "voter": "breeze"
      },
      {
        "rshares": 50677982,
        "voter": "sjytoy"
      },
      {
        "rshares": 50676799,
        "voter": "shy2675"
      },
      {
        "rshares": 50675747,
        "voter": "suance1009"
      },
      {
        "rshares": 50674176,
        "voter": "hasqmd"
      },
      {
        "rshares": 50673722,
        "voter": "fischer67"
      },
      {
        "rshares": 50672116,
        "voter": "elya1"
      },
      {
        "rshares": 50632828,
        "voter": "xclamp45"
      },
      {
        "rshares": 50618471,
        "voter": "likeagame1"
      },
      {
        "rshares": 50616898,
        "voter": "apple4006"
      },
      {
        "rshares": 50615195,
        "voter": "bigbell61"
      },
      {
        "rshares": 50612850,
        "voter": "dolpo777"
      },
      {
        "rshares": 50611931,
        "voter": "dongperi"
      },
      {
        "rshares": 50610620,
        "voter": "lion2byung"
      },
      {
        "rshares": 50610002,
        "voter": "cwj1973"
      },
      {
        "rshares": 50609329,
        "voter": "psj212"
      },
      {
        "rshares": 50608661,
        "voter": "owithed2"
      },
      {
        "rshares": 50606929,
        "voter": "fiself2"
      },
      {
        "rshares": 50605131,
        "voter": "trablinever1"
      },
      {
        "rshares": 50603861,
        "voter": "nuals1940"
      },
      {
        "rshares": 50602310,
        "voter": "fanceth2"
      },
      {
        "rshares": 50572441,
        "voter": "unilever"
      },
      {
        "rshares": 50540827,
        "voter": "amstel"
      },
      {
        "rshares": 1921231770,
        "voter": "bapparabi"
      },
      {
        "rshares": 50479027,
        "voter": "sunlight"
      },
      {
        "rshares": 50355943,
        "voter": "forea1995"
      },
      {
        "rshares": 50354561,
        "voter": "holow1968"
      },
      {
        "rshares": 50353969,
        "voter": "peaces1952"
      },
      {
        "rshares": 50346496,
        "voter": "himighar2"
      },
      {
        "rshares": 50345607,
        "voter": "aromese1974"
      },
      {
        "rshares": 50344921,
        "voter": "runis1943"
      },
      {
        "rshares": 50344067,
        "voter": "tong1962"
      },
      {
        "rshares": 50340744,
        "voter": "hishe1997"
      },
      {
        "rshares": 255059000,
        "voter": "letstalkliberty"
      },
      {
        "rshares": 3609651500,
        "voter": "strong-ai"
      },
      {
        "rshares": 53375937,
        "voter": "ninjapainter"
      },
      {
        "rshares": 51393104,
        "voter": "buit1989"
      },
      {
        "rshares": 51389981,
        "voter": "imadecoult1"
      },
      {
        "rshares": 51387526,
        "voter": "infees2"
      },
      {
        "rshares": 51384095,
        "voter": "suar1997"
      },
      {
        "rshares": 51382067,
        "voter": "sobsell93"
      },
      {
        "rshares": 51380710,
        "voter": "stroned96"
      },
      {
        "rshares": 51378107,
        "voter": "drethe"
      },
      {
        "rshares": 51377505,
        "voter": "qualwas"
      },
      {
        "rshares": 51376367,
        "voter": "phent1994"
      },
      {
        "rshares": 51375075,
        "voter": "baboyes"
      },
      {
        "rshares": 51373532,
        "voter": "whor1973"
      },
      {
        "rshares": 51372739,
        "voter": "youreforn"
      },
      {
        "rshares": 51371902,
        "voter": "voll1981"
      },
      {
        "rshares": 51370717,
        "voter": "copenty2"
      },
      {
        "rshares": 51369717,
        "voter": "maject2"
      },
      {
        "rshares": 51367233,
        "voter": "coust1997"
      },
      {
        "rshares": 51366398,
        "voter": "busionea84"
      },
      {
        "rshares": 51365174,
        "voter": "therver1"
      },
      {
        "rshares": 51364022,
        "voter": "appirdsmanne1990"
      },
      {
        "rshares": 51362967,
        "voter": "alienighted87"
      },
      {
        "rshares": 51359746,
        "voter": "anity1994"
      },
      {
        "rshares": 59959066,
        "voter": "themphe1"
      },
      {
        "rshares": 51355864,
        "voter": "abild1988"
      },
      {
        "rshares": 51353540,
        "voter": "spoll1973"
      },
      {
        "rshares": 66162576,
        "voter": "afteld1"
      },
      {
        "rshares": 71207873,
        "voter": "igtes"
      },
      {
        "rshares": 835065804,
        "voter": "dikanevroman"
      },
      {
        "rshares": 141679752,
        "voter": "buffett"
      },
      {
        "rshares": 1630362522,
        "voter": "rusteemitblog"
      },
      {
        "rshares": 167843838,
        "voter": "robyneggs"
      },
      {
        "rshares": 1300689481,
        "voter": "michaelstobiersk"
      },
      {
        "rshares": 453506109,
        "voter": "witchcraftblog"
      },
      {
        "rshares": 158057595,
        "voter": "sdc"
      },
      {
        "rshares": 160973134,
        "voter": "gravity"
      },
      {
        "rshares": 160900665,
        "voter": "digitalillusions"
      },
      {
        "rshares": 157726117,
        "voter": "illusions"
      },
      {
        "rshares": 157176058,
        "voter": "cybergirls"
      },
      {
        "rshares": 156847954,
        "voter": "correct"
      },
      {
        "rshares": 156814579,
        "voter": "haribo"
      },
      {
        "rshares": 156194471,
        "voter": "stimmt"
      },
      {
        "rshares": 156054487,
        "voter": "fallout"
      },
      {
        "rshares": 159062820,
        "voter": "rule"
      },
      {
        "rshares": 155907388,
        "voter": "xtreme"
      },
      {
        "rshares": 1442647825,
        "voter": "modernbukowski"
      },
      {
        "rshares": 158602900,
        "voter": "steem-wallet"
      },
      {
        "rshares": 158535752,
        "voter": "nerds"
      },
      {
        "rshares": 31008332335,
        "voter": "goldmatters"
      },
      {
        "rshares": 155796749,
        "voter": "majes"
      },
      {
        "rshares": 155166715,
        "voter": "maxb02"
      },
      {
        "rshares": 71727340,
        "voter": "dealzgal"
      },
      {
        "rshares": 120983531,
        "voter": "bleujay"
      },
      {
        "rshares": 68013381,
        "voter": "storage"
      },
      {
        "rshares": 298391608,
        "voter": "risabold"
      },
      {
        "rshares": 154247502,
        "voter": "dougkarr"
      },
      {
        "rshares": 58460105,
        "voter": "blackmarket"
      },
      {
        "rshares": 61530871,
        "voter": "gifts"
      },
      {
        "rshares": 96643251,
        "voter": "expat"
      },
      {
        "rshares": 181770825,
        "voter": "pathtomydream"
      },
      {
        "rshares": 519265850,
        "voter": "doubledex"
      },
      {
        "rshares": 1593664040,
        "voter": "steemlift"
      },
      {
        "rshares": 129609202,
        "voter": "toddemaher1"
      }
    ],
    "author": "dollarvigilante",
    "author_payout_value": "0.000 HBD",
    "author_reputation": 68.46,
    "beneficiaries": [],
    "blacklists": [],
    "body": "<center>https://dollarvigilante.com/wp-content/uploads/2016/09/crisisinbound-676x374.jpg</center>\n\nIn past issues, we\u2019ve documented increasingly concerned billionaires warning of dangerous economic times. Many have favored gold as an alternative allocation in a world where $13 trillion-worth of debt is negative yielding, interest rates are artificially suppressed and we\u2019re on the brink of major wars.\n\nThe newest addition to this gold-loving billionaire's club, is none other than hedge-fund manager Paul Singer. At CNBC\u2019s Delivering Alpha Investors Conference this week, the founder of the $27-billion Elliott Management Fund, the 17th largest hedge fund in the world, mentioned that at current prices gold is \u201cundervalued\u201d and \u201cunderrepresented in many portfolios as the only ... store of value that has stood the test of time.\u201d\n\nSinger, along with numerous other hedge-fund managers, has been increasingly outspoken in his criticism of the Federal Reserve and other central banks for creating dangers in the market unlike any in what he terms the \u201c5,000 year-ish\u201d history of finance. Singer noted that \u201cit's a very dangerous time in the global economy and global financial markets.\"\n\nThis quote is frighteningly similar to the response given by Donald Trump on Fox Business not long ago when he was asked if he had money in the market. He answered, \u201cI did, but I got out,\u201d and then went on to say that he expected \u201cvery scary scenarios\u201d for investors.\n\nSinger also stated that he thinks owning medium- to long-term first world debt is a \u201creally bad idea\u201d... and then proceeded to tell listeners to sell their 30-year bonds.\n\nEarlier in the conference, prior to Singer, Ray Dalio who is the manager of the largest hedge fund in the world, Bridgewater Capital, was also vocal about the diminishing returns provided by government debt held by central banks. \u201cThere\u2019s only so much you can squeeze out of the debt cycle,\"  he said. He went on to say that central banks are at a point now where their ability to stimulate is limited.\n\nSeated next to Dalio was Former Treasury secretary Timothy Geithner who voiced concern about limited  \u201ctools in the keynesian arsenal,\u201d that  probably wouldn\u2019t be enough to offset the next recession.\n\nGeithner obviously believes that a recession is on the way. Dalio and Singer are trying to convey the same message. A massive crunch is looming.\n\nWe agree with them, although we believe Geithner was sugarcoating what\u2019s to come.\n\nAfter all, we are on the precipice of a crash of biblical proportions according to the former chief economist of the Bank for International Settlements, William White.\n\nWe have mentioned his quote numerous time here at TDV but feel it\u2019s important to reiterate because of its magnitude: \u201cThe only question is whether we are able to look reality in the eye and face what is coming in an orderly fashion, or whether it will be disorderly. Debt jubilees have been going on for 5,000 years, as far back as the Sumerians.\u201d\n\nAs the Fed considers its second rate hike in 10 years, Singer condemned policy-makers for acting with \u201camazing arrogance\u201d when he and others had warned of a mortgage crisis prior to 2008.\n\nWhat he and those who agreed with his stance don\u2019t know, or at least won\u2019t state publicly, is that these shoddy central bank policies are detrimental by design. In other words, their sole purpose is to destabilize the world economy.\n\nThis deliberate market sabotage is necessary for the transference of power from the more developed nations to less developed ones. Ultimately, the idea is to eliminate smaller regional and national central banks. Once things get bad enough, these smaller banks will be blamed for provoking a given crisis.  And, secondarily, the end goal is to blow up the entire system in order to bring in the one world government and central bank.\n\nThe elites have used the same tactics time and time again throughout history. First, they create the problem, then there is a reaction, and then finally they come swooping in to \u201cvaliantly save\u201d the day. It's happened numerous times before.\n<center>https://dollarvigilante.com/wp-content/uploads/2016/09/1998_Time-MagCover_Greenspan-committe-save-world-The-Dollar-Vigilante.png</center>\nAnd it will soon happen again.\n\nOf course, the globalists have demonstrated that every intervention only makes situations worse.\n\nWe reported on the blatant thievery going on at Wells Fargo in our last article and noted how the elites were probably laughing hysterically at what they\u2019re able to get away with. They were even able to convince many younger American voters that \u201cdemocratic socialism\u201d would be their savior, as seen by the significant, youthful support for Bernie Slanders. Debt and currency crises have already started to materialize, as we\u2019ve seen in the socialist utopia that is Venezuela. If this is any indication of what\u2019s to come, the future is looking awfully gloomy.\n\nAs Singer and others including Dalio have mentioned before, the most tried and true measure of wealth and value is gold.\n\nAt TDV we provide unique Austrian-economics based analysis from the anarcho-capitalist pespective of the state of the world\u2019s economy, as well as suggestions on how to protect your assets in these tempestuous and unprecedented times.\n\nJacob Rothschild, a member of the family partly responsible for the creation of all this chaos, even said himself that we are in \u201cuncharted waters\u201d and that it\u2019s \u201cimpossible to predict the unintended consequences of very low interest rates.\u201d\n\nWe have a pretty good idea of what the consequences will be and we\u2019re taking action to protect ourselves and even profit from them.  Rothschild seems to know the consequences, as well, as he has been buying up gold and selling the stock market and the US dollar.\n\nYou can survive and profit from the orchestrated collapse too.<a href=\"https://dollarvigilante.com/subscribe\"> Subscribe to TDV\u2019s newsletter here</a> to receive constantly updated information on how to protect your family and friends.\n\nIn the end, it is getting truly bizarre just how many billionaires, central bankers and others of note are all warning of the coming collapse. We\u2019d almost begun to worry that they were going to pull a switch-a-roo on us, but if you asked the great majority of investors and financial analysts, they\u2019ll tell you that they see nothing but smooth sailing ahead.\n\nSo, while many are warning, many are hearing, but not listening.  The bible said something about that, I believe.\n<center>https://img1.steemit.com/0x0/https://www.dollarvigilante.com/wp-content/uploads/2016/08/Jeff-Berwick-The-Dollar-Vigilante-Steemit-Bio-1024x221.jpg</center>",
    "category": "money",
    "children": 23,
    "created": "2016-09-15T18:23:15",
    "curator_payout_value": "0.000 HBD",
    "depth": 0,
    "is_paidout": false,
    "json_metadata": {
      "image": [
        "https://dollarvigilante.com/wp-content/uploads/2016/09/crisisinbound-676x374.jpg",
        "https://dollarvigilante.com/wp-content/uploads/2016/09/1998_Time-MagCover_Greenspan-committe-save-world-The-Dollar-Vigilante.png",
        "https://img1.steemit.com/0x0/https://www.dollarvigilante.com/wp-content/uploads/2016/08/Jeff-Berwick-The-Dollar-Vigilante-Steemit-Bio-1024x221.jpg"
      ],
      "links": [
        "https://dollarvigilante.com/subscribe"
      ],
      "tags": [
        "money",
        "gold",
        "silver",
        "bitcoin",
        "crisis"
      ]
    },
    "max_accepted_payout": "1000000.000 HBD",
    "net_rshares": 102136532384242,
    "payout": 595.718,
    "payout_at": "2016-09-22T18:23:15",
    "pending_payout_value": "595.718 HBD",
    "percent_hbd": 10000,
    "permlink": "another-billionaire-warns-of-catastrophic-depths-not-seen-in-5-000-years-and-emphasizes-gold",
    "post_id": 1257176,
    "promoted": "0.000 HBD",
    "replies": [],
    "stats": {
      "flag_weight": 0.0,
      "gray": false,
      "hide": false,
      "total_votes": 387
    },
    "title": "Another Billionaire Warns of Catastrophic Depths Not Seen in 5,000 Years - and Emphasizes Gold",
    "updated": "2016-09-15T18:23:15",
    "url": "/money/@dollarvigilante/another-billionaire-warns-of-catastrophic-depths-not-seen-in-5-000-years-and-emphasizes-gold"
  }
]
