[
  {
    "active_votes": [
      {
        "rshares": 260764053346,
        "voter": "anonymous"
      },
      {
        "rshares": 26301850743316,
        "voter": "berniesanders"
      },
      {
        "rshares": 14447419939656,
        "voter": "summon"
      },
      {
        "rshares": 30325685746209,
        "voter": "val-a"
      },
      {
        "rshares": 15605000000000,
        "voter": "val-b"
      },
      {
        "rshares": 35140699766668,
        "voter": "jamesc"
      },
      {
        "rshares": 4574334081535,
        "voter": "riverhead"
      },
      {
        "rshares": 7028898358251,
        "voter": "wackou"
      },
      {
        "rshares": 173882410087,
        "voter": "nextgenwitness"
      },
      {
        "rshares": 9910560004202,
        "voter": "pharesim"
      },
      {
        "rshares": 610230676198,
        "voter": "justin"
      },
      {
        "rshares": 120855503269,
        "voter": "sandra"
      },
      {
        "rshares": 5450332021682,
        "voter": "kushed"
      },
      {
        "rshares": 1673100049730,
        "voter": "silver"
      },
      {
        "rshares": 4062956162312,
        "voter": "silversteem"
      },
      {
        "rshares": 1149056534045,
        "voter": "ihashfury"
      },
      {
        "rshares": 4624346498267,
        "voter": "nextgencrypto"
      },
      {
        "rshares": 6514602351120,
        "voter": "complexring"
      },
      {
        "rshares": 6400095696110,
        "voter": "clayop"
      },
      {
        "rshares": 403437826343,
        "voter": "steemservices"
      },
      {
        "rshares": 26833458550,
        "voter": "steemservices1"
      },
      {
        "rshares": 1731510767128,
        "voter": "joseph"
      },
      {
        "rshares": 84640148427,
        "voter": "aizensou"
      },
      {
        "rshares": 4166568773495,
        "voter": "au1nethyb1"
      },
      {
        "rshares": 223905651656,
        "voter": "b0y2k"
      },
      {
        "rshares": 12275043694,
        "voter": "bentley"
      },
      {
        "rshares": 630566306296,
        "voter": "masteryoda"
      },
      {
        "rshares": 1209033907,
        "voter": "mineralwasser"
      },
      {
        "rshares": 687090032502,
        "voter": "boombastic"
      },
      {
        "rshares": 91240228363,
        "voter": "mrs.agsexplorer"
      },
      {
        "rshares": 1718241828,
        "voter": "bingo-1"
      },
      {
        "rshares": 258890080700,
        "voter": "indominon"
      },
      {
        "rshares": 795235221870,
        "voter": "pfunk"
      },
      {
        "rshares": 170448234189,
        "voter": "pairmike"
      },
      {
        "rshares": 3126367512437,
        "voter": "onceuponatime"
      },
      {
        "rshares": 10365366239,
        "voter": "idol"
      },
      {
        "rshares": 2747150485288,
        "voter": "donkeypong"
      },
      {
        "rshares": 799706906226,
        "voter": "steemrollin"
      },
      {
        "rshares": 4940816573,
        "voter": "sakr"
      },
      {
        "rshares": 52267603683,
        "voter": "ilanaakoundi"
      },
      {
        "rshares": 1784486145,
        "voter": "jocelyn"
      },
      {
        "rshares": 81778714071,
        "voter": "acidsun"
      },
      {
        "rshares": 14485500439,
        "voter": "gregory-f"
      },
      {
        "rshares": 182184490464,
        "voter": "samuel-stone"
      },
      {
        "rshares": 17261905745,
        "voter": "jademont"
      },
      {
        "rshares": 1231622449650,
        "voter": "gavvet"
      },
      {
        "rshares": 44936016583,
        "voter": "eeks"
      },
      {
        "rshares": -12893763252,
        "voter": "james-show"
      },
      {
        "rshares": 581796947010,
        "voter": "nanzo-scoop"
      },
      {
        "rshares": 9089111423,
        "voter": "cian.dafe"
      },
      {
        "rshares": 48608113541,
        "voter": "hannixx42"
      },
      {
        "rshares": 178475239190,
        "voter": "mummyimperfect"
      },
      {
        "rshares": 268818780,
        "voter": "coar"
      },
      {
        "rshares": 100988550788,
        "voter": "asch"
      },
      {
        "rshares": 629740296743,
        "voter": "kevinwong"
      },
      {
        "rshares": 1414357784,
        "voter": "murh"
      },
      {
        "rshares": 3186258004,
        "voter": "cryptofunk"
      },
      {
        "rshares": 17430843199,
        "voter": "b4bb4r-5h3r"
      },
      {
        "rshares": 2326310189,
        "voter": "error"
      },
      {
        "rshares": 5853981249,
        "voter": "marta-zaidel"
      },
      {
        "rshares": 1064576926325,
        "voter": "cyber"
      },
      {
        "rshares": 49529533316,
        "voter": "ak2020"
      },
      {
        "rshares": 7897522470,
        "voter": "thecryptofiend"
      },
      {
        "rshares": 24406094847,
        "voter": "paul-labossiere"
      },
      {
        "rshares": 98824186817,
        "voter": "eric-boucher"
      },
      {
        "rshares": 418804855,
        "voter": "applecrisp"
      },
      {
        "rshares": 55573071997,
        "voter": "juanmiguelsalas"
      },
      {
        "rshares": 33768131164,
        "voter": "ratel"
      },
      {
        "rshares": 574978856216,
        "voter": "infovore"
      },
      {
        "rshares": 2201949670,
        "voter": "stephen-somers"
      },
      {
        "rshares": 804428766688,
        "voter": "anwenbaumeister"
      },
      {
        "rshares": 6652497229,
        "voter": "grandpere"
      },
      {
        "rshares": 5946920606,
        "voter": "mark-waser"
      },
      {
        "rshares": 17023109715,
        "voter": "albertogm"
      },
      {
        "rshares": 202862990998,
        "voter": "kimziv"
      },
      {
        "rshares": 81140450926,
        "voter": "emily-cook"
      },
      {
        "rshares": 87044687927,
        "voter": "razvanelulmarin"
      },
      {
        "rshares": 11725334283,
        "voter": "primus"
      },
      {
        "rshares": 20587586407,
        "voter": "skapaneas"
      },
      {
        "rshares": 280886491,
        "voter": "ladyclair"
      },
      {
        "rshares": 158997318209,
        "voter": "asmolokalo"
      },
      {
        "rshares": 453674041389,
        "voter": "roelandp"
      },
      {
        "rshares": 62652918156,
        "voter": "lehard"
      },
      {
        "rshares": 24867544970,
        "voter": "katyakov"
      },
      {
        "rshares": 19227034654,
        "voter": "hakise"
      },
      {
        "rshares": 158322035362,
        "voter": "derekareith"
      },
      {
        "rshares": 540675721761,
        "voter": "neoxian"
      },
      {
        "rshares": 1382909545432,
        "voter": "renohq"
      },
      {
        "rshares": 18347051336,
        "voter": "ausbitbank"
      },
      {
        "rshares": 45733024772,
        "voter": "mrwang"
      },
      {
        "rshares": 243777568,
        "voter": "ardina"
      },
      {
        "rshares": 17613903814,
        "voter": "sebastien"
      },
      {
        "rshares": 13516878845,
        "voter": "sitaru"
      },
      {
        "rshares": 33656343814,
        "voter": "toxonaut"
      },
      {
        "rshares": 1107683133,
        "voter": "karen13"
      },
      {
        "rshares": 37477086352,
        "voter": "diana.catherine"
      },
      {
        "rshares": 11096353249,
        "voter": "deviedev"
      },
      {
        "rshares": 71693623547,
        "voter": "jpiper20"
      },
      {
        "rshares": 4205385163,
        "voter": "dcryptogold"
      },
      {
        "rshares": 2722560234,
        "voter": "dmacshady"
      },
      {
        "rshares": 35770303799,
        "voter": "creemej"
      },
      {
        "rshares": 2434921863,
        "voter": "the-future"
      },
      {
        "rshares": 4296012707,
        "voter": "adamt"
      },
      {
        "rshares": 2884781837,
        "voter": "sgnsteems"
      },
      {
        "rshares": 175156042246,
        "voter": "blueorgy"
      },
      {
        "rshares": 4542807775,
        "voter": "poseidon"
      },
      {
        "rshares": 7168473448,
        "voter": "geronimo"
      },
      {
        "rshares": 256660074008,
        "voter": "liberosist"
      },
      {
        "rshares": 3773911635,
        "voter": "birdie"
      },
      {
        "rshares": 9502502066,
        "voter": "oumar"
      },
      {
        "rshares": 53840923427,
        "voter": "jl777"
      },
      {
        "rshares": 1114903893,
        "voter": "oecp85"
      },
      {
        "rshares": 7837739118,
        "voter": "lostnuggett"
      },
      {
        "rshares": 36537971467,
        "voter": "paquito"
      },
      {
        "rshares": 1120682252,
        "voter": "lpfaust"
      },
      {
        "rshares": 5431079499,
        "voter": "gustavopasquini"
      },
      {
        "rshares": 12879388253,
        "voter": "moon32walker"
      },
      {
        "rshares": 206056754,
        "voter": "sergey44"
      },
      {
        "rshares": 1258889103,
        "voter": "mohammed123"
      },
      {
        "rshares": 21551743607,
        "voter": "krabgat"
      },
      {
        "rshares": 42775578615,
        "voter": "claudiop63"
      },
      {
        "rshares": 4543618384,
        "voter": "proto"
      },
      {
        "rshares": 33381543237,
        "voter": "sisterholics"
      },
      {
        "rshares": 16939424070,
        "voter": "michaeldodridge"
      },
      {
        "rshares": 3555056805,
        "voter": "bkkshadow"
      },
      {
        "rshares": 177054757,
        "voter": "kibela"
      },
      {
        "rshares": 149624601,
        "voter": "steemster1"
      },
      {
        "rshares": 467278771,
        "voter": "bullionstackers"
      },
      {
        "rshares": 2399486339,
        "voter": "jillstein2016"
      },
      {
        "rshares": 113159459,
        "voter": "cryptoz"
      },
      {
        "rshares": 947490604,
        "voter": "metaflute"
      },
      {
        "rshares": 49031153303,
        "voter": "gomeravibz"
      },
      {
        "rshares": 2298221146,
        "voter": "taker"
      },
      {
        "rshares": 14667601139,
        "voter": "nekromarinist"
      },
      {
        "rshares": 10689974196,
        "voter": "sykochica"
      },
      {
        "rshares": 57873464,
        "voter": "sharon"
      },
      {
        "rshares": 235438675,
        "voter": "frozendota"
      },
      {
        "rshares": 10107459891,
        "voter": "dumar022"
      },
      {
        "rshares": 61714352,
        "voter": "lillianjones"
      },
      {
        "rshares": 1180036690060,
        "voter": "laonie"
      },
      {
        "rshares": 156808373457,
        "voter": "twinner"
      },
      {
        "rshares": 24365622803,
        "voter": "rawnetics"
      },
      {
        "rshares": 21937293191,
        "voter": "thebluepanda"
      },
      {
        "rshares": 4038742528,
        "voter": "timcliff"
      },
      {
        "rshares": 38493825241,
        "voter": "myfirst"
      },
      {
        "rshares": 239614488307,
        "voter": "somebody"
      },
      {
        "rshares": 9201794973,
        "voter": "flysaga"
      },
      {
        "rshares": 1249580263,
        "voter": "gmurph"
      },
      {
        "rshares": 7842754455,
        "voter": "chris.roy"
      },
      {
        "rshares": 77413968,
        "voter": "kurzer42"
      },
      {
        "rshares": 52933383775,
        "voter": "midnightoil"
      },
      {
        "rshares": 2422858002,
        "voter": "kalimor"
      },
      {
        "rshares": 4337200195,
        "voter": "armen"
      },
      {
        "rshares": 109799369185,
        "voter": "thisisbenbrick"
      },
      {
        "rshares": 35930892807,
        "voter": "budgetbucketlist"
      },
      {
        "rshares": 132362897113,
        "voter": "xiaohui"
      },
      {
        "rshares": 4269542847,
        "voter": "antfield"
      },
      {
        "rshares": 60240401,
        "voter": "locolote"
      },
      {
        "rshares": 3062483684,
        "voter": "alitas"
      },
      {
        "rshares": 6555686028,
        "voter": "elfkitchen"
      },
      {
        "rshares": 93215140213,
        "voter": "joele"
      },
      {
        "rshares": 15543048016,
        "voter": "randyclemens"
      },
      {
        "rshares": 4251276841,
        "voter": "xiaokongcom"
      },
      {
        "rshares": 12956892771,
        "voter": "gargon"
      },
      {
        "rshares": 2505333045,
        "voter": "pgarcgo"
      },
      {
        "rshares": 39336543785,
        "voter": "nonlinearone"
      },
      {
        "rshares": 62201879,
        "voter": "msjennifer"
      },
      {
        "rshares": 57196572,
        "voter": "ciao"
      },
      {
        "rshares": 3820074526,
        "voter": "villainblack"
      },
      {
        "rshares": 67219867859,
        "voter": "cryptos"
      },
      {
        "rshares": 8446448806,
        "voter": "theconnoisseur"
      },
      {
        "rshares": 52985539,
        "voter": "steemo"
      },
      {
        "rshares": 8569626145,
        "voter": "xianjun"
      },
      {
        "rshares": 55306941,
        "voter": "steema"
      },
      {
        "rshares": 3209376097,
        "voter": "fingolfin"
      },
      {
        "rshares": 68042118,
        "voter": "confucius"
      },
      {
        "rshares": 4097488430,
        "voter": "bledarus"
      },
      {
        "rshares": 61075670,
        "voter": "weames"
      },
      {
        "rshares": 56157882,
        "voter": "jarvis"
      },
      {
        "rshares": 561462512,
        "voter": "microluck"
      },
      {
        "rshares": 54313084,
        "voter": "fortuner"
      },
      {
        "rshares": 9443278113,
        "voter": "pjheinz"
      },
      {
        "rshares": 33826834839,
        "voter": "thecurator"
      },
      {
        "rshares": 3054149279,
        "voter": "virtualgrowth"
      },
      {
        "rshares": 7981841214,
        "voter": "lemouth"
      },
      {
        "rshares": 20539806569,
        "voter": "runaway-psyche"
      },
      {
        "rshares": 916656643,
        "voter": "chanbam"
      },
      {
        "rshares": 95362884392,
        "voter": "anotherjoe"
      },
      {
        "rshares": 59750246,
        "voter": "saveliy"
      },
      {
        "rshares": 62751101,
        "voter": "alfaman"
      },
      {
        "rshares": 11375408076,
        "voter": "gvargas123"
      },
      {
        "rshares": 50698107,
        "voter": "johnbyrd"
      },
      {
        "rshares": 53039566,
        "voter": "thomasaustin"
      },
      {
        "rshares": 50680459,
        "voter": "thermor"
      },
      {
        "rshares": 50691211,
        "voter": "ficholl"
      },
      {
        "rshares": 50673817,
        "voter": "widell"
      },
      {
        "rshares": 278004039,
        "voter": "steevc"
      },
      {
        "rshares": 51481279,
        "voter": "revelbrooks"
      },
      {
        "rshares": 377542979,
        "voter": "mrlogic"
      },
      {
        "rshares": 61115647,
        "voter": "steempipe"
      },
      {
        "rshares": 23522356557,
        "voter": "andrewawerdna"
      },
      {
        "rshares": 75274936,
        "voter": "joelbow"
      },
      {
        "rshares": 9139349966,
        "voter": "craigwilliamz"
      },
      {
        "rshares": 3632579654,
        "voter": "naquoya"
      },
      {
        "rshares": 52708083,
        "voter": "curpose"
      },
      {
        "rshares": 1233668048,
        "voter": "lenar"
      },
      {
        "rshares": 9818184488,
        "voter": "lesliestarrohara"
      },
      {
        "rshares": 88019548,
        "voter": "uziriel"
      },
      {
        "rshares": 50588612,
        "voter": "troich"
      },
      {
        "rshares": 70275964,
        "voter": "lovetosteemit"
      },
      {
        "rshares": 1624586871,
        "voter": "davidjkelley"
      },
      {
        "rshares": 78525447485,
        "voter": "markrmorrisjr"
      },
      {
        "rshares": 52842496,
        "voter": "crion"
      },
      {
        "rshares": 182060433,
        "voter": "greatness"
      },
      {
        "rshares": 52505412,
        "voter": "hitherise"
      },
      {
        "rshares": 50262756,
        "voter": "wiss"
      },
      {
        "rshares": 42587324218,
        "voter": "sponge-bob"
      },
      {
        "rshares": 15560806947,
        "voter": "digital-wisdom"
      },
      {
        "rshares": 5676881799,
        "voter": "leavemealone"
      },
      {
        "rshares": 474964783,
        "voter": "areynolds"
      },
      {
        "rshares": 3708768210,
        "voter": "ethical-ai"
      },
      {
        "rshares": 53281654,
        "voter": "jamespro"
      },
      {
        "rshares": 51033798,
        "voter": "stroully"
      },
      {
        "rshares": 6827381497,
        "voter": "jwaser"
      },
      {
        "rshares": 345961132,
        "voter": "tfeldman"
      },
      {
        "rshares": 50712038,
        "voter": "thadm"
      },
      {
        "rshares": 50710305,
        "voter": "prof"
      },
      {
        "rshares": 1414660150,
        "voter": "ionescur"
      },
      {
        "rshares": 145187700042,
        "voter": "thecyclist"
      },
      {
        "rshares": 620633970,
        "voter": "kev7000"
      },
      {
        "rshares": 52560790,
        "voter": "yorsens"
      },
      {
        "rshares": 207236223370,
        "voter": "asksisk"
      },
      {
        "rshares": 55690180,
        "voter": "jeremyschew"
      },
      {
        "rshares": 52242652,
        "voter": "bane"
      },
      {
        "rshares": 52236265,
        "voter": "vive"
      },
      {
        "rshares": 50054445,
        "voter": "coad"
      },
      {
        "rshares": 25849035338,
        "voter": "dubi"
      },
      {
        "rshares": 2674022812,
        "voter": "bwaser"
      },
      {
        "rshares": 7642689568,
        "voter": "renzoarg"
      },
      {
        "rshares": 53003720,
        "voter": "sofa"
      },
      {
        "rshares": 2201645172,
        "voter": "alina1"
      },
      {
        "rshares": 1504667661,
        "voter": "digitalbrain"
      },
      {
        "rshares": 7681172153,
        "voter": "mariandavp"
      },
      {
        "rshares": 43440714161,
        "voter": "brains"
      },
      {
        "rshares": 3956902718,
        "voter": "ibringawareness"
      },
      {
        "rshares": 50933404,
        "voter": "ailo"
      },
      {
        "rshares": 5419706802,
        "voter": "burnin"
      },
      {
        "rshares": 598109050,
        "voter": "nelyp"
      },
      {
        "rshares": 51261721,
        "voter": "f1111111"
      },
      {
        "rshares": 438008616,
        "voter": "anomaly"
      },
      {
        "rshares": 2400009033,
        "voter": "ellepdub"
      },
      {
        "rshares": 52928580,
        "voter": "gregorygarcia"
      },
      {
        "rshares": 263062725,
        "voter": "ola1"
      },
      {
        "rshares": 12084353453,
        "voter": "herpetologyguy"
      },
      {
        "rshares": 50441122,
        "voter": "eavy"
      },
      {
        "rshares": 51484593,
        "voter": "roto"
      },
      {
        "rshares": 50263480,
        "voter": "drac59"
      },
      {
        "rshares": 76492342,
        "voter": "ancientofdays"
      },
      {
        "rshares": 4814064056,
        "voter": "morgan.waser"
      },
      {
        "rshares": 51615039,
        "voter": "cfisher"
      },
      {
        "rshares": 58668861,
        "voter": "humans"
      },
      {
        "rshares": 50938725,
        "voter": "haved"
      },
      {
        "rshares": 61035542,
        "voter": "teo"
      },
      {
        "rshares": 2019644456,
        "voter": "greenwayoflife"
      },
      {
        "rshares": 50873654,
        "voter": "palladium"
      },
      {
        "rshares": 1523610145,
        "voter": "thebiggestidea"
      },
      {
        "rshares": 50572441,
        "voter": "unilever"
      },
      {
        "rshares": 50565798,
        "voter": "penthouse"
      },
      {
        "rshares": 50534533,
        "voter": "bapparabi"
      },
      {
        "rshares": 50482289,
        "voter": "connection"
      },
      {
        "rshares": 50351738,
        "voter": "aschwin"
      },
      {
        "rshares": 166200503,
        "voter": "haddock"
      },
      {
        "rshares": 3607535118,
        "voter": "strong-ai"
      },
      {
        "rshares": 69589512,
        "voter": "igtes"
      },
      {
        "rshares": 46774280781,
        "voter": "curie"
      },
      {
        "rshares": 82287966,
        "voter": "olesia83"
      },
      {
        "rshares": 705822962,
        "voter": "dikanevroman"
      },
      {
        "rshares": 138459757,
        "voter": "buffett"
      },
      {
        "rshares": 159730645,
        "voter": "uct"
      },
      {
        "rshares": 159716853,
        "voter": "front"
      },
      {
        "rshares": 158676075,
        "voter": "iberia"
      },
      {
        "rshares": 158649039,
        "voter": "ndea30"
      },
      {
        "rshares": 158641883,
        "voter": "domenico"
      },
      {
        "rshares": 435351417,
        "voter": "witchcraftblog"
      },
      {
        "rshares": 157805871,
        "voter": "serena199"
      },
      {
        "rshares": 160900665,
        "voter": "digitalillusions"
      },
      {
        "rshares": 157774885,
        "voter": "gia7"
      },
      {
        "rshares": 1883713307,
        "voter": "dresden"
      },
      {
        "rshares": 160835930,
        "voter": "skrillex"
      },
      {
        "rshares": 205939206,
        "voter": "mgibson"
      },
      {
        "rshares": 157303076,
        "voter": "richie4"
      },
      {
        "rshares": 157241455,
        "voter": "coraline88"
      },
      {
        "rshares": 156977663,
        "voter": "harlen"
      },
      {
        "rshares": 155225345,
        "voter": "food-creator"
      },
      {
        "rshares": 156939548,
        "voter": "yanuel"
      },
      {
        "rshares": 692395145,
        "voter": "ysa"
      },
      {
        "rshares": 156889267,
        "voter": "daritza"
      },
      {
        "rshares": 159973989,
        "voter": "capcom"
      },
      {
        "rshares": 159950870,
        "voter": "haribo"
      },
      {
        "rshares": 159531007,
        "voter": "benetton"
      },
      {
        "rshares": 156054487,
        "voter": "fallout"
      },
      {
        "rshares": 152431082,
        "voter": "alterego"
      },
      {
        "rshares": 158486055,
        "voter": "zendesk"
      },
      {
        "rshares": 158198121,
        "voter": "lefrisa"
      },
      {
        "rshares": 157848543,
        "voter": "bicolisarog"
      },
      {
        "rshares": 184381906,
        "voter": "antaja"
      },
      {
        "rshares": 203602662,
        "voter": "steemdesigner"
      },
      {
        "rshares": 154247502,
        "voter": "dougkarr"
      },
      {
        "rshares": 846327994,
        "voter": "alienbutt"
      },
      {
        "rshares": 182445807,
        "voter": "techslut"
      },
      {
        "rshares": 112446078,
        "voter": "paulocouto"
      },
      {
        "rshares": 152816202,
        "voter": "countofdelphi"
      },
      {
        "rshares": 151525581,
        "voter": "kevinfoesenek"
      },
      {
        "rshares": 151078228,
        "voter": "unterhd6"
      },
      {
        "rshares": 141999204,
        "voter": "newsfeed"
      },
      {
        "rshares": 147818170,
        "voter": "dirlei.sdias"
      },
      {
        "rshares": 153395599,
        "voter": "trickster512"
      },
      {
        "rshares": 150319355,
        "voter": "denise12"
      }
    ],
    "author": "curie",
    "author_payout_value": "0.000 HBD",
    "author_reputation": 61.56,
    "beneficiaries": [],
    "blacklists": [],
    "body": "<html>\n<h2><img src=\"https://www.steemimg.com/images/2016/09/01/Babel-Lille-2012-Bibliohteque-ideale-2-Jean-Francois-RAUZIER4f9da.jpg\" width=\"1024\" height=\"502\"/></h2>\n<center><h2>One Month of Project Curie</h2></center>\n<p>This will be special update from Project Curie. One month ago, Project Curie began with humble beginnings. It has been an exhilarating experience for the team and we are delighted to share our progress with the Steemit community. To know more about Project Curie, do check out our <a href=\"https://steemit.com/steemit/@donkeypong/announcing-project-curie-bringing-rewards-and-recognition-to-steemit-s-undiscovered-and-emerging-authors\">initial announcement.</a></p><hr>\n<h3>Project Curie wishes to thank @pharesim, @val, @silversteem and @clayop along with @nextgencrypto and @berniesanders for helping us reward more deserving posts</h3>\n<p>When a group of Steemit writers got together to form Project Curie, we thought that if we pooled our own votes on some posts, we could help reward some emerging and undiscovered authors who were posting great original material.&nbsp;</p>\n<p>$5 later, it was clear our combined votes wouldn\u2019t make a huge difference.</p>\n<p>Fortunately, we were able to form a partnership with @nextgencrypto who was generous enough to donate some voting power to help reward deserving posters who were not yet established. @berniesanders then joined to help. With their support, Project Curie became a reality.&nbsp;</p>\n<p>Today, we announce that @val, @pharesim, @silversteem and @clayop also have donated additional voting power to help Project Curie reach a greater number of original content posts from undiscovered and deserving authors. Please join us in thanking them. And please do not send your posts directly to any of these individuals; Project Curie is curating the posts and you are welcome to submit any good ones you find to the #curie channel on Steemit.chat.</p><hr>\n\n<center><h2>Proyecto Cervantes</h2></center>\n<p>Project Curie is excited to announce a new branch of curation created to support Spanish authors on Steemit. The branch is called \u201cProyecto Cervantes\u201d and it\u2019s main curators are @gargon and @pgarcgo. The goal is to find and reward Spanish or bilingual (Spanish and English) posts on Steemit in order to foster a more diverse community. @gargon and @pgarcgo will be creating a compilation post for every 10 posts that they curate in order to provide transparency as to which posts are being rewarded. The hope is also to provide the original authors more exposure. You can find their first compilation posts <a href=\"https://steemit.com/spanish/@gargon/proyecto-cervantes-08-11-sept-2016-compensacion-y-reconocimiento-para-escritores-de-habla-hispana-bringing-rewards-and\">here </a>and <a href=\"https://steemit.com/spanish/@pgarcgo/proyecto-cervantes-11-13-sept-2016-compensacion-y-reconocimiento-para-escritores-de-habla-hispana-bringing-rewards-and\">here</a>. Two members of Project Curie are Spanish speakers ( @anwenbaumeister and @the-alien), and they provide a second line of curation and review for these posts. So, if you are a Spanish speaker, we encourage you to begin writing bilingual posts in order to create a bridge between the two languages and communities!</p>\n\n<hr>\n\n<center><h2>Statistics from Month #1</h2>\n<p>Total posts curated: <strong>2055<br>\n</strong>Unique authors rewarded: <strong>763<br>\n</strong>Total rewards generated for authors: SBD <strong>158,151<br>\n</strong>Mean reward generated per post: SBD <strong>77<br>\n</strong>Median reward generated per post: SBD <strong>40 &nbsp;</strong></p>\n<p><img src=\"https://www.steemimg.com/images/2016/09/14/curie-1da303.jpg\" width=\"1316\" height=\"858\"/></p></center>\n<p>Since we began tracking on 18th August, we have consistently voted on an average of over 75 posts per day. The trajectory is clearly heading up, and in the last week we have been averaging nearly 100 posts.&nbsp;</p>\n<h3><strong>Authors</strong></h3>\n<p>The Top 10 Authors by number of posts curated were -</p>\n<ul>\n  <li>@kimal73 &nbsp;&nbsp;</li>\n  <li>@herverisson &nbsp;&nbsp;</li>\n  <li>@cristi &nbsp;&nbsp;</li>\n  <li>@lukeofkondor &nbsp;&nbsp;</li>\n  <li>@papa-pepper &nbsp;&nbsp;</li>\n  <li>@cryptos &nbsp;&nbsp;</li>\n  <li>@mariandavp &nbsp;&nbsp;</li>\n  <li>@stephmckenzie &nbsp;&nbsp;</li>\n  <li>@eveningstar92 &nbsp;&nbsp;</li>\n  <li>@prufarchy &nbsp;&nbsp;&nbsp;</li>\n</ul>\n<p>Top Authors by payouts includes @alexbeyman, @kaylinart, @brianphobos, @jamielefay, @omfedor, @stephmckenzie, @ionescur, @aboundlessworld and @anotherjoe. Many of those names are pretty familiar today, but less than a month ago, they were new authors struggling for exposure.</p>\n<h3><strong>Tags/Topics</strong></h3>\n<p>The most used tag was \"life\", but that pretty much includes everything!</p>\n<p><img src=\"https://www.steemimg.com/images/2016/09/14/curie-23f98a.jpg\" width=\"1269\" height=\"775\"/></p>\n<p>The most popular topics were \"art\" (549) and \"photography\" (418). \"Story\" and \"writing\" were pretty close, tagged on around 370 posts each, though we suspect these two tags are often repeated. \"Travel\" and \"science\" also make an appearance. Looking forward, we intend to focus more on original science and technology related posts, and other unique / niche topics.&nbsp;</p>\n<h3>#curie</h3>\n<p>Following our announcement on September 2nd, the #curie channel has been a remarkable success. Currently we have 218 users in the room, 44 of whom have curated content from other authors. We have upvoted 105 posts submitted in #curie, and paid out SBD 525 to curators.&nbsp;</p>\n<p>Top curators from #curie were -</p>\n<ul>\n  <li>@pfunk</li>\n  <li>@kental</li>\n  <li>@jamtaylor</li>\n  <li>@deviedev</li>\n  <li>@royaltiffany</li>\n</ul>\n<p>Join us on #curie at Steemit.chat and keep the submissions coming!&nbsp;</p><hr>\n<center><h2>Thanks</h2></center>\n<p>Last, but not least, we wish to thank -&nbsp;</p>\n<p>@knozaki2015, @shaka, @razvanelulmarin, @greenwayoflife, @jasonstaggers for their generous donations.<br>\n@royaltiffany for moderating #curie and creating the noble TheButler bot. :)<br>\n@firepower for setting up the #curie room.<br>\n<br>\n<strong>And of course, everyone voting on and commenting on posts we curate!</strong></p><hr>\n<center><h2>Onward to Month #2!&nbsp;</h2></center>\n<p>We are working to increase our reach and rewards for authors, courtesy of extended whale support. We are also setting up @curie as a universal voter for all posts we curate. This way, you can choose to mirror our votes to support the authors. Look out for an announcement regarding this in our Daily Curation List posts. From next week, every Monday we'll have a Weekly Roundup with statistics, similar to this post.</p>\n<p>We are always open to feedback, and would love to know how you feel we could do better in Month #2!</p>\n</html>",
    "category": "curie",
    "children": 37,
    "created": "2016-09-14T14:11:30",
    "curator_payout_value": "0.000 HBD",
    "depth": 0,
    "is_paidout": false,
    "json_metadata": {
      "image": [
        "https://www.steemimg.com/images/2016/09/01/Babel-Lille-2012-Bibliohteque-ideale-2-Jean-Francois-RAUZIER4f9da.jpg",
        "https://www.steemimg.com/images/2016/09/14/curie-1da303.jpg",
        "https://www.steemimg.com/images/2016/09/14/curie-23f98a.jpg"
      ],
      "links": [
        "https://steemit.com/steemit/@donkeypong/announcing-project-curie-bringing-rewards-and-recognition-to-steemit-s-undiscovered-and-emerging-authors",
        "https://steemit.com/spanish/@gargon/proyecto-cervantes-08-11-sept-2016-compensacion-y-reconocimiento-para-escritores-de-habla-hispana-bringing-rewards-and",
        "https://steemit.com/spanish/@pgarcgo/proyecto-cervantes-11-13-sept-2016-compensacion-y-reconocimiento-para-escritores-de-habla-hispana-bringing-rewards-and"
      ],
      "tags": [
        "curie",
        "minnows",
        "hidden-gems",
        "steemit",
        "project-curie"
      ],
      "users": [
        "pharesim",
        "val",
        "silversteem",
        "clayop",
        "nextgencrypto",
        "berniesanders",
        "gargon",
        "pgarcgo",
        "anwenbaumeister",
        "the-alien",
        "kimal73",
        "herverisson",
        "cristi",
        "lukeofkondor",
        "papa-pepper",
        "cryptos",
        "mariandavp",
        "stephmckenzie",
        "eveningstar92",
        "prufarchy",
        "alexbeyman",
        "kaylinart",
        "brianphobos",
        "jamielefay",
        "omfedor",
        "ionescur",
        "aboundlessworld",
        "anotherjoe",
        "pfunk",
        "kental",
        "jamtaylor",
        "deviedev",
        "royaltiffany",
        "knozaki2015",
        "shaka",
        "razvanelulmarin",
        "greenwayoflife",
        "jasonstaggers",
        "firepower",
        "curie"
      ]
    },
    "max_accepted_payout": "1000000.000 HBD",
    "net_rshares": 203814685511375,
    "payout": 2327.995,
    "payout_at": "2016-09-21T14:11:30",
    "pending_payout_value": "2327.995 HBD",
    "percent_hbd": 10000,
    "permlink": "special-edition-major-updates-and-project-curie-month-1-roundup-12-august-11-september-2016",
    "post_id": 1243456,
    "promoted": "0.000 HBD",
    "replies": [],
    "stats": {
      "flag_weight": 0.0,
      "gray": false,
      "hide": false,
      "total_votes": 318
    },
    "title": "Special Edition: Major Updates & Project Curie Month #1 Roundup (12 August - 11 September 2016)",
    "updated": "2016-09-14T16:09:51",
    "url": "/curie/@curie/special-edition-major-updates-and-project-curie-month-1-roundup-12-august-11-september-2016"
  },
  {
    "active_votes": [
      {
        "rshares": 31621188390159,
        "voter": "smooth"
      },
      {
        "rshares": 2078528809174,
        "voter": "bmw"
      },
      {
        "rshares": 1912120788268,
        "voter": "badassmother"
      },
      {
        "rshares": 3312854507128,
        "voter": "pharesim"
      },
      {
        "rshares": 2053144245901,
        "voter": "hr1"
      },
      {
        "rshares": 1271804694676,
        "voter": "rossco99"
      },
      {
        "rshares": 22390733187,
        "voter": "jaewoocho"
      },
      {
        "rshares": 1736291789819,
        "voter": "steemychicken1"
      },
      {
        "rshares": 1533973920081,
        "voter": "joseph"
      },
      {
        "rshares": 466132509421,
        "voter": "recursive2"
      },
      {
        "rshares": 652005899349,
        "voter": "masteryoda"
      },
      {
        "rshares": 3120458041174,
        "voter": "recursive"
      },
      {
        "rshares": 5941203882368,
        "voter": "smooth.witness"
      },
      {
        "rshares": 9168101098,
        "voter": "idol"
      },
      {
        "rshares": 816386307308,
        "voter": "steemrollin"
      },
      {
        "rshares": 4941741048,
        "voter": "sakr"
      },
      {
        "rshares": 1578030666,
        "voter": "jocelyn"
      },
      {
        "rshares": 83530339170,
        "voter": "acidsun"
      },
      {
        "rshares": 14818192446,
        "voter": "gregory-f"
      },
      {
        "rshares": 151248263299,
        "voter": "edgeland"
      },
      {
        "rshares": 9028522101,
        "voter": "gregory60"
      },
      {
        "rshares": 74914792736,
        "voter": "eeks"
      },
      {
        "rshares": 15119117634,
        "voter": "fkn"
      },
      {
        "rshares": 19873135819,
        "voter": "elishagh1"
      },
      {
        "rshares": 7802860274,
        "voter": "richman"
      },
      {
        "rshares": 584250736753,
        "voter": "nanzo-scoop"
      },
      {
        "rshares": 177409209153,
        "voter": "mummyimperfect"
      },
      {
        "rshares": 313697862,
        "voter": "coar"
      },
      {
        "rshares": 106632631169,
        "voter": "asch"
      },
      {
        "rshares": 1061245798,
        "voter": "murh"
      },
      {
        "rshares": 6230746892,
        "voter": "cryptofunk"
      },
      {
        "rshares": 2057413439,
        "voter": "error"
      },
      {
        "rshares": 962077066542,
        "voter": "cyber"
      },
      {
        "rshares": 59950063204,
        "voter": "theshell"
      },
      {
        "rshares": 49578772788,
        "voter": "ak2020"
      },
      {
        "rshares": 76584409982,
        "voter": "noganoo"
      },
      {
        "rshares": 3848540783991,
        "voter": "satoshifund"
      },
      {
        "rshares": 400880323222,
        "voter": "taoteh1221"
      },
      {
        "rshares": 410517349,
        "voter": "applecrisp"
      },
      {
        "rshares": 35693164103,
        "voter": "altoz"
      },
      {
        "rshares": 335983556,
        "voter": "gardening"
      },
      {
        "rshares": 336136344,
        "voter": "survival"
      },
      {
        "rshares": 10021612024,
        "voter": "arisa"
      },
      {
        "rshares": 280737930617,
        "voter": "trogdor"
      },
      {
        "rshares": 5950554459,
        "voter": "mark-waser"
      },
      {
        "rshares": 118348776939,
        "voter": "geoffrey"
      },
      {
        "rshares": 42738217262,
        "voter": "kimziv"
      },
      {
        "rshares": 24170583392,
        "voter": "seth-krings"
      },
      {
        "rshares": 46264097306,
        "voter": "honeythief"
      },
      {
        "rshares": 78976166587,
        "voter": "technology"
      },
      {
        "rshares": 76017114668,
        "voter": "emily-cook"
      },
      {
        "rshares": 2187607792,
        "voter": "superfreek"
      },
      {
        "rshares": 49806227536,
        "voter": "isteemit"
      },
      {
        "rshares": 10993053311,
        "voter": "auction"
      },
      {
        "rshares": 17557768630,
        "voter": "grey580"
      },
      {
        "rshares": 19975264794,
        "voter": "thebatchman"
      },
      {
        "rshares": 60403077307,
        "voter": "lehard"
      },
      {
        "rshares": 3283410959,
        "voter": "orly"
      },
      {
        "rshares": 5270985903,
        "voter": "riscadox"
      },
      {
        "rshares": 24867544970,
        "voter": "katyakov"
      },
      {
        "rshares": 12790313163,
        "voter": "jako"
      },
      {
        "rshares": 1159208963,
        "voter": "steemswede"
      },
      {
        "rshares": 1664172448,
        "voter": "sergei"
      },
      {
        "rshares": 238378512,
        "voter": "honey"
      },
      {
        "rshares": 71343869654,
        "voter": "furion"
      },
      {
        "rshares": 354114465,
        "voter": "barbara2"
      },
      {
        "rshares": 393593664,
        "voter": "ch0c0latechip"
      },
      {
        "rshares": 364274718,
        "voter": "doge4lyf"
      },
      {
        "rshares": 5532441214,
        "voter": "on0tole"
      },
      {
        "rshares": 1231812238,
        "voter": "dicov"
      },
      {
        "rshares": 2834923420,
        "voter": "steem1653"
      },
      {
        "rshares": 2919298058,
        "voter": "sveokla"
      },
      {
        "rshares": 17173174800,
        "voter": "sebastien"
      },
      {
        "rshares": 5357205853,
        "voter": "thegoodguy"
      },
      {
        "rshares": 14167556353,
        "voter": "aaseb"
      },
      {
        "rshares": 1026087885,
        "voter": "danielkt"
      },
      {
        "rshares": 4209522316,
        "voter": "karen13"
      },
      {
        "rshares": 251366150295,
        "voter": "nabilov"
      },
      {
        "rshares": 629471993,
        "voter": "luisucv34"
      },
      {
        "rshares": 462033723200,
        "voter": "knozaki2015"
      },
      {
        "rshares": 95668007343,
        "voter": "inertia"
      },
      {
        "rshares": 46858037615,
        "voter": "milestone"
      },
      {
        "rshares": 7164489185,
        "voter": "lichtblick"
      },
      {
        "rshares": 34761364489,
        "voter": "creemej"
      },
      {
        "rshares": 2726160685,
        "voter": "the-future"
      },
      {
        "rshares": 15378115921,
        "voter": "nippel66"
      },
      {
        "rshares": 23929304431,
        "voter": "phenom"
      },
      {
        "rshares": 167305835788,
        "voter": "blueorgy"
      },
      {
        "rshares": 12849414672,
        "voter": "benjiberigan"
      },
      {
        "rshares": 932262984,
        "voter": "poseidon"
      },
      {
        "rshares": 19717588129,
        "voter": "mustafaomar"
      },
      {
        "rshares": 3435918746,
        "voter": "simon.braki.love"
      },
      {
        "rshares": 82781233416,
        "voter": "thylbom"
      },
      {
        "rshares": 32543400703,
        "voter": "deanliu"
      },
      {
        "rshares": 4996306142,
        "voter": "dmitriybtc"
      },
      {
        "rshares": 1019831473,
        "voter": "hemp"
      },
      {
        "rshares": 118287211,
        "voter": "flowers"
      },
      {
        "rshares": 204617853645,
        "voter": "jl777"
      },
      {
        "rshares": 30989251579,
        "voter": "zaebars"
      },
      {
        "rshares": 12261205066,
        "voter": "positive"
      },
      {
        "rshares": 1773021661,
        "voter": "yarly"
      },
      {
        "rshares": 267188192,
        "voter": "yarly2"
      },
      {
        "rshares": 267587944,
        "voter": "yarly3"
      },
      {
        "rshares": 154579129,
        "voter": "yarly4"
      },
      {
        "rshares": 155451862,
        "voter": "yarly5"
      },
      {
        "rshares": 88607961,
        "voter": "yarly7"
      },
      {
        "rshares": 50626015,
        "voter": "steemchain"
      },
      {
        "rshares": 50626015,
        "voter": "whalepool"
      },
      {
        "rshares": 6114654934,
        "voter": "summonerrk"
      },
      {
        "rshares": 12098269394,
        "voter": "webdeals"
      },
      {
        "rshares": 231254136,
        "voter": "alexbezimeni"
      },
      {
        "rshares": 17267307497,
        "voter": "proto"
      },
      {
        "rshares": 7222569746,
        "voter": "sisterholics"
      },
      {
        "rshares": 428868451,
        "voter": "yarly10"
      },
      {
        "rshares": 229507420,
        "voter": "yarly11"
      },
      {
        "rshares": 80241480,
        "voter": "yarly12"
      },
      {
        "rshares": 412825844,
        "voter": "fnait"
      },
      {
        "rshares": 366755128,
        "voter": "keepcalmand"
      },
      {
        "rshares": 180668119,
        "voter": "kibela"
      },
      {
        "rshares": 3084130055,
        "voter": "dmilash"
      },
      {
        "rshares": 13626326152,
        "voter": "mahekg"
      },
      {
        "rshares": 50578642550,
        "voter": "gomeravibz"
      },
      {
        "rshares": 8734139434,
        "voter": "taker"
      },
      {
        "rshares": 6521104126,
        "voter": "nekromarinist"
      },
      {
        "rshares": 6895440187,
        "voter": "theprophet"
      },
      {
        "rshares": 255409573883,
        "voter": "laonie"
      },
      {
        "rshares": 24562026280,
        "voter": "laoyao"
      },
      {
        "rshares": 7994566199,
        "voter": "myfirst"
      },
      {
        "rshares": 51844874813,
        "voter": "somebody"
      },
      {
        "rshares": 1938440237,
        "voter": "flysaga"
      },
      {
        "rshares": 2084695835,
        "voter": "gmurph"
      },
      {
        "rshares": 68250832,
        "voter": "missmishel623"
      },
      {
        "rshares": 11452948850,
        "voter": "midnightoil"
      },
      {
        "rshares": 2280336943,
        "voter": "kalimor"
      },
      {
        "rshares": 4190335896,
        "voter": "ullikume"
      },
      {
        "rshares": 28645142464,
        "voter": "xiaohui"
      },
      {
        "rshares": 1293627572,
        "voter": "elfkitchen"
      },
      {
        "rshares": 102434307703,
        "voter": "joele"
      },
      {
        "rshares": 5855564372,
        "voter": "oflyhigh"
      },
      {
        "rshares": 895565145,
        "voter": "xiaokongcom"
      },
      {
        "rshares": 12687522802,
        "voter": "gargon"
      },
      {
        "rshares": 2076619689,
        "voter": "natalymaty"
      },
      {
        "rshares": 84763896,
        "voter": "numberone"
      },
      {
        "rshares": 62760150,
        "voter": "diamonds"
      },
      {
        "rshares": 1805296575,
        "voter": "xianjun"
      },
      {
        "rshares": 3251259359,
        "voter": "unrealisback"
      },
      {
        "rshares": 11292536945,
        "voter": "borran"
      },
      {
        "rshares": 93805187965,
        "voter": "miacats"
      },
      {
        "rshares": 118219525,
        "voter": "microluck"
      },
      {
        "rshares": 75676352,
        "voter": "razberrijam"
      },
      {
        "rshares": 2022625104,
        "voter": "chinadaily"
      },
      {
        "rshares": 84708065280,
        "voter": "serejandmyself"
      },
      {
        "rshares": 106144628,
        "voter": "pollina"
      },
      {
        "rshares": 2958177650,
        "voter": "macartem"
      },
      {
        "rshares": 10344891579,
        "voter": "gvargas123"
      },
      {
        "rshares": 10691300360,
        "voter": "jaredcwillis"
      },
      {
        "rshares": 2982676167,
        "voter": "netaterra"
      },
      {
        "rshares": 59171026,
        "voter": "piezolit"
      },
      {
        "rshares": 6069996297,
        "voter": "trev"
      },
      {
        "rshares": 1152952998,
        "voter": "leno4ek"
      },
      {
        "rshares": 33111928321,
        "voter": "daut44"
      },
      {
        "rshares": 5475437205,
        "voter": "contentjunkie"
      },
      {
        "rshares": 7779288318,
        "voter": "einsteinpotsdam"
      },
      {
        "rshares": 5053600817,
        "voter": "richardcrill"
      },
      {
        "rshares": 2205784762,
        "voter": "jeremyfromwi"
      },
      {
        "rshares": 2056057288,
        "voter": "eight-rad"
      },
      {
        "rshares": 5012661990,
        "voter": "nadin3"
      },
      {
        "rshares": 3411072843,
        "voter": "xanoxt"
      },
      {
        "rshares": 1661520978,
        "voter": "davidjkelley"
      },
      {
        "rshares": 27677639861,
        "voter": "sponge-bob"
      },
      {
        "rshares": 15570931627,
        "voter": "digital-wisdom"
      },
      {
        "rshares": 3710931796,
        "voter": "ethical-ai"
      },
      {
        "rshares": 6831306526,
        "voter": "jwaser"
      },
      {
        "rshares": 1086106040,
        "voter": "tatianka"
      },
      {
        "rshares": 55281264,
        "voter": "apparat"
      },
      {
        "rshares": 14097243573,
        "voter": "cryptobiker"
      },
      {
        "rshares": 54182817,
        "voter": "analyzethis"
      },
      {
        "rshares": 2675492964,
        "voter": "bwaser"
      },
      {
        "rshares": 54949117,
        "voter": "doggnostic"
      },
      {
        "rshares": 54665234,
        "voter": "jenny-talls"
      },
      {
        "rshares": 27671309914,
        "voter": "brains"
      },
      {
        "rshares": 53671263,
        "voter": "waldemar-kuhn"
      },
      {
        "rshares": 1359518638,
        "voter": "steemafon"
      },
      {
        "rshares": 5753400992,
        "voter": "chick1"
      },
      {
        "rshares": 50584036,
        "voter": "aoki"
      },
      {
        "rshares": 51568971,
        "voter": "typingagent"
      },
      {
        "rshares": 50528809,
        "voter": "cwb"
      },
      {
        "rshares": 339287005,
        "voter": "anomaly"
      },
      {
        "rshares": 2401284424,
        "voter": "ellepdub"
      },
      {
        "rshares": 12115548081,
        "voter": "herpetologyguy"
      },
      {
        "rshares": 4816962742,
        "voter": "morgan.waser"
      },
      {
        "rshares": 51232949,
        "voter": "dragonice"
      },
      {
        "rshares": 51230296,
        "voter": "steemq"
      },
      {
        "rshares": 51218466,
        "voter": "weare"
      },
      {
        "rshares": 1258359388,
        "voter": "anns"
      },
      {
        "rshares": 50875769,
        "voter": "cyan"
      },
      {
        "rshares": 50871059,
        "voter": "motion"
      },
      {
        "rshares": 50791473,
        "voter": "synereo"
      },
      {
        "rshares": 50572441,
        "voter": "unilever"
      },
      {
        "rshares": 1871969417,
        "voter": "bapparabi"
      },
      {
        "rshares": 50532230,
        "voter": "friends"
      },
      {
        "rshares": 3689824509,
        "voter": "strong-ai"
      },
      {
        "rshares": 53738244,
        "voter": "ivanakamoto"
      },
      {
        "rshares": 516546553,
        "voter": "grisha-danunaher"
      },
      {
        "rshares": 213848535,
        "voter": "sjamayee"
      },
      {
        "rshares": 2974116451,
        "voter": "htyfn"
      },
      {
        "rshares": 162904624,
        "voter": "allianz"
      },
      {
        "rshares": 1630350803,
        "voter": "rusteemitblog"
      },
      {
        "rshares": 161815656,
        "voter": "ranger"
      },
      {
        "rshares": 444435987,
        "voter": "witchcraftblog"
      },
      {
        "rshares": 161693690,
        "voter": "shadowproject"
      },
      {
        "rshares": 161205518,
        "voter": "acute"
      },
      {
        "rshares": 161179339,
        "voter": "bethesda"
      },
      {
        "rshares": 159352476,
        "voter": "panic"
      },
      {
        "rshares": 159318360,
        "voter": "stimmt"
      },
      {
        "rshares": 159062820,
        "voter": "rule"
      },
      {
        "rshares": 158560941,
        "voter": "steemthis"
      },
      {
        "rshares": 158486055,
        "voter": "zendesk"
      },
      {
        "rshares": 68013381,
        "voter": "storage"
      },
      {
        "rshares": 157667385,
        "voter": "cbd"
      },
      {
        "rshares": 157667385,
        "voter": "junk"
      },
      {
        "rshares": 157682838,
        "voter": "hug"
      },
      {
        "rshares": 157682838,
        "voter": "bearcub"
      },
      {
        "rshares": 157682809,
        "voter": "cyberpunk"
      },
      {
        "rshares": 156919204,
        "voter": "keisha"
      },
      {
        "rshares": 58460105,
        "voter": "blackmarket"
      },
      {
        "rshares": 61530871,
        "voter": "gifts"
      },
      {
        "rshares": 156919175,
        "voter": "int"
      },
      {
        "rshares": 1593664040,
        "voter": "steemlift"
      }
    ],
    "author": "serejandmyself",
    "author_payout_value": "0.000 HBD",
    "author_reputation": 66.84,
    "beneficiaries": [],
    "blacklists": [],
    "body": "#### Hey guys, welcome to the first chapter of my new novel.\n#### It is a mixture of 3 time lines, with 19th century, modern day and ancient times. The genre is probably something you would call a mixture of sci-fi, mystery, adventure and a bit more. \n#### Well, I welcome you to be the judge...\n\n<center> <h1> [![b801c049484636e0faf71f56cca03864c0bd6.jpg](https://www.steemimg.com/images/2016/09/15/b801c049484636e0faf71f56cca03864c0bd6.jpg)](https://www.steemimg.com/image/1wrYT)</h1></center>\n\n__________________________________\n\n**Chapter ONE**\n\nIt seemed as nothing was different in yet another cold and slightly windy London evening. The smog from the river was rising up as usual and the chilly wind would bring the smell up to the embankment, where Charles was taking a rest, sitting down on his favorite bench. \n\nFrom here he could see the might of the power station from across the river and something was special in the way those chimneys threw out the smoke onto the city. \n\nHe just finished his walk along his usual route, walking amongst the cemetery outside the chapel. It always amused him; that mix of emotion and sorrow amongst the busy city people, especially during the busy afternoon hours.\n\nThat rusty smell kept mixing with up with the light freshness of the leaves from the tree nearby Charles\u2019s bench. As he threw a brief glimpse onto the clock on the parliament building he noticed that the small arrow was on 45 minutes\u2026 \n\nSuddenly he heard a murmur of horses; he turned his head before he could finish realizing what time it was. He saw that just a few yards up the road two horse carriages didn\u2019t manage to share the drive way. \n\n<center> [![Saratogacarriagec5af5.jpg](https://www.steemimg.com/images/2016/09/15/Saratogacarriagec5af5.jpg)](https://www.steemimg.com/image/1w1bI) </center>\n\nOne of the coachmen was shouting something and angrily waving his hands. Charles was able to see from here that the coachmen\u2019s grey clothing was partially covered in dirt, probably from the splash of the puddles from underneath the wheels. \n\nThe coachmen kept shouting something, Charles was unable to see the second carriage from where he was sitting, but was able to see some passersby, that starting to gather around the incident.\n\nIt was obvious that, just like him, those people had nothing better to do on this late afternoon then to watch in amusement the accident in the middle of the avenue.\n\nJust as Charles was starting to lose interest in the whole situation, the door of the cab that Charles could see, opened and a man dressed in a black suit and holding a pipe stepped out. He calmly put his hand in the upper inner pocket of the suit and pulled out some coins. The man made two steps up to driver and handed him the coins. At this moment the driver stopped shouting for a moment and it was clear from the look on his face that he was confused. \n\nThe cab driver counted the coins and said something to the man in the suit, the passenger didn\u2019t answer. He turned around and started to walk in the direction of the chapel. The cab driver clearly wasn\u2019t happy. He started to shout once again, but this time at the passenger. While the cab driver turned his attention to the passenger, Charles noticed how the second carriage that was involved in the accident managed to move a few yards back.\n\nIt was a much smaller carriage, and the driver was clearly seeable to Charles now. He seemed somewhat happy that he was not in the middle of the light anymore; he hurryingly turned the carriage and the horse around and started to move also in the direction of the chapel. \n\nAt this moment the driver of the first carriage started to lose interest in shouting and decided to clean himself up. As he started to calm down, the bemused passersby begun to walk back to where they were heading and Charles also turned his head back towards the power station.\n\nCharles was so busy watching the situation unfold that he didn\u2019t noticed that the passenger of the first carriage crossed the road and was now heading not towards the chapel anymore, but exactly in the other direction, towards the grey bench that Charles was sitting on.\n\nAt first Charles didn\u2019t pay any attention to just another man who was walking by. But then he noticed that calm walk of his and it hit him that this was the same passenger from the carriage.\n\n\u201cExcuse me sir?\u201d said Charles as the man closed up to the bench. \u201cYou are the gentleman from the carriage, aren\u2019t you?\u201d \u201cI saw you a minute ago, what happened?\u201d\n\nThe man stopped to walk and shared a look with Charles; he calmly sat down beside him and carried on smoking his pipe, as he was not hearing the questions Charles asked him. \n\n\u201cI do apologies for the intervention, but you must not be local, I can tell by your calmness, all the folks round here are always in a hurry\u201d Charles carried on talking as if not noticing that the man was ignoring him. \n\nAll of a sudden the weather begun to change, wind started to blow stronger and the few leaves that the tree was holding blew in the direction of the bench. The smell from the river rose up and as if that wasn\u2019t enough Charles felt like a small rain drop hit his head. He could clearly see the green water from where he was sitting through the decorations holes of the embankments fence. It was clear that it will start to rain soon by the appearing circles on the top of the river.\n\nAfter a few minutes of quietly seating by his new neighbor Charles caught himself looking at the clock on the tower, once again he saw the small arrow on 45 minutes\u2026\n\n\u201cAnd what do we pay the government for?\u201d \u201cIt would feel though they are taking our money and spend it on their fancy hats and suits, don\u2019t you find?\u201d Said Charles.\n\nAt this point the man took out the pipe into his left hand and begun to cough. After he finished coughing Charles heard him speak, at this point Charles understood that for some reason he would remember this moment for a long time to come. \n\n\u201cIt is likely to assume that they deserve to spend the money they earn\u201d Said the man, his voice was quite low and he had a certain accent Charles could quite catch.\n\n\u201cI don\u2019t think that money is of importance nowadays\u201d Said the man.\n\nCharles looked at the man with a smile - \u201cWhat is of importance? One might assume that philosophically speaking, importance can be found in nothing but what is good to us\u201d.\n\n\u201cNo body knows what can be important to others if we carry on like this, then\u2026\u201d Charles didn\u2019t finish his sentence as the man turned away from him and looked the other way. He then turned his head back and Charles noticed his eyes. His eyes were nothing like what Charles had seen before, they looked as though they were glass like and the as if they were blank, there was nothing behind them.\n\n\u201cWhat is important is that I am here now and that it is happening today. It is important to live your life because, just like your life Charles, it has an end\u201d, the man looked somewhat happy when he said that and Charles jumped back on the bench a little, he felt a small shiver run down his spine.\n\n\u201cWhat? How do you know my name sir? Have you been following me?\u201d questions were racing through Charles\u2019s mind. \n\n\u201cAs I said, this is now of importance. You life can find its end today when you get back to your gallery in your cold basement on Kinnerton street or you might listen to me and\u2026\u201d Charles didn\u2019t let the man finish his sentence. He jumped up from the bench; his cane flew within millimeters of the stranger leg as he jumped.\n\n\u201cHow dare you sir? Who gives you the right\u2026\u201d Charles raised his voice, he never allowed himself to raise his voice at a stranger beforehand.\n\n\u201cI think this conversation is over!\u201d exclaimed Charles. \u201cThat would be your choice\u201d replied the man, \u201cDo you think the time is right?\u201d \n\nCharles had already turned away in anger and was about to make his first step away. Something in the words of the man about the time made him think for a second, thoughts raced through his mind. The number 45 and the small arrow of the parliament clock were stuck in his head. \n\n\u201cI don\u2019t understand said Charles\u2026\u201d he turned his head back towards the clock; the arrow was still on 45 minutes. \u201cHow is that possible?\u201d Charles turned his head to the man, but there was no one on the bench. \n\nCharles begun to search the street rapidly with his eyes, it didn\u2019t even occur to him that it was heavily raining until that moment. \n\n<center> [![tumblr_mkbyo2aby01s0rai7o1_50004ba9.gif](https://www.steemimg.com/images/2016/09/15/tumblr_mkbyo2aby01s0rai7o1_50004ba9.gif)](https://www.steemimg.com/image/1w5tK) </center>\n\nThe streets were empty; there were no carriages or people to be seen around. Feeling scared he turned his head to the clock once again \u2013 \u201cHow can it still be 45 minutes...\u201d Charles was speaking out loud.\n\nThe next moment he felt like his knees weakened, his head was swirling and he dropped his cane, last thing he could hear was the clinging the of the cane\u2019s handle against the pavement. His thoughts mixed up with his eyesight; the man and his pipe, the handle of the clock, the carriage, the passersby, the power stations smoke\u2026\n \n_________________________________\n\n#### Follow me @serejandmyself for more \n\nImage credit - [1](https://ru.pinterest.com/spookynerd/i-m-a-surrealism-chick/)  ; [2](https://giphy.com/search/carriage) ; [3](http://www.ibsrt.com/imglist/horse-and-carriage-id-48037-p-1.html) ;",
    "category": "story",
    "children": 2,
    "created": "2016-09-15T17:23:48",
    "curator_payout_value": "0.000 HBD",
    "depth": 0,
    "is_paidout": false,
    "json_metadata": {
      "image": [
        "https://www.steemimg.com/images/2016/09/15/b801c049484636e0faf71f56cca03864c0bd6.jpg",
        "https://www.steemimg.com/images/2016/09/15/Saratogacarriagec5af5.jpg",
        "https://www.steemimg.com/images/2016/09/15/tumblr_mkbyo2aby01s0rai7o1_50004ba9.gif"
      ],
      "links": [
        "https://www.steemimg.com/image/1wrYT",
        "https://www.steemimg.com/image/1w1bI",
        "https://www.steemimg.com/image/1w5tK",
        "https://ru.pinterest.com/spookynerd/i-m-a-surrealism-chick/",
        "https://giphy.com/search/carriage",
        "http://www.ibsrt.com/imglist/horse-and-carriage-id-48037-p-1.html"
      ],
      "tags": [
        "story",
        "fiction",
        "scifi",
        "mystery",
        "writing"
      ],
      "users": [
        "serejandmyself"
      ]
    },
    "max_accepted_payout": "1000000.000 HBD",
    "net_rshares": 66871297900441,
    "payout": 259.423,
    "payout_at": "2016-09-22T17:23:48",
    "pending_payout_value": "259.423 HBD",
    "percent_hbd": 10000,
    "permlink": "captured-by-time-an-original-novel-chapter-1",
    "post_id": 1256447,
    "promoted": "0.000 HBD",
    "replies": [],
    "stats": {
      "flag_weight": 0.0,
      "gray": false,
      "hide": false,
      "total_votes": 229
    },
    "title": "CAPTURED BY TIME (An Original Novel - Chapter 1)",
    "updated": "2016-09-15T17:23:48",
    "url": "/story/@serejandmyself/captured-by-time-an-original-novel-chapter-1"
  },
  {
    "active_votes": [
      {
        "rshares": 494637006894,
        "voter": "barrie"
      },
      {
        "rshares": 7710245013992,
        "voter": "steempty"
      },
      {
        "rshares": 30984805998710,
        "voter": "smooth"
      },
      {
        "rshares": 289667785336,
        "voter": "anonymous"
      },
      {
        "rshares": 14447196140450,
        "voter": "summon"
      },
      {
        "rshares": 681484074723,
        "voter": "eternity"
      },
      {
        "rshares": 36033200189196,
        "voter": "jamesc"
      },
      {
        "rshares": 4574334081535,
        "voter": "riverhead"
      },
      {
        "rshares": 7015534059816,
        "voter": "wackou"
      },
      {
        "rshares": 2160925860071,
        "voter": "badassmother"
      },
      {
        "rshares": 2051034289892,
        "voter": "hr1"
      },
      {
        "rshares": 6466290924028,
        "voter": "fuzzyvest"
      },
      {
        "rshares": 118485787519,
        "voter": "sandra"
      },
      {
        "rshares": 5339100755934,
        "voter": "kushed"
      },
      {
        "rshares": 1674029296934,
        "voter": "silver"
      },
      {
        "rshares": 4063925838557,
        "voter": "silversteem"
      },
      {
        "rshares": 128324636011,
        "voter": "svk"
      },
      {
        "rshares": 1126556112870,
        "voter": "ihashfury"
      },
      {
        "rshares": 1019287149109,
        "voter": "liondani"
      },
      {
        "rshares": 2937247386101,
        "voter": "wang"
      },
      {
        "rshares": 23332152248,
        "voter": "jaewoocho"
      },
      {
        "rshares": 1910071941344,
        "voter": "xeroc"
      },
      {
        "rshares": 6514602351120,
        "voter": "complexring"
      },
      {
        "rshares": 1731498672998,
        "voter": "joseph"
      },
      {
        "rshares": 90517391466,
        "voter": "aizensou"
      },
      {
        "rshares": 4166462346763,
        "voter": "au1nethyb1"
      },
      {
        "rshares": 475419579220,
        "voter": "recursive2"
      },
      {
        "rshares": 462210569737,
        "voter": "recursive3"
      },
      {
        "rshares": 651686683150,
        "voter": "masteryoda"
      },
      {
        "rshares": 3254899228205,
        "voter": "recursive"
      },
      {
        "rshares": 1209033907,
        "voter": "mineralwasser"
      },
      {
        "rshares": 6756071314,
        "voter": "bingo-0"
      },
      {
        "rshares": 1718241828,
        "voter": "bingo-1"
      },
      {
        "rshares": 5801165470383,
        "voter": "smooth.witness"
      },
      {
        "rshares": 1330827857292,
        "voter": "steempower"
      },
      {
        "rshares": 425345638228,
        "voter": "officialfuzzy"
      },
      {
        "rshares": 1215800936456,
        "voter": "cass"
      },
      {
        "rshares": 10365366239,
        "voter": "idol"
      },
      {
        "rshares": 816021167585,
        "voter": "steemrollin"
      },
      {
        "rshares": 5043750251,
        "voter": "sakr"
      },
      {
        "rshares": 64509999367,
        "voter": "bangking"
      },
      {
        "rshares": 296422841257,
        "voter": "chitty"
      },
      {
        "rshares": 8231062957,
        "voter": "unosuke"
      },
      {
        "rshares": 3109726595,
        "voter": "yefet"
      },
      {
        "rshares": 8209280181,
        "voter": "khanhsang"
      },
      {
        "rshares": 1784486145,
        "voter": "jocelyn"
      },
      {
        "rshares": 85258511340,
        "voter": "acidsun"
      },
      {
        "rshares": 14485500439,
        "voter": "gregory-f"
      },
      {
        "rshares": 17261905745,
        "voter": "jademont"
      },
      {
        "rshares": 74893360972,
        "voter": "eeks"
      },
      {
        "rshares": 488526217,
        "voter": "paco-steem"
      },
      {
        "rshares": 5883825852,
        "voter": "spaninv"
      },
      {
        "rshares": -12087903048,
        "voter": "james-show"
      },
      {
        "rshares": 336429919201,
        "voter": "teamsteem"
      },
      {
        "rshares": 8667563285,
        "voter": "richman"
      },
      {
        "rshares": 13068852902,
        "voter": "acidyo"
      },
      {
        "rshares": 174506653297,
        "voter": "steve-walschot"
      },
      {
        "rshares": 9836158141,
        "voter": "kefkius"
      },
      {
        "rshares": 58639157917,
        "voter": "oaldamster"
      },
      {
        "rshares": 268816966,
        "voter": "coar"
      },
      {
        "rshares": 100988550788,
        "voter": "asch"
      },
      {
        "rshares": 629740296743,
        "voter": "kevinwong"
      },
      {
        "rshares": 1414344480,
        "voter": "murh"
      },
      {
        "rshares": 6372449504,
        "voter": "cryptofunk"
      },
      {
        "rshares": 16733609471,
        "voter": "b4bb4r-5h3r"
      },
      {
        "rshares": 579449391,
        "voter": "kodi"
      },
      {
        "rshares": 2326310189,
        "voter": "error"
      },
      {
        "rshares": 206727143370,
        "voter": "dragonslayer109"
      },
      {
        "rshares": 5853981249,
        "voter": "marta-zaidel"
      },
      {
        "rshares": 1064576926325,
        "voter": "cyber"
      },
      {
        "rshares": 61678758152,
        "voter": "theshell"
      },
      {
        "rshares": 425799805812,
        "voter": "taoteh1221"
      },
      {
        "rshares": 418804855,
        "voter": "applecrisp"
      },
      {
        "rshares": 381169481,
        "voter": "stiletto"
      },
      {
        "rshares": 383436160153,
        "voter": "hedge-x"
      },
      {
        "rshares": 56682792316,
        "voter": "juanmiguelsalas"
      },
      {
        "rshares": 572341707403,
        "voter": "andrarchy"
      },
      {
        "rshares": 48485320682,
        "voter": "thecryptodrive"
      },
      {
        "rshares": 1380704224,
        "voter": "fjccoin"
      },
      {
        "rshares": 563704760996,
        "voter": "infovore"
      },
      {
        "rshares": 13622725061,
        "voter": "facer"
      },
      {
        "rshares": 210189819099,
        "voter": "alexc"
      },
      {
        "rshares": 4866103974,
        "voter": "tee-em"
      },
      {
        "rshares": 32185020754,
        "voter": "michaelx"
      },
      {
        "rshares": 5946920606,
        "voter": "mark-waser"
      },
      {
        "rshares": 17023109715,
        "voter": "albertogm"
      },
      {
        "rshares": 111322975376,
        "voter": "geoffrey"
      },
      {
        "rshares": 6609454107,
        "voter": "tyler-fletcher"
      },
      {
        "rshares": 81716838174,
        "voter": "razvanelulmarin"
      },
      {
        "rshares": 2251029884,
        "voter": "superfreek"
      },
      {
        "rshares": 497689345,
        "voter": "mrhankeh"
      },
      {
        "rshares": 35378265315,
        "voter": "clement"
      },
      {
        "rshares": 32849189476,
        "voter": "acassity"
      },
      {
        "rshares": 280886491,
        "voter": "ladyclair"
      },
      {
        "rshares": 68448307991,
        "voter": "bacchist"
      },
      {
        "rshares": 29507132066,
        "voter": "venuspcs"
      },
      {
        "rshares": 189899541322,
        "voter": "asmolokalo"
      },
      {
        "rshares": 57789275837,
        "voter": "good-karma"
      },
      {
        "rshares": 462726697228,
        "voter": "roelandp"
      },
      {
        "rshares": 1642746247,
        "voter": "gidlark"
      },
      {
        "rshares": 3281446057,
        "voter": "orly"
      },
      {
        "rshares": 3822074668,
        "voter": "getssidetracked"
      },
      {
        "rshares": 250280584,
        "voter": "mstang83"
      },
      {
        "rshares": 18842493961,
        "voter": "hakise"
      },
      {
        "rshares": 366200786008,
        "voter": "fabio"
      },
      {
        "rshares": 15993709711,
        "voter": "yogi.artist"
      },
      {
        "rshares": 103519364,
        "voter": "strawhat"
      },
      {
        "rshares": 16242543792,
        "voter": "r4fken"
      },
      {
        "rshares": 102589641,
        "voter": "cryptochannel"
      },
      {
        "rshares": 154460522305,
        "voter": "derekareith"
      },
      {
        "rshares": 134342335542,
        "voter": "slowwalker"
      },
      {
        "rshares": 234221482,
        "voter": "dzweta"
      },
      {
        "rshares": 2304777789,
        "voter": "vi1son"
      },
      {
        "rshares": 167273913111,
        "voter": "knircky"
      },
      {
        "rshares": 18842550092,
        "voter": "ausbitbank"
      },
      {
        "rshares": 167108122163,
        "voter": "jacor"
      },
      {
        "rshares": 243777568,
        "voter": "ardina"
      },
      {
        "rshares": 1422705803,
        "voter": "mixa"
      },
      {
        "rshares": 18005198739,
        "voter": "sebastien"
      },
      {
        "rshares": 3519456066,
        "voter": "taurus"
      },
      {
        "rshares": 13516878845,
        "voter": "sitaru"
      },
      {
        "rshares": 11694816243,
        "voter": "asim"
      },
      {
        "rshares": 321595915706,
        "voter": "jesta"
      },
      {
        "rshares": 33655847643,
        "voter": "toxonaut"
      },
      {
        "rshares": 109259290,
        "voter": "snowden"
      },
      {
        "rshares": 4602737482,
        "voter": "thegoodguy"
      },
      {
        "rshares": 129723551811,
        "voter": "paco"
      },
      {
        "rshares": 1107683133,
        "voter": "karen13"
      },
      {
        "rshares": 24478695193,
        "voter": "igster"
      },
      {
        "rshares": 73113648749,
        "voter": "jpiper20"
      },
      {
        "rshares": 2722560234,
        "voter": "dmacshady"
      },
      {
        "rshares": 32333061210,
        "voter": "pkattera"
      },
      {
        "rshares": 19237325288,
        "voter": "anduweb"
      },
      {
        "rshares": 10485943136,
        "voter": "shla-rafia"
      },
      {
        "rshares": 46825725594,
        "voter": "milestone"
      },
      {
        "rshares": 7311652491,
        "voter": "lichtblick"
      },
      {
        "rshares": 35770229729,
        "voter": "creemej"
      },
      {
        "rshares": 91938017,
        "voter": "wildchild"
      },
      {
        "rshares": 126704886218,
        "voter": "demotruk"
      },
      {
        "rshares": 3638341233,
        "voter": "maximkichev"
      },
      {
        "rshares": 2506537211,
        "voter": "the-future"
      },
      {
        "rshares": 4381902261,
        "voter": "adamt"
      },
      {
        "rshares": 865281681,
        "voter": "sebhaj"
      },
      {
        "rshares": 24903536535,
        "voter": "phenom"
      },
      {
        "rshares": 2828187420,
        "voter": "sgnsteems"
      },
      {
        "rshares": 175156042246,
        "voter": "blueorgy"
      },
      {
        "rshares": 9702073568,
        "voter": "benjiberigan"
      },
      {
        "rshares": 339108457006,
        "voter": "calaber24p"
      },
      {
        "rshares": 7168473448,
        "voter": "geronimo"
      },
      {
        "rshares": 4923764236,
        "voter": "bitcoiner"
      },
      {
        "rshares": 3756065125,
        "voter": "tarindel"
      },
      {
        "rshares": 92046641189,
        "voter": "rea"
      },
      {
        "rshares": 53840923427,
        "voter": "jl777"
      },
      {
        "rshares": 30194118400,
        "voter": "zaebars"
      },
      {
        "rshares": 35105109840,
        "voter": "paquito"
      },
      {
        "rshares": 1772149995,
        "voter": "yarly"
      },
      {
        "rshares": 267173384,
        "voter": "yarly2"
      },
      {
        "rshares": 267573135,
        "voter": "yarly3"
      },
      {
        "rshares": 154579129,
        "voter": "yarly4"
      },
      {
        "rshares": 155451862,
        "voter": "yarly5"
      },
      {
        "rshares": 88607961,
        "voter": "yarly7"
      },
      {
        "rshares": 780100857,
        "voter": "raymonjohnstone"
      },
      {
        "rshares": 50619397,
        "voter": "steemchain"
      },
      {
        "rshares": 50619397,
        "voter": "whalepool"
      },
      {
        "rshares": 506354306,
        "voter": "gustavopasquini"
      },
      {
        "rshares": 206059171,
        "voter": "sergey44"
      },
      {
        "rshares": 114721821,
        "voter": "mxo8"
      },
      {
        "rshares": 1234205003,
        "voter": "mohammed123"
      },
      {
        "rshares": 21120708735,
        "voter": "krabgat"
      },
      {
        "rshares": 2763375206,
        "voter": "favorit"
      },
      {
        "rshares": 4543618384,
        "voter": "proto"
      },
      {
        "rshares": 634042636,
        "voter": "curator"
      },
      {
        "rshares": 428809375,
        "voter": "yarly10"
      },
      {
        "rshares": 229507420,
        "voter": "yarly11"
      },
      {
        "rshares": 16468884512,
        "voter": "michaeldodridge"
      },
      {
        "rshares": 80241480,
        "voter": "yarly12"
      },
      {
        "rshares": 46743296544,
        "voter": "celebr1ty"
      },
      {
        "rshares": 11567632851,
        "voter": "dimitarj"
      },
      {
        "rshares": 142823483,
        "voter": "steemster1"
      },
      {
        "rshares": 25747727433,
        "voter": "fabien"
      },
      {
        "rshares": 817422571,
        "voter": "bullionstackers"
      },
      {
        "rshares": 250094985729,
        "voter": "originate"
      },
      {
        "rshares": 3021945641,
        "voter": "dmilash"
      },
      {
        "rshares": 2214910466,
        "voter": "jillstein2016"
      },
      {
        "rshares": 110940646,
        "voter": "cryptoz"
      },
      {
        "rshares": 3302445446,
        "voter": "glitterpig"
      },
      {
        "rshares": 6338015068,
        "voter": "uwe69"
      },
      {
        "rshares": 6276554782,
        "voter": "shortcut"
      },
      {
        "rshares": 115422843193,
        "voter": "steemdrive"
      },
      {
        "rshares": 947490604,
        "voter": "metaflute"
      },
      {
        "rshares": 52093680889,
        "voter": "gomeravibz"
      },
      {
        "rshares": 2298221146,
        "voter": "taker"
      },
      {
        "rshares": 6519151447,
        "voter": "nekromarinist"
      },
      {
        "rshares": 57873464,
        "voter": "sharon"
      },
      {
        "rshares": 240147448,
        "voter": "frozendota"
      },
      {
        "rshares": 15408983536,
        "voter": "felixxx"
      },
      {
        "rshares": 1571831658,
        "voter": "whitemike313"
      },
      {
        "rshares": 3034673286,
        "voter": "merej99"
      },
      {
        "rshares": 58971492,
        "voter": "lillianjones"
      },
      {
        "rshares": 160728582794,
        "voter": "twinner"
      },
      {
        "rshares": 24365622803,
        "voter": "rawnetics"
      },
      {
        "rshares": 54215689285,
        "voter": "sextusempiricus"
      },
      {
        "rshares": 24019048233,
        "voter": "laonie1"
      },
      {
        "rshares": 25067031014,
        "voter": "laonie2"
      },
      {
        "rshares": 25075820795,
        "voter": "laonie3"
      },
      {
        "rshares": 6338796297,
        "voter": "brendio"
      },
      {
        "rshares": 2082633772,
        "voter": "gmurph"
      },
      {
        "rshares": 80533628422,
        "voter": "timsaid"
      },
      {
        "rshares": 2375350982,
        "voter": "kalimor"
      },
      {
        "rshares": 63541793,
        "voter": "coderg"
      },
      {
        "rshares": 2868848889,
        "voter": "darrenturetzky"
      },
      {
        "rshares": 56886318,
        "voter": "michellek"
      },
      {
        "rshares": 25071217681,
        "voter": "laonie4"
      },
      {
        "rshares": 25068579591,
        "voter": "laonie5"
      },
      {
        "rshares": 25065597250,
        "voter": "laonie6"
      },
      {
        "rshares": 25061528883,
        "voter": "laonie7"
      },
      {
        "rshares": 5480906296,
        "voter": "kurtbeil"
      },
      {
        "rshares": 25057888093,
        "voter": "laonie8"
      },
      {
        "rshares": 25055101904,
        "voter": "laonie9"
      },
      {
        "rshares": 3229522119,
        "voter": "steemleak"
      },
      {
        "rshares": 112040172638,
        "voter": "thisisbenbrick"
      },
      {
        "rshares": 4269542847,
        "voter": "antfield"
      },
      {
        "rshares": 7834943379,
        "voter": "mevilkingdom"
      },
      {
        "rshares": 60240401,
        "voter": "locolote"
      },
      {
        "rshares": 368648608,
        "voter": "riosparada"
      },
      {
        "rshares": 11282370272,
        "voter": "ekitcho"
      },
      {
        "rshares": 115248537,
        "voter": "bigsambucca"
      },
      {
        "rshares": 93215140213,
        "voter": "joele"
      },
      {
        "rshares": 2215228183,
        "voter": "paynode"
      },
      {
        "rshares": 79785139,
        "voter": "dims"
      },
      {
        "rshares": 2455226384,
        "voter": "pgarcgo"
      },
      {
        "rshares": 1434064827,
        "voter": "hms818"
      },
      {
        "rshares": 40210689203,
        "voter": "nonlinearone"
      },
      {
        "rshares": 59437351,
        "voter": "msjennifer"
      },
      {
        "rshares": 54654502,
        "voter": "ciao"
      },
      {
        "rshares": 3667415885,
        "voter": "villainblack"
      },
      {
        "rshares": 52985539,
        "voter": "steemo"
      },
      {
        "rshares": 52848854,
        "voter": "steema"
      },
      {
        "rshares": 16997336414,
        "voter": "plasticfuzzy"
      },
      {
        "rshares": 74615731,
        "voter": "evgenyche"
      },
      {
        "rshares": 69662169,
        "voter": "confucius"
      },
      {
        "rshares": 70633121,
        "voter": "stevescriber"
      },
      {
        "rshares": 4179438198,
        "voter": "bledarus"
      },
      {
        "rshares": 53688127,
        "voter": "loli"
      },
      {
        "rshares": 93744050986,
        "voter": "miacats"
      },
      {
        "rshares": 53661976,
        "voter": "jarvis"
      },
      {
        "rshares": 77220767,
        "voter": "razberrijam"
      },
      {
        "rshares": 6669342810,
        "voter": "rubenalexander"
      },
      {
        "rshares": 51899170,
        "voter": "fortuner"
      },
      {
        "rshares": 9443278113,
        "voter": "pjheinz"
      },
      {
        "rshares": 3054149279,
        "voter": "virtualgrowth"
      },
      {
        "rshares": 84068339484,
        "voter": "neptun"
      },
      {
        "rshares": 11375408076,
        "voter": "gvargas123"
      },
      {
        "rshares": 50698107,
        "voter": "johnbyrd"
      },
      {
        "rshares": 50682252,
        "voter": "thomasaustin"
      },
      {
        "rshares": 50680459,
        "voter": "thermor"
      },
      {
        "rshares": 50691211,
        "voter": "ficholl"
      },
      {
        "rshares": 50673817,
        "voter": "widell"
      },
      {
        "rshares": 50311250,
        "voter": "revelbrooks"
      },
      {
        "rshares": 25048684602,
        "voter": "laonie10"
      },
      {
        "rshares": 91779459,
        "voter": "lasseehlers"
      },
      {
        "rshares": 377542979,
        "voter": "mrlogic"
      },
      {
        "rshares": 2982178419,
        "voter": "netaterra"
      },
      {
        "rshares": 54361669,
        "voter": "bitchplease"
      },
      {
        "rshares": 78411391,
        "voter": "joelbow"
      },
      {
        "rshares": 5764641330,
        "voter": "hilarski"
      },
      {
        "rshares": 3133328104,
        "voter": "imag1ne"
      },
      {
        "rshares": 2080442949,
        "voter": "shadowspub"
      },
      {
        "rshares": 80071335,
        "voter": "justinschwalm"
      },
      {
        "rshares": 50416427,
        "voter": "curpose"
      },
      {
        "rshares": 17920360614,
        "voter": "takethecannoli"
      },
      {
        "rshares": 1208491149,
        "voter": "lenar"
      },
      {
        "rshares": 1699015883,
        "voter": "runridefly"
      },
      {
        "rshares": 88019548,
        "voter": "uziriel"
      },
      {
        "rshares": 2212170971,
        "voter": "steemitguide"
      },
      {
        "rshares": 7470990325,
        "voter": "einsteinpotsdam"
      },
      {
        "rshares": 4592852638,
        "voter": "richardcrill"
      },
      {
        "rshares": 24180906457,
        "voter": "laonie11"
      },
      {
        "rshares": 50588612,
        "voter": "troich"
      },
      {
        "rshares": 3336919086,
        "voter": "xanoxt"
      },
      {
        "rshares": 1660688801,
        "voter": "davidjkelley"
      },
      {
        "rshares": 50593879,
        "voter": "crion"
      },
      {
        "rshares": 50271139,
        "voter": "hitherise"
      },
      {
        "rshares": 50262756,
        "voter": "wiss"
      },
      {
        "rshares": 42587324218,
        "voter": "sponge-bob"
      },
      {
        "rshares": 4656328113,
        "voter": "l0k1"
      },
      {
        "rshares": 15560806947,
        "voter": "digital-wisdom"
      },
      {
        "rshares": 3708768210,
        "voter": "ethical-ai"
      },
      {
        "rshares": 51939094,
        "voter": "freesteem"
      },
      {
        "rshares": 51061585,
        "voter": "jamespro"
      },
      {
        "rshares": 51033798,
        "voter": "stroully"
      },
      {
        "rshares": 3079499780,
        "voter": "maryfromsochi"
      },
      {
        "rshares": 6827381497,
        "voter": "jwaser"
      },
      {
        "rshares": 50712038,
        "voter": "thadm"
      },
      {
        "rshares": 50710305,
        "voter": "prof"
      },
      {
        "rshares": 50370757,
        "voter": "yorsens"
      },
      {
        "rshares": 212837202380,
        "voter": "asksisk"
      },
      {
        "rshares": 50065875,
        "voter": "bane"
      },
      {
        "rshares": 50059754,
        "voter": "vive"
      },
      {
        "rshares": 50054445,
        "voter": "coad"
      },
      {
        "rshares": 26903512125,
        "voter": "dubi"
      },
      {
        "rshares": 2674022812,
        "voter": "bwaser"
      },
      {
        "rshares": 50840303,
        "voter": "sofa"
      },
      {
        "rshares": 52910800,
        "voter": "roadhog"
      },
      {
        "rshares": 2201645172,
        "voter": "alina1"
      },
      {
        "rshares": 659649765,
        "voter": "ct-gurus"
      },
      {
        "rshares": 54622489,
        "voter": "medafi"
      },
      {
        "rshares": 7708395185,
        "voter": "mariandavp"
      },
      {
        "rshares": 63519655246,
        "voter": "tracemayer"
      },
      {
        "rshares": 43440714161,
        "voter": "brains"
      },
      {
        "rshares": 51278775,
        "voter": "post-successful"
      },
      {
        "rshares": 50933404,
        "voter": "ailo"
      },
      {
        "rshares": 5419706802,
        "voter": "burnin"
      },
      {
        "rshares": 5749962751,
        "voter": "chick1"
      },
      {
        "rshares": 3613469334,
        "voter": "funnyman"
      },
      {
        "rshares": 2188505650,
        "voter": "rigaronib"
      },
      {
        "rshares": 50584036,
        "voter": "aoki"
      },
      {
        "rshares": 50528809,
        "voter": "cwb"
      },
      {
        "rshares": 61548157,
        "voter": "freebornangel"
      },
      {
        "rshares": 474509334,
        "voter": "anomaly"
      },
      {
        "rshares": 27666667825,
        "voter": "tarekadam"
      },
      {
        "rshares": 2400009033,
        "voter": "ellepdub"
      },
      {
        "rshares": 51890765,
        "voter": "gregorygarcia"
      },
      {
        "rshares": 61292139,
        "voter": "inarix03"
      },
      {
        "rshares": 286977519,
        "voter": "ola1"
      },
      {
        "rshares": 12084353453,
        "voter": "herpetologyguy"
      },
      {
        "rshares": 50441122,
        "voter": "eavy"
      },
      {
        "rshares": 50454901,
        "voter": "roto"
      },
      {
        "rshares": 53055896,
        "voter": "drac59"
      },
      {
        "rshares": 4814064056,
        "voter": "morgan.waser"
      },
      {
        "rshares": 50602980,
        "voter": "cfisher"
      },
      {
        "rshares": 56301561,
        "voter": "stringer"
      },
      {
        "rshares": 50235850,
        "voter": "billkappa442"
      },
      {
        "rshares": 1491995147,
        "voter": "robotev"
      },
      {
        "rshares": 61035542,
        "voter": "teo"
      },
      {
        "rshares": 4984135374,
        "voter": "donchate"
      },
      {
        "rshares": 50708837,
        "voter": "ardly"
      },
      {
        "rshares": 50704078,
        "voter": "yotoh"
      },
      {
        "rshares": 827252367,
        "voter": "bapparabi"
      },
      {
        "rshares": 50372583,
        "voter": "carre"
      },
      {
        "rshares": 50349676,
        "voter": "albertheijn"
      },
      {
        "rshares": 3687702565,
        "voter": "strong-ai"
      },
      {
        "rshares": 52329350,
        "voter": "ninjapainter"
      },
      {
        "rshares": 728357348,
        "voter": "ziogio"
      },
      {
        "rshares": 69589512,
        "voter": "igtes"
      },
      {
        "rshares": 141679752,
        "voter": "buffett"
      },
      {
        "rshares": 197326430,
        "voter": "sjamayee"
      },
      {
        "rshares": 121259976,
        "voter": "comeup"
      },
      {
        "rshares": 1630339077,
        "voter": "rusteemitblog"
      },
      {
        "rshares": 155476058,
        "voter": "ndea30"
      },
      {
        "rshares": 155469045,
        "voter": "domenico"
      },
      {
        "rshares": 444421238,
        "voter": "witchcraftblog"
      },
      {
        "rshares": 158523226,
        "voter": "shadowproject"
      },
      {
        "rshares": 157805871,
        "voter": "serena199"
      },
      {
        "rshares": 154619387,
        "voter": "gia7"
      },
      {
        "rshares": 1994519972,
        "voter": "dresden"
      },
      {
        "rshares": 201362779,
        "voter": "mgibson"
      },
      {
        "rshares": 154157014,
        "voter": "richie4"
      },
      {
        "rshares": 157241455,
        "voter": "coraline88"
      },
      {
        "rshares": 157176058,
        "voter": "cybergirls"
      },
      {
        "rshares": 153838109,
        "voter": "harlen"
      },
      {
        "rshares": 152057481,
        "voter": "food-creator"
      },
      {
        "rshares": 156939548,
        "voter": "yanuel"
      },
      {
        "rshares": 153751482,
        "voter": "daritza"
      },
      {
        "rshares": 156847954,
        "voter": "correct"
      },
      {
        "rshares": 156411729,
        "voter": "blender"
      },
      {
        "rshares": 159506164,
        "voter": "greenpeace"
      },
      {
        "rshares": 156299377,
        "voter": "tipsandtricks"
      },
      {
        "rshares": 156261069,
        "voter": "ibm1000"
      },
      {
        "rshares": 159352476,
        "voter": "panic"
      },
      {
        "rshares": 156023422,
        "voter": "reef"
      },
      {
        "rshares": 159025535,
        "voter": "xtreme"
      },
      {
        "rshares": 155619923,
        "voter": "steemwallet"
      },
      {
        "rshares": 81075259,
        "voter": "dealzgal"
      },
      {
        "rshares": 89654003,
        "voter": "storage"
      },
      {
        "rshares": 151413472,
        "voter": "steemdesigner"
      },
      {
        "rshares": 148077602,
        "voter": "dougkarr"
      },
      {
        "rshares": 73844343,
        "voter": "blackmarket"
      },
      {
        "rshares": 79990132,
        "voter": "gifts"
      },
      {
        "rshares": 171078424,
        "voter": "pathtomydream"
      },
      {
        "rshares": 112446078,
        "voter": "paulocouto"
      },
      {
        "rshares": 151525581,
        "voter": "kevinfoesenek"
      },
      {
        "rshares": 144957585,
        "voter": "sawgunner13"
      },
      {
        "rshares": 1593664040,
        "voter": "steemlift"
      },
      {
        "rshares": 147818170,
        "voter": "dirlei.sdias"
      },
      {
        "rshares": 135637537,
        "voter": "toddemaher1"
      }
    ],
    "author": "cass",
    "author_payout_value": "0.000 HBD",
    "author_reputation": 69.25,
    "beneficiaries": [],
    "blacklists": [],
    "body": "![b99cea99b79d334be4815a56a64ff4f1.png](https://www.steemimg.com/images/2016/09/14/b99cea99b79d334be4815a56a64ff4f1.png)\n\n---\n\nI want to follow up on @roelandp announcement post about the steemfest.com at November 11/12/13.\n\nSome of u have noticed i'm assisting him on the preparation for the Steemfest Event in November.\nI did meet @roelandp in Amsterdam last week and was directly impressed by his passion and energy.\nSo i decided to FULL support him towards the Nov11.\n\n\n### All gotten SBD rewards will contributed towards @steemfest project \n\nSo u will have a better possibility to get  a preview on how the posters will look later on \"LIVE\".\nHere we go, i was trying to make a nice small mockup collection to this cause.\n\nENJOY\n[![3a7db045b911ea8785a1e9c37c7e75a7.jpg](https://www.steemimg.com/images/2016/09/14/3a7db045b911ea8785a1e9c37c7e75a7.jpg)](https://www.steemimg.com/image/1SL5m)\n\n[![9a8268f34903dbcf5fbe06559ce7bfc6.png](https://www.steemimg.com/images/2016/09/14/9a8268f34903dbcf5fbe06559ce7bfc6.png)](https://www.steemimg.com/image/1V8e6)\n[![8f8de740d802a0bf228bd833657b1f26.jpg](https://www.steemimg.com/images/2016/09/14/8f8de740d802a0bf228bd833657b1f26.jpg)](https://www.steemimg.com/image/1SnTu)\n[![a317ccbeec3112a5d60f6f2afdf8255a.jpg](https://www.steemimg.com/images/2016/09/14/a317ccbeec3112a5d60f6f2afdf8255a.jpg)](https://www.steemimg.com/image/1SPji)\n[![bd3b5b4c18cda4d063cabc03443cb6a8.jpg](https://www.steemimg.com/images/2016/09/14/bd3b5b4c18cda4d063cabc03443cb6a8.jpg)](https://www.steemimg.com/image/1SCWB)\n[![4d16cb792150dbd9c7cca2e9eea45f9d.jpg](https://www.steemimg.com/images/2016/09/14/4d16cb792150dbd9c7cca2e9eea45f9d.jpg)](https://www.steemimg.com/image/1S62K)\n[![25943765543ef057543db7f2d5b65e28.jpg](https://www.steemimg.com/images/2016/09/14/25943765543ef057543db7f2d5b65e28.jpg)](https://www.steemimg.com/image/1SwCI)\n[![a1d1fc9af366abae551a9b443ac0441f.jpg](https://www.steemimg.com/images/2016/09/14/a1d1fc9af366abae551a9b443ac0441f.jpg)](https://www.steemimg.com/image/1Sq3h)",
    "category": "steemfest",
    "children": 17,
    "created": "2016-09-14T14:02:39",
    "curator_payout_value": "0.000 HBD",
    "depth": 0,
    "is_paidout": false,
    "json_metadata": {
      "image": [
        "https://www.steemimg.com/images/2016/09/14/b99cea99b79d334be4815a56a64ff4f1.png",
        "https://www.steemimg.com/images/2016/09/14/3a7db045b911ea8785a1e9c37c7e75a7.jpg",
        "https://www.steemimg.com/images/2016/09/14/9a8268f34903dbcf5fbe06559ce7bfc6.png",
        "https://www.steemimg.com/images/2016/09/14/8f8de740d802a0bf228bd833657b1f26.jpg",
        "https://www.steemimg.com/images/2016/09/14/a317ccbeec3112a5d60f6f2afdf8255a.jpg",
        "https://www.steemimg.com/images/2016/09/14/bd3b5b4c18cda4d063cabc03443cb6a8.jpg",
        "https://www.steemimg.com/images/2016/09/14/4d16cb792150dbd9c7cca2e9eea45f9d.jpg",
        "https://www.steemimg.com/images/2016/09/14/25943765543ef057543db7f2d5b65e28.jpg",
        "https://www.steemimg.com/images/2016/09/14/a1d1fc9af366abae551a9b443ac0441f.jpg"
      ],
      "links": [
        "https://www.steemimg.com/image/1SL5m",
        "https://www.steemimg.com/image/1V8e6",
        "https://www.steemimg.com/image/1SnTu",
        "https://www.steemimg.com/image/1SPji",
        "https://www.steemimg.com/image/1SCWB",
        "https://www.steemimg.com/image/1S62K",
        "https://www.steemimg.com/image/1SwCI",
        "https://www.steemimg.com/image/1Sq3h"
      ],
      "tags": [
        "steemfest",
        "design",
        "poster",
        "amsterdam"
      ],
      "users": [
        "roelandp",
        "steemfest"
      ]
    },
    "max_accepted_payout": "1000000.000 HBD",
    "net_rshares": 169985783269298,
    "payout": 1618.329,
    "payout_at": "2016-09-21T14:02:39",
    "pending_payout_value": "1618.329 HBD",
    "percent_hbd": 10000,
    "permlink": "steemfest-follow-up-poster-designs-sbd-rewards-will-donated-to-the-project",
    "post_id": 1243379,
    "promoted": "0.000 HBD",
    "replies": [],
    "stats": {
      "flag_weight": 0.0,
      "gray": false,
      "hide": false,
      "total_votes": 386
    },
    "title": "[Steemfest] Follow up - Poster designs! SBD rewards will donated to the project!",
    "updated": "2016-09-14T14:02:39",
    "url": "/steemfest/@cass/steemfest-follow-up-poster-designs-sbd-rewards-will-donated-to-the-project"
  }
]
