[
  {
    "active_votes": [
      {
        "rshares": 231809639013,
        "voter": "anonymous"
      },
      {
        "rshares": 40859141206977,
        "voter": "blocktrades"
      },
      {
        "rshares": 1912118346075,
        "voter": "badassmother"
      },
      {
        "rshares": 7113882084470,
        "voter": "xeldal"
      },
      {
        "rshares": 5763993012820,
        "voter": "enki"
      },
      {
        "rshares": 1304415071462,
        "voter": "rossco99"
      },
      {
        "rshares": 1577462576089,
        "voter": "joseph"
      },
      {
        "rshares": 651993277150,
        "voter": "masteryoda"
      },
      {
        "rshares": 446958795092,
        "voter": "boatymcboatface"
      },
      {
        "rshares": 9168101098,
        "voter": "idol"
      },
      {
        "rshares": 23383993964,
        "voter": "wpalczynski"
      },
      {
        "rshares": 5044693986,
        "voter": "sakr"
      },
      {
        "rshares": 1578030666,
        "voter": "jocelyn"
      },
      {
        "rshares": 14818192446,
        "voter": "gregory-f"
      },
      {
        "rshares": 74914583876,
        "voter": "eeks"
      },
      {
        "rshares": 1007941175,
        "voter": "fkn"
      },
      {
        "rshares": 8867224532,
        "voter": "james-show"
      },
      {
        "rshares": 1324875721,
        "voter": "elishagh1"
      },
      {
        "rshares": 7802860274,
        "voter": "richman"
      },
      {
        "rshares": 24193131603,
        "voter": "acidyo"
      },
      {
        "rshares": 313691550,
        "voter": "coar"
      },
      {
        "rshares": 1061234978,
        "voter": "murh"
      },
      {
        "rshares": 2057413439,
        "voter": "error"
      },
      {
        "rshares": 59950022330,
        "voter": "theshell"
      },
      {
        "rshares": 400880323222,
        "voter": "taoteh1221"
      },
      {
        "rshares": 410517349,
        "voter": "applecrisp"
      },
      {
        "rshares": 280737930617,
        "voter": "trogdor"
      },
      {
        "rshares": 5287820211,
        "voter": "tee-em"
      },
      {
        "rshares": 121383360964,
        "voter": "geoffrey"
      },
      {
        "rshares": 10684548905,
        "voter": "kimziv"
      },
      {
        "rshares": 30279968088,
        "voter": "acassity"
      },
      {
        "rshares": 45145254362,
        "voter": "venuspcs"
      },
      {
        "rshares": 7264907621,
        "voter": "getssidetracked"
      },
      {
        "rshares": 1414199127,
        "voter": "trees"
      },
      {
        "rshares": 197179742,
        "voter": "strawhat"
      },
      {
        "rshares": 1159208963,
        "voter": "steemswede"
      },
      {
        "rshares": 691425107,
        "voter": "cryptochannel"
      },
      {
        "rshares": 894044199,
        "voter": "endgame"
      },
      {
        "rshares": 4920266872,
        "voter": "furion"
      },
      {
        "rshares": 2834923420,
        "voter": "steem1653"
      },
      {
        "rshares": 25221166135,
        "voter": "steemit-life"
      },
      {
        "rshares": 13516878845,
        "voter": "sitaru"
      },
      {
        "rshares": 80777327,
        "voter": "snowden"
      },
      {
        "rshares": 14167503457,
        "voter": "aaseb"
      },
      {
        "rshares": 4209522316,
        "voter": "karen13"
      },
      {
        "rshares": 243749878708,
        "voter": "nabilov"
      },
      {
        "rshares": 677892916,
        "voter": "luisucv34"
      },
      {
        "rshares": 34761252099,
        "voter": "creemej"
      },
      {
        "rshares": 233065746,
        "voter": "poseidon"
      },
      {
        "rshares": 82781233416,
        "voter": "thylbom"
      },
      {
        "rshares": 32543319555,
        "voter": "deanliu"
      },
      {
        "rshares": 5428442637,
        "voter": "rainchen"
      },
      {
        "rshares": 204617448258,
        "voter": "jl777"
      },
      {
        "rshares": 103514864,
        "voter": "pokemon"
      },
      {
        "rshares": 817413671,
        "voter": "positive"
      },
      {
        "rshares": 6361356981,
        "voter": "chloetaylor"
      },
      {
        "rshares": 17267278949,
        "voter": "proto"
      },
      {
        "rshares": 1805641835,
        "voter": "sisterholics"
      },
      {
        "rshares": 61286903,
        "voter": "reported"
      },
      {
        "rshares": 8734133724,
        "voter": "taker"
      },
      {
        "rshares": 57607550,
        "voter": "krushing"
      },
      {
        "rshares": 63852353198,
        "voter": "laonie"
      },
      {
        "rshares": 24561889230,
        "voter": "laoyao"
      },
      {
        "rshares": 1332427399,
        "voter": "myfirst"
      },
      {
        "rshares": 12961212091,
        "voter": "somebody"
      },
      {
        "rshares": 484610059,
        "voter": "flysaga"
      },
      {
        "rshares": 2084691327,
        "voter": "gmurph"
      },
      {
        "rshares": 513517114,
        "voter": "minnowsunited"
      },
      {
        "rshares": 2863236010,
        "voter": "midnightoil"
      },
      {
        "rshares": 56653113,
        "voter": "whatyouganjado"
      },
      {
        "rshares": 3323984357,
        "voter": "kurtbeil"
      },
      {
        "rshares": 7161280807,
        "voter": "xiaohui"
      },
      {
        "rshares": 323406893,
        "voter": "elfkitchen"
      },
      {
        "rshares": 5855543935,
        "voter": "oflyhigh"
      },
      {
        "rshares": 63373184,
        "voter": "makaveli"
      },
      {
        "rshares": 223891286,
        "voter": "xiaokongcom"
      },
      {
        "rshares": 1780319109,
        "voter": "future24"
      },
      {
        "rshares": 7709317035,
        "voter": "thebotkiller"
      },
      {
        "rshares": 451324143,
        "voter": "xianjun"
      },
      {
        "rshares": 647921440,
        "voter": "herbertmueller"
      },
      {
        "rshares": 56109399,
        "voter": "alexbones"
      },
      {
        "rshares": 2022625104,
        "voter": "chinadaily"
      },
      {
        "rshares": 90172824082,
        "voter": "serejandmyself"
      },
      {
        "rshares": 163783062,
        "voter": "nang1"
      },
      {
        "rshares": 2982676167,
        "voter": "netaterra"
      },
      {
        "rshares": 52319145,
        "voter": "dobbydaba"
      },
      {
        "rshares": 22559404087,
        "voter": "andrewawerdna"
      },
      {
        "rshares": 77466140,
        "voter": "ozertayiz"
      },
      {
        "rshares": 4633082667,
        "voter": "steemitpatina"
      },
      {
        "rshares": 55922029,
        "voter": "salebored"
      },
      {
        "rshares": 2196862373,
        "voter": "runridefly"
      },
      {
        "rshares": 115288806334,
        "voter": "shenanigator"
      },
      {
        "rshares": 1709331623,
        "voter": "funkywanderer"
      },
      {
        "rshares": 4594182561,
        "voter": "richardcrill"
      },
      {
        "rshares": 79155262951,
        "voter": "markrmorrisjr"
      },
      {
        "rshares": 55917888,
        "voter": "bitdrone"
      },
      {
        "rshares": 55908853,
        "voter": "sleepcult"
      },
      {
        "rshares": 27677639861,
        "voter": "sponge-bob"
      },
      {
        "rshares": 12031039232,
        "voter": "doitvoluntarily"
      },
      {
        "rshares": 67696453939,
        "voter": "thecyclist"
      },
      {
        "rshares": 646493719,
        "voter": "kev7000"
      },
      {
        "rshares": 55266473,
        "voter": "analyzethis"
      },
      {
        "rshares": 27671309914,
        "voter": "brains"
      },
      {
        "rshares": 5866415576,
        "voter": "burnin"
      },
      {
        "rshares": 1352324852,
        "voter": "bitcoinparadise"
      },
      {
        "rshares": 4235074146,
        "voter": "funnyman"
      },
      {
        "rshares": 50193769,
        "voter": "f1111111"
      },
      {
        "rshares": 339287005,
        "voter": "anomaly"
      },
      {
        "rshares": 63405661,
        "voter": "inarix03"
      },
      {
        "rshares": 98545946,
        "voter": "ola1"
      },
      {
        "rshares": 4382226038,
        "voter": "michelle.gent"
      },
      {
        "rshares": 66935282,
        "voter": "mari5555na"
      },
      {
        "rshares": 31683945302,
        "voter": "goldmatters"
      },
      {
        "rshares": 155180811,
        "voter": "majes"
      },
      {
        "rshares": 71727340,
        "voter": "dealzgal"
      },
      {
        "rshares": 68013381,
        "voter": "storage"
      },
      {
        "rshares": 58460105,
        "voter": "blackmarket"
      },
      {
        "rshares": 61530871,
        "voter": "gifts"
      },
      {
        "rshares": 96643251,
        "voter": "expat"
      },
      {
        "rshares": 129609202,
        "voter": "toddemaher1"
      }
    ],
    "author": "markrmorrisjr",
    "author_payout_value": "0.000 HBD",
    "author_reputation": 66.26,
    "beneficiaries": [],
    "blacklists": [],
    "body": "## In this episode, Joshua Claiborne stands trial for violation of the First Law ##\n\n**\u201cWhoa, whoa, whoa!\u201d Phil screamed, \u201cWhat the hell dude?\u201d**\n\n*The Reaper crumpled to the floor, arms flailing as Joshua rode it to the ground. Finally, the hands found the catches at either side of the helmet and popped it off. A black, shaggy head of hair emerged.* \n\n***If you've missed episodes, [visit my blog](https://steemit.com/@markrmorrisjr) to catch up. Be sure to follow  me for updates in your feed!***\n\n\u201cEmil?\u201d Stella said, \u201cMeet Joshua. Are you okay?\u201d\n\nEmil, the Reaper suit\u2019s operator laughed, \u201cYeah, I\u2019m fine, but that was awesome! Can you teach us that?\u201d\n\n\u201cMan! Now I have to rebuild this helmet,\u201d Phil held up a small remote. \u201cAll I had to do was push this button,\u201d he said, pressing it, as the suit powered down. \u201cWhat did you do?\u201d\n\n\u201cThe \u2018nerve\u2019 bundle that controls these things motor skills is on the very top of the skull, under a thin piece of sheet metal, puncture it, it collapses. You didn\u2019t know that?\u201d Joshua said. \n\n\u201cWell, it appears we may need you more than you need us,\u201d Stella said. \u201cSo, just say the word and we\u2019ll get you where you need to be. Meanwhile, my team will be working on your son\u2019s location.\u201d\n\nJoshua dropped the letter opener and walked to the stairs, \u201cFine, whatever you need to collect from my meeting, get it. Now, who\u2019s driving?\u201d With that, he walked up the stairs, he had no more time to waste. \n\n**The Mapleton courthouse sat on a hill in the center of the town, overlooking the area around for miles.** \n\n*Joshua insisted that the team Stella had sent stop 5 miles out and allow him to ride in on the electric trike alone, while they observed the meeting from a distance.* \n\nHe carried the tiny remote in his shirt pocket, a gift from Phil. \u201cThat\u2019s my only prototype, so don\u2019t lose it,\u201d he\u2019d said. \n\n![enter image description here](https://s12.postimg.org/siuqjuiz1/Untitled_36.jpg)\n\nFrom the end of Main Street, looking up toward the courthouse, Joshua counted at least six reapers. He wondered how far the signal from the remote would travel. \n\nHe thought about pressing it now, disarming his enemy, then walking in, but he\u2019d still have to deal with the six drivers, if they managed to escape the suits. \n\nBesides, Stella seemed to think there was some secret they were going to give away, although Joshua couldn\u2019t imagine it. \n\n*He checked his watch, ten minutes until his scheduled time and while he knew better than to be late, he had no intention of giving the Consensus one more second than he had to.* \n\nThe trike spun it\u2019s tires on a patch of loose gravel as he started back up. He decided a quick approach was best. He charged up the hill, jumping the \u201cMayor\u2019s\u201d parking barrier and rolling up to the foot of the front stairs, he cranked the accelerator and the trike rose up on its back wheel, popping the two front wheels, over the bottom step. \n\nThe machine had more than enough power to climb the steps and Joshua skidded to a stop outside the courthouse door. He stopped and turned back toward the town, the six Reapers swarming toward him up the steps. He powered down, swung his leg up and over the bike and opened the door. \n\n**The Reapers followed him into the hall as he approached the court room.** \n\nThe Magistrate sat behind the judge\u2019s bench and Joshua couldn\u2019t help but smirk at the insult to the very concept of actual justice that this thing represented. \n\n\u201cJoshua Claiborne, appearing as requested,\u201d Joshua said, standing directly in front of the Magistrate. \n\n![enter image description here](https://s12.postimg.org/6h4lvyh7x/judge.jpg)\n\n> \u201cYes, Mr. Claiborne, have a seat,\u201d A woman\u2019s face, projected on the face shield of the Magistrate said.\n\n\u201cI\u2019d rather stand,\u201d he said. \n\n> \u201cSuit yourself, may we have the room, please?\u201d she said, looking toward the reapers that had entered the back doors of the courtroom.\n\nThey left quietly. \n\n> \u201cMr. Claiborne, you\u2019re charged with violation of the first law, in so\n> much as you have encouraged and joined in the activity of settling\n> outside of Consensus approved areas, acted outside of the legal\n> jurisdiction of the council and on more than  one occasion, acted\n> against the best interest of Consensus, including attacking duly\n> authorized Magistrates in the course of their legally binding duties,\n> how do you plead?\u201d\n\n**The woman looked at Joshua, peering over a pair of short, square spectacles, like some sort of outdated stereotype.** \n\n\u201cNot guilty, by reason of illegitimacy of the currently established government and its ensigns. I am not, nor do I choose to become, subject to your law. I stand judged as innocent by natural law, insomuch as I have not caused harm to another human in aggression, damaged or stolen property, nor unnecessarily restricted the liberty of any other person. I recognize no other responsibility to my fellow man,\u201d Joshua said calmly. \n\n> \u201cBe that as it may, Mr. Claiborne, we are not here under the auspices of \u201cnatural law\u201d but rather, under the Council mandated authority of the Consensus and its Magisterial Ministry, of which I am a part and I assure you, you are subject to,\u201d\n\nThe woman intoned, her expression one of almost sheer boredom.\n\n> \u201cCourt finds the defendant guilty and remands the subject for immediate judicial murder.\u201d\n\nThe magistrate raised its arm and brought it down on the bench with a solid thud, that echoed through the court. Joshua felt his heart sink as the Reapers reentered the court and moved up to surround him. \n\n## Look for the upvote button below. If you liked the post, upvote and share! If you're not on Steemit yet, why not? You get free money for signing up! ##",
    "category": "story",
    "children": 2,
    "created": "2016-09-15T16:54:06",
    "curator_payout_value": "0.000 HBD",
    "depth": 0,
    "is_paidout": false,
    "json_metadata": {
      "image": [
        "https://s12.postimg.org/siuqjuiz1/Untitled_36.jpg",
        "https://s12.postimg.org/6h4lvyh7x/judge.jpg"
      ],
      "links": [
        "https://steemit.com/@markrmorrisjr"
      ],
      "tags": [
        "story",
        "fiction",
        "anarchy",
        "life",
        "minnowsunited"
      ]
    },
    "max_accepted_payout": "1000000.000 HBD",
    "net_rshares": 62355283653318,
    "payout": 226.397,
    "payout_at": "2016-09-22T16:54:06",
    "pending_payout_value": "226.397 HBD",
    "percent_hbd": 10000,
    "permlink": "original-fiction-anarchist-s-almanac-episode-15",
    "post_id": 1256113,
    "promoted": "0.000 HBD",
    "replies": [],
    "stats": {
      "flag_weight": 0.0,
      "gray": false,
      "hide": false,
      "total_votes": 120
    },
    "title": "Original Fiction: Anarchist's Almanac, Episode 15",
    "updated": "2016-09-15T16:54:06",
    "url": "/story/@markrmorrisjr/original-fiction-anarchist-s-almanac-episode-15"
  },
  {
    "active_votes": [
      {
        "rshares": 504201493814,
        "voter": "barrie"
      },
      {
        "rshares": 31621044834059,
        "voter": "smooth"
      },
      {
        "rshares": 231803784363,
        "voter": "anonymous"
      },
      {
        "rshares": 1992555050222,
        "voter": "apple"
      },
      {
        "rshares": 1912040731624,
        "voter": "badassmother"
      },
      {
        "rshares": 2053103615195,
        "voter": "hr1"
      },
      {
        "rshares": 1304415071462,
        "voter": "rossco99"
      },
      {
        "rshares": 2352777844031,
        "voter": "wang"
      },
      {
        "rshares": 22390337604,
        "voter": "jaewoocho"
      },
      {
        "rshares": 1576668025571,
        "voter": "joseph"
      },
      {
        "rshares": 466113536214,
        "voter": "recursive2"
      },
      {
        "rshares": 452820496964,
        "voter": "recursive3"
      },
      {
        "rshares": 651951614915,
        "voter": "masteryoda"
      },
      {
        "rshares": 3120381242465,
        "voter": "recursive"
      },
      {
        "rshares": 91328598326,
        "voter": "mrs.agsexplorer"
      },
      {
        "rshares": 6959198181,
        "voter": "bingo-0"
      },
      {
        "rshares": 5939784887153,
        "voter": "smooth.witness"
      },
      {
        "rshares": 446272257734,
        "voter": "boatymcboatface"
      },
      {
        "rshares": 9167804100,
        "voter": "idol"
      },
      {
        "rshares": 22448634206,
        "voter": "wpalczynski"
      },
      {
        "rshares": 816380174873,
        "voter": "steemrollin"
      },
      {
        "rshares": 5147541712,
        "voter": "sakr"
      },
      {
        "rshares": 284355351943,
        "voter": "chitty"
      },
      {
        "rshares": 34575031962,
        "voter": "unosuke"
      },
      {
        "rshares": 481762857054,
        "voter": "noaommerrr"
      },
      {
        "rshares": 1578007819,
        "voter": "jocelyn"
      },
      {
        "rshares": 85270098112,
        "voter": "acidsun"
      },
      {
        "rshares": 14692173218,
        "voter": "gregory-f"
      },
      {
        "rshares": 9604795718,
        "voter": "gregory60"
      },
      {
        "rshares": 18382400031,
        "voter": "jademont"
      },
      {
        "rshares": 1294872282183,
        "voter": "gavvet"
      },
      {
        "rshares": 89897365397,
        "voter": "eeks"
      },
      {
        "rshares": 1511911763,
        "voter": "fkn"
      },
      {
        "rshares": 122160437,
        "voter": "paco-steem"
      },
      {
        "rshares": 1471653540,
        "voter": "spaninv"
      },
      {
        "rshares": 1987313581,
        "voter": "elishagh1"
      },
      {
        "rshares": 8669811688,
        "voter": "richman"
      },
      {
        "rshares": 584222819564,
        "voter": "nanzo-scoop"
      },
      {
        "rshares": 28116199940,
        "voter": "acidyo"
      },
      {
        "rshares": 9857648383,
        "voter": "kefkius"
      },
      {
        "rshares": 177403714671,
        "voter": "mummyimperfect"
      },
      {
        "rshares": 313689446,
        "voter": "coar"
      },
      {
        "rshares": 106631248984,
        "voter": "asch"
      },
      {
        "rshares": 1061230469,
        "voter": "murh"
      },
      {
        "rshares": 936957207,
        "voter": "slickwilly"
      },
      {
        "rshares": 3187804154,
        "voter": "cryptofunk"
      },
      {
        "rshares": 579494558,
        "voter": "kodi"
      },
      {
        "rshares": 2057367746,
        "voter": "error"
      },
      {
        "rshares": 11847990151,
        "voter": "andu"
      },
      {
        "rshares": 962069747008,
        "voter": "cyber"
      },
      {
        "rshares": 61712174604,
        "voter": "theshell"
      },
      {
        "rshares": 49577333486,
        "voter": "ak2020"
      },
      {
        "rshares": 24894446745,
        "voter": "paul-labossiere"
      },
      {
        "rshares": 400880323222,
        "voter": "taoteh1221"
      },
      {
        "rshares": 95314034,
        "voter": "stiletto"
      },
      {
        "rshares": 56688940478,
        "voter": "juanmiguelsalas"
      },
      {
        "rshares": 33781859925,
        "voter": "ratel"
      },
      {
        "rshares": 15787327103,
        "voter": "zakharya"
      },
      {
        "rshares": 280717515045,
        "voter": "trogdor"
      },
      {
        "rshares": 5287383826,
        "voter": "tee-em"
      },
      {
        "rshares": 121383360964,
        "voter": "geoffrey"
      },
      {
        "rshares": 42737137488,
        "voter": "kimziv"
      },
      {
        "rshares": 74286777275,
        "voter": "emily-cook"
      },
      {
        "rshares": 2187597574,
        "voter": "superfreek"
      },
      {
        "rshares": 49806164408,
        "voter": "isteemit"
      },
      {
        "rshares": 4091429870,
        "voter": "spikykevin"
      },
      {
        "rshares": 52090524796,
        "voter": "venuspcs"
      },
      {
        "rshares": 3989473346,
        "voter": "michaellamden68"
      },
      {
        "rshares": 19974764064,
        "voter": "thebatchman"
      },
      {
        "rshares": 158997516614,
        "voter": "asmolokalo"
      },
      {
        "rshares": 8603166550,
        "voter": "getssidetracked"
      },
      {
        "rshares": 5165418905,
        "voter": "riscadox"
      },
      {
        "rshares": 17538291453,
        "voter": "konstantin"
      },
      {
        "rshares": 261755903,
        "voter": "mstang83"
      },
      {
        "rshares": 39099397056,
        "voter": "hitmeasap"
      },
      {
        "rshares": 252977703,
        "voter": "nexus1"
      },
      {
        "rshares": 1515818756,
        "voter": "burmik123"
      },
      {
        "rshares": 280713275,
        "voter": "ksenia"
      },
      {
        "rshares": 1649898982,
        "voter": "trees"
      },
      {
        "rshares": 231686197,
        "voter": "strawhat"
      },
      {
        "rshares": 219133173153,
        "voter": "domino"
      },
      {
        "rshares": 251687687,
        "voter": "playtime"
      },
      {
        "rshares": 404548352,
        "voter": "whitepeach"
      },
      {
        "rshares": 7380400309,
        "voter": "furion"
      },
      {
        "rshares": 6462652657,
        "voter": "owdy"
      },
      {
        "rshares": 1256448483,
        "voter": "dicov"
      },
      {
        "rshares": 2936170685,
        "voter": "steem1653"
      },
      {
        "rshares": 136318424,
        "voter": "cynetyc"
      },
      {
        "rshares": 18770538147,
        "voter": "sebastien"
      },
      {
        "rshares": 13787216422,
        "voter": "sitaru"
      },
      {
        "rshares": 80777327,
        "voter": "snowden"
      },
      {
        "rshares": 14167053756,
        "voter": "aaseb"
      },
      {
        "rshares": 4209522316,
        "voter": "karen13"
      },
      {
        "rshares": 10646413479,
        "voter": "deviedev"
      },
      {
        "rshares": 266599021635,
        "voter": "nabilov"
      },
      {
        "rshares": 2286950597,
        "voter": "dmacshady"
      },
      {
        "rshares": 726313838,
        "voter": "luisucv34"
      },
      {
        "rshares": 8811980236,
        "voter": "herverisson"
      },
      {
        "rshares": 53424827264,
        "voter": "streetstyle"
      },
      {
        "rshares": 46856213520,
        "voter": "milestone"
      },
      {
        "rshares": 3801182358,
        "voter": "maximkichev"
      },
      {
        "rshares": 15070465231,
        "voter": "nippel66"
      },
      {
        "rshares": 167302364294,
        "voter": "blueorgy"
      },
      {
        "rshares": 12849414672,
        "voter": "benjiberigan"
      },
      {
        "rshares": 932248554,
        "voter": "poseidon"
      },
      {
        "rshares": 19717588129,
        "voter": "mustafaomar"
      },
      {
        "rshares": 3506039536,
        "voter": "simon.braki.love"
      },
      {
        "rshares": 82781233416,
        "voter": "thylbom"
      },
      {
        "rshares": 32542976852,
        "voter": "deanliu"
      },
      {
        "rshares": 5609548617,
        "voter": "sharker"
      },
      {
        "rshares": 541016983,
        "voter": "qonq99"
      },
      {
        "rshares": 204615752038,
        "voter": "jl777"
      },
      {
        "rshares": 119983138,
        "voter": "pokemon"
      },
      {
        "rshares": 1226120506,
        "voter": "positive"
      },
      {
        "rshares": 6939662161,
        "voter": "chloetaylor"
      },
      {
        "rshares": 43638419601,
        "voter": "claudiop63"
      },
      {
        "rshares": 17267164725,
        "voter": "proto"
      },
      {
        "rshares": 7222403812,
        "voter": "sisterholics"
      },
      {
        "rshares": 1444237397,
        "voter": "alex.chien"
      },
      {
        "rshares": 8781903824,
        "voter": "royalmacro"
      },
      {
        "rshares": 1838367968,
        "voter": "remlaps"
      },
      {
        "rshares": 149624601,
        "voter": "steemster1"
      },
      {
        "rshares": 3353872300,
        "voter": "glitterpig"
      },
      {
        "rshares": 8734116589,
        "voter": "taker"
      },
      {
        "rshares": 59219358,
        "voter": "sharon"
      },
      {
        "rshares": 4999720649,
        "voter": "dumar022"
      },
      {
        "rshares": 2077201153,
        "voter": "merej99"
      },
      {
        "rshares": 60342922,
        "voter": "lillianjones"
      },
      {
        "rshares": 255401498427,
        "voter": "laonie"
      },
      {
        "rshares": 24561432292,
        "voter": "laoyao"
      },
      {
        "rshares": 7994421908,
        "voter": "myfirst"
      },
      {
        "rshares": 51843535316,
        "voter": "somebody"
      },
      {
        "rshares": 1938401760,
        "voter": "flysaga"
      },
      {
        "rshares": 2501627790,
        "voter": "gmurph"
      },
      {
        "rshares": 1691577797,
        "voter": "chris.roy"
      },
      {
        "rshares": 1693568633,
        "voter": "stormblaze"
      },
      {
        "rshares": 11452681912,
        "voter": "midnightoil"
      },
      {
        "rshares": 2327843962,
        "voter": "kalimor"
      },
      {
        "rshares": 84246848,
        "voter": "coderg"
      },
      {
        "rshares": 4190252928,
        "voter": "ullikume"
      },
      {
        "rshares": 3323749960,
        "voter": "kurtbeil"
      },
      {
        "rshares": 28644139641,
        "voter": "xiaohui"
      },
      {
        "rshares": 1349109906,
        "voter": "dolov"
      },
      {
        "rshares": 1293603524,
        "voter": "elfkitchen"
      },
      {
        "rshares": 103394476995,
        "voter": "joele"
      },
      {
        "rshares": 5855492830,
        "voter": "oflyhigh"
      },
      {
        "rshares": 895550716,
        "voter": "xiaokongcom"
      },
      {
        "rshares": 2118152083,
        "voter": "natalymaty"
      },
      {
        "rshares": 60819615,
        "voter": "msjennifer"
      },
      {
        "rshares": 55925537,
        "voter": "ciao"
      },
      {
        "rshares": 1156101266,
        "voter": "darthnava"
      },
      {
        "rshares": 3670417888,
        "voter": "villainblack"
      },
      {
        "rshares": 8410164039,
        "voter": "thebotkiller"
      },
      {
        "rshares": 3033050865,
        "voter": "jrcornel"
      },
      {
        "rshares": 54217761,
        "voter": "steemo"
      },
      {
        "rshares": 1805262907,
        "voter": "xianjun"
      },
      {
        "rshares": 26819912795,
        "voter": "hanshotfirst"
      },
      {
        "rshares": 54077897,
        "voter": "steema"
      },
      {
        "rshares": 71282219,
        "voter": "confucius"
      },
      {
        "rshares": 93801736989,
        "voter": "miacats"
      },
      {
        "rshares": 2249572206,
        "voter": "njall"
      },
      {
        "rshares": 54909929,
        "voter": "jarvis"
      },
      {
        "rshares": 118219525,
        "voter": "microluck"
      },
      {
        "rshares": 54313084,
        "voter": "fortuner"
      },
      {
        "rshares": 2077267800,
        "voter": "chinadaily"
      },
      {
        "rshares": 4879530405,
        "voter": "almerri"
      },
      {
        "rshares": 9253395112,
        "voter": "johnnyyash"
      },
      {
        "rshares": 10344891579,
        "voter": "gvargas123"
      },
      {
        "rshares": 4751552849,
        "voter": "themanualbot"
      },
      {
        "rshares": 136485885,
        "voter": "nang1"
      },
      {
        "rshares": 13839238841,
        "voter": "telos"
      },
      {
        "rshares": 51877132,
        "voter": "johnbyrd"
      },
      {
        "rshares": 53039566,
        "voter": "thomasaustin"
      },
      {
        "rshares": 51859074,
        "voter": "thermor"
      },
      {
        "rshares": 51870077,
        "voter": "ficholl"
      },
      {
        "rshares": 53030738,
        "voter": "widell"
      },
      {
        "rshares": 51481279,
        "voter": "revelbrooks"
      },
      {
        "rshares": 406983674,
        "voter": "mig641"
      },
      {
        "rshares": 169608367,
        "voter": "kamil5"
      },
      {
        "rshares": 59295031,
        "voter": "dobbydaba"
      },
      {
        "rshares": 24294717617,
        "voter": "andrewawerdna"
      },
      {
        "rshares": 55367485477,
        "voter": "mandibil"
      },
      {
        "rshares": 4633082667,
        "voter": "steemitpatina"
      },
      {
        "rshares": 51562255,
        "voter": "curpose"
      },
      {
        "rshares": 76072115,
        "voter": "steembriefing"
      },
      {
        "rshares": 55750195,
        "voter": "riv"
      },
      {
        "rshares": 2196862373,
        "voter": "runridefly"
      },
      {
        "rshares": 1783607101,
        "voter": "funkywanderer"
      },
      {
        "rshares": 2249900457,
        "voter": "jeremyfromwi"
      },
      {
        "rshares": 2056057288,
        "voter": "eight-rad"
      },
      {
        "rshares": 51712804,
        "voter": "troich"
      },
      {
        "rshares": 9458733324,
        "voter": "aggroed"
      },
      {
        "rshares": 51718188,
        "voter": "crion"
      },
      {
        "rshares": 182060433,
        "voter": "greatness"
      },
      {
        "rshares": 51388276,
        "voter": "hitherise"
      },
      {
        "rshares": 51379706,
        "voter": "wiss"
      },
      {
        "rshares": 54247555535,
        "voter": "sponge-bob"
      },
      {
        "rshares": 52143228,
        "voter": "stroully"
      },
      {
        "rshares": 88628906,
        "voter": "ruscion"
      },
      {
        "rshares": 1086106040,
        "voter": "tatianka"
      },
      {
        "rshares": 54175638,
        "voter": "apparat"
      },
      {
        "rshares": 51814474,
        "voter": "thadm"
      },
      {
        "rshares": 51812703,
        "voter": "prof"
      },
      {
        "rshares": 157957231026,
        "voter": "thecyclist"
      },
      {
        "rshares": 1655277599,
        "voter": "smisi"
      },
      {
        "rshares": 50370757,
        "voter": "yorsens"
      },
      {
        "rshares": 201688406600,
        "voter": "asksisk"
      },
      {
        "rshares": 50065875,
        "voter": "bane"
      },
      {
        "rshares": 50059754,
        "voter": "vive"
      },
      {
        "rshares": 51142585,
        "voter": "coad"
      },
      {
        "rshares": 51922012,
        "voter": "sofa"
      },
      {
        "rshares": 323483227,
        "voter": "panther"
      },
      {
        "rshares": 60610693,
        "voter": "plantbasedjunkie"
      },
      {
        "rshares": 55341943517,
        "voter": "brains"
      },
      {
        "rshares": 517900727,
        "voter": "mohamedmashaal"
      },
      {
        "rshares": 20617809185,
        "voter": "skypilot"
      },
      {
        "rshares": 50933404,
        "voter": "ailo"
      },
      {
        "rshares": 5753290068,
        "voter": "chick1"
      },
      {
        "rshares": 50584036,
        "voter": "aoki"
      },
      {
        "rshares": 51568971,
        "voter": "typingagent"
      },
      {
        "rshares": 51581492,
        "voter": "cwb"
      },
      {
        "rshares": 339274981,
        "voter": "anomaly"
      },
      {
        "rshares": 147786454,
        "voter": "ola1"
      },
      {
        "rshares": 50441122,
        "voter": "eavy"
      },
      {
        "rshares": 50454901,
        "voter": "roto"
      },
      {
        "rshares": 71955428,
        "voter": "mari5555na"
      },
      {
        "rshares": 157644916,
        "voter": "iggy"
      },
      {
        "rshares": 51232949,
        "voter": "dragonice"
      },
      {
        "rshares": 50907857,
        "voter": "oxygen"
      },
      {
        "rshares": 50871059,
        "voter": "motion"
      },
      {
        "rshares": 50796122,
        "voter": "factom"
      },
      {
        "rshares": 50794039,
        "voter": "autodesk"
      },
      {
        "rshares": 50565798,
        "voter": "penthouse"
      },
      {
        "rshares": 50538694,
        "voter": "fenix"
      },
      {
        "rshares": 2118281183,
        "voter": "bapparabi"
      },
      {
        "rshares": 50487909,
        "voter": "opticalillusions"
      },
      {
        "rshares": 50349676,
        "voter": "albertheijn"
      },
      {
        "rshares": 90053391,
        "voter": "remlaps1"
      },
      {
        "rshares": 239963421,
        "voter": "darkminded153"
      },
      {
        "rshares": 527464783,
        "voter": "grisha-danunaher"
      },
      {
        "rshares": 72826233,
        "voter": "igtes"
      },
      {
        "rshares": 141679752,
        "voter": "buffett"
      },
      {
        "rshares": 161815656,
        "voter": "ranger"
      },
      {
        "rshares": 444435987,
        "voter": "witchcraftblog"
      },
      {
        "rshares": 161693690,
        "voter": "shadowproject"
      },
      {
        "rshares": 160975092,
        "voter": "user45-87"
      },
      {
        "rshares": 157182398,
        "voter": "planet"
      },
      {
        "rshares": 156043541,
        "voter": "disneypixar"
      },
      {
        "rshares": 159143891,
        "voter": "reef"
      },
      {
        "rshares": 158602900,
        "voter": "steem-wallet"
      },
      {
        "rshares": 31683945302,
        "voter": "goldmatters"
      },
      {
        "rshares": 68013381,
        "voter": "storage"
      },
      {
        "rshares": 58460105,
        "voter": "blackmarket"
      },
      {
        "rshares": 61530871,
        "voter": "gifts"
      },
      {
        "rshares": 135637537,
        "voter": "toddemaher1"
      },
      {
        "rshares": 153397644,
        "voter": "milank"
      },
      {
        "rshares": 153325742,
        "voter": "denise12"
      }
    ],
    "author": "gavvet",
    "author_payout_value": "0.000 HBD",
    "author_reputation": 72.8,
    "beneficiaries": [],
    "blacklists": [],
    "body": "Hello everyone. I did not write anything about World War II for a long time. So today I decided to tell you about the Tank Destroyers. About the machines, specialization of which was the destruction of tanks. In this article I will talk about the classic representatives of this class.\n>\u0412\u0441\u0456\u043c \u043f\u0440\u0438\u0432\u0456\u0442. \u0414\u0430\u0432\u043d\u0435\u043d\u044c\u043a\u043e \u044f \u043d\u0435 \u043f\u0438\u0441\u0430\u0432 \u043d\u0456\u0447\u043e\u0433\u043e \u043d\u0430 \u0442\u0435\u043c\u0443 \u0414\u0440\u0443\u0433\u043e\u0457 \u0421\u0432\u0456\u0442\u043e\u0432\u043e\u0457. \u0406 \u043e\u0441\u044c \u0441\u044c\u043e\u0433\u043e\u0434\u043d\u0456 \u044f \u0432\u0438\u0440\u0456\u0448\u0438\u0432 \u0440\u043e\u0437\u043f\u043e\u0432\u0456\u0441\u0442\u0438 \u0432\u0430\u043c \u043f\u0440\u043e \u041f\u0422-\u0421\u0410\u0423. \u041f\u0440\u043e \u043c\u0430\u0448\u0438\u043d\u0438, \u0441\u043f\u0435\u0446\u0456\u0430\u043b\u0456\u0437\u0430\u0446\u0456\u0454\u044e \u044f\u043a\u0438\u0445 \u0431\u0443\u043b\u043e \u0437\u043d\u0438\u0449\u0435\u043d\u043d\u044f \u0442\u0430\u043d\u043a\u0456\u0432. \u0423 \u0446\u0456\u0439 \u0447\u0430\u0441\u0442\u0438\u043d\u0456 \u044f \u0440\u043e\u0437\u043f\u043e\u0432\u0456\u043c \u043f\u0440\u043e \u043a\u043b\u0430\u0441\u0438\u0447\u043d\u0438\u0445 \u043f\u0440\u0435\u0434\u0441\u0442\u0430\u0432\u043d\u0438\u043a\u0456\u0432 \u0441\u0432\u043e\u0433\u043e \u043a\u043b\u0430\u0441\u0443.\n\n# StuG III\nhttp://i.piccy.info/i9/3d367a52a1b8dc6c22f126332f335144/1473836215/88822/1063747/cqWCxy6vYP0.jpg\n\nLet's start with the most produced Tank Destroyer in the history. At the beginning of the WW II  German command decided to create a mobile artillery on the basis of existing tanks, which would be able to support the infantry. The priority in new machine were the firepower, a good armor and cheapness. The firm Daimler-Benz successfully embodied these wishes into reality. There were about eight versions of StuG III, however,  the main was Ausf. G. The cost of production of one StuG was quite low - 83 000 DM. Total was released 10500 machines. The basis for the creation was German tank  PzKpfw III.\nInitially StuG III was equipped with a short-75mm gun, but when good armored Soviet T-34 came to the fronts, it was decided to replace short gun with a new long-barreled 75mm cannon Stuk 40 L / 48, which surely hit the Soviet tanks. StuG armor was quite good \u2013 50 mm in a front took a punch at a distance of 1 km. StuG III was very compact in a size and had good mobility. The main disadvantage was little size which allowed bad conditions for crew working. StuG III took active part in a war from the very beginning to its end. \nhttp://i.piccy.info/i9/5dc09cebc0ddfcd1fac4a8013ee385ad/1473836240/182233/1063747/5u9ghQyvkTc.jpg\n\n>\u041f\u043e\u0447\u043d\u0435\u043c\u043e \u0437 \u043d\u0430\u0439\u043c\u0430\u0441\u043e\u0432\u0456\u0448\u0457 \u041f\u0422-\u0421\u0410\u0423 \u0432 \u0456\u0441\u0442\u043e\u0440\u0456\u0457. \u041d\u0430 \u043f\u043e\u0447\u0430\u0442\u043a\u0443 \u0432\u0456\u0439\u043d\u0438 \u043d\u0456\u043c\u0435\u0446\u044c\u043a\u0435 \u043a\u043e\u043c\u0430\u043d\u0434\u0443\u0432\u0430\u043d\u043d\u044f \u0432\u0438\u0440\u0456\u0448\u0438\u043b\u043e \u0441\u0442\u0432\u043e\u0440\u0438\u0442\u0438 \u043c\u043e\u0431\u0456\u043b\u044c\u043d\u0443 \u0430\u0440\u0442\u0438\u043b\u0435\u0440\u0456\u044e \u043d\u0430 \u0431\u0430\u0437\u0456 \u0432\u0436\u0435 \u043d\u0430\u044f\u0432\u043d\u0438\u0445 \u0442\u0430\u043d\u043a\u0456\u0432, \u0437\u0434\u0430\u0442\u043d\u0443 \u043f\u0456\u0434\u0442\u0440\u0438\u043c\u0430\u0442\u0438 \u043f\u0456\u0445\u043e\u0442\u0443. \u041f\u0440\u0456\u043e\u0440\u0438\u0442\u0435\u0442\u043d\u043e\u044e \u0431\u0443\u043b\u0430 \u0432\u043e\u0433\u043d\u0435\u0432\u0430 \u043c\u0456\u0446\u044c, \u0433\u0430\u0440\u043d\u0435 \u0431\u0440\u043e\u043d\u044e\u0432\u0430\u043d\u043d\u044f \u0456 \u0434\u0435\u0448\u0435\u0432\u0438\u0437\u043d\u0430. \u0424\u0456\u0440\u043c\u0430 Daimler-Benz \u0432\u0434\u0430\u043b\u043e \u0432\u0442\u0456\u043b\u0438\u043b\u0430 \u0446\u0456 \u043f\u043e\u0431\u0430\u0436\u0430\u043d\u043d\u044f \u0432 \u0440\u0435\u0430\u043b\u044c\u043d\u0456\u0441\u0442\u044c. \u0412\u0441\u044c\u043e\u0433\u043e \u0431\u0443\u043b\u043e \u0431\u043b\u0438\u0437\u044c\u043a\u043e \u0432\u043e\u0441\u044c\u043c\u0438 \u043c\u043e\u0434\u0438\u0444\u0456\u043a\u0430\u0446\u0456\u0439 StuG III, \u043f\u0440\u043e\u0442\u0435 \u043e\u0441\u043d\u043e\u0432\u043d\u043e\u044e \u0431\u0443\u043b\u0430 Ausf. G. \u0412\u0430\u0440\u0442\u0456\u0441\u0442\u044c \u043e\u0434\u043d\u0456\u0454\u0457 \u041f\u0422-\u0421\u0410\u0423 \u0431\u0443\u043b\u0430 \u0434\u043e\u0441\u0438\u0442\u044c \u043d\u0438\u0437\u044c\u043a\u043e\u044e - 83 000 \u043c\u0430\u0440\u043e\u043a. \u0421\u0443\u043c\u0430\u0440\u043d\u043e \u0431\u0443\u043b\u043e \u0432\u0438\u043f\u0443\u0449\u0435\u043d\u043e 10500 \u043c\u0430\u0448\u0438\u043d. \u0411\u0430\u0437\u043e\u044e \u0434\u043b\u044f \u0441\u0442\u0432\u043e\u0440\u0435\u043d\u043d\u044f \u043f\u043e\u0441\u043b\u0443\u0436\u0438\u0432 \u0442\u0430\u043d\u043a PzKpfw III.\n\u0421\u043f\u043e\u0447\u0430\u0442\u043a\u0443 StuG III \u043e\u0441\u043d\u0430\u0449\u0443\u0432\u0430\u0432\u0441\u044f \u043a\u043e\u0440\u043e\u0442\u043a\u043e\u0441\u0442\u0432\u043e\u043b\u044c\u043d\u043e\u044e 75\u043c\u043c \u0433\u0430\u0440\u043c\u0430\u0442\u043e\u044e, \u043e\u0434\u043d\u0430\u043a \u0437 \u043f\u043e\u044f\u0432\u043e\u044e \u043d\u0430 \u0444\u0440\u043e\u043d\u0442\u0430\u0445 \u0422-34 \u0431\u0443\u043b\u043e \u043f\u0440\u0438\u0439\u043d\u044f\u0442\u043e \u0440\u0456\u0448\u0435\u043d\u043d\u044f \u0437\u0430\u043c\u0456\u043d\u0438\u0442\u0438 \u0457\u0457 \u043d\u0430 \u043d\u043e\u0432\u0443 \u0434\u043e\u0432\u0433\u043e\u0441\u0442\u0432\u043e\u043b\u044c\u043d\u0443 75\u043c\u043c \u0433\u0430\u0440\u043c\u0430\u0442\u0443 Stuk 40 L / 48, \u044f\u043a\u0430 \u0432\u043f\u0435\u0432\u043d\u0435\u043d\u043e \u0432\u0440\u0430\u0436\u0430\u043b\u0430 \u0440\u0430\u0434\u044f\u043d\u0441\u044c\u043a\u0456 \u0442\u0430\u043d\u043a\u0438. \u0411\u0440\u043e\u043d\u044f \u0441\u0430\u043c\u043e\u0445\u0456\u0434\u043a\u0438 \u0443 \u043b\u043e\u0431\u0456 \u0431\u0443\u043b\u0430 50 \u043c\u043c \u0456 \u0442\u0440\u0438\u043c\u0430\u043b\u0430 \u0443\u0434\u0430\u0440 \u043d\u0430 \u0432\u0456\u0434\u0441\u0442\u0430\u043d\u0456 1 \u043a\u043c. StuG III \u0432\u0456\u0434\u0440\u0456\u0437\u043d\u044f\u0432\u0441\u044f \u043a\u043e\u043c\u043f\u0430\u043a\u0442\u043d\u0438\u043c\u0438 \u0440\u043e\u0437\u043c\u0456\u0440\u0430\u043c\u0438, \u0445\u043e\u0440\u043e\u0448\u043e\u044e \u043c\u0430\u043d\u0435\u0432\u0440\u0435\u043d\u0456\u0441\u0442\u044e \u0442\u0430 \u043d\u0435\u043f\u043e\u0433\u0430\u043d\u043e\u044e \u0448\u0432\u0438\u0434\u043a\u0456\u0441\u0442\u044e. \u0417 \u043d\u0435\u0434\u043e\u043b\u0456\u043a\u0456\u0432 \u0432\u0430\u0440\u0442\u043e \u0432\u0456\u0434\u0437\u043d\u0430\u0447\u0438\u0442\u0438 \u043d\u0435\u0437\u0440\u0443\u0447\u043d\u0456\u0441\u0442\u044c \u0440\u043e\u0431\u043e\u0442\u0438 \u0435\u043a\u0456\u043f\u0430\u0436\u0443 \u0447\u0435\u0440\u0435\u0437 \u043d\u0435\u0432\u0435\u043b\u0438\u043a\u0438\u0439 \u0437\u0430 \u0431\u0440\u043e\u043d\u044c\u043e\u0432\u0438\u0439 \u043f\u0440\u043e\u0441\u0442\u0456\u0440. \u041c\u0430\u0448\u0438\u043d\u0430 \u0430\u043a\u0442\u0438\u0432\u043d\u043e \u0431\u0440\u0430\u043b\u0430 \u0443\u0447\u0430\u0441\u0442\u044c \u0437 \u0441\u0430\u043c\u043e\u0433\u043e \u043f\u043e\u0447\u0430\u0442\u043a\u0443 \u0432\u0456\u0439\u043d\u0438 \u0456 \u0434\u043e \u0457\u0457 \u0437\u0430\u0432\u0435\u0440\u0448\u0435\u043d\u043d\u044f.\n\n# Su-85 (100) \u0421\u0423-85 (100)\nhttp://i.piccy.info/i9/b5ef17359d201f4a7a61b38b5e6ca72f/1473836271/164656/1063747/kKktJUlUuXk.jpg\n\nTowards in 1943 it became clear for the Soviet command that to deal effectively with new German tanks Soviet army required new, more modern machines and Tank Destroyers. It was decided to create new Tank Destroyer based on the T-34, driving performance and armor of which were very good. Development of a new machine was conducted at Uralmash factory.\nSu-85 had a new long-barreled 85mm gun, similar to that which will soon be installed at T-34-85. This gun was able to destroy enemy medium tanks at the distance of over a kilometer, and heavy tanks \u2013 at 800 meters to a front plate. The gun was placed in the middle part of the Tanks Destroyer body and had angles of + - 8 degrees. Also the inside size of tanks was nice which allowed good conditions for crew working. Driving characteristics inherited from the T-34-85. Armor (45 mm at the front with big armor slope) provided good protection against German medium tanks. A little later, with the release of the T-34-85, SU-85 was converted under the new 100mm gun. It was a tool for successfully destroying any enemy tanks, including Tiger 2. Also Su-100 had a very low silhouette, which contributed to an excellent disguise. Observation and aiming devices have been improved. SU-100  was easy to maintain. This Tank Destroyer applied to the end of the WW II. Total were released 4976 SU-100 and 2050 SU-85.\nhttp://i.piccy.info/i9/4dc33c464a97ab5b3b8b294778f28103/1473836298/33303/1063747/WVaI_c18Lyw.jpg\n\n>\u0411\u043b\u0438\u0436\u0447\u0435 \u0434\u043e 1943 \u0440\u043e\u043a\u0443 \u0440\u0430\u0434\u044f\u043d\u0441\u044c\u043a\u043e\u043c\u0443 \u043a\u043e\u043c\u0430\u043d\u0434\u0443\u0432\u0430\u043d\u043d\u044e \u0441\u0442\u0430\u043b\u043e \u0437\u0440\u043e\u0437\u0443\u043c\u0456\u043b\u043e, \u0449\u043e \u0434\u043b\u044f \u0435\u0444\u0435\u043a\u0442\u0438\u0432\u043d\u043e\u0457 \u0431\u043e\u0440\u043e\u0442\u044c\u0431\u0438 \u0437 \u043d\u043e\u0432\u0438\u043c\u0438 \u043d\u0456\u043c\u0435\u0446\u044c\u043a\u0438\u043c\u0438 \u0442\u0430\u043d\u043a\u0430\u043c\u0438 \u043f\u043e\u0442\u0440\u0456\u0431\u043d\u0456 \u0431\u0456\u043b\u044c\u0448 \u0441\u0443\u0447\u0430\u0441\u043d\u0456 \u043c\u0430\u0448\u0438\u043d\u0438. \u0411\u0443\u043b\u043e \u0432\u0438\u0440\u0456\u0448\u0435\u043d\u043e \u0441\u0442\u0432\u043e\u0440\u0438\u0442\u0438 \u043f\u0440\u043e\u0442\u0438\u0442\u0430\u043d\u043a\u043e\u0432\u0443 \u0441\u0430\u043c\u043e\u0445\u0456\u0434\u043d\u0443 \u0443\u0441\u0442\u0430\u043d\u043e\u0432\u043a\u0443 \u043d\u0430 \u0431\u0430\u0437\u0456 \u0442\u0430\u043d\u043a\u0430 \u0422-34, \u0445\u043e\u0434\u043e\u0432\u0456 \u044f\u043a\u043e\u0441\u0442\u0456 \u0456 \u0431\u0440\u043e\u043d\u044f \u044f\u043a\u043e\u0433\u043e \u0431\u0443\u043b\u0438 \u0434\u0443\u0436\u0435 \u0445\u043e\u0440\u043e\u0448\u0456. \u0420\u043e\u0437\u0440\u043e\u0431\u043a\u0430 \u043d\u043e\u0432\u043e\u0457 \u041f\u0422-\u0421\u0410\u0423 \u0432\u0435\u043b\u0430\u0441\u044f \u043d\u0430 \u0423\u0440\u0430\u043b\u043c\u0430\u0448\u0437\u0430\u0432\u043e\u0434\u0456.\n\u0421\u0423-85 \u043c\u0430\u043b\u0430 \u043d\u043e\u0432\u0443 85\u043c\u043c \u043d\u0430\u0440\u0456\u0437\u043d\u0443 \u0433\u0430\u0440\u043c\u0430\u0442\u0443, \u0430\u043d\u0430\u043b\u043e\u0433\u0456\u0447\u043d\u0443 \u0437 \u0442\u043e\u044e, \u044f\u043a\u0430 \u043d\u0435\u0437\u0430\u0431\u0430\u0440\u043e\u043c \u0431\u0443\u0434\u0435 \u0432\u0441\u0442\u0430\u043d\u043e\u0432\u043b\u0435\u043d\u0430 \u043d\u0430 \u0442 34-85. \u0412\u043e\u043d\u0430 \u0434\u043e\u0437\u0432\u043e\u043b\u044f\u043b\u043e \u0431\u0435\u0437 \u043f\u0440\u043e\u0431\u043b\u0435\u043c \u0432\u0440\u0430\u0436\u0430\u0442\u0438 \u0441\u0435\u0440\u0435\u0434\u043d\u0456 \u0442\u0430\u043d\u043a\u0438 \u0441\u0443\u043f\u0440\u043e\u0442\u0438\u0432\u043d\u0438\u043a\u0430 \u043d\u0430 \u0434\u0438\u0441\u0442\u0430\u043d\u0446\u0456\u0457 \u0431\u0456\u043b\u044c\u0448\u0435 \u043a\u0456\u043b\u043e\u043c\u0435\u0442\u0440\u0430, \u0430 \u0432\u0430\u0436\u043a\u0456 - \u043d\u0430 800 \u043c\u0435\u0442\u0440\u0430\u0445. \u0413\u0430\u0440\u043c\u0430\u0442\u0430 \u0432\u0441\u0442\u0430\u043d\u043e\u0432\u043b\u044e\u0432\u0430\u043b\u0430\u0441\u044f \u043f\u0440\u044f\u043c\u043e \u0432 \u043a\u043e\u0440\u043f\u0443\u0441 \u0456 \u043c\u0430\u043b\u043e \u043a\u0443\u0442\u0438 \u043d\u0430\u0432\u0435\u0434\u0435\u043d\u043d\u044f \u0432 + - 8 \u0433\u0440\u0430\u0434\u0443\u0441\u0456\u0432. \u041a\u043e\u0440\u043f\u0443\u0441 \u0431\u0443\u0432 \u0432\u0456\u0434\u043d\u043e\u0441\u043d\u043e \u043f\u0440\u043e\u0441\u0442\u043e\u0440\u0438\u0439 \u0456 \u0434\u043e\u0437\u0432\u043e\u043b\u044f\u0432 \u0437 \u043a\u043e\u043c\u0444\u043e\u0440\u0442\u043e\u043c \u043f\u0440\u0430\u0446\u044e\u0432\u0430\u0442\u0438 \u0435\u043a\u0456\u043f\u0430\u0436\u0443. \u0425\u043e\u0434\u043e\u0432\u0456 \u0445\u0430\u0440\u0430\u043a\u0442\u0435\u0440\u0438\u0441\u0442\u0438\u043a\u0438 \u0421\u0423 \u0443\u0441\u043f\u0430\u0434\u043a\u0443\u0432\u0430\u043b\u0430 \u0432\u0456\u0434 \u0442-34. \u0411\u0440\u043e\u043d\u044f (45\u043c\u043c \u043f\u0456\u0434 \u043d\u0430\u0445\u0438\u043b\u043e\u043c) \u0437\u0430\u0431\u0435\u0437\u043f\u0435\u0447\u0443\u0432\u0430\u043b\u0430 \u0445\u043e\u0440\u043e\u0448\u0438\u0439 \u0437\u0430\u0445\u0438\u0441\u0442 \u0432\u0456\u0434 \u043f\u043e\u0441\u0442\u0440\u0456\u043b\u0456\u0432 \u0441\u0435\u0440\u0435\u0434\u043d\u0456\u0445 \u0442\u0430\u043d\u043a\u0456\u0432 \u043f\u0440\u043e\u0442\u0438\u0432\u043d\u0438\u043a\u0430. \u0422\u0440\u043e\u0445\u0438 \u043f\u0456\u0437\u043d\u0456\u0448\u0435 \u0437 \u0432\u0438\u0445\u043e\u0434\u043e\u043c \u0442\u0430\u043d\u043a\u0430 \u0442 34-85 \u0421\u0443\u0448\u043a\u0438 \u0431\u0443\u043b\u0438 \u043f\u0435\u0440\u0435\u043e\u0431\u043b\u0430\u0434\u043d\u0430\u043d\u0456 \u043f\u0456\u0434 \u043d\u043e\u0432\u0443 100\u043c\u043c \u0433\u0430\u0440\u043c\u0430\u0442\u0443. \u0426\u044f \u0433\u0430\u0440\u043c\u0430\u0442 \u0434\u043e\u0437\u0432\u043e\u043b\u044f\u043b\u0430 \u0443\u0441\u043f\u0456\u0448\u043d\u043e \u0431\u043e\u0440\u043e\u0442\u0438\u0441\u044f \u0437 \u0431\u0443\u0434\u044c-\u044f\u043a\u0438\u043c \u0442\u0430\u043d\u043a\u043e\u043c \u043f\u0440\u043e\u0442\u0438\u0432\u043d\u0438\u043a\u0430, \u0432\u043a\u043b\u044e\u0447\u0430\u044e\u0447\u0438 \u0456 \u0422\u0438\u0433\u0440 2. \u0422\u0430\u043a\u043e\u0436 \u0432\u0430\u0440\u0442\u043e \u0432\u0456\u0434\u0437\u043d\u0430\u0447\u0438\u0442\u0438 \u043d\u0438\u0437\u044c\u043a\u0438\u0439 \u0441\u0438\u043b\u0443\u0435\u0442 \u043c\u0430\u0448\u0438\u043d\u0438, \u044f\u043a\u0438\u0439 \u0441\u043f\u0440\u0438\u044f\u0432 \u0432\u0456\u0434\u043c\u0456\u043d\u043d\u043e\u043c\u0443 \u043c\u0430\u0441\u043a\u0443\u0432\u0430\u043d\u043d\u044e. \u0411\u0443\u043b\u0438 \u043f\u043e\u043b\u0456\u043f\u0448\u0435\u043d\u0456 \u043f\u0440\u0438\u043b\u0430\u0434\u0438 \u0441\u043f\u043e\u0441\u0442\u0435\u0440\u0435\u0436\u0435\u043d\u043d\u044f \u0439 \u043f\u0440\u0438\u0446\u0456\u043b\u044e\u0432\u0430\u043d\u043d\u044f. \u0422\u0435\u0445\u043d\u0456\u043a\u0430 \u0431\u0443\u043b\u0430 \u043f\u0440\u043e\u0441\u0442\u0430 \u0432 \u043e\u0431\u0441\u043b\u0443\u0433\u043e\u0432\u0443\u0432\u0430\u043d\u043d\u0456. \u0426\u044f \u041f\u0422-\u0421\u0410\u0423 \u0437\u0430\u0441\u0442\u043e\u0441\u043e\u0432\u0443\u0432\u0430\u043b\u0430\u0441\u044f \u0434\u043e \u0441\u0430\u043c\u043e\u0433\u043e \u043a\u0456\u043d\u0446\u044f \u0432\u0456\u0439\u043d\u0438. \u0412\u0441\u044c\u043e\u0433\u043e \u0431\u0443\u043b\u043e \u0432\u0438\u043f\u0443\u0449\u0435\u043d\u043e 4976 \u0421\u0423-100 \u0456 2050 \u0421\u0423-85.\n\n# Jagdpanther (\u042f\u0433\u0434\u043f\u0430\u043d\u0442\u0435\u0440\u0430)\nhttp://i.piccy.info/i9/201bcdc4469d546e806e4a38ba752ea7/1473836330/161907/1063747/_jvoDheMLik.jpg\n\nIn the middle of 1942 the German command decided to create a new Tank Destroyer with 88mm anti-tank gun Pak-43, using the basis of medium tank \u201cPanther\u201d. The development of this Tank Destroyer at first was carried by a Krupp company, then it was given to a Daimler-Benz and at last it was finished by a MIAG company. So, the destiny of Jagdpather was hard. The development has been complicated by the regular air raids allies, constant shortage of necessary parts and confusion in the serial versions of the machine. Jagdpanther took the most actively part in the Ardennes offensive and the Balaton operation.\nhttp://i.piccy.info/i9/d2e68a346dd9f511c77c83d8b77eaf87/1473836361/30639/1063747/XmYA_dzfCU8.jpg\n\nIn general, as a Tank Destroyer Jagdpanthere was great. Maneuverability and speed characteristics were good because of using \u201cPanther\u201d basis. Armor of Jagdpanthere (80 mm in the front with a good armor slope) confidently defended the machine and a crew at the distance of 800 meters from all Soviet tanks. The new 88mm anti-tank gun allowed to destroy the enemy at a distance of 1km. Rate of fire at the same time was very high - 8 rounds per minute. The fighting compartment inside of a car was spacious and was equipped with ventilation, increasing the convenience of the crew working. And don\u2019t forget than Jagdpanther had a low silhouette. The disadvantages were the relatively high cost of the machine (due to the use of scarce materials), unreliability and complexity of the transmission service. Jagdpanther has established itself as a formidable and dangerous opponent, specializing in the destruction of tanks. Total were produced 392 cars.\nhttp://i.piccy.info/i9/f1590af47cd302853838f357b7786d76/1473836385/192289/1063747/V3N3_0icSI.jpg\n\n>\u0423 \u0441\u0435\u0440\u0435\u0434\u0438\u043d\u0438 1942 \u0440\u043e\u043a\u0443 \u043d\u0456\u043c\u0435\u0446\u044c\u043a\u0435 \u043a\u043e\u043c\u0430\u043d\u0434\u0443\u0432\u0430\u043d\u043d\u044f \u043f\u0440\u0438\u0439\u043d\u044f\u043b\u043e \u0440\u0456\u0448\u0435\u043d\u043d\u044f \u0441\u0442\u0432\u043e\u0440\u0438\u0442\u0438 \u041f\u0422-\u0421\u0410\u0423 \u0437 \u043d\u043e\u0432\u043e\u044e \u043f\u0440\u043e\u0442\u0438\u0442\u0430\u043d\u043a\u043e\u0432\u043e\u044e 88\u043c\u043c \u0433\u0430\u0440\u043c\u0430\u0442\u043e\u044e \u0420\u0430\u043a-43 \u043d\u0430 \u0431\u0430\u0437\u0456 \u0441\u0435\u0440\u0435\u0434\u043d\u044c\u043e\u0433\u043e \u0442\u0430\u043d\u043a\u0430 \u041f\u0430\u043d\u0442\u0435\u0440\u0430. \u0420\u043e\u0437\u0440\u043e\u0431\u043a\u0443 \u041f\u0422-\u0421\u0410\u0423 \u0441\u043f\u043e\u0447\u0430\u0442\u043a\u0443 \u0432\u0435\u043b\u0430 \u0444\u0456\u0440\u043c\u0430 \u041a\u0440\u0443\u043f\u043f, \u043f\u0456\u0437\u043d\u0456\u0448\u0435 \u043f\u0440\u043e\u0435\u043a\u0442 \u0434\u043e\u0440\u043e\u0431\u043b\u044f\u0432\u0441\u044f \u0444\u0456\u0440\u043c\u043e\u044e Daimler-Benz, \u0430 \u0432 \u0441\u0430\u043c\u043e\u043c\u0443 \u043a\u0456\u043d\u0446\u0456 - MIAG. \u0420\u043e\u0437\u0440\u043e\u0431\u043a\u0430 \u0431\u0443\u043b\u0430 \u0443\u0441\u043a\u043b\u0430\u0434\u043d\u0435\u043d\u0430 \u0440\u0435\u0433\u0443\u043b\u044f\u0440\u043d\u0438\u043c\u0438 \u0430\u0432\u0456\u0430 \u043d\u0430\u043b\u044c\u043e\u0442\u0430\u043c\u0438 \u0441\u043e\u044e\u0437\u043d\u0438\u043a\u0456\u0432, \u043f\u043e\u0441\u0442\u0456\u0439\u043d\u0438\u043c\u0438 \u043d\u0435\u0434\u043e\u0441\u0442\u0430\u0447\u0430\u043c\u0438 \u043f\u043e\u0442\u0440\u0456\u0431\u043d\u0438\u0445 \u0434\u0435\u0442\u0430\u043b\u0435\u0439 \u0456 \u043f\u043b\u0443\u0442\u0430\u043d\u0438\u043d\u043e\u044e \u0432 \u0441\u0435\u0440\u0456\u0439\u043d\u0438\u0445 \u043c\u043e\u0434\u0438\u0444\u0456\u043a\u0430\u0446\u0456\u044f\u0445 \u043c\u0430\u0448\u0438\u043d\u0438. \u041d\u0430\u0439\u0431\u0456\u043b\u044c\u0448 \u0430\u043a\u0442\u0438\u0432\u043d\u043e \u042f\u0433\u0434\u043f\u0430\u043d\u0442\u0435\u0440\u0438 \u0431\u0440\u0430\u043b\u0438 \u0443\u0447\u0430\u0441\u0442\u044c \u0432 \u0410\u0440\u0434\u0435\u043d\u0441\u044c\u043a\u043e\u043c\u0443 \u043d\u0430\u0441\u0442\u0443\u043f\u0456 \u0442\u0430 \u0411\u0430\u043b\u0430\u0442\u043e\u043d\u0441\u044c\u043a\u0456\u0439 \u043e\u043f\u0435\u0440\u0430\u0446\u0456\u0457.\n\u0412 \u0446\u0456\u043b\u043e\u043c\u0443 \u0441\u0430\u043c\u043e\u0445\u043e\u0434\u043a\u0430 \u0432\u0438\u0439\u0448\u043b\u0430 \u0432\u0434\u0430\u043b\u043e\u044e. \u0425\u043e\u0434\u043e\u0432\u0456 \u0456 \u043c\u0430\u043d\u0435\u0432\u0440\u0435\u043d\u0456 \u044f\u043a\u043e\u0441\u0442\u0456 \u0432\u043e\u043d\u0430 \u0446\u0456\u043b\u043a\u043e\u043c \u0443\u0441\u043f\u0430\u0434\u043a\u0443\u0432\u0430\u043b\u0430 \u0432\u0456\u0434 \u041f\u0430\u043d\u0442\u0435\u0440\u0438 \u0456 \u0432\u043e\u043d\u0438 \u0431\u0443\u043b\u0438 \u043d\u0430 \u0432\u0438\u0441\u043e\u043a\u043e\u043c\u0443 \u0440\u0456\u0432\u043d\u0456. \u0411\u0440\u043e\u043d\u044f \u0441\u0430\u043c\u043e\u0445\u0456\u0434\u043a\u0438 (80 \u043c\u043c \u0432 \u043b\u043e\u0431\u0456 \u043f\u0456\u0434 \u0445\u043e\u0440\u043e\u0448\u0438\u043c \u043d\u0430\u0445\u0438\u043b\u043e\u043c) \u0432\u043f\u0435\u0432\u043d\u0435\u043d\u043e \u0437\u0430\u0445\u0438\u0449\u0430\u043b\u0430 \u0457\u0457 \u043d\u0430 \u0434\u0438\u0441\u0442\u0430\u043d\u0446\u0456\u044f\u0445 \u0432\u0456\u0434 800 \u043c\u0435\u0442\u0440\u0456\u0432. \u041d\u043e\u0432\u0430 88\u043c\u043c \u043f\u0440\u043e\u0442\u0438\u0442\u0430\u043d\u043a\u043e\u0432\u0430 \u0433\u0430\u0440\u043c\u0430\u0442\u0430 \u0434\u043e\u0437\u0432\u043e\u043b\u044f\u043b\u0430 \u0432\u0435\u0441\u0442\u0438 \u043f\u0440\u0438\u0446\u0456\u043b\u044c\u043d\u0438\u0439 \u0432\u043e\u0433\u043e\u043d\u044c \u043f\u043e \u043f\u0440\u043e\u0442\u0438\u0432\u043d\u0438\u043a\u0443 \u043d\u0430 \u0432\u0456\u0434\u0441\u0442\u0430\u043d\u0456 1\u043a\u043c. \u0422\u0435\u043c\u043f \u0441\u0442\u0440\u0456\u043b\u044c\u0431\u0438 \u043f\u0440\u0438 \u0446\u044c\u043e\u043c\u0443 \u0431\u0443\u0432 \u0434\u0443\u0436\u0435 \u0432\u0438\u0441\u043e\u043a\u0438\u0439 - 8 \u043f\u043e\u0441\u0442\u0440\u0456\u043b\u0456\u0432 \u043d\u0430 \u0445\u0432\u0438\u043b\u0438\u043d\u0443. \u0411\u043e\u0439\u043e\u0432\u0435 \u0432\u0456\u0434\u0434\u0456\u043b\u0435\u043d\u043d\u044f \u043c\u0430\u0448\u0438\u043d\u0438 \u0431\u0443\u043b\u043e \u043f\u0440\u043e\u0441\u0442\u043e\u0440\u0438\u043c \u0456 \u043e\u0441\u043d\u0430\u0449\u0443\u0432\u0430\u043b\u043e\u0441\u044f \u0432\u0435\u043d\u0442\u0438\u043b\u044f\u0446\u0456\u0454\u044e, \u0449\u043e \u043f\u0456\u0434\u0432\u0438\u0449\u0443\u0432\u0430\u043b\u043e \u0437\u0440\u0443\u0447\u043d\u043e\u0441\u0442\u0456 \u0440\u043e\u0431\u043e\u0442\u0438 \u0435\u043a\u0456\u043f\u0430\u0436\u0443. \u041f\u0440\u0438\u043b\u0430\u0434\u0438 \u0441\u043f\u043e\u0441\u0442\u0435\u0440\u0435\u0436\u0435\u043d\u043d\u044f \u0456 \u043f\u0440\u0438\u0446\u0456\u043b\u0438 \u0431\u0443\u043b\u0438 \u044f\u043a \u0437\u0430\u0432\u0436\u0434\u0438 \u043d\u0430 \u0432\u0438\u0449\u043e\u043c\u0443 \u0440\u0456\u0432\u043d\u0456. \u041f\u0422-\u0421\u0410\u0423 \u043c\u0430\u043b\u0430 \u043d\u0438\u0437\u044c\u043a\u0438\u0439 \u0441\u0438\u043b\u0443\u0435\u0442. \u0417 \u043d\u0435\u0434\u043e\u043b\u0456\u043a\u0456\u0432 \u0432\u0430\u0440\u0442\u043e \u0432\u0456\u0434\u0437\u043d\u0430\u0447\u0438\u0442\u0438 \u0432\u0456\u0434\u043d\u043e\u0441\u043d\u043e \u0432\u0438\u0441\u043e\u043a\u0443 \u0432\u0430\u0440\u0442\u0456\u0441\u0442\u044c \u043c\u0430\u0448\u0438\u043d\u0438 (\u0447\u0435\u0440\u0435\u0437 \u0432\u0438\u043a\u043e\u0440\u0438\u0441\u0442\u0430\u043d\u043d\u044f \u0434\u0435\u0444\u0456\u0446\u0438\u0442\u043d\u0438\u0445 \u043c\u0430\u0442\u0435\u0440\u0456\u0430\u043b\u0456\u0432), \u043d\u0435\u043d\u0430\u0434\u0456\u0439\u043d\u0456\u0441\u0442\u044c \u0442\u0440\u0430\u043d\u0441\u043c\u0456\u0441\u0456\u0457 \u0456 \u0441\u043a\u043b\u0430\u0434\u043d\u0456\u0441\u0442\u044c \u0432 \u043e\u0431\u0441\u043b\u0443\u0433\u043e\u0432\u0443\u0432\u0430\u043d\u043d\u0456. \u0422\u0430\u043a\u043e\u0436 \u043d\u0435\u0437\u0430\u0434\u043e\u0432\u0456\u043b\u044c\u043d\u043e\u044e \u0431\u0443\u043b\u0430 \u0431\u0440\u043e\u043d\u044f \u0431\u043e\u0440\u0442\u0456\u0432. \u042f\u0433\u0434\u043f\u0430\u043d\u0442\u0435\u0440\u0430 \u0437\u0430\u0440\u0435\u043a\u043e\u043c\u0435\u043d\u0434\u0443\u0432\u0430\u043b\u0430 \u0441\u0435\u0431\u0435 \u044f\u043a \u0433\u0440\u0456\u0437\u043d\u0438\u0439 \u0456 \u043d\u0435\u0431\u0435\u0437\u043f\u0435\u0447\u043d\u0438\u0439 \u0441\u0443\u043f\u0440\u043e\u0442\u0438\u0432\u043d\u0438\u043a, \u0449\u043e \u0441\u043f\u0435\u0446\u0456\u0430\u043b\u0456\u0437\u0443\u0454\u0442\u044c\u0441\u044f \u043d\u0430 \u0432\u0438\u043d\u0438\u0449\u0435\u043d\u043d\u044f \u0442\u0430\u043d\u043a\u0456\u0432. \u0412\u0441\u044c\u043e\u0433\u043e \u0431\u0443\u043b\u043e \u0432\u0438\u043f\u0443\u0449\u0435\u043d\u043e 392 \u043c\u0430\u0448\u0438\u043d\u0438.\n\n# M18 \u201cHellcat\u201d\nhttp://i.piccy.info/i9/96dea13cac0295bde2f7c6dd2ddf0f93/1473836416/237135/1063747/Zt4ltwPq9qQ.jpg\n\nThe design of the American Tank Destroyer was caused by the US military doctrine. In contrast to the Germans and the Soviets, who had good-armored Tank Destroyers with a powerful anti-tank gun and mediocre mobility, American Tank Destroyers were oriented on a good mobility firstly. M18 was developed for quickly interception of enemy tank formations and the destruction of their flanks. This also caused the weak armor, small caliber of guns and excellent mobility equipment. M18 had been developed by General Motors Buick Division, the cost of one machine was 57,000 dollars. Total it was produced 2507 M18.\nAt first it was planned to put the 37mm gun, but very soon it was decided to replace it by the 57mm British gun. But this was not enough, and in the final version M18 was equipped with a 76mm cannon from Shermans. New Tank Destroyer had a very light weight, had weak armor (20mm in the forehead) and the rotating tower, which was unusual for that time. Suspension provides the convenience of driving on rough terrain; the engine allowed reaching speed up to 45 km per hour. M18 was easy to operate and convenient to use. In general, the machine was ambiguous, absorbing a lot of bold decisions.\nhttp://i.piccy.info/i9/df0129bd789f7923e8f0306e5a8b6520/1473836445/147058/1063747/pxmv2fJDVRs.jpg\n\n>\u041a\u043e\u043d\u0441\u0442\u0440\u0443\u043a\u0446\u0456\u044f \u0430\u043c\u0435\u0440\u0438\u043a\u0430\u043d\u0441\u044c\u043a\u043e\u0433\u043e \u0432\u0438\u043d\u0438\u0449\u0443\u0432\u0430\u0447\u0430 \u0442\u0430\u043d\u043a\u0456\u0432 \u043e\u0431\u0443\u043c\u043e\u0432\u043b\u0435\u043d\u0430 \u0432 \u043f\u0435\u0440\u0448\u0443 \u0447\u0435\u0440\u0433\u0443 \u0430\u043c\u0435\u0440\u0438\u043a\u0430\u043d\u0441\u044c\u043a\u043e\u044e \u0432\u0456\u0439\u0441\u044c\u043a\u043e\u0432\u043e\u044e \u0434\u043e\u043a\u0442\u0440\u0438\u043d\u043e\u044e. \u041d\u0430 \u0432\u0456\u0434\u043c\u0456\u043d\u0443 \u0432\u0456\u0434 \u043d\u0456\u043c\u0435\u0446\u044c\u043a\u0438\u0445 \u0456 \u0440\u0430\u0434\u044f\u043d\u0441\u044c\u043a\u0438\u0445 \u0430\u0440\u043c\u0456\u0439, \u0443 \u044f\u043a\u0438\u0445 \u043f\u0440\u043e\u0442\u0438\u0442\u0430\u043d\u043a\u043e\u0432\u0456 \u0441\u0430\u043c\u043e\u0445\u0456\u0434\u043a\u0438 \u043c\u0430\u043b\u0438 \u0433\u0430\u0440\u043d\u0443 \u043b\u043e\u0431\u043e\u0432\u0443 \u0431\u0440\u043e\u043d\u044e, \u043f\u043e\u0442\u0443\u0436\u043d\u0443 \u043f\u0440\u043e\u0442\u0438\u0442\u0430\u043d\u043a\u043e\u0432\u0443 \u0433\u0430\u0440\u043c\u0430\u0442\u0443 \u0456 \u043f\u043e\u0441\u0435\u0440\u0435\u0434\u043d\u044e \u043c\u043e\u0431\u0456\u043b\u044c\u043d\u0456\u0441\u0442\u044c, \u0430\u043c\u0435\u0440\u0438\u043a\u0430\u043d\u0441\u044c\u043a\u0456 \u043f\u0440\u043e\u0442\u0438\u0442\u0430\u043d\u043a\u043e\u0432\u0456 \u0441\u0430\u043c\u043e\u0445\u0456\u0434\u043a\u0438 \u0432 \u043f\u0435\u0440\u0448\u0443 \u0447\u0435\u0440\u0433\u0443 \u043f\u043e\u0432\u0438\u043d\u043d\u0456 \u0431\u0443\u043b\u0438 \u0431\u0443\u0442\u0438 \u043c\u043e\u0431\u0456\u043b\u044c\u043d\u0456. \u041c18 \u0440\u043e\u0437\u0440\u043e\u0431\u043b\u044f\u0432\u0441\u044f \u0434\u043b\u044f \u0448\u0432\u0438\u0434\u043a\u043e\u0433\u043e \u043f\u0435\u0440\u0435\u0445\u043e\u043f\u043b\u0435\u043d\u043d\u044f \u0442\u0430\u043d\u043a\u043e\u0432\u0438\u0445 \u0437'\u0454\u0434\u043d\u0430\u043d\u044c \u043f\u0440\u043e\u0442\u0438\u0432\u043d\u0438\u043a\u0430 \u0456 \u0437\u043d\u0438\u0449\u0435\u043d\u043d\u044f \u0457\u0445 \u0437 \u0444\u043b\u0430\u043d\u0433\u0456\u0432. \u0426\u0438\u043c \u0456 \u043e\u0431\u0443\u043c\u043e\u0432\u043b\u044e\u0432\u0430\u043b\u0430\u0441\u044f \u0441\u043b\u0430\u0431\u043a\u0435 \u0431\u0440\u043e\u043d\u044e\u0432\u0430\u043d\u043d\u044f, \u043d\u0435\u0432\u0435\u043b\u0438\u043a\u0438\u0439 \u043a\u0430\u043b\u0456\u0431\u0440 \u0433\u0430\u0440\u043c\u0430\u0442\u0438 \u0456 \u0432\u0456\u0434\u043c\u0456\u043d\u043d\u0430 \u043c\u043e\u0431\u0456\u043b\u044c\u043d\u0456\u0441\u0442\u044c \u0442\u0435\u0445\u043d\u0456\u043a\u0438. \u0420\u043e\u0437\u0440\u043e\u0431\u043a\u0430 \u0432\u0435\u043b\u0430\u0441\u044f \u0444\u0456\u0440\u043c\u043e\u044e General Motors Buick Division, \u0432\u0430\u0440\u0442\u0456\u0441\u0442\u044c \u043e\u0434\u043d\u0456\u0454\u0457 \u043c\u0430\u0448\u0438\u043d\u0438 \u0441\u0442\u0430\u043d\u043e\u0432\u0438\u043b\u0430 57000 \u0434\u043e\u043b\u0430\u0440\u0456\u0432. \u0412\u0441\u044c\u043e\u0433\u043e \u0431\u0443\u043b\u043e \u0432\u0438\u043f\u0443\u0449\u0435\u043d\u043e 2507 \u041f\u0422-\u0421\u0410\u0423 \u041c18.\n\u0421\u043f\u043e\u0447\u0430\u0442\u043a\u0443 \u043f\u043b\u0430\u043d\u0443\u0432\u0430\u043b\u043e\u0441\u044f \u043f\u043e\u0441\u0442\u0430\u0432\u0438\u0442\u0438 37\u043c\u043c \u0433\u0430\u0440\u043c\u0430\u0442\u0443, \u043f\u0440\u043e\u0442\u0435 \u0434\u0443\u0436\u0435 \u0441\u043a\u043e\u0440\u043e \u0431\u0443\u043b\u043e \u0432\u0438\u0440\u0456\u0448\u0435\u043d\u043e \u0437\u0430\u043c\u0456\u043d\u0438\u0442\u0438 \u0457\u0457 \u043d\u0430 57\u043c\u043c \u0431\u0440\u0438\u0442\u0430\u043d\u0441\u044c\u043a\u0443 \u0433\u0430\u0440\u043c\u0430\u0442\u0443. \u0410\u043b\u0435 \u0446\u044c\u043e\u0433\u043e \u0432\u0438\u044f\u0432\u0438\u043b\u043e\u0441\u044f \u043d\u0435\u0434\u043e\u0441\u0442\u0430\u0442\u043d\u044c\u043e, \u0456 \u0432 \u0444\u0456\u043d\u0430\u043b\u044c\u043d\u043e\u043c\u0443 \u0432\u0430\u0440\u0456\u0430\u043d\u0442\u0456 \u041c18 \u043e\u0441\u043d\u0430\u0449\u0443\u0432\u0430\u043b\u0430\u0441\u044f 76\u043c\u043c \u0433\u0430\u0440\u043c\u0430\u0442\u043e\u044e, \u0449\u043e \u0443\u0441\u0442\u0430\u043d\u043e\u0432\u043b\u044e\u0432\u0430\u043b\u0430\u0441\u044f \u043d\u0430 \u0442\u0430\u043d\u043a\u0438 \u0428\u0435\u0440\u043c\u0430\u043d. \u041f\u0422-\u0421\u0410\u0423 \u0431\u0443\u043b\u0430 \u0434\u0443\u0436\u0435 \u043b\u0435\u0433\u043a\u0430, \u043c\u0430\u043b\u0430 \u043f\u0440\u043e\u0442\u0438\u0432\u043e\u043a\u0443\u043b\u044c\u043e\u0432\u0435 \u0431\u0440\u043e\u043d\u044e\u0432\u0430\u043d\u043d\u044f (20\u043c\u043c \u0432 \u043b\u043e\u0431\u0456) \u0456 \u043f\u043e\u0432\u043e\u0440\u043e\u0442\u043d\u0443 \u0431\u0430\u0448\u0442\u0443, \u0449\u043e \u0431\u0443\u043b\u043e \u043d\u0435\u0445\u0430\u0440\u0430\u043a\u0442\u0435\u0440\u043d\u043e \u0434\u043b\u044f \u041f\u0422-\u0421\u0410\u0423 \u0442\u043e\u0433\u043e \u0447\u0430\u0441\u0443. \u041f\u0456\u0434\u0432\u0456\u0441\u043a\u0430 \u0437\u0430\u0431\u0435\u0437\u043f\u0435\u0447\u0443\u0432\u0430\u043b\u0430 \u0437\u0440\u0443\u0447\u043d\u0456\u0441\u0442\u044c \u0457\u0437\u0434\u0438 \u043f\u043e \u043f\u0435\u0440\u0435\u0441\u0456\u0447\u0435\u043d\u0456\u0439 \u043c\u0456\u0441\u0446\u0435\u0432\u043e\u0441\u0442\u0456, \u0434\u0432\u0438\u0433\u0443\u043d \u0434\u043e\u0437\u0432\u043e\u043b\u044f\u0432 \u0440\u043e\u0437\u0432\u0438\u0432\u0430\u0442\u0438 \u0448\u0432\u0438\u0434\u043a\u0456\u0441\u0442\u044c \u0434\u043e 45 \u043a\u043c \u043d\u0430 \u0433\u043e\u0434\u0438\u043d\u0443. \u041c18 \u0431\u0443\u0432 \u043f\u0440\u043e\u0441\u0442\u0438\u0439 \u0432 \u043e\u0431\u0441\u043b\u0443\u0433\u043e\u0432\u0443\u0432\u0430\u043d\u043d\u0456 \u0456 \u0437\u0440\u0443\u0447\u043d\u0438\u0439 \u0432 \u0435\u043a\u0441\u043f\u043b\u0443\u0430\u0442\u0430\u0446\u0456\u0457. \u0412 \u0446\u0456\u043b\u043e\u043c\u0443 \u043c\u0430\u0448\u0438\u043d\u0430 \u0432\u0438\u0439\u0448\u043b\u0430 \u043d\u0435\u043e\u0434\u043d\u043e\u0437\u043d\u0430\u0447\u043d\u043e\u044e, \u0443\u0432\u0456\u0431\u0440\u0430\u0432\u0448\u0438 \u0432 \u0441\u0435\u0431\u0435 \u0431\u0435\u0437\u043b\u0456\u0447 \u0441\u043c\u0456\u043b\u0438\u0432\u0438\u0445 \u0440\u0456\u0448\u0435\u043d\u044c.\n\nAt the end I want to say, that the birth of Tank destroyers was caused by the necessary of destroying heavy enemy techniques. Next time I will tell you about machines with a real \u201cBig Guns\u201d.\n>\u041d\u0430 \u0446\u044c\u043e\u043c\u0443 \u043c\u0456 \u0437\u0430\u0432\u0435\u0440\u0448\u0438\u043c\u043e \u043d\u0430\u0448\u0435 \u0437\u043d\u0430\u0439\u043e\u043c\u0441\u0442\u0432\u043e \u0437 \u043a\u043b\u0430\u0441\u043e\u043c \u041f\u0422-\u0421\u0410\u0423. \u041f\u043e\u044f\u0432\u0430 \u0441\u0430\u043c\u043e\u0445\u043e\u0434\u043e\u043a \u0431\u0443\u043b\u0430 \u0432\u0438\u043a\u043b\u0438\u043a\u0430\u043d\u0430 \u043d\u0435\u043e\u0431\u0445\u0456\u0434\u043d\u0456\u0441\u0442\u044e \u0437\u043d\u0438\u0449\u0435\u043d\u043d\u044f \u0432\u0430\u0436\u043a\u043e\u0457 \u0442\u0435\u0445\u043d\u0456\u043a\u0438 \u0441\u0443\u043f\u0440\u043e\u0442\u0438\u0432\u043d\u0438\u043a\u0430. \u041d\u0430 \u0447\u0435\u0440\u0437\u0456 \u043c\u0430\u0448\u0438\u043d\u0438 \u0437 \u0434\u0456\u0439\u0441\u043d\u043e \u0432\u0435\u043b\u0438\u043a\u0438\u043c\u0438 \u043a\u0430\u043b\u0456\u0431\u0440\u0430\u043c\u0438. \n\n***don't forget to follow @burmik123***",
    "category": "tanks",
    "children": 20,
    "created": "2016-09-15T15:48:12",
    "curator_payout_value": "0.000 HBD",
    "depth": 0,
    "is_paidout": false,
    "json_metadata": {
      "image": [
        "http://i.piccy.info/i9/3d367a52a1b8dc6c22f126332f335144/1473836215/88822/1063747/cqWCxy6vYP0.jpg",
        "http://i.piccy.info/i9/5dc09cebc0ddfcd1fac4a8013ee385ad/1473836240/182233/1063747/5u9ghQyvkTc.jpg",
        "http://i.piccy.info/i9/b5ef17359d201f4a7a61b38b5e6ca72f/1473836271/164656/1063747/kKktJUlUuXk.jpg",
        "http://i.piccy.info/i9/4dc33c464a97ab5b3b8b294778f28103/1473836298/33303/1063747/WVaI_c18Lyw.jpg",
        "http://i.piccy.info/i9/201bcdc4469d546e806e4a38ba752ea7/1473836330/161907/1063747/_jvoDheMLik.jpg",
        "http://i.piccy.info/i9/d2e68a346dd9f511c77c83d8b77eaf87/1473836361/30639/1063747/XmYA_dzfCU8.jpg",
        "http://i.piccy.info/i9/f1590af47cd302853838f357b7786d76/1473836385/192289/1063747/V3N3_0icSI.jpg",
        "http://i.piccy.info/i9/96dea13cac0295bde2f7c6dd2ddf0f93/1473836416/237135/1063747/Zt4ltwPq9qQ.jpg",
        "http://i.piccy.info/i9/df0129bd789f7923e8f0306e5a8b6520/1473836445/147058/1063747/pxmv2fJDVRs.jpg"
      ],
      "tags": [
        "tanks",
        "ua",
        "war"
      ],
      "users": [
        "burmik123"
      ]
    },
    "max_accepted_payout": "1000000.000 HBD",
    "net_rshares": 64027086650725,
    "payout": 239.682,
    "payout_at": "2016-09-22T15:48:12",
    "pending_payout_value": "239.682 HBD",
    "percent_hbd": 10000,
    "permlink": "title-steel-monsters-tank-destroyers-of-ww-ii-eng-ua-featuring-burmik123-as-author",
    "post_id": 1255423,
    "promoted": "0.000 HBD",
    "replies": [],
    "stats": {
      "flag_weight": 0.0,
      "gray": false,
      "hide": false,
      "total_votes": 257
    },
    "title": "Steel monsters. Tank Destroyers of WW II. ENG\\UA (featuring @burmik123 as author)",
    "updated": "2016-09-15T16:20:39",
    "url": "/tanks/@gavvet/title-steel-monsters-tank-destroyers-of-ww-ii-eng-ua-featuring-burmik123-as-author"
  }
]
