{
  "comments": [
    {
      "abs_rshares": 0,
      "active": "2016-07-10T12:39:42",
      "allow_curation_rewards": true,
      "allow_replies": true,
      "allow_votes": true,
      "author": "gtg",
      "author_rewards": 1135218,
      "beneficiaries": [],
      "body": "I'm Gandalf.\nThat's not my real name, but even my mom saved my number as ***Gandalf*** in her phone contact list.\nThat counts, right?\nI'm an IT Wizard, system admin, happily married, <strike>owner of a cat</strike>.\nOwned by a cat.\n\n![Nyunya](https://grey.house/img/niunia.jpg)\n\n**Nyunya** *(The Cat)* wants to watch everything I do, that's just her way of lending a helping paw. I\u2019m not sure if she is so fascinated by what I do or she wants to make sure I do it right.\n\nWhy am I here? What is my motivation?\nNot much different from that guiding my cat:\nCuriosity and to be a witness (node?) of what is emerging here.\n\nMay the STEEM be with you!",
      "cashout_time": "1969-12-31T23:59:59",
      "category": "introduceyourself",
      "children": 3,
      "children_abs_rshares": 0,
      "created": "2016-07-03T16:35:03",
      "curator_payout_value": {
        "amount": "16244",
        "nai": "@@000000013",
        "precision": 3
      },
      "depth": 0,
      "id": 51402,
      "json_metadata": "{\"tags\":[\"introduceyourself\",\"cats\"],\"image\":[\"https://grey.house/img/niunia.jpg\"]}",
      "last_payout": "2016-08-13T21:04:45",
      "last_update": "2016-07-10T12:39:42",
      "max_accepted_payout": {
        "amount": "1000000000",
        "nai": "@@000000013",
        "precision": 3
      },
      "max_cashout_time": "1969-12-31T23:59:59",
      "net_rshares": 0,
      "net_votes": 44,
      "parent_author": "",
      "parent_permlink": "introduceyourself",
      "percent_hbd": 10000,
      "permlink": "hello-world",
      "reward_weight": 10000,
      "root_author": "gtg",
      "root_permlink": "hello-world",
      "title": "Hello, World!",
      "total_payout_value": {
        "amount": "254288",
        "nai": "@@000000013",
        "precision": 3
      },
      "total_vote_weight": 0,
      "vote_rshares": 0
    },
    {
      "abs_rshares": 0,
      "active": "2016-08-24T09:30:03",
      "allow_curation_rewards": true,
      "allow_replies": true,
      "allow_votes": true,
      "author": "steemit",
      "author_rewards": 3548,
      "beneficiaries": [],
      "body": "Steemit is a social media platform where anyone can earn STEEM points by posting. The more people who like a post, the more STEEM the poster earns. Anyone can sell their STEEM for cash or vest it to boost their voting power.",
      "cashout_time": "1969-12-31T23:59:59",
      "category": "meta",
      "children": 36,
      "children_abs_rshares": 0,
      "created": "2016-03-30T18:30:18",
      "curator_payout_value": {
        "amount": "756",
        "nai": "@@000000013",
        "precision": 3
      },
      "depth": 0,
      "id": 1,
      "json_metadata": "",
      "last_payout": "2016-08-24T19:59:42",
      "last_update": "2016-03-30T18:30:18",
      "max_accepted_payout": {
        "amount": "1000000000",
        "nai": "@@000000013",
        "precision": 3
      },
      "max_cashout_time": "1969-12-31T23:59:59",
      "net_rshares": 0,
      "net_votes": 90,
      "parent_author": "",
      "parent_permlink": "meta",
      "percent_hbd": 10000,
      "permlink": "firstpost",
      "reward_weight": 10000,
      "root_author": "steemit",
      "root_permlink": "firstpost",
      "title": "Welcome to Steem!",
      "total_payout_value": {
        "amount": "942",
        "nai": "@@000000013",
        "precision": 3
      },
      "total_vote_weight": 0,
      "vote_rshares": 0
    },
    {
      "abs_rshares": 0,
      "active": "2016-07-10T12:39:42",
      "allow_curation_rewards": true,
      "allow_replies": true,
      "allow_votes": true,
      "author": "gtg",
      "author_rewards": 1135218,
      "beneficiaries": [],
      "body": "I'm Gandalf.\nThat's not my real name, but even my mom saved my number as ***Gandalf*** in her phone contact list.\nThat counts, right?\nI'm an IT Wizard, system admin, happily married, <strike>owner of a cat</strike>.\nOwned by a cat.\n\n![Nyunya](https://grey.house/img/niunia.jpg)\n\n**Nyunya** *(The Cat)* wants to watch everything I do, that's just her way of lending a helping paw. I\u2019m not sure if she is so fascinated by what I do or she wants to make sure I do it right.\n\nWhy am I here? What is my motivation?\nNot much different from that guiding my cat:\nCuriosity and to be a witness (node?) of what is emerging here.\n\nMay the STEEM be with you!",
      "cashout_time": "1969-12-31T23:59:59",
      "category": "introduceyourself",
      "children": 3,
      "children_abs_rshares": 0,
      "created": "2016-07-03T16:35:03",
      "curator_payout_value": {
        "amount": "16244",
        "nai": "@@000000013",
        "precision": 3
      },
      "depth": 0,
      "id": 51402,
      "json_metadata": "{\"tags\":[\"introduceyourself\",\"cats\"],\"image\":[\"https://grey.house/img/niunia.jpg\"]}",
      "last_payout": "2016-08-13T21:04:45",
      "last_update": "2016-07-10T12:39:42",
      "max_accepted_payout": {
        "amount": "1000000000",
        "nai": "@@000000013",
        "precision": 3
      },
      "max_cashout_time": "1969-12-31T23:59:59",
      "net_rshares": 0,
      "net_votes": 44,
      "parent_author": "",
      "parent_permlink": "introduceyourself",
      "percent_hbd": 10000,
      "permlink": "hello-world",
      "reward_weight": 10000,
      "root_author": "gtg",
      "root_permlink": "hello-world",
      "title": "Hello, World!",
      "total_payout_value": {
        "amount": "254288",
        "nai": "@@000000013",
        "precision": 3
      },
      "total_vote_weight": 0,
      "vote_rshares": 0
    }
  ]
}
