{
  "comments": [
    {
      "abs_rshares": 0,
      "active": "2016-08-24T09:30:03",
      "allow_curation_rewards": true,
      "allow_replies": true,
      "allow_votes": true,
      "author": "steemit",
      "author_rewards": 3548,
      "beneficiaries": [],
      "body": "Steemit is a social media platform where anyone can earn STEEM points by posting. The more people who like a post, the more STEEM the poster earns. Anyone can sell their STEEM for cash or vest it to boost their voting power.",
      "cashout_time": "1969-12-31T23:59:59",
      "category": "meta",
      "children": 36,
      "children_abs_rshares": 0,
      "created": "2016-03-30T18:30:18",
      "curator_payout_value": {
        "amount": "756",
        "nai": "@@000000013",
        "precision": 3
      },
      "depth": 0,
      "id": 1,
      "json_metadata": "",
      "last_payout": "2016-08-24T19:59:42",
      "last_update": "2016-03-30T18:30:18",
      "max_accepted_payout": {
        "amount": "1000000000",
        "nai": "@@000000013",
        "precision": 3
      },
      "max_cashout_time": "1969-12-31T23:59:59",
      "net_rshares": 0,
      "net_votes": 90,
      "parent_author": "",
      "parent_permlink": "meta",
      "percent_hbd": 10000,
      "permlink": "firstpost",
      "reward_weight": 10000,
      "root_author": "steemit",
      "root_permlink": "firstpost",
      "title": "Welcome to Steem!",
      "total_payout_value": {
        "amount": "942",
        "nai": "@@000000013",
        "precision": 3
      },
      "total_vote_weight": 0,
      "vote_rshares": 0
    }
  ]
}