{
  "comments": [
    {
      "abs_rshares": 0,
      "active": "2016-08-29T01:10:36",
      "allow_curation_rewards": true,
      "allow_replies": true,
      "allow_votes": true,
      "author": "vlad",
      "author_rewards": 0,
      "beneficiaries": [],
      "body": "Congratulations! Good job!\n\nhttp://www.todaystrucking.com/sites/default/files/first-place-ribbon-sm.png\n\nFollow you\n\nhttp://buketik-ufa.ru/image/cache/data/hollidays/z_8145a12e-500x500.jpg",
      "cashout_time": "2016-09-05T01:10:36",
      "category": "foodchallenge",
      "children": 0,
      "children_abs_rshares": 0,
      "created": "2016-08-29T01:10:36",
      "curator_payout_value": {
        "amount": "0",
        "nai": "@@000000013",
        "precision": 3
      },
      "depth": 2,
      "id": 1035319,
      "json_metadata": "{\"tags\":[\"foodchallenge\"],\"image\":[\"http://www.todaystrucking.com/sites/default/files/first-place-ribbon-sm.png\"]}",
      "last_payout": "1970-01-01T00:00:00",
      "last_update": "2016-08-29T01:10:36",
      "max_accepted_payout": {
        "amount": "1000000000",
        "nai": "@@000000013",
        "precision": 3
      },
      "max_cashout_time": "1969-12-31T23:59:59",
      "net_rshares": 0,
      "net_votes": 0,
      "parent_author": "allasyummyfood",
      "parent_permlink": "re-givemeyoursteem-winners-of-steemit-food-challenge-3-desserts-to-die-for-20160829t004616466z",
      "percent_hbd": 10000,
      "permlink": "re-allasyummyfood-re-givemeyoursteem-winners-of-steemit-food-challenge-3-desserts-to-die-for-20160829t011002757z",
      "reward_weight": 10000,
      "root_author": "givemeyoursteem",
      "root_permlink": "winners-of-steemit-food-challenge-3-desserts-to-die-for",
      "title": "",
      "total_payout_value": {
        "amount": "0",
        "nai": "@@000000013",
        "precision": 3
      },
      "total_vote_weight": 0,
      "vote_rshares": 0
    },
    {
      "abs_rshares": 2374341643,
      "active": "2016-08-29T11:26:00",
      "allow_curation_rewards": true,
      "allow_replies": true,
      "allow_votes": true,
      "author": "givemeyoursteem",
      "author_rewards": 0,
      "beneficiaries": [],
      "body": "Congratulations to the 1st and 2nd prize @allasyummyfood and @vlad!! Great job :D",
      "cashout_time": "2016-09-05T11:24:27",
      "category": "foodchallenge",
      "children": 0,
      "children_abs_rshares": 0,
      "created": "2016-08-29T11:24:27",
      "curator_payout_value": {
        "amount": "0",
        "nai": "@@000000013",
        "precision": 3
      },
      "depth": 2,
      "id": 1039863,
      "json_metadata": "{\"tags\":[\"foodchallenge\"],\"users\":[\"allasyummyfood\",\"vlad\"]}",
      "last_payout": "1970-01-01T00:00:00",
      "last_update": "2016-08-29T11:26:00",
      "max_accepted_payout": {
        "amount": "1000000000",
        "nai": "@@000000013",
        "precision": 3
      },
      "max_cashout_time": "1969-12-31T23:59:59",
      "net_rshares": 2374341643,
      "net_votes": 1,
      "parent_author": "allasyummyfood",
      "parent_permlink": "re-givemeyoursteem-winners-of-steemit-food-challenge-3-desserts-to-die-for-20160829t004616466z",
      "percent_hbd": 10000,
      "permlink": "re-allasyummyfood-re-givemeyoursteem-winners-of-steemit-food-challenge-3-desserts-to-die-for-20160829t112428312z",
      "reward_weight": 10000,
      "root_author": "givemeyoursteem",
      "root_permlink": "winners-of-steemit-food-challenge-3-desserts-to-die-for",
      "title": "",
      "total_payout_value": {
        "amount": "0",
        "nai": "@@000000013",
        "precision": 3
      },
      "total_vote_weight": 0,
      "vote_rshares": 2374341643
    }
  ]
}