[
  {
    "active_votes": [],
    "author": "zein",
    "author_payout_value": "0.000 HBD",
    "author_reputation": 25.0,
    "beneficiaries": [],
    "blacklists": [],
    "body": "are you willing to vote for my blog ? I really hope it \nhttps://steemit.com/introduceyourself/@zein/hello-steemit-i-come-back-part-1-it-s-about-my-friend-and-original-work-is-not-engineering",
    "category": "steempress",
    "children": 0,
    "created": "2016-08-29T09:32:48",
    "curator_payout_value": "0.000 HBD",
    "depth": 3,
    "is_paidout": false,
    "json_metadata": {
      "links": [
        "https://steemit.com/introduceyourself/@zein/hello-steemit-i-come-back-part-1-it-s-about-my-friend-and-original-work-is-not-engineering"
      ],
      "tags": [
        "steempress"
      ]
    },
    "max_accepted_payout": "1000000.000 HBD",
    "net_rshares": 0,
    "parent_author": "jesta",
    "parent_permlink": "re-bmann-re-jesta-update-on-the-steempress-theme-bounty-20160829t030152913z",
    "payout": 0.0,
    "payout_at": "2016-09-28T10:28:51",
    "pending_payout_value": "0.000 HBD",
    "percent_steem_dollars": 10000,
    "permlink": "re-jesta-re-bmann-re-jesta-update-on-the-steempress-theme-bounty-20160829t093247333z",
    "post_id": 787536,
    "promoted": "1.000 HBD",
    "replies": [],
    "stats": {
      "flag_weight": 0.0,
      "gray": false,
      "hide": false,
      "total_votes": 0
    },
    "title": "RE: Update on the steempress theme bounty",
    "updated": "2016-08-29T09:32:48",
    "url": "/steempress/@jesta/update-on-the-steempress-theme-bounty#@zein/re-jesta-re-bmann-re-jesta-update-on-the-steempress-theme-bounty-20160829t093247333z"
  },
  {
    "active_votes": [
      {
        "rshares": "250810345690",
        "voter": "lukestokes"
      }
    ],
    "author": "anduweb",
    "author_payout_value": "0.000 HBD",
    "author_reputation": 25.0,
    "beneficiaries": [],
    "blacklists": [],
    "body": "Luke, the man with the numbers :) I love the idea. Interesting stats to look at:\n* Highest promoted amount per post\n* Highest number of promoters per post\n* Highest non-author promoted amount\n\nThere may be others who have already though to do 15.001. I too started with 10.001 in mind and got to 13.63 to have a good front-ish seat :) but I think amounts will start being higher and higher as pressure builds to be on the *first page*.\n\n@berniesanders is the real MVP, have said it before and it's still valid. Nice ROI on your post! Classic bump and reward case. Exactly what Post Promotion has been built for.\nI'm more testing the thing now but thank you for the feedback! It's good to see that my *marketing* campaign is showing results!\n\nYeah, up one for @smooth and @jesta! #classy",
    "category": "steemit",
    "children": 0,
    "created": "2016-08-30T11:09:45",
    "curator_payout_value": "0.000 HBD",
    "depth": 2,
    "is_paidout": false,
    "json_metadata": {
      "tags": [
        "classy",
        "steemit"
      ],
      "users": [
        "berniesanders",
        "smooth",
        "jesta"
      ]
    },
    "max_accepted_payout": "1000000.000 HBD",
    "net_rshares": 250810345690,
    "parent_author": "lukestokes",
    "parent_permlink": "re-anduweb-steemit-post-promotion-and-the-dollar-auction-20160830t104200474z",
    "payout": 0.117,
    "payout_at": "2016-09-30T13:09:21",
    "pending_payout_value": "0.117 HBD",
    "percent_steem_dollars": 10000,
    "permlink": "re-lukestokes-re-anduweb-steemit-post-promotion-and-the-dollar-auction-20160830t110944376z",
    "post_id": 799802,
    "promoted": "0.001 HBD",
    "replies": [],
    "stats": {
      "flag_weight": 0.0,
      "gray": false,
      "hide": false,
      "total_votes": 1
    },
    "title": "RE: Steemit Post Promotion and the Dollar Auction",
    "updated": "2016-08-30T11:09:45",
    "url": "/steemit/@anduweb/steemit-post-promotion-and-the-dollar-auction#@anduweb/re-lukestokes-re-anduweb-steemit-post-promotion-and-the-dollar-auction-20160830t110944376z"
  }
]
