[
  {
    "active_votes": [
      {
        "rshares": 535956001874,
        "voter": "barrie"
      },
      {
        "rshares": 376210910452,
        "voter": "anonymous"
      },
      {
        "rshares": 2530030733798,
        "voter": "ned"
      },
      {
        "rshares": 6868791504690,
        "voter": "xeldal"
      },
      {
        "rshares": 3726151150,
        "voter": "boy"
      },
      {
        "rshares": 229262004927,
        "voter": "steem-id"
      },
      {
        "rshares": 4524044786,
        "voter": "bue-witness"
      },
      {
        "rshares": 820975377,
        "voter": "bunny"
      },
      {
        "rshares": 7162998420481,
        "voter": "complexring"
      },
      {
        "rshares": 66022454227,
        "voter": "bue"
      },
      {
        "rshares": 1996536940,
        "voter": "mini"
      },
      {
        "rshares": 256574080,
        "voter": "moon"
      },
      {
        "rshares": 1316552393,
        "voter": "mineralwasser"
      },
      {
        "rshares": 107564523042,
        "voter": "mrs.agsexplorer"
      },
      {
        "rshares": 7511884959,
        "voter": "bingo-0"
      },
      {
        "rshares": 1813913350,
        "voter": "bingo-1"
      },
      {
        "rshares": 1281991226298,
        "voter": "benjojo"
      },
      {
        "rshares": 424835962491,
        "voter": "officialfuzzy"
      },
      {
        "rshares": 761501110340,
        "voter": "pfunk"
      },
      {
        "rshares": 1131940785371,
        "voter": "cass"
      },
      {
        "rshares": 29824545969,
        "voter": "proctologic"
      },
      {
        "rshares": 750134298,
        "voter": "healthcare"
      },
      {
        "rshares": 1196536230119,
        "voter": "tuck-fheman"
      },
      {
        "rshares": 1168025207,
        "voter": "daniel.pan"
      },
      {
        "rshares": 2745281235040,
        "voter": "donkeypong"
      },
      {
        "rshares": 35404297187,
        "voter": "joshua"
      },
      {
        "rshares": 406975103750,
        "voter": "steemrollin"
      },
      {
        "rshares": 1424182557,
        "voter": "jbradford"
      },
      {
        "rshares": 9180689311,
        "voter": "patrice"
      },
      {
        "rshares": 346059306,
        "voter": "helen.tan"
      },
      {
        "rshares": 15938088337,
        "voter": "brindleswan"
      },
      {
        "rshares": 753663976673,
        "voter": "piedpiper"
      },
      {
        "rshares": 375482272962,
        "voter": "noaommerrr"
      },
      {
        "rshares": 1796764686,
        "voter": "andzzz"
      },
      {
        "rshares": 73847143577,
        "voter": "edgeland"
      },
      {
        "rshares": 76668352353,
        "voter": "easteagle13"
      },
      {
        "rshares": 190169312803,
        "voter": "jamtaylor"
      },
      {
        "rshares": 489465667,
        "voter": "eatgrits"
      },
      {
        "rshares": 50872817,
        "voter": "paco-steem"
      },
      {
        "rshares": 612581945,
        "voter": "spaninv"
      },
      {
        "rshares": 309142566089,
        "voter": "teamsteem"
      },
      {
        "rshares": 9534901206,
        "voter": "richman"
      },
      {
        "rshares": 666331594856,
        "voter": "nanzo-scoop"
      },
      {
        "rshares": 1827793190,
        "voter": "acidyo"
      },
      {
        "rshares": 205903307851,
        "voter": "mummyimperfect"
      },
      {
        "rshares": 39833240245,
        "voter": "klye"
      },
      {
        "rshares": 1027351719,
        "voter": "coar"
      },
      {
        "rshares": 353351990,
        "voter": "murh"
      },
      {
        "rshares": 17601176156,
        "voter": "b4bb4r-5h3r"
      },
      {
        "rshares": 405843973774,
        "voter": "blakemiles84"
      },
      {
        "rshares": 10341217409,
        "voter": "andu"
      },
      {
        "rshares": 57144356191,
        "voter": "ak2020"
      },
      {
        "rshares": 260079987946,
        "voter": "billbutler"
      },
      {
        "rshares": 75980218281,
        "voter": "thecryptofiend"
      },
      {
        "rshares": 13518268974,
        "voter": "johnerfx"
      },
      {
        "rshares": 140526207453,
        "voter": "coinbitgold"
      },
      {
        "rshares": 412467399967,
        "voter": "taoteh1221"
      },
      {
        "rshares": 22430460071,
        "voter": "m4ever"
      },
      {
        "rshares": 418622798,
        "voter": "applecrisp"
      },
      {
        "rshares": 2274330399691,
        "voter": "stellabelle"
      },
      {
        "rshares": 4190059511,
        "voter": "andre-ager"
      },
      {
        "rshares": 7998622846,
        "voter": "givemeyoursteem"
      },
      {
        "rshares": 105851824009,
        "voter": "kenny-crane"
      },
      {
        "rshares": 18555285556,
        "voter": "samether"
      },
      {
        "rshares": 382747136304,
        "voter": "kaylinart"
      },
      {
        "rshares": 487099978706,
        "voter": "infovore"
      },
      {
        "rshares": 23735859481,
        "voter": "ossama-benjohn"
      },
      {
        "rshares": 1130181250,
        "voter": "johnerminer"
      },
      {
        "rshares": 19586514634,
        "voter": "ziv"
      },
      {
        "rshares": 16087619085,
        "voter": "zakharya"
      },
      {
        "rshares": 173891397847,
        "voter": "thedashguy"
      },
      {
        "rshares": 145235686062,
        "voter": "kimziv"
      },
      {
        "rshares": 2745357590,
        "voter": "gary-smith"
      },
      {
        "rshares": 282225162,
        "voter": "mammasitta"
      },
      {
        "rshares": 6545907918,
        "voter": "fuck.off"
      },
      {
        "rshares": 2249535177,
        "voter": "superfreek"
      },
      {
        "rshares": 6606808474,
        "voter": "iloveporn"
      },
      {
        "rshares": 375067125844,
        "voter": "fyrstikken"
      },
      {
        "rshares": 6022204460,
        "voter": "the.bot"
      },
      {
        "rshares": 8036262291,
        "voter": "johnbradshaw"
      },
      {
        "rshares": 7122827147,
        "voter": "micheletrainer"
      },
      {
        "rshares": 68386703441,
        "voter": "norbu"
      },
      {
        "rshares": 5599529516,
        "voter": "the.whale"
      },
      {
        "rshares": 280810708,
        "voter": "ladyclair"
      },
      {
        "rshares": 3576117505,
        "voter": "michaellamden68"
      },
      {
        "rshares": 57002255623,
        "voter": "asmolokalo"
      },
      {
        "rshares": 33046735905,
        "voter": "good-karma"
      },
      {
        "rshares": 5149116277,
        "voter": "dennygalindo"
      },
      {
        "rshares": 5303452399,
        "voter": "unicornfarts"
      },
      {
        "rshares": 75826571301,
        "voter": "rubybian"
      },
      {
        "rshares": 5263073872,
        "voter": "riscadox"
      },
      {
        "rshares": 24175712542,
        "voter": "katyakov"
      },
      {
        "rshares": 2715996666,
        "voter": "soupernerd"
      },
      {
        "rshares": 119977364734,
        "voter": "robrigo"
      },
      {
        "rshares": 5598045313,
        "voter": "vote"
      },
      {
        "rshares": 342395061261,
        "voter": "fabio"
      },
      {
        "rshares": 5899298096,
        "voter": "kissmybutt"
      },
      {
        "rshares": 15365648590,
        "voter": "r4fken"
      },
      {
        "rshares": 1631145568,
        "voter": "sergei"
      },
      {
        "rshares": 14995507254,
        "voter": "bitshares101"
      },
      {
        "rshares": 6317322640,
        "voter": "owdy"
      },
      {
        "rshares": 1501769437,
        "voter": "vi1son"
      },
      {
        "rshares": 1353291463754,
        "voter": "renohq"
      },
      {
        "rshares": 97164483535,
        "voter": "sigmajin"
      },
      {
        "rshares": 43603809494,
        "voter": "mrwang"
      },
      {
        "rshares": 740422795,
        "voter": "steem1653"
      },
      {
        "rshares": 18303819148,
        "voter": "sebastien"
      },
      {
        "rshares": 11146913938,
        "voter": "asim"
      },
      {
        "rshares": 176060985385,
        "voter": "repholder"
      },
      {
        "rshares": 29810248025,
        "voter": "dwinblood"
      },
      {
        "rshares": 10859176140,
        "voter": "deviedev"
      },
      {
        "rshares": 66112176064,
        "voter": "sephiroth"
      },
      {
        "rshares": 13884859240,
        "voter": "meesterboom"
      },
      {
        "rshares": 416152871,
        "voter": "karenmckersie"
      },
      {
        "rshares": 12348118332,
        "voter": "allmonitors"
      },
      {
        "rshares": 1907615672,
        "voter": "splatterhaus"
      },
      {
        "rshares": 806370035,
        "voter": "luisucv34"
      },
      {
        "rshares": 53708107979,
        "voter": "streetstyle"
      },
      {
        "rshares": 417250555684,
        "voter": "knozaki2015"
      },
      {
        "rshares": 42186828341,
        "voter": "milestone"
      },
      {
        "rshares": 5699385361,
        "voter": "btcbtcbtc20155"
      },
      {
        "rshares": 827785579,
        "voter": "mynameisbrian"
      },
      {
        "rshares": 2553460193,
        "voter": "sgnsteems"
      },
      {
        "rshares": 194516421502,
        "voter": "blueorgy"
      },
      {
        "rshares": 32130489151,
        "voter": "ubg"
      },
      {
        "rshares": 3423042796,
        "voter": "bones"
      },
      {
        "rshares": 9367946580,
        "voter": "rpf"
      },
      {
        "rshares": 2224818881,
        "voter": "earnest"
      },
      {
        "rshares": 3576934262,
        "voter": "tarindel"
      },
      {
        "rshares": 3446220471,
        "voter": "azurejasper"
      },
      {
        "rshares": 14106406643,
        "voter": "beowulfoflegend"
      },
      {
        "rshares": 2314291578,
        "voter": "bola"
      },
      {
        "rshares": 27102377358,
        "voter": "deanliu"
      },
      {
        "rshares": 5468461567,
        "voter": "rainchen"
      },
      {
        "rshares": 7815470684,
        "voter": "neroru"
      },
      {
        "rshares": 1019125915486,
        "voter": "james212"
      },
      {
        "rshares": 24288681391,
        "voter": "masterinvestor"
      },
      {
        "rshares": 10888263743,
        "voter": "fishborne"
      },
      {
        "rshares": 102801288,
        "voter": "sergey44"
      },
      {
        "rshares": 424845000,
        "voter": "berrysmok"
      },
      {
        "rshares": 37652543503,
        "voter": "papa-pepper"
      },
      {
        "rshares": 940261675,
        "voter": "happyphoenix"
      },
      {
        "rshares": 639471735,
        "voter": "curator"
      },
      {
        "rshares": 23270267458,
        "voter": "sisterholics"
      },
      {
        "rshares": 1480528431,
        "voter": "alex.chien"
      },
      {
        "rshares": 6376633931,
        "voter": "royalmacro"
      },
      {
        "rshares": 10123028535,
        "voter": "logic"
      },
      {
        "rshares": 584752369,
        "voter": "cwmyao1"
      },
      {
        "rshares": 15817307763,
        "voter": "clevecross"
      },
      {
        "rshares": 156369688,
        "voter": "steemster1"
      },
      {
        "rshares": 862061134,
        "voter": "mar1978co"
      },
      {
        "rshares": 4090189555,
        "voter": "webosfritos"
      },
      {
        "rshares": 2666801113,
        "voter": "weenis"
      },
      {
        "rshares": 2238357029,
        "voter": "dirty.hera"
      },
      {
        "rshares": 131625157,
        "voter": "yulia98"
      },
      {
        "rshares": 512229631,
        "voter": "karenb54"
      },
      {
        "rshares": 10720241925,
        "voter": "gomeravibz"
      },
      {
        "rshares": 61911147,
        "voter": "sharon"
      },
      {
        "rshares": 63085782,
        "voter": "lillianjones"
      },
      {
        "rshares": 793861382304,
        "voter": "laonie"
      },
      {
        "rshares": 1928457089,
        "voter": "naturalista"
      },
      {
        "rshares": 942093795,
        "voter": "transhuman"
      },
      {
        "rshares": 21837989409,
        "voter": "laonie1"
      },
      {
        "rshares": 22352782004,
        "voter": "laonie2"
      },
      {
        "rshares": 22360931482,
        "voter": "laonie3"
      },
      {
        "rshares": 24149442143,
        "voter": "laoyao"
      },
      {
        "rshares": 27629185020,
        "voter": "myfirst"
      },
      {
        "rshares": 167928825704,
        "voter": "somebody"
      },
      {
        "rshares": 16350272739,
        "voter": "sunshine"
      },
      {
        "rshares": 6522124565,
        "voter": "flysaga"
      },
      {
        "rshares": 6185106786,
        "voter": "brendio"
      },
      {
        "rshares": 38527719167,
        "voter": "midnightoil"
      },
      {
        "rshares": 63541793,
        "voter": "coderg"
      },
      {
        "rshares": 473946643269,
        "voter": "glitterfart"
      },
      {
        "rshares": 4176872896,
        "voter": "ullikume"
      },
      {
        "rshares": 6623452381,
        "voter": "minion"
      },
      {
        "rshares": 1577306627,
        "voter": "andrew0"
      },
      {
        "rshares": 22357085584,
        "voter": "laonie4"
      },
      {
        "rshares": 22355328422,
        "voter": "laonie5"
      },
      {
        "rshares": 22352611343,
        "voter": "laonie6"
      },
      {
        "rshares": 22349767400,
        "voter": "laonie7"
      },
      {
        "rshares": 22346006171,
        "voter": "laonie8"
      },
      {
        "rshares": 22344294392,
        "voter": "laonie9"
      },
      {
        "rshares": 92513391118,
        "voter": "xiaohui"
      },
      {
        "rshares": 263105171887,
        "voter": "fairytalelife"
      },
      {
        "rshares": 20622142384,
        "voter": "jphamer1"
      },
      {
        "rshares": 20350336517,
        "voter": "velourex"
      },
      {
        "rshares": 5369683283,
        "voter": "oflyhigh"
      },
      {
        "rshares": 3013299405,
        "voter": "xiaokongcom"
      },
      {
        "rshares": 56650918931,
        "voter": "driv3n"
      },
      {
        "rshares": 63570195,
        "voter": "msjennifer"
      },
      {
        "rshares": 59738641,
        "voter": "ciao"
      },
      {
        "rshares": 10973358869,
        "voter": "thebotkiller"
      },
      {
        "rshares": 57914427,
        "voter": "steemo"
      },
      {
        "rshares": 6073118497,
        "voter": "xianjun"
      },
      {
        "rshares": 22043736930,
        "voter": "hanshotfirst"
      },
      {
        "rshares": 57765027,
        "voter": "steema"
      },
      {
        "rshares": 1590670250,
        "voter": "erikclark13"
      },
      {
        "rshares": 1127808427,
        "voter": "vegascomic"
      },
      {
        "rshares": 10157142611,
        "voter": "ottodv"
      },
      {
        "rshares": 74494304,
        "voter": "confucius"
      },
      {
        "rshares": 3933354492,
        "voter": "bledarus"
      },
      {
        "rshares": 61296223,
        "voter": "strangedays"
      },
      {
        "rshares": 84406705123,
        "voter": "miacats"
      },
      {
        "rshares": 58653788,
        "voter": "jarvis"
      },
      {
        "rshares": 398349859,
        "voter": "microluck"
      },
      {
        "rshares": 77220767,
        "voter": "razberrijam"
      },
      {
        "rshares": 56726999,
        "voter": "fortuner"
      },
      {
        "rshares": 1760257480,
        "voter": "chinadaily"
      },
      {
        "rshares": 29749490788,
        "voter": "kyriacos"
      },
      {
        "rshares": 5897804656,
        "voter": "lemouth"
      },
      {
        "rshares": 7980606923,
        "voter": "farmerswife"
      },
      {
        "rshares": 273211506,
        "voter": "jimmytwoshoes"
      },
      {
        "rshares": 58947349,
        "voter": "wendelribeiro"
      },
      {
        "rshares": 55414210,
        "voter": "johnbyrd"
      },
      {
        "rshares": 55396880,
        "voter": "thomasaustin"
      },
      {
        "rshares": 55394920,
        "voter": "thermor"
      },
      {
        "rshares": 55406673,
        "voter": "ficholl"
      },
      {
        "rshares": 56566121,
        "voter": "widell"
      },
      {
        "rshares": 86327402421,
        "voter": "icfiedler"
      },
      {
        "rshares": 9149533951,
        "voter": "jaredcwillis"
      },
      {
        "rshares": 57439383,
        "voter": "wholefoods"
      },
      {
        "rshares": 54991366,
        "voter": "revelbrooks"
      },
      {
        "rshares": 22338332510,
        "voter": "laonie10"
      },
      {
        "rshares": 68437243690,
        "voter": "sweetsssj"
      },
      {
        "rshares": 12648203513,
        "voter": "someguy123"
      },
      {
        "rshares": 4009964661,
        "voter": "hilarski"
      },
      {
        "rshares": 2214821974,
        "voter": "hoopatang"
      },
      {
        "rshares": 2500078806,
        "voter": "shadowspub"
      },
      {
        "rshares": 261579534201,
        "voter": "oldtimer"
      },
      {
        "rshares": 4161934026,
        "voter": "steemitpatina"
      },
      {
        "rshares": 54999739,
        "voter": "curpose"
      },
      {
        "rshares": 153032594,
        "voter": "jtstreetman"
      },
      {
        "rshares": 446928899,
        "voter": "runridefly"
      },
      {
        "rshares": 2774307105,
        "voter": "contentjunkie"
      },
      {
        "rshares": 103203866500,
        "voter": "shenanigator"
      },
      {
        "rshares": 22008008063,
        "voter": "laonie11"
      },
      {
        "rshares": 53961187,
        "voter": "troich"
      },
      {
        "rshares": 41405284088,
        "voter": "luminousvisions"
      },
      {
        "rshares": 7270618086,
        "voter": "davidbrogan"
      },
      {
        "rshares": 53966805,
        "voter": "crion"
      },
      {
        "rshares": 53622549,
        "voter": "hitherise"
      },
      {
        "rshares": 53613607,
        "voter": "wiss"
      },
      {
        "rshares": 494664136,
        "voter": "areynolds"
      },
      {
        "rshares": 2731168114,
        "voter": "fajrilgooner"
      },
      {
        "rshares": 53252658,
        "voter": "stroully"
      },
      {
        "rshares": 54293199,
        "voter": "walternz"
      },
      {
        "rshares": 9161548599,
        "voter": "doitvoluntarily"
      },
      {
        "rshares": 52916909,
        "voter": "thadm"
      },
      {
        "rshares": 52915101,
        "voter": "prof"
      },
      {
        "rshares": 92326483945,
        "voter": "thecyclist"
      },
      {
        "rshares": 992040757,
        "voter": "smisi"
      },
      {
        "rshares": 56897224,
        "voter": "lighter"
      },
      {
        "rshares": 52560790,
        "voter": "yorsens"
      },
      {
        "rshares": 52242652,
        "voter": "bane"
      },
      {
        "rshares": 52236265,
        "voter": "vive"
      },
      {
        "rshares": 52230725,
        "voter": "coad"
      },
      {
        "rshares": 7295907898,
        "voter": "renzoarg"
      },
      {
        "rshares": 51922012,
        "voter": "sofa"
      },
      {
        "rshares": 2377534516,
        "voter": "lilmisjenn"
      },
      {
        "rshares": 341097233,
        "voter": "bones261"
      },
      {
        "rshares": 620954332,
        "voter": "bones555"
      },
      {
        "rshares": 51994517,
        "voter": "ailo"
      },
      {
        "rshares": 99072246,
        "voter": "positivesteem"
      },
      {
        "rshares": 5320196521,
        "voter": "chick1"
      },
      {
        "rshares": 2437884565,
        "voter": "whatsup"
      },
      {
        "rshares": 4765768150,
        "voter": "gringalicious"
      },
      {
        "rshares": 1835091693,
        "voter": "rigaronib"
      },
      {
        "rshares": 50569452,
        "voter": "aoki"
      },
      {
        "rshares": 50516543,
        "voter": "typingagent"
      },
      {
        "rshares": 50514225,
        "voter": "cwb"
      },
      {
        "rshares": 67956001,
        "voter": "nelyp"
      },
      {
        "rshares": 71092472,
        "voter": "lennex"
      },
      {
        "rshares": 51470533,
        "voter": "eavy"
      },
      {
        "rshares": 51484593,
        "voter": "roto"
      },
      {
        "rshares": 8066814624,
        "voter": "cato-the-elder"
      },
      {
        "rshares": 52176950,
        "voter": "saiku"
      },
      {
        "rshares": 2856393738,
        "voter": "ltm"
      },
      {
        "rshares": 76034330,
        "voter": "igtes"
      },
      {
        "rshares": 154501261,
        "voter": "buffett"
      },
      {
        "rshares": 156889025,
        "voter": "anarchy-veganism"
      },
      {
        "rshares": 9342188316,
        "voter": "goldmatters"
      },
      {
        "rshares": 155204122,
        "voter": "budgiebee"
      },
      {
        "rshares": 155180811,
        "voter": "majes"
      },
      {
        "rshares": 154551739,
        "voter": "reddust"
      },
      {
        "rshares": 474962663,
        "voter": "hacon"
      },
      {
        "rshares": 156136975,
        "voter": "william007"
      }
    ],
    "author": "tuck-fheman",
    "author_payout_value": "0.000 HBD",
    "author_reputation": 71.52,
    "beneficiaries": [],
    "blacklists": [],
    "body": "https://s18.postimg.org/aid72t4nt/too_old.png\n\n# [I'm Too Old For This](https://youtu.be/MqBNSMbEzI0)\n\nYou youngin's holding onto your new age Eckhart Tolle \"live in the now\" Aleister Crowley regurgitated belief systems and rah rah sycophant always positive philosophies (so long as the handouts are still being raked in), all while rewarding, if not exalting, people with a complete disregard for human decency amaze me and give me pause to think ...  **what in the $@#! happened to this world?!**\n<br>\n\nhttps://i.imgflip.com/1adksj.jpg\n\n# Back In My Day\n\nDuring my heyday, people were able to speak their mind, so long as they did so with respect and allowed others to voice their opinion as well. Everyone was different, and that's what made each individual interesting. Nowadays, it seems most people just want to be like everyone else and fit in. Don't rock the boat, else you won't get your reward! It's like being in a Kindergarten class full of 20-30 somethings.\n\nThis younger generation seems to worry more about figuring out how to make themselves into a Gawd, while at the same time arguing over which psychopathic authoritarian they are going to vote for as their supreme leader. They do more thinking about who to vote for to control their lives than they do how they are going to survive on their own for the next 40 years or more.\n\nhttps://s16.postimg.org/dqbzdofj9/OK_dees_1_Copy.jpg \n\nWhich one of these \"leaders\" (and I must quote that) is going to do more for me, seems to be the biggest question of younger generations. While at the same time they hold onto the belief that everything was created just for them and everyone else is merely a part of them; their own personal sock puppets of pleasure who must reward them when they do something they consider to be worthwhile.\n<br>\n\nhttps://cdn.meme.am/instances/57755618.jpg\n\n# Vaporware Is Skeery\n\nOne of my biggest disappointments in this community came when @stellabelle, the person with the highest reputation on the site, made a post about an announced feature she liked in another decentralized blogging platform that doesn't even exist. \n\n### The horror! \n\nMany were quick to point out that the other platform was \"vaporware\", yet felt so threatened by her post about this \"vaporware\" that they created fictional stories to apparently discredit her. Others jumped on the bandwagon at every chance in the comments section. For what? For pointing out an announced feature in \"vaporware\"? Some even called this apparent \"vaporware\" a \"competitor\"!?\n\nhttps://s11.postimg.org/e5699gp5v/cover_ears.jpg\n\n# [Faith No More](https://youtu.be/3yVI3UgtvwU)\n\nThis says a lot about the faith these people actually have in Steemit. The fact that a piece of  \"vaporware\" can be considered a \"competitor\" to Steemit, along with the fact that these people feel threatened by this \"vaporware\" would make Leon Festinger roll over in his grave; **because he's dead ... just like this generations ability to debate on a topic without their favorite psychology book in front of them to fashion a response from someone else's thoughts.**\n\nWe even have one of the largest whales on Steemit flagging comments that dare mention a non-existent \"competitor\" or anyone saying anything that, in their mind, is considered \"divisive\" to the community. A flag from this person will all but hide a comment from anyone's view without seeking it out at the bottom of the page. \n\nhttps://s15.postimg.org/820q6kvkr/safe_space.jpg\n\n# [In Muh Safe Space](https://youtu.be/sXQkXXBqj_U)\n\n\nSo much for being a place to discuss anything openly. And yet, people here complain about Facebook and Reddit, yet I can mention Facebook all day on Reddit, and vice versa, and never have to worry that my comment will be hidden by a single individual. Even worse, Facebook and Reddit are some of the most censored platforms in existence.\n\n### Put that in your **[hash pipe](https://youtu.be/_9BGLtqqkVI)** and smoke it!\n\nSome here are taking it upon themselves to create a safe space for everyone else, because apparently the competition from these non-existent platforms is so strong we must hide their non-existent features very mention from the fragile masses. Back in my day, there was a saying ... \"competition is good\", but apparently that's no longer the case.\n\nhttps://s22.postimg.org/cal6wr4tt/manstuff.jpg\n\n# [Smells Like Teen Spirit](https://youtu.be/hTWKbfoikeg)\n\nHere on Steemit, it's hard to find anyone that appreciates sports, guns, hunting, cars or anything that my generation considers to be laced with testosterone. Sure I find computer/programming talk interesting, but it's rare these days to find people online that can talk the 4 basic man groups as well. I've found a few, but for the most part they are hiding within the Steemit caves of obscurity.\n\nSteemit advertises that \"original content\" is rewarded, yet anyone that can speak in great detail on any of those 4 basic man groups will rarely, if ever, be rewarded for doing so. There are a few of these well written articles on these topics here on Steemit, but you will be hard pressed to find one earning more than $5. Why Is that? \n\n### I'll tell you why ... because Steemit, for the most part, is lacking testosterone. \n# (\u256f\u00b0\u25a1\u00b0)\u256f\ufe35 \u253b\u2501\u253b\n<br>\n\nhttps://s13.postimg.org/oou4yaqp3/Grinds_my_gears1.jpg\n\n# [What Grinds My Gears](https://youtu.be/Q685Ko2DHDs)\n\nYou know what really grinds my gears? Steemit. **Steemit really grinds my gears.** Why? Because I'm too old for this shit! And for that reason, **this will be my last post on Steemit**. I will be relinquishing my posting key access for this account and leave it to the younger generation of Tuck Fheman's, so they can post happy thoughts about all things Steemit and be rewarded untold fortunes for doing so. I am just holding them back.\n\nI did my best to be a part of this generations next big thing, but generation Steemit is just too namby-pamby for this old codger. \n\n<div class=\"pull-left\">\nhttps://s22.postimg.org/9mkkeg19t/giphy.gif\n</div>\n<div class=\"pull-right\">\nhttps://s20.postimg.org/bcrfwvml9/mic_drop.gif\n</div>\n\n<br/>",
    "category": "philosophy",
    "children": 141,
    "created": "2016-09-10T22:42:27",
    "curator_payout_value": "0.000 HBD",
    "depth": 0,
    "is_paidout": false,
    "json_metadata": {
      "image": [
        "https://s18.postimg.org/aid72t4nt/too_old.png",
        "https://i.imgflip.com/1adksj.jpg",
        "https://s16.postimg.org/dqbzdofj9/OK_dees_1_Copy.jpg",
        "https://cdn.meme.am/instances/57755618.jpg",
        "https://s11.postimg.org/e5699gp5v/cover_ears.jpg",
        "https://s15.postimg.org/820q6kvkr/safe_space.jpg",
        "https://s22.postimg.org/cal6wr4tt/manstuff.jpg",
        "https://s13.postimg.org/oou4yaqp3/Grinds_my_gears1.jpg",
        "https://s22.postimg.org/9mkkeg19t/giphy.gif",
        "https://s20.postimg.org/bcrfwvml9/mic_drop.gif"
      ],
      "links": [
        "https://youtu.be/MqBNSMbEzI0",
        "https://youtu.be/3yVI3UgtvwU",
        "https://youtu.be/sXQkXXBqj_U",
        "https://youtu.be/_9BGLtqqkVI",
        "https://youtu.be/hTWKbfoikeg",
        "https://youtu.be/Q685Ko2DHDs"
      ],
      "tags": [
        "philosophy",
        "rant",
        "steemit",
        "new-age",
        "mic-drop"
      ],
      "users": [
        "stellabelle"
      ]
    },
    "max_accepted_payout": "1000000.000 HBD",
    "net_rshares": 42002060944755,
    "payout": 144.429,
    "payout_at": "2016-09-17T22:42:27",
    "pending_payout_value": "144.429 HBD",
    "percent_hbd": 10000,
    "permlink": "when-concerning-steemit-i-ve-come-to-realize-i-m-too-old-for-this",
    "post_id": 1201660,
    "promoted": "138.990 HBD",
    "replies": [],
    "stats": {
      "flag_weight": 0.0,
      "gray": false,
      "hide": false,
      "total_votes": 287
    },
    "title": "When Concerning Steemit, I've Come To Realize ... I'm Too Old For This",
    "updated": "2016-09-10T22:42:27",
    "url": "/philosophy/@tuck-fheman/when-concerning-steemit-i-ve-come-to-realize-i-m-too-old-for-this"
  },
  {
    "active_votes": [
      {
        "rshares": 3100531233,
        "voter": "boy"
      },
      {
        "rshares": 224361742775,
        "voter": "steem-id"
      },
      {
        "rshares": 3764189886,
        "voter": "bue-witness"
      },
      {
        "rshares": 690498765,
        "voter": "bunny"
      },
      {
        "rshares": 6143394622323,
        "voter": "clayop"
      },
      {
        "rshares": 54237110459,
        "voter": "bue"
      },
      {
        "rshares": 1661583090,
        "voter": "mini"
      },
      {
        "rshares": 213702396,
        "voter": "moon"
      },
      {
        "rshares": 149450248229,
        "voter": "signalandnoise"
      },
      {
        "rshares": 6580261519,
        "voter": "sean0010"
      },
      {
        "rshares": 79094601875,
        "voter": "vip"
      },
      {
        "rshares": 10777629083,
        "voter": "proctologic"
      },
      {
        "rshares": 622922850,
        "voter": "healthcare"
      },
      {
        "rshares": 967529916,
        "voter": "daniel.pan"
      },
      {
        "rshares": 392331448467,
        "voter": "woo7739"
      },
      {
        "rshares": 288200426,
        "voter": "helen.tan"
      },
      {
        "rshares": 3475466942,
        "voter": "morning"
      },
      {
        "rshares": 46099177392,
        "voter": "cyan91"
      },
      {
        "rshares": 21457200657,
        "voter": "ninzacode"
      },
      {
        "rshares": 3643243484,
        "voter": "kenmonkey"
      },
      {
        "rshares": 263657666737,
        "voter": "leesunmoo"
      },
      {
        "rshares": 5349082417,
        "voter": "spaninv"
      },
      {
        "rshares": 868009462,
        "voter": "weenfan"
      },
      {
        "rshares": 3898446152,
        "voter": "daycrypter"
      },
      {
        "rshares": 14465314654,
        "voter": "cian.dafe"
      },
      {
        "rshares": 1432626059,
        "voter": "murh"
      },
      {
        "rshares": 1460925170254,
        "voter": "sean-king"
      },
      {
        "rshares": 687032102605,
        "voter": "publicworker"
      },
      {
        "rshares": 8578280196,
        "voter": "cannav"
      },
      {
        "rshares": 12348648799,
        "voter": "wefdi"
      },
      {
        "rshares": 247087647,
        "voter": "aidar88"
      },
      {
        "rshares": 9892359288,
        "voter": "jay4u"
      },
      {
        "rshares": 243640107,
        "voter": "sekoorane"
      },
      {
        "rshares": 1343937139914,
        "voter": "renohq"
      },
      {
        "rshares": 151103722616,
        "voter": "knircky"
      },
      {
        "rshares": 5530655167,
        "voter": "secom"
      },
      {
        "rshares": 4569401045,
        "voter": "thegoodguy"
      },
      {
        "rshares": 2212025362,
        "voter": "johnnydollar"
      },
      {
        "rshares": 45220437401,
        "voter": "yongyoon"
      },
      {
        "rshares": 3120668012,
        "voter": "imp3"
      },
      {
        "rshares": 189075416368,
        "voter": "blueorgy"
      },
      {
        "rshares": 19174335590,
        "voter": "mustafaomar"
      },
      {
        "rshares": 9133228344,
        "voter": "rpf"
      },
      {
        "rshares": 109445777,
        "voter": "elmusic"
      },
      {
        "rshares": 9700063815,
        "voter": "michaeldodridge"
      },
      {
        "rshares": 18091703755,
        "voter": "lsc9999"
      },
      {
        "rshares": 64903901,
        "voter": "lilong"
      },
      {
        "rshares": 16678639301,
        "voter": "timelapse"
      },
      {
        "rshares": 152609578,
        "voter": "luke490"
      },
      {
        "rshares": 17231154057,
        "voter": "capper2016"
      },
      {
        "rshares": 122437504,
        "voter": "darthnava"
      },
      {
        "rshares": 62928860,
        "voter": "session101"
      },
      {
        "rshares": 6587662692,
        "voter": "theb0red1"
      },
      {
        "rshares": 69829863,
        "voter": "qq553937961"
      },
      {
        "rshares": 57930015,
        "voter": "success43"
      },
      {
        "rshares": 7130857719,
        "voter": "generation.easy"
      },
      {
        "rshares": 6785162040,
        "voter": "alexandre"
      },
      {
        "rshares": 628286793,
        "voter": "runridefly"
      },
      {
        "rshares": 41225084978,
        "voter": "daxon"
      },
      {
        "rshares": 56995776,
        "voter": "osame066"
      },
      {
        "rshares": 363138694,
        "voter": "shieha"
      },
      {
        "rshares": 16414058791,
        "voter": "hunterisgreat"
      },
      {
        "rshares": 1649052287,
        "voter": "smisi"
      },
      {
        "rshares": 168496112075,
        "voter": "asksisk"
      },
      {
        "rshares": 287896907,
        "voter": "totosky"
      },
      {
        "rshares": 22669235593,
        "voter": "dubi"
      },
      {
        "rshares": 259672323,
        "voter": "alina1"
      },
      {
        "rshares": 639848102,
        "voter": "kharn"
      },
      {
        "rshares": 50833490,
        "voter": "andrewrait"
      },
      {
        "rshares": 192620865,
        "voter": "ola1"
      },
      {
        "rshares": 314717764,
        "voter": "jbaker585"
      },
      {
        "rshares": 53488939,
        "voter": "drac59"
      },
      {
        "rshares": 51915855,
        "voter": "apexnine"
      },
      {
        "rshares": 109667822,
        "voter": "borishaifa"
      },
      {
        "rshares": 76027456,
        "voter": "motsna"
      },
      {
        "rshares": 161012229,
        "voter": "gunbread"
      }
    ],
    "author": "woo7739",
    "author_payout_value": "0.000 HBD",
    "author_reputation": 58.19,
    "beneficiaries": [],
    "blacklists": [],
    "body": "![29637d.jpg](https://www.steemimg.com/images/2016/09/01/29637d.jpg)\n\nThis photo seems real. Because it IS REAL!\n\nTeam CSL, one of the most famous cosplay group in Korea, posted unbelievable photos about Silent Hill.\n\nLet's take a look at the rest of photos.\n\n![4b7c8d.jpg](https://www.steemimg.com/images/2016/09/01/4b7c8d.jpg)\n\n![52cdcc.jpg](https://www.steemimg.com/images/2016/09/01/52cdcc.jpg)\n\n![6ef4bd.jpg](https://www.steemimg.com/images/2016/09/01/6ef4bd.jpg)\n\n![9e4d4f.jpg](https://www.steemimg.com/images/2016/09/01/9e4d4f.jpg)\n\n![103f314.jpg](https://www.steemimg.com/images/2016/09/01/103f314.jpg)\n\n![11eef23.jpg](https://www.steemimg.com/images/2016/09/01/11eef23.jpg)\n\n![12aaa03.jpg](https://www.steemimg.com/images/2016/09/01/12aaa03.jpg)\n\n![13cbf58.jpg](https://www.steemimg.com/images/2016/09/01/13cbf58.jpg)\n\nAnd a YouTube video here.\n\nhttps://www.youtube.com/watch?v=KaBzFJnziVs\n\nYou see quality of their cosplay? I think they are so awesome.\n\nI am trying to convince them to post their contents by themselves.\n\n![005751a.jpg](https://www.steemimg.com/images/2016/09/01/005751a.jpg)\nhttps://www.steemimg.com/images/2016/09/01/11296c4.md.jpg\n\nTheir reaction regarding Steemit, is positive.\n\nBut they're not completely convinced yet. You know, it's too good to be true.\n\nWith that said, I need your support.\n\nAll Steem Dollar reward will go to them, I am sure they will find how fascinating Steemit is.",
    "category": "cosplay",
    "children": 4,
    "created": "2016-09-02T05:15:42",
    "curator_payout_value": "0.000 HBD",
    "depth": 0,
    "is_paidout": false,
    "json_metadata": {
      "image": [
        "https://www.steemimg.com/images/2016/09/01/29637d.jpg",
        "https://www.steemimg.com/images/2016/09/01/4b7c8d.jpg",
        "https://www.steemimg.com/images/2016/09/01/52cdcc.jpg",
        "https://www.steemimg.com/images/2016/09/01/6ef4bd.jpg",
        "https://www.steemimg.com/images/2016/09/01/9e4d4f.jpg",
        "https://www.steemimg.com/images/2016/09/01/103f314.jpg",
        "https://www.steemimg.com/images/2016/09/01/11eef23.jpg",
        "https://www.steemimg.com/images/2016/09/01/12aaa03.jpg",
        "https://www.steemimg.com/images/2016/09/01/13cbf58.jpg",
        "https://img.youtube.com/vi/KaBzFJnziVs/0.jpg",
        "https://www.steemimg.com/images/2016/09/01/005751a.jpg",
        "https://www.steemimg.com/images/2016/09/01/11296c4.md.jpg"
      ],
      "links": [
        "https://www.youtube.com/watch?v=KaBzFJnziVs"
      ],
      "tags": [
        "cosplay",
        "photography",
        "horror",
        "art",
        "kr"
      ]
    },
    "max_accepted_payout": "1000000.000 HBD",
    "net_rshares": 11724772371579,
    "payout": 19.642,
    "payout_at": "2016-09-09T05:15:42",
    "pending_payout_value": "19.642 HBD",
    "percent_hbd": 10000,
    "permlink": "unreleased-steal-cut-of-slient-hill-no-its-real",
    "post_id": 1094654,
    "promoted": "121.000 HBD",
    "replies": [],
    "stats": {
      "flag_weight": 0.0,
      "gray": false,
      "hide": false,
      "total_votes": 76
    },
    "title": "Unreleased steal cut of Slient Hill? No, its REAL!",
    "updated": "2016-09-02T05:43:42",
    "url": "/cosplay/@woo7739/unreleased-steal-cut-of-slient-hill-no-its-real"
  },
  {
    "active_votes": [
      {
        "rshares": 6861504603453,
        "voter": "xeldal"
      },
      {
        "rshares": 5924234483394,
        "voter": "enki"
      },
      {
        "rshares": 3099192085,
        "voter": "boy"
      },
      {
        "rshares": 3762483356,
        "voter": "bue-witness"
      },
      {
        "rshares": 697315118,
        "voter": "bunny"
      },
      {
        "rshares": 54010291270,
        "voter": "bue"
      },
      {
        "rshares": 1660921578,
        "voter": "mini"
      },
      {
        "rshares": 213661759,
        "voter": "moon"
      },
      {
        "rshares": 34042532834,
        "voter": "aizensou"
      },
      {
        "rshares": 1305259200680,
        "voter": "steempower"
      },
      {
        "rshares": 622724514,
        "voter": "healthcare"
      },
      {
        "rshares": 967195088,
        "voter": "daniel.pan"
      },
      {
        "rshares": 297041068093,
        "voter": "chitty"
      },
      {
        "rshares": 31488210815,
        "voter": "marketingmonk"
      },
      {
        "rshares": 288140285,
        "voter": "helen.tan"
      },
      {
        "rshares": 46091338521,
        "voter": "cyan91"
      },
      {
        "rshares": 15147326440,
        "voter": "jademont"
      },
      {
        "rshares": 29088869234,
        "voter": "instructor2121"
      },
      {
        "rshares": 2141819165,
        "voter": "gekko"
      },
      {
        "rshares": 692261667883,
        "voter": "nanzo-scoop"
      },
      {
        "rshares": 91718922101,
        "voter": "william-noe"
      },
      {
        "rshares": 12107337047,
        "voter": "cian.dafe"
      },
      {
        "rshares": 236023250940,
        "voter": "mummyimperfect"
      },
      {
        "rshares": 60750319225,
        "voter": "tosch"
      },
      {
        "rshares": 79657198561,
        "voter": "asch"
      },
      {
        "rshares": 1431846323,
        "voter": "murh"
      },
      {
        "rshares": 602018562,
        "voter": "kodi"
      },
      {
        "rshares": 586286811332,
        "voter": "cyber"
      },
      {
        "rshares": 64284714678,
        "voter": "ak2020"
      },
      {
        "rshares": 37511548124,
        "voter": "justtryme90"
      },
      {
        "rshares": 8876135165,
        "voter": "johnerfx"
      },
      {
        "rshares": 391275913,
        "voter": "applecrisp"
      },
      {
        "rshares": 283907126703,
        "voter": "hisnameisolllie"
      },
      {
        "rshares": 1267900436,
        "voter": "fjccoin"
      },
      {
        "rshares": 324237643911,
        "voter": "innuendo"
      },
      {
        "rshares": 20461884222,
        "voter": "ossama-benjohn"
      },
      {
        "rshares": 929020048,
        "voter": "johnerminer"
      },
      {
        "rshares": 1946608196,
        "voter": "stephen-somers"
      },
      {
        "rshares": 1429697273174,
        "voter": "sean-king"
      },
      {
        "rshares": 686886224488,
        "voter": "publicworker"
      },
      {
        "rshares": 2267977999,
        "voter": "alefernandez"
      },
      {
        "rshares": 4224777539,
        "voter": "crok"
      },
      {
        "rshares": 269921024,
        "voter": "ales"
      },
      {
        "rshares": 6602307370,
        "voter": "emhaze222"
      },
      {
        "rshares": 266592981,
        "voter": "ladyclair"
      },
      {
        "rshares": 204013843843,
        "voter": "asmolokalo"
      },
      {
        "rshares": 31880219495,
        "voter": "hitmeasap"
      },
      {
        "rshares": 14064842257,
        "voter": "elyaque"
      },
      {
        "rshares": 25445573460,
        "voter": "tcfxyz"
      },
      {
        "rshares": 7049471118,
        "voter": "futurefood"
      },
      {
        "rshares": 105798664165,
        "voter": "cdubendo"
      },
      {
        "rshares": 147240421388,
        "voter": "knircky"
      },
      {
        "rshares": 41975059972,
        "voter": "mrwang"
      },
      {
        "rshares": 1131075798,
        "voter": "mixa"
      },
      {
        "rshares": 910500105,
        "voter": "dicov"
      },
      {
        "rshares": 4487120677,
        "voter": "gikitiki"
      },
      {
        "rshares": 37452179267,
        "voter": "biophil"
      },
      {
        "rshares": 17227141109,
        "voter": "keithsmih"
      },
      {
        "rshares": 341993222983,
        "voter": "bobbylee"
      },
      {
        "rshares": 24443224969,
        "voter": "igster"
      },
      {
        "rshares": 237985094,
        "voter": "zoicneo"
      },
      {
        "rshares": 6129221694,
        "voter": "cryptosi"
      },
      {
        "rshares": 4162801602,
        "voter": "herverisson"
      },
      {
        "rshares": 19507833697,
        "voter": "artific"
      },
      {
        "rshares": 3498346239,
        "voter": "maximkichev"
      },
      {
        "rshares": 61164729955,
        "voter": "thylbom"
      },
      {
        "rshares": 16745418519,
        "voter": "chessmonster"
      },
      {
        "rshares": 365818230,
        "voter": "meteor78"
      },
      {
        "rshares": 841259695,
        "voter": "happyphoenix"
      },
      {
        "rshares": 7093464346,
        "voter": "webdeals"
      },
      {
        "rshares": 268956346,
        "voter": "faraz"
      },
      {
        "rshares": 4975171514,
        "voter": "beanz"
      },
      {
        "rshares": 112914306,
        "voter": "wunju"
      },
      {
        "rshares": 1909130025,
        "voter": "bullionstackers"
      },
      {
        "rshares": 1993799598,
        "voter": "andreynoch"
      },
      {
        "rshares": 2456070989,
        "voter": "belkins"
      },
      {
        "rshares": 19988784545,
        "voter": "williambanks"
      },
      {
        "rshares": 731723236,
        "voter": "pakisnxt"
      },
      {
        "rshares": 15792261330,
        "voter": "magicmonk"
      },
      {
        "rshares": 238353830,
        "voter": "sillygoon"
      },
      {
        "rshares": 88049981467,
        "voter": "sirwinchester"
      },
      {
        "rshares": 1253580623,
        "voter": "villainblack"
      },
      {
        "rshares": 3360204812,
        "voter": "cmorton"
      },
      {
        "rshares": 54355927,
        "voter": "tinca"
      },
      {
        "rshares": 10079591501,
        "voter": "goingpaper"
      },
      {
        "rshares": 119439375,
        "voter": "harrycoins"
      },
      {
        "rshares": 12237404949,
        "voter": "borran"
      },
      {
        "rshares": 1145609627,
        "voter": "bledarus"
      },
      {
        "rshares": 62332619,
        "voter": "razberrijam"
      },
      {
        "rshares": 7285753049,
        "voter": "theb0red1"
      },
      {
        "rshares": 74755928437,
        "voter": "helikopterben"
      },
      {
        "rshares": 59512540,
        "voter": "boatman"
      },
      {
        "rshares": 3307244480,
        "voter": "steveo"
      },
      {
        "rshares": 12186383861,
        "voter": "hilarski"
      },
      {
        "rshares": 58931862,
        "voter": "wesley399"
      },
      {
        "rshares": 1763987441,
        "voter": "unchainedio"
      },
      {
        "rshares": 8629294348,
        "voter": "etcmike"
      },
      {
        "rshares": 14595736783,
        "voter": "krnel"
      },
      {
        "rshares": 7184799429,
        "voter": "daveks"
      },
      {
        "rshares": 1604647373,
        "voter": "penguinpablo"
      },
      {
        "rshares": 14193492376,
        "voter": "mikehere"
      },
      {
        "rshares": 23042993006,
        "voter": "luminousvisions"
      },
      {
        "rshares": 110372559,
        "voter": "team101"
      },
      {
        "rshares": 84510824,
        "voter": "tito-baron"
      },
      {
        "rshares": 1230797907,
        "voter": "profitgenerator"
      },
      {
        "rshares": 55821108,
        "voter": "seckorama"
      },
      {
        "rshares": 117787613687,
        "voter": "dan-bn"
      },
      {
        "rshares": 24239498471,
        "voter": "dubi"
      },
      {
        "rshares": 140568307,
        "voter": "alina1"
      },
      {
        "rshares": 56372318,
        "voter": "patelincho"
      },
      {
        "rshares": 269335193609,
        "voter": "charlieshrem"
      },
      {
        "rshares": 2984877979,
        "voter": "gringalicious"
      },
      {
        "rshares": 69255373,
        "voter": "kattz"
      },
      {
        "rshares": 50531169,
        "voter": "wolfdaze"
      },
      {
        "rshares": 51342868,
        "voter": "steemitmag"
      },
      {
        "rshares": 65057583,
        "voter": "marquismiller"
      },
      {
        "rshares": 3319272143,
        "voter": "adilsontsilva"
      },
      {
        "rshares": 136773607,
        "voter": "iggy"
      },
      {
        "rshares": 50245473,
        "voter": "rony"
      },
      {
        "rshares": 3365771273,
        "voter": "merlin"
      }
    ],
    "author": "marketingmonk",
    "author_payout_value": "0.000 HBD",
    "author_reputation": 59.83,
    "beneficiaries": [],
    "blacklists": [],
    "body": "https://steemit-bucket-4a743ec2.s3.amazonaws.com/Getting%20More%20Attention%20By%20Using%20The%20Promote%20Button.jpg\n\nThis is the eighth installment of what will turn into a paid course called The Complete Steemit Course.\n\nHere is Steemit Tutorial 8: Getting More Attention By Using The Promote Button:\n\n**(please note that this video was updated with a corrected version 23 hours after the original post)**\nhttps://www.youtube.com/watch?v=ob9Zksnguzg\n\nPrevious lessons here:\nhttps://steemit.com/steemit/@marketingmonk/steemit-tutorial-1-creating-an-account-on-steemit-video\n\nhttps://steemit.com/steemit/@marketingmonk/steemit-tutorial-2-steemit-account-dashboard-overview-video\n\nhttps://steemit.com/steemit/@marketingmonk/steemit-tutorial-3-creating-our-first-ever-basic-post-video\n\nhttps://steemit.com/steemit/@marketingmonk/steemit-tutorial-4-reading-writing-decorating-and-voting-on-comments-video\n\nhttps://steemit.com/steemit/@marketingmonk/steemit-tutorial-5-voting-power-weighting-spying-and-managing-video\n\nhttps://steemit.com/steemit/@marketingmonk/steemit-tutorial-6-getting-paid-twice-from-the-steem-network-video\n\nhttps://steemit.com/steemit/@marketingmonk/steemit-tutorial-7-buying-steem-power-with-steem-dollars-or-bitcoin-video\n\nPlease upvote to show your support, I really appreciate it.\nhttps://img1.steemit.com/0x0/https://www.cryptoversity.com/wp-content/uploads/Steemit-upvote-cta-3.gif",
    "category": "steemit",
    "children": 18,
    "created": "2016-08-31T12:33:12",
    "curator_payout_value": "0.000 HBD",
    "depth": 0,
    "is_paidout": false,
    "json_metadata": {
      "image": [
        "https://steemit-bucket-4a743ec2.s3.amazonaws.com/Getting%20More%20Attention%20By%20Using%20The%20Promote%20Button.jpg",
        "https://img.youtube.com/vi/ob9Zksnguzg/0.jpg",
        "https://img1.steemit.com/0x0/https://www.cryptoversity.com/wp-content/uploads/Steemit-upvote-cta-3.gif"
      ],
      "links": [
        "https://www.youtube.com/watch?v=ob9Zksnguzg",
        "https://steemit.com/steemit/@marketingmonk/steemit-tutorial-1-creating-an-account-on-steemit-video",
        "https://steemit.com/steemit/@marketingmonk/steemit-tutorial-2-steemit-account-dashboard-overview-video",
        "https://steemit.com/steemit/@marketingmonk/steemit-tutorial-3-creating-our-first-ever-basic-post-video",
        "https://steemit.com/steemit/@marketingmonk/steemit-tutorial-4-reading-writing-decorating-and-voting-on-comments-video",
        "https://steemit.com/steemit/@marketingmonk/steemit-tutorial-5-voting-power-weighting-spying-and-managing-video",
        "https://steemit.com/steemit/@marketingmonk/steemit-tutorial-6-getting-paid-twice-from-the-steem-network-video",
        "https://steemit.com/steemit/@marketingmonk/steemit-tutorial-7-buying-steem-power-with-steem-dollars-or-bitcoin-video"
      ],
      "tags": [
        "steemit",
        "tutorial",
        "howto",
        "steem",
        "video"
      ]
    },
    "max_accepted_payout": "1000000.000 HBD",
    "net_rshares": 21127721369166,
    "payout": 55.734,
    "payout_at": "2016-09-07T12:33:12",
    "pending_payout_value": "55.734 HBD",
    "percent_hbd": 10000,
    "permlink": "steemit-tutorial-8-getting-more-attention-by-using-the-promote-button-video",
    "post_id": 1070097,
    "promoted": "121.000 HBD",
    "replies": [],
    "stats": {
      "flag_weight": 0.0,
      "gray": false,
      "hide": false,
      "total_votes": 120
    },
    "title": "Steemit Tutorial 8: Getting More Attention By Using The Promote Button [VIDEO]",
    "updated": "2016-09-01T11:32:03",
    "url": "/steemit/@marketingmonk/steemit-tutorial-8-getting-more-attention-by-using-the-promote-button-video"
  }
]
