[
  {
    "active_votes": [
      {
        "rshares": 535956001874,
        "voter": "barrie"
      },
      {
        "rshares": 376210910452,
        "voter": "anonymous"
      },
      {
        "rshares": 2530030733798,
        "voter": "ned"
      },
      {
        "rshares": 6868791504690,
        "voter": "xeldal"
      },
      {
        "rshares": 3726151150,
        "voter": "boy"
      },
      {
        "rshares": 229262004927,
        "voter": "steem-id"
      },
      {
        "rshares": 4524044786,
        "voter": "bue-witness"
      },
      {
        "rshares": 820975377,
        "voter": "bunny"
      },
      {
        "rshares": 7162998420481,
        "voter": "complexring"
      },
      {
        "rshares": 66022454227,
        "voter": "bue"
      },
      {
        "rshares": 1996536940,
        "voter": "mini"
      },
      {
        "rshares": 256574080,
        "voter": "moon"
      },
      {
        "rshares": 1316552393,
        "voter": "mineralwasser"
      },
      {
        "rshares": 107564523042,
        "voter": "mrs.agsexplorer"
      },
      {
        "rshares": 7511884959,
        "voter": "bingo-0"
      },
      {
        "rshares": 1813913350,
        "voter": "bingo-1"
      },
      {
        "rshares": 1281991226298,
        "voter": "benjojo"
      },
      {
        "rshares": 424835962491,
        "voter": "officialfuzzy"
      },
      {
        "rshares": 761501110340,
        "voter": "pfunk"
      },
      {
        "rshares": 1131940785371,
        "voter": "cass"
      },
      {
        "rshares": 29824545969,
        "voter": "proctologic"
      },
      {
        "rshares": 750134298,
        "voter": "healthcare"
      },
      {
        "rshares": 1196536230119,
        "voter": "tuck-fheman"
      },
      {
        "rshares": 1168025207,
        "voter": "daniel.pan"
      },
      {
        "rshares": 2745281235040,
        "voter": "donkeypong"
      },
      {
        "rshares": 35404297187,
        "voter": "joshua"
      },
      {
        "rshares": 406975103750,
        "voter": "steemrollin"
      },
      {
        "rshares": 1424182557,
        "voter": "jbradford"
      },
      {
        "rshares": 9180689311,
        "voter": "patrice"
      },
      {
        "rshares": 346059306,
        "voter": "helen.tan"
      },
      {
        "rshares": 15938088337,
        "voter": "brindleswan"
      },
      {
        "rshares": 753663976673,
        "voter": "piedpiper"
      },
      {
        "rshares": 375482272962,
        "voter": "noaommerrr"
      },
      {
        "rshares": 1796764686,
        "voter": "andzzz"
      },
      {
        "rshares": 73847143577,
        "voter": "edgeland"
      },
      {
        "rshares": 76668352353,
        "voter": "easteagle13"
      },
      {
        "rshares": 190169312803,
        "voter": "jamtaylor"
      },
      {
        "rshares": 489465667,
        "voter": "eatgrits"
      },
      {
        "rshares": 50872817,
        "voter": "paco-steem"
      },
      {
        "rshares": 612581945,
        "voter": "spaninv"
      },
      {
        "rshares": 309142566089,
        "voter": "teamsteem"
      },
      {
        "rshares": 9534901206,
        "voter": "richman"
      },
      {
        "rshares": 666331594856,
        "voter": "nanzo-scoop"
      },
      {
        "rshares": 1827793190,
        "voter": "acidyo"
      },
      {
        "rshares": 205903307851,
        "voter": "mummyimperfect"
      },
      {
        "rshares": 39833240245,
        "voter": "klye"
      },
      {
        "rshares": 1027351719,
        "voter": "coar"
      },
      {
        "rshares": 353351990,
        "voter": "murh"
      },
      {
        "rshares": 17601176156,
        "voter": "b4bb4r-5h3r"
      },
      {
        "rshares": 405843973774,
        "voter": "blakemiles84"
      },
      {
        "rshares": 10341217409,
        "voter": "andu"
      },
      {
        "rshares": 57144356191,
        "voter": "ak2020"
      },
      {
        "rshares": 260079987946,
        "voter": "billbutler"
      },
      {
        "rshares": 75980218281,
        "voter": "thecryptofiend"
      },
      {
        "rshares": 13518268974,
        "voter": "johnerfx"
      },
      {
        "rshares": 140526207453,
        "voter": "coinbitgold"
      },
      {
        "rshares": 412467399967,
        "voter": "taoteh1221"
      },
      {
        "rshares": 22430460071,
        "voter": "m4ever"
      },
      {
        "rshares": 418622798,
        "voter": "applecrisp"
      },
      {
        "rshares": 2274330399691,
        "voter": "stellabelle"
      },
      {
        "rshares": 4190059511,
        "voter": "andre-ager"
      },
      {
        "rshares": 7998622846,
        "voter": "givemeyoursteem"
      },
      {
        "rshares": 105851824009,
        "voter": "kenny-crane"
      },
      {
        "rshares": 18555285556,
        "voter": "samether"
      },
      {
        "rshares": 382747136304,
        "voter": "kaylinart"
      },
      {
        "rshares": 487099978706,
        "voter": "infovore"
      },
      {
        "rshares": 23735859481,
        "voter": "ossama-benjohn"
      },
      {
        "rshares": 1130181250,
        "voter": "johnerminer"
      },
      {
        "rshares": 19586514634,
        "voter": "ziv"
      },
      {
        "rshares": 16087619085,
        "voter": "zakharya"
      },
      {
        "rshares": 173891397847,
        "voter": "thedashguy"
      },
      {
        "rshares": 145235686062,
        "voter": "kimziv"
      },
      {
        "rshares": 2745357590,
        "voter": "gary-smith"
      },
      {
        "rshares": 282225162,
        "voter": "mammasitta"
      },
      {
        "rshares": 6545907918,
        "voter": "fuck.off"
      },
      {
        "rshares": 2249535177,
        "voter": "superfreek"
      },
      {
        "rshares": 6606808474,
        "voter": "iloveporn"
      },
      {
        "rshares": 375067125844,
        "voter": "fyrstikken"
      },
      {
        "rshares": 6022204460,
        "voter": "the.bot"
      },
      {
        "rshares": 8036262291,
        "voter": "johnbradshaw"
      },
      {
        "rshares": 7122827147,
        "voter": "micheletrainer"
      },
      {
        "rshares": 68386703441,
        "voter": "norbu"
      },
      {
        "rshares": 5599529516,
        "voter": "the.whale"
      },
      {
        "rshares": 280810708,
        "voter": "ladyclair"
      },
      {
        "rshares": 3576117505,
        "voter": "michaellamden68"
      },
      {
        "rshares": 57002255623,
        "voter": "asmolokalo"
      },
      {
        "rshares": 33046735905,
        "voter": "good-karma"
      },
      {
        "rshares": 5149116277,
        "voter": "dennygalindo"
      },
      {
        "rshares": 5303452399,
        "voter": "unicornfarts"
      },
      {
        "rshares": 75826571301,
        "voter": "rubybian"
      },
      {
        "rshares": 5263073872,
        "voter": "riscadox"
      },
      {
        "rshares": 24175712542,
        "voter": "katyakov"
      },
      {
        "rshares": 2715996666,
        "voter": "soupernerd"
      },
      {
        "rshares": 119977364734,
        "voter": "robrigo"
      },
      {
        "rshares": 5598045313,
        "voter": "vote"
      },
      {
        "rshares": 342395061261,
        "voter": "fabio"
      },
      {
        "rshares": 5899298096,
        "voter": "kissmybutt"
      },
      {
        "rshares": 15365648590,
        "voter": "r4fken"
      },
      {
        "rshares": 1631145568,
        "voter": "sergei"
      },
      {
        "rshares": 14995507254,
        "voter": "bitshares101"
      },
      {
        "rshares": 6317322640,
        "voter": "owdy"
      },
      {
        "rshares": 1501769437,
        "voter": "vi1son"
      },
      {
        "rshares": 1353291463754,
        "voter": "renohq"
      },
      {
        "rshares": 97164483535,
        "voter": "sigmajin"
      },
      {
        "rshares": 43603809494,
        "voter": "mrwang"
      },
      {
        "rshares": 740422795,
        "voter": "steem1653"
      },
      {
        "rshares": 18303819148,
        "voter": "sebastien"
      },
      {
        "rshares": 11146913938,
        "voter": "asim"
      },
      {
        "rshares": 176060985385,
        "voter": "repholder"
      },
      {
        "rshares": 29810248025,
        "voter": "dwinblood"
      },
      {
        "rshares": 10859176140,
        "voter": "deviedev"
      },
      {
        "rshares": 66112176064,
        "voter": "sephiroth"
      },
      {
        "rshares": 13884859240,
        "voter": "meesterboom"
      },
      {
        "rshares": 416152871,
        "voter": "karenmckersie"
      },
      {
        "rshares": 12348118332,
        "voter": "allmonitors"
      },
      {
        "rshares": 1907615672,
        "voter": "splatterhaus"
      },
      {
        "rshares": 806370035,
        "voter": "luisucv34"
      },
      {
        "rshares": 53708107979,
        "voter": "streetstyle"
      },
      {
        "rshares": 417250555684,
        "voter": "knozaki2015"
      },
      {
        "rshares": 42186828341,
        "voter": "milestone"
      },
      {
        "rshares": 5699385361,
        "voter": "btcbtcbtc20155"
      },
      {
        "rshares": 827785579,
        "voter": "mynameisbrian"
      },
      {
        "rshares": 2553460193,
        "voter": "sgnsteems"
      },
      {
        "rshares": 194516421502,
        "voter": "blueorgy"
      },
      {
        "rshares": 32130489151,
        "voter": "ubg"
      },
      {
        "rshares": 3423042796,
        "voter": "bones"
      },
      {
        "rshares": 9367946580,
        "voter": "rpf"
      },
      {
        "rshares": 2224818881,
        "voter": "earnest"
      },
      {
        "rshares": 3576934262,
        "voter": "tarindel"
      },
      {
        "rshares": 3446220471,
        "voter": "azurejasper"
      },
      {
        "rshares": 14106406643,
        "voter": "beowulfoflegend"
      },
      {
        "rshares": 2314291578,
        "voter": "bola"
      },
      {
        "rshares": 27102377358,
        "voter": "deanliu"
      },
      {
        "rshares": 5468461567,
        "voter": "rainchen"
      },
      {
        "rshares": 7815470684,
        "voter": "neroru"
      },
      {
        "rshares": 1019125915486,
        "voter": "james212"
      },
      {
        "rshares": 24288681391,
        "voter": "masterinvestor"
      },
      {
        "rshares": 10888263743,
        "voter": "fishborne"
      },
      {
        "rshares": 102801288,
        "voter": "sergey44"
      },
      {
        "rshares": 424845000,
        "voter": "berrysmok"
      },
      {
        "rshares": 37652543503,
        "voter": "papa-pepper"
      },
      {
        "rshares": 940261675,
        "voter": "happyphoenix"
      },
      {
        "rshares": 639471735,
        "voter": "curator"
      },
      {
        "rshares": 23270267458,
        "voter": "sisterholics"
      },
      {
        "rshares": 1480528431,
        "voter": "alex.chien"
      },
      {
        "rshares": 6376633931,
        "voter": "royalmacro"
      },
      {
        "rshares": 10123028535,
        "voter": "logic"
      },
      {
        "rshares": 584752369,
        "voter": "cwmyao1"
      },
      {
        "rshares": 15817307763,
        "voter": "clevecross"
      },
      {
        "rshares": 156369688,
        "voter": "steemster1"
      },
      {
        "rshares": 862061134,
        "voter": "mar1978co"
      },
      {
        "rshares": 4090189555,
        "voter": "webosfritos"
      },
      {
        "rshares": 2666801113,
        "voter": "weenis"
      },
      {
        "rshares": 2238357029,
        "voter": "dirty.hera"
      },
      {
        "rshares": 131625157,
        "voter": "yulia98"
      },
      {
        "rshares": 512229631,
        "voter": "karenb54"
      },
      {
        "rshares": 10720241925,
        "voter": "gomeravibz"
      },
      {
        "rshares": 61911147,
        "voter": "sharon"
      },
      {
        "rshares": 63085782,
        "voter": "lillianjones"
      },
      {
        "rshares": 793861382304,
        "voter": "laonie"
      },
      {
        "rshares": 1928457089,
        "voter": "naturalista"
      },
      {
        "rshares": 942093795,
        "voter": "transhuman"
      },
      {
        "rshares": 21837989409,
        "voter": "laonie1"
      },
      {
        "rshares": 22352782004,
        "voter": "laonie2"
      },
      {
        "rshares": 22360931482,
        "voter": "laonie3"
      },
      {
        "rshares": 24149442143,
        "voter": "laoyao"
      },
      {
        "rshares": 27629185020,
        "voter": "myfirst"
      },
      {
        "rshares": 167928825704,
        "voter": "somebody"
      },
      {
        "rshares": 16350272739,
        "voter": "sunshine"
      },
      {
        "rshares": 6522124565,
        "voter": "flysaga"
      },
      {
        "rshares": 6185106786,
        "voter": "brendio"
      },
      {
        "rshares": 38527719167,
        "voter": "midnightoil"
      },
      {
        "rshares": 63541793,
        "voter": "coderg"
      },
      {
        "rshares": 473946643269,
        "voter": "glitterfart"
      },
      {
        "rshares": 4176872896,
        "voter": "ullikume"
      },
      {
        "rshares": 6623452381,
        "voter": "minion"
      },
      {
        "rshares": 1577306627,
        "voter": "andrew0"
      },
      {
        "rshares": 22357085584,
        "voter": "laonie4"
      },
      {
        "rshares": 22355328422,
        "voter": "laonie5"
      },
      {
        "rshares": 22352611343,
        "voter": "laonie6"
      },
      {
        "rshares": 22349767400,
        "voter": "laonie7"
      },
      {
        "rshares": 22346006171,
        "voter": "laonie8"
      },
      {
        "rshares": 22344294392,
        "voter": "laonie9"
      },
      {
        "rshares": 92513391118,
        "voter": "xiaohui"
      },
      {
        "rshares": 263105171887,
        "voter": "fairytalelife"
      },
      {
        "rshares": 20622142384,
        "voter": "jphamer1"
      },
      {
        "rshares": 20350336517,
        "voter": "velourex"
      },
      {
        "rshares": 5369683283,
        "voter": "oflyhigh"
      },
      {
        "rshares": 3013299405,
        "voter": "xiaokongcom"
      },
      {
        "rshares": 56650918931,
        "voter": "driv3n"
      },
      {
        "rshares": 63570195,
        "voter": "msjennifer"
      },
      {
        "rshares": 59738641,
        "voter": "ciao"
      },
      {
        "rshares": 10973358869,
        "voter": "thebotkiller"
      },
      {
        "rshares": 57914427,
        "voter": "steemo"
      },
      {
        "rshares": 6073118497,
        "voter": "xianjun"
      },
      {
        "rshares": 22043736930,
        "voter": "hanshotfirst"
      },
      {
        "rshares": 57765027,
        "voter": "steema"
      },
      {
        "rshares": 1590670250,
        "voter": "erikclark13"
      },
      {
        "rshares": 1127808427,
        "voter": "vegascomic"
      },
      {
        "rshares": 10157142611,
        "voter": "ottodv"
      },
      {
        "rshares": 74494304,
        "voter": "confucius"
      },
      {
        "rshares": 3933354492,
        "voter": "bledarus"
      },
      {
        "rshares": 61296223,
        "voter": "strangedays"
      },
      {
        "rshares": 84406705123,
        "voter": "miacats"
      },
      {
        "rshares": 58653788,
        "voter": "jarvis"
      },
      {
        "rshares": 398349859,
        "voter": "microluck"
      },
      {
        "rshares": 77220767,
        "voter": "razberrijam"
      },
      {
        "rshares": 56726999,
        "voter": "fortuner"
      },
      {
        "rshares": 1760257480,
        "voter": "chinadaily"
      },
      {
        "rshares": 29749490788,
        "voter": "kyriacos"
      },
      {
        "rshares": 5897804656,
        "voter": "lemouth"
      },
      {
        "rshares": 7980606923,
        "voter": "farmerswife"
      },
      {
        "rshares": 273211506,
        "voter": "jimmytwoshoes"
      },
      {
        "rshares": 58947349,
        "voter": "wendelribeiro"
      },
      {
        "rshares": 55414210,
        "voter": "johnbyrd"
      },
      {
        "rshares": 55396880,
        "voter": "thomasaustin"
      },
      {
        "rshares": 55394920,
        "voter": "thermor"
      },
      {
        "rshares": 55406673,
        "voter": "ficholl"
      },
      {
        "rshares": 56566121,
        "voter": "widell"
      },
      {
        "rshares": 86327402421,
        "voter": "icfiedler"
      },
      {
        "rshares": 9149533951,
        "voter": "jaredcwillis"
      },
      {
        "rshares": 57439383,
        "voter": "wholefoods"
      },
      {
        "rshares": 54991366,
        "voter": "revelbrooks"
      },
      {
        "rshares": 22338332510,
        "voter": "laonie10"
      },
      {
        "rshares": 68437243690,
        "voter": "sweetsssj"
      },
      {
        "rshares": 12648203513,
        "voter": "someguy123"
      },
      {
        "rshares": 4009964661,
        "voter": "hilarski"
      },
      {
        "rshares": 2214821974,
        "voter": "hoopatang"
      },
      {
        "rshares": 2500078806,
        "voter": "shadowspub"
      },
      {
        "rshares": 261579534201,
        "voter": "oldtimer"
      },
      {
        "rshares": 4161934026,
        "voter": "steemitpatina"
      },
      {
        "rshares": 54999739,
        "voter": "curpose"
      },
      {
        "rshares": 153032594,
        "voter": "jtstreetman"
      },
      {
        "rshares": 446928899,
        "voter": "runridefly"
      },
      {
        "rshares": 2774307105,
        "voter": "contentjunkie"
      },
      {
        "rshares": 103203866500,
        "voter": "shenanigator"
      },
      {
        "rshares": 22008008063,
        "voter": "laonie11"
      },
      {
        "rshares": 53961187,
        "voter": "troich"
      },
      {
        "rshares": 41405284088,
        "voter": "luminousvisions"
      },
      {
        "rshares": 7270618086,
        "voter": "davidbrogan"
      },
      {
        "rshares": 53966805,
        "voter": "crion"
      },
      {
        "rshares": 53622549,
        "voter": "hitherise"
      },
      {
        "rshares": 53613607,
        "voter": "wiss"
      },
      {
        "rshares": 494664136,
        "voter": "areynolds"
      },
      {
        "rshares": 2731168114,
        "voter": "fajrilgooner"
      },
      {
        "rshares": 53252658,
        "voter": "stroully"
      },
      {
        "rshares": 54293199,
        "voter": "walternz"
      },
      {
        "rshares": 9161548599,
        "voter": "doitvoluntarily"
      },
      {
        "rshares": 52916909,
        "voter": "thadm"
      },
      {
        "rshares": 52915101,
        "voter": "prof"
      },
      {
        "rshares": 92326483945,
        "voter": "thecyclist"
      },
      {
        "rshares": 992040757,
        "voter": "smisi"
      },
      {
        "rshares": 56897224,
        "voter": "lighter"
      },
      {
        "rshares": 52560790,
        "voter": "yorsens"
      },
      {
        "rshares": 52242652,
        "voter": "bane"
      },
      {
        "rshares": 52236265,
        "voter": "vive"
      },
      {
        "rshares": 52230725,
        "voter": "coad"
      },
      {
        "rshares": 7295907898,
        "voter": "renzoarg"
      },
      {
        "rshares": 51922012,
        "voter": "sofa"
      },
      {
        "rshares": 2377534516,
        "voter": "lilmisjenn"
      },
      {
        "rshares": 341097233,
        "voter": "bones261"
      },
      {
        "rshares": 620954332,
        "voter": "bones555"
      },
      {
        "rshares": 51994517,
        "voter": "ailo"
      },
      {
        "rshares": 99072246,
        "voter": "positivesteem"
      },
      {
        "rshares": 5320196521,
        "voter": "chick1"
      },
      {
        "rshares": 2437884565,
        "voter": "whatsup"
      },
      {
        "rshares": 4765768150,
        "voter": "gringalicious"
      },
      {
        "rshares": 1835091693,
        "voter": "rigaronib"
      },
      {
        "rshares": 50569452,
        "voter": "aoki"
      },
      {
        "rshares": 50516543,
        "voter": "typingagent"
      },
      {
        "rshares": 50514225,
        "voter": "cwb"
      },
      {
        "rshares": 67956001,
        "voter": "nelyp"
      },
      {
        "rshares": 71092472,
        "voter": "lennex"
      },
      {
        "rshares": 51470533,
        "voter": "eavy"
      },
      {
        "rshares": 51484593,
        "voter": "roto"
      },
      {
        "rshares": 8066814624,
        "voter": "cato-the-elder"
      },
      {
        "rshares": 52176950,
        "voter": "saiku"
      },
      {
        "rshares": 2856393738,
        "voter": "ltm"
      },
      {
        "rshares": 76034330,
        "voter": "igtes"
      },
      {
        "rshares": 154501261,
        "voter": "buffett"
      },
      {
        "rshares": 156889025,
        "voter": "anarchy-veganism"
      },
      {
        "rshares": 9342188316,
        "voter": "goldmatters"
      },
      {
        "rshares": 155204122,
        "voter": "budgiebee"
      },
      {
        "rshares": 155180811,
        "voter": "majes"
      },
      {
        "rshares": 154551739,
        "voter": "reddust"
      },
      {
        "rshares": 474962663,
        "voter": "hacon"
      },
      {
        "rshares": 156136975,
        "voter": "william007"
      }
    ],
    "author": "tuck-fheman",
    "author_payout_value": "0.000 HBD",
    "author_reputation": 71.52,
    "beneficiaries": [],
    "blacklists": [],
    "body": "https://s18.postimg.org/aid72t4nt/too_old.png\n\n# [I'm Too Old For This](https://youtu.be/MqBNSMbEzI0)\n\nYou youngin's holding onto your new age Eckhart Tolle \"live in the now\" Aleister Crowley regurgitated belief systems and rah rah sycophant always positive philosophies (so long as the handouts are still being raked in), all while rewarding, if not exalting, people with a complete disregard for human decency amaze me and give me pause to think ...  **what in the $@#! happened to this world?!**\n<br>\n\nhttps://i.imgflip.com/1adksj.jpg\n\n# Back In My Day\n\nDuring my heyday, people were able to speak their mind, so long as they did so with respect and allowed others to voice their opinion as well. Everyone was different, and that's what made each individual interesting. Nowadays, it seems most people just want to be like everyone else and fit in. Don't rock the boat, else you won't get your reward! It's like being in a Kindergarten class full of 20-30 somethings.\n\nThis younger generation seems to worry more about figuring out how to make themselves into a Gawd, while at the same time arguing over which psychopathic authoritarian they are going to vote for as their supreme leader. They do more thinking about who to vote for to control their lives than they do how they are going to survive on their own for the next 40 years or more.\n\nhttps://s16.postimg.org/dqbzdofj9/OK_dees_1_Copy.jpg \n\nWhich one of these \"leaders\" (and I must quote that) is going to do more for me, seems to be the biggest question of younger generations. While at the same time they hold onto the belief that everything was created just for them and everyone else is merely a part of them; their own personal sock puppets of pleasure who must reward them when they do something they consider to be worthwhile.\n<br>\n\nhttps://cdn.meme.am/instances/57755618.jpg\n\n# Vaporware Is Skeery\n\nOne of my biggest disappointments in this community came when @stellabelle, the person with the highest reputation on the site, made a post about an announced feature she liked in another decentralized blogging platform that doesn't even exist. \n\n### The horror! \n\nMany were quick to point out that the other platform was \"vaporware\", yet felt so threatened by her post about this \"vaporware\" that they created fictional stories to apparently discredit her. Others jumped on the bandwagon at every chance in the comments section. For what? For pointing out an announced feature in \"vaporware\"? Some even called this apparent \"vaporware\" a \"competitor\"!?\n\nhttps://s11.postimg.org/e5699gp5v/cover_ears.jpg\n\n# [Faith No More](https://youtu.be/3yVI3UgtvwU)\n\nThis says a lot about the faith these people actually have in Steemit. The fact that a piece of  \"vaporware\" can be considered a \"competitor\" to Steemit, along with the fact that these people feel threatened by this \"vaporware\" would make Leon Festinger roll over in his grave; **because he's dead ... just like this generations ability to debate on a topic without their favorite psychology book in front of them to fashion a response from someone else's thoughts.**\n\nWe even have one of the largest whales on Steemit flagging comments that dare mention a non-existent \"competitor\" or anyone saying anything that, in their mind, is considered \"divisive\" to the community. A flag from this person will all but hide a comment from anyone's view without seeking it out at the bottom of the page. \n\nhttps://s15.postimg.org/820q6kvkr/safe_space.jpg\n\n# [In Muh Safe Space](https://youtu.be/sXQkXXBqj_U)\n\n\nSo much for being a place to discuss anything openly. And yet, people here complain about Facebook and Reddit, yet I can mention Facebook all day on Reddit, and vice versa, and never have to worry that my comment will be hidden by a single individual. Even worse, Facebook and Reddit are some of the most censored platforms in existence.\n\n### Put that in your **[hash pipe](https://youtu.be/_9BGLtqqkVI)** and smoke it!\n\nSome here are taking it upon themselves to create a safe space for everyone else, because apparently the competition from these non-existent platforms is so strong we must hide their non-existent features very mention from the fragile masses. Back in my day, there was a saying ... \"competition is good\", but apparently that's no longer the case.\n\nhttps://s22.postimg.org/cal6wr4tt/manstuff.jpg\n\n# [Smells Like Teen Spirit](https://youtu.be/hTWKbfoikeg)\n\nHere on Steemit, it's hard to find anyone that appreciates sports, guns, hunting, cars or anything that my generation considers to be laced with testosterone. Sure I find computer/programming talk interesting, but it's rare these days to find people online that can talk the 4 basic man groups as well. I've found a few, but for the most part they are hiding within the Steemit caves of obscurity.\n\nSteemit advertises that \"original content\" is rewarded, yet anyone that can speak in great detail on any of those 4 basic man groups will rarely, if ever, be rewarded for doing so. There are a few of these well written articles on these topics here on Steemit, but you will be hard pressed to find one earning more than $5. Why Is that? \n\n### I'll tell you why ... because Steemit, for the most part, is lacking testosterone. \n# (\u256f\u00b0\u25a1\u00b0)\u256f\ufe35 \u253b\u2501\u253b\n<br>\n\nhttps://s13.postimg.org/oou4yaqp3/Grinds_my_gears1.jpg\n\n# [What Grinds My Gears](https://youtu.be/Q685Ko2DHDs)\n\nYou know what really grinds my gears? Steemit. **Steemit really grinds my gears.** Why? Because I'm too old for this shit! And for that reason, **this will be my last post on Steemit**. I will be relinquishing my posting key access for this account and leave it to the younger generation of Tuck Fheman's, so they can post happy thoughts about all things Steemit and be rewarded untold fortunes for doing so. I am just holding them back.\n\nI did my best to be a part of this generations next big thing, but generation Steemit is just too namby-pamby for this old codger. \n\n<div class=\"pull-left\">\nhttps://s22.postimg.org/9mkkeg19t/giphy.gif\n</div>\n<div class=\"pull-right\">\nhttps://s20.postimg.org/bcrfwvml9/mic_drop.gif\n</div>\n\n<br/>",
    "category": "philosophy",
    "children": 141,
    "created": "2016-09-10T22:42:27",
    "curator_payout_value": "0.000 HBD",
    "depth": 0,
    "is_paidout": false,
    "json_metadata": {
      "image": [
        "https://s18.postimg.org/aid72t4nt/too_old.png",
        "https://i.imgflip.com/1adksj.jpg",
        "https://s16.postimg.org/dqbzdofj9/OK_dees_1_Copy.jpg",
        "https://cdn.meme.am/instances/57755618.jpg",
        "https://s11.postimg.org/e5699gp5v/cover_ears.jpg",
        "https://s15.postimg.org/820q6kvkr/safe_space.jpg",
        "https://s22.postimg.org/cal6wr4tt/manstuff.jpg",
        "https://s13.postimg.org/oou4yaqp3/Grinds_my_gears1.jpg",
        "https://s22.postimg.org/9mkkeg19t/giphy.gif",
        "https://s20.postimg.org/bcrfwvml9/mic_drop.gif"
      ],
      "links": [
        "https://youtu.be/MqBNSMbEzI0",
        "https://youtu.be/3yVI3UgtvwU",
        "https://youtu.be/sXQkXXBqj_U",
        "https://youtu.be/_9BGLtqqkVI",
        "https://youtu.be/hTWKbfoikeg",
        "https://youtu.be/Q685Ko2DHDs"
      ],
      "tags": [
        "philosophy",
        "rant",
        "steemit",
        "new-age",
        "mic-drop"
      ],
      "users": [
        "stellabelle"
      ]
    },
    "max_accepted_payout": "1000000.000 HBD",
    "net_rshares": 42002060944755,
    "payout": 144.429,
    "payout_at": "2016-09-17T22:42:27",
    "pending_payout_value": "144.429 HBD",
    "percent_hbd": 10000,
    "permlink": "when-concerning-steemit-i-ve-come-to-realize-i-m-too-old-for-this",
    "post_id": 1201660,
    "promoted": "138.990 HBD",
    "replies": [],
    "stats": {
      "flag_weight": 0.0,
      "gray": false,
      "hide": false,
      "total_votes": 287
    },
    "title": "When Concerning Steemit, I've Come To Realize ... I'm Too Old For This",
    "updated": "2016-09-10T22:42:27",
    "url": "/philosophy/@tuck-fheman/when-concerning-steemit-i-ve-come-to-realize-i-m-too-old-for-this"
  },
  {
    "active_votes": [
      {
        "rshares": 6861504603453,
        "voter": "xeldal"
      },
      {
        "rshares": 5924234483394,
        "voter": "enki"
      },
      {
        "rshares": 3099192085,
        "voter": "boy"
      },
      {
        "rshares": 3762483356,
        "voter": "bue-witness"
      },
      {
        "rshares": 697315118,
        "voter": "bunny"
      },
      {
        "rshares": 54010291270,
        "voter": "bue"
      },
      {
        "rshares": 1660921578,
        "voter": "mini"
      },
      {
        "rshares": 213661759,
        "voter": "moon"
      },
      {
        "rshares": 34042532834,
        "voter": "aizensou"
      },
      {
        "rshares": 1305259200680,
        "voter": "steempower"
      },
      {
        "rshares": 622724514,
        "voter": "healthcare"
      },
      {
        "rshares": 967195088,
        "voter": "daniel.pan"
      },
      {
        "rshares": 297041068093,
        "voter": "chitty"
      },
      {
        "rshares": 31488210815,
        "voter": "marketingmonk"
      },
      {
        "rshares": 288140285,
        "voter": "helen.tan"
      },
      {
        "rshares": 46091338521,
        "voter": "cyan91"
      },
      {
        "rshares": 15147326440,
        "voter": "jademont"
      },
      {
        "rshares": 29088869234,
        "voter": "instructor2121"
      },
      {
        "rshares": 2141819165,
        "voter": "gekko"
      },
      {
        "rshares": 692261667883,
        "voter": "nanzo-scoop"
      },
      {
        "rshares": 91718922101,
        "voter": "william-noe"
      },
      {
        "rshares": 12107337047,
        "voter": "cian.dafe"
      },
      {
        "rshares": 236023250940,
        "voter": "mummyimperfect"
      },
      {
        "rshares": 60750319225,
        "voter": "tosch"
      },
      {
        "rshares": 79657198561,
        "voter": "asch"
      },
      {
        "rshares": 1431846323,
        "voter": "murh"
      },
      {
        "rshares": 602018562,
        "voter": "kodi"
      },
      {
        "rshares": 586286811332,
        "voter": "cyber"
      },
      {
        "rshares": 64284714678,
        "voter": "ak2020"
      },
      {
        "rshares": 37511548124,
        "voter": "justtryme90"
      },
      {
        "rshares": 8876135165,
        "voter": "johnerfx"
      },
      {
        "rshares": 391275913,
        "voter": "applecrisp"
      },
      {
        "rshares": 283907126703,
        "voter": "hisnameisolllie"
      },
      {
        "rshares": 1267900436,
        "voter": "fjccoin"
      },
      {
        "rshares": 324237643911,
        "voter": "innuendo"
      },
      {
        "rshares": 20461884222,
        "voter": "ossama-benjohn"
      },
      {
        "rshares": 929020048,
        "voter": "johnerminer"
      },
      {
        "rshares": 1946608196,
        "voter": "stephen-somers"
      },
      {
        "rshares": 1429697273174,
        "voter": "sean-king"
      },
      {
        "rshares": 686886224488,
        "voter": "publicworker"
      },
      {
        "rshares": 2267977999,
        "voter": "alefernandez"
      },
      {
        "rshares": 4224777539,
        "voter": "crok"
      },
      {
        "rshares": 269921024,
        "voter": "ales"
      },
      {
        "rshares": 6602307370,
        "voter": "emhaze222"
      },
      {
        "rshares": 266592981,
        "voter": "ladyclair"
      },
      {
        "rshares": 204013843843,
        "voter": "asmolokalo"
      },
      {
        "rshares": 31880219495,
        "voter": "hitmeasap"
      },
      {
        "rshares": 14064842257,
        "voter": "elyaque"
      },
      {
        "rshares": 25445573460,
        "voter": "tcfxyz"
      },
      {
        "rshares": 7049471118,
        "voter": "futurefood"
      },
      {
        "rshares": 105798664165,
        "voter": "cdubendo"
      },
      {
        "rshares": 147240421388,
        "voter": "knircky"
      },
      {
        "rshares": 41975059972,
        "voter": "mrwang"
      },
      {
        "rshares": 1131075798,
        "voter": "mixa"
      },
      {
        "rshares": 910500105,
        "voter": "dicov"
      },
      {
        "rshares": 4487120677,
        "voter": "gikitiki"
      },
      {
        "rshares": 37452179267,
        "voter": "biophil"
      },
      {
        "rshares": 17227141109,
        "voter": "keithsmih"
      },
      {
        "rshares": 341993222983,
        "voter": "bobbylee"
      },
      {
        "rshares": 24443224969,
        "voter": "igster"
      },
      {
        "rshares": 237985094,
        "voter": "zoicneo"
      },
      {
        "rshares": 6129221694,
        "voter": "cryptosi"
      },
      {
        "rshares": 4162801602,
        "voter": "herverisson"
      },
      {
        "rshares": 19507833697,
        "voter": "artific"
      },
      {
        "rshares": 3498346239,
        "voter": "maximkichev"
      },
      {
        "rshares": 61164729955,
        "voter": "thylbom"
      },
      {
        "rshares": 16745418519,
        "voter": "chessmonster"
      },
      {
        "rshares": 365818230,
        "voter": "meteor78"
      },
      {
        "rshares": 841259695,
        "voter": "happyphoenix"
      },
      {
        "rshares": 7093464346,
        "voter": "webdeals"
      },
      {
        "rshares": 268956346,
        "voter": "faraz"
      },
      {
        "rshares": 4975171514,
        "voter": "beanz"
      },
      {
        "rshares": 112914306,
        "voter": "wunju"
      },
      {
        "rshares": 1909130025,
        "voter": "bullionstackers"
      },
      {
        "rshares": 1993799598,
        "voter": "andreynoch"
      },
      {
        "rshares": 2456070989,
        "voter": "belkins"
      },
      {
        "rshares": 19988784545,
        "voter": "williambanks"
      },
      {
        "rshares": 731723236,
        "voter": "pakisnxt"
      },
      {
        "rshares": 15792261330,
        "voter": "magicmonk"
      },
      {
        "rshares": 238353830,
        "voter": "sillygoon"
      },
      {
        "rshares": 88049981467,
        "voter": "sirwinchester"
      },
      {
        "rshares": 1253580623,
        "voter": "villainblack"
      },
      {
        "rshares": 3360204812,
        "voter": "cmorton"
      },
      {
        "rshares": 54355927,
        "voter": "tinca"
      },
      {
        "rshares": 10079591501,
        "voter": "goingpaper"
      },
      {
        "rshares": 119439375,
        "voter": "harrycoins"
      },
      {
        "rshares": 12237404949,
        "voter": "borran"
      },
      {
        "rshares": 1145609627,
        "voter": "bledarus"
      },
      {
        "rshares": 62332619,
        "voter": "razberrijam"
      },
      {
        "rshares": 7285753049,
        "voter": "theb0red1"
      },
      {
        "rshares": 74755928437,
        "voter": "helikopterben"
      },
      {
        "rshares": 59512540,
        "voter": "boatman"
      },
      {
        "rshares": 3307244480,
        "voter": "steveo"
      },
      {
        "rshares": 12186383861,
        "voter": "hilarski"
      },
      {
        "rshares": 58931862,
        "voter": "wesley399"
      },
      {
        "rshares": 1763987441,
        "voter": "unchainedio"
      },
      {
        "rshares": 8629294348,
        "voter": "etcmike"
      },
      {
        "rshares": 14595736783,
        "voter": "krnel"
      },
      {
        "rshares": 7184799429,
        "voter": "daveks"
      },
      {
        "rshares": 1604647373,
        "voter": "penguinpablo"
      },
      {
        "rshares": 14193492376,
        "voter": "mikehere"
      },
      {
        "rshares": 23042993006,
        "voter": "luminousvisions"
      },
      {
        "rshares": 110372559,
        "voter": "team101"
      },
      {
        "rshares": 84510824,
        "voter": "tito-baron"
      },
      {
        "rshares": 1230797907,
        "voter": "profitgenerator"
      },
      {
        "rshares": 55821108,
        "voter": "seckorama"
      },
      {
        "rshares": 117787613687,
        "voter": "dan-bn"
      },
      {
        "rshares": 24239498471,
        "voter": "dubi"
      },
      {
        "rshares": 140568307,
        "voter": "alina1"
      },
      {
        "rshares": 56372318,
        "voter": "patelincho"
      },
      {
        "rshares": 269335193609,
        "voter": "charlieshrem"
      },
      {
        "rshares": 2984877979,
        "voter": "gringalicious"
      },
      {
        "rshares": 69255373,
        "voter": "kattz"
      },
      {
        "rshares": 50531169,
        "voter": "wolfdaze"
      },
      {
        "rshares": 51342868,
        "voter": "steemitmag"
      },
      {
        "rshares": 65057583,
        "voter": "marquismiller"
      },
      {
        "rshares": 3319272143,
        "voter": "adilsontsilva"
      },
      {
        "rshares": 136773607,
        "voter": "iggy"
      },
      {
        "rshares": 50245473,
        "voter": "rony"
      },
      {
        "rshares": 3365771273,
        "voter": "merlin"
      }
    ],
    "author": "marketingmonk",
    "author_payout_value": "0.000 HBD",
    "author_reputation": 59.83,
    "beneficiaries": [],
    "blacklists": [],
    "body": "https://steemit-bucket-4a743ec2.s3.amazonaws.com/Getting%20More%20Attention%20By%20Using%20The%20Promote%20Button.jpg\n\nThis is the eighth installment of what will turn into a paid course called The Complete Steemit Course.\n\nHere is Steemit Tutorial 8: Getting More Attention By Using The Promote Button:\n\n**(please note that this video was updated with a corrected version 23 hours after the original post)**\nhttps://www.youtube.com/watch?v=ob9Zksnguzg\n\nPrevious lessons here:\nhttps://steemit.com/steemit/@marketingmonk/steemit-tutorial-1-creating-an-account-on-steemit-video\n\nhttps://steemit.com/steemit/@marketingmonk/steemit-tutorial-2-steemit-account-dashboard-overview-video\n\nhttps://steemit.com/steemit/@marketingmonk/steemit-tutorial-3-creating-our-first-ever-basic-post-video\n\nhttps://steemit.com/steemit/@marketingmonk/steemit-tutorial-4-reading-writing-decorating-and-voting-on-comments-video\n\nhttps://steemit.com/steemit/@marketingmonk/steemit-tutorial-5-voting-power-weighting-spying-and-managing-video\n\nhttps://steemit.com/steemit/@marketingmonk/steemit-tutorial-6-getting-paid-twice-from-the-steem-network-video\n\nhttps://steemit.com/steemit/@marketingmonk/steemit-tutorial-7-buying-steem-power-with-steem-dollars-or-bitcoin-video\n\nPlease upvote to show your support, I really appreciate it.\nhttps://img1.steemit.com/0x0/https://www.cryptoversity.com/wp-content/uploads/Steemit-upvote-cta-3.gif",
    "category": "steemit",
    "children": 18,
    "created": "2016-08-31T12:33:12",
    "curator_payout_value": "0.000 HBD",
    "depth": 0,
    "is_paidout": false,
    "json_metadata": {
      "image": [
        "https://steemit-bucket-4a743ec2.s3.amazonaws.com/Getting%20More%20Attention%20By%20Using%20The%20Promote%20Button.jpg",
        "https://img.youtube.com/vi/ob9Zksnguzg/0.jpg",
        "https://img1.steemit.com/0x0/https://www.cryptoversity.com/wp-content/uploads/Steemit-upvote-cta-3.gif"
      ],
      "links": [
        "https://www.youtube.com/watch?v=ob9Zksnguzg",
        "https://steemit.com/steemit/@marketingmonk/steemit-tutorial-1-creating-an-account-on-steemit-video",
        "https://steemit.com/steemit/@marketingmonk/steemit-tutorial-2-steemit-account-dashboard-overview-video",
        "https://steemit.com/steemit/@marketingmonk/steemit-tutorial-3-creating-our-first-ever-basic-post-video",
        "https://steemit.com/steemit/@marketingmonk/steemit-tutorial-4-reading-writing-decorating-and-voting-on-comments-video",
        "https://steemit.com/steemit/@marketingmonk/steemit-tutorial-5-voting-power-weighting-spying-and-managing-video",
        "https://steemit.com/steemit/@marketingmonk/steemit-tutorial-6-getting-paid-twice-from-the-steem-network-video",
        "https://steemit.com/steemit/@marketingmonk/steemit-tutorial-7-buying-steem-power-with-steem-dollars-or-bitcoin-video"
      ],
      "tags": [
        "steemit",
        "tutorial",
        "howto",
        "steem",
        "video"
      ]
    },
    "max_accepted_payout": "1000000.000 HBD",
    "net_rshares": 21127721369166,
    "payout": 55.734,
    "payout_at": "2016-09-07T12:33:12",
    "pending_payout_value": "55.734 HBD",
    "percent_hbd": 10000,
    "permlink": "steemit-tutorial-8-getting-more-attention-by-using-the-promote-button-video",
    "post_id": 1070097,
    "promoted": "121.000 HBD",
    "replies": [],
    "stats": {
      "flag_weight": 0.0,
      "gray": false,
      "hide": false,
      "total_votes": 120
    },
    "title": "Steemit Tutorial 8: Getting More Attention By Using The Promote Button [VIDEO]",
    "updated": "2016-09-01T11:32:03",
    "url": "/steemit/@marketingmonk/steemit-tutorial-8-getting-more-attention-by-using-the-promote-button-video"
  },
  {
    "active_votes": [
      {
        "rshares": 12795811535287,
        "voter": "rainman"
      },
      {
        "rshares": 372316824459,
        "voter": "berkah"
      },
      {
        "rshares": 143470451897,
        "voter": "svk"
      },
      {
        "rshares": 898984807435,
        "voter": "liondani"
      },
      {
        "rshares": 2479522245,
        "voter": "boy"
      },
      {
        "rshares": 3010199699,
        "voter": "bue-witness"
      },
      {
        "rshares": 557883458,
        "voter": "bunny"
      },
      {
        "rshares": 471708497687,
        "voter": "ajvest"
      },
      {
        "rshares": 43227563325,
        "voter": "bue"
      },
      {
        "rshares": 1328824820,
        "voter": "mini"
      },
      {
        "rshares": 4508768018730,
        "voter": "witness.svk"
      },
      {
        "rshares": 170935941,
        "voter": "moon"
      },
      {
        "rshares": 34042532834,
        "voter": "aizensou"
      },
      {
        "rshares": 748581030023,
        "voter": "pfunk"
      },
      {
        "rshares": 258887406145,
        "voter": "pheonike"
      },
      {
        "rshares": 498208362,
        "voter": "healthcare"
      },
      {
        "rshares": 773801809,
        "voter": "daniel.pan"
      },
      {
        "rshares": 823317276751,
        "voter": "steemrollin"
      },
      {
        "rshares": 302719926634,
        "voter": "chitty"
      },
      {
        "rshares": 230521375,
        "voter": "helen.tan"
      },
      {
        "rshares": 411375686313,
        "voter": "chryspano"
      },
      {
        "rshares": 26495887427,
        "voter": "blackjincrypto"
      },
      {
        "rshares": 74201402070,
        "voter": "easteagle13"
      },
      {
        "rshares": 34871878822,
        "voter": "james-show"
      },
      {
        "rshares": 1431720661,
        "voter": "murh"
      },
      {
        "rshares": 935697420,
        "voter": "leprechaun"
      },
      {
        "rshares": 37511548124,
        "voter": "justtryme90"
      },
      {
        "rshares": 10314861252,
        "voter": "johnerfx"
      },
      {
        "rshares": 22856402506,
        "voter": "m4ever"
      },
      {
        "rshares": 13346309453,
        "voter": "samether"
      },
      {
        "rshares": 1138049559,
        "voter": "johnerminer"
      },
      {
        "rshares": 129179648054,
        "voter": "thedashguy"
      },
      {
        "rshares": 80804852397,
        "voter": "kimziv"
      },
      {
        "rshares": 302683064,
        "voter": "gerber"
      },
      {
        "rshares": 198782719642,
        "voter": "asmolokalo"
      },
      {
        "rshares": 7568897676,
        "voter": "kakradetome"
      },
      {
        "rshares": 124699737174,
        "voter": "chhayll"
      },
      {
        "rshares": 246771748723,
        "voter": "fabio"
      },
      {
        "rshares": 69581481372,
        "voter": "derekareith"
      },
      {
        "rshares": 12190374285,
        "voter": "picokernel"
      },
      {
        "rshares": 143380752469,
        "voter": "jacor"
      },
      {
        "rshares": 22868729155,
        "voter": "halo"
      },
      {
        "rshares": 614055241,
        "voter": "cherish"
      },
      {
        "rshares": 192822819405,
        "voter": "jesta"
      },
      {
        "rshares": 35158481984,
        "voter": "biophil"
      },
      {
        "rshares": 10952411440,
        "voter": "senseiteekay"
      },
      {
        "rshares": 13738300392,
        "voter": "all-of-us"
      },
      {
        "rshares": 4088366345,
        "voter": "rainchen"
      },
      {
        "rshares": 365818230,
        "voter": "meteor78"
      },
      {
        "rshares": 13209938808,
        "voter": "carlidos"
      },
      {
        "rshares": 841259695,
        "voter": "happyphoenix"
      },
      {
        "rshares": 7093464346,
        "voter": "webdeals"
      },
      {
        "rshares": 11024739057,
        "voter": "sisterholics"
      },
      {
        "rshares": 268956346,
        "voter": "faraz"
      },
      {
        "rshares": 10075803326,
        "voter": "michaeldodridge"
      },
      {
        "rshares": 19988784545,
        "voter": "williambanks"
      },
      {
        "rshares": 4933785537,
        "voter": "jed78"
      },
      {
        "rshares": 3865257981,
        "voter": "dumar022"
      },
      {
        "rshares": 402412698850,
        "voter": "laonie"
      },
      {
        "rshares": 76821186326,
        "voter": "twinner"
      },
      {
        "rshares": 8809932426,
        "voter": "myfirst"
      },
      {
        "rshares": 96034818561,
        "voter": "somebody"
      },
      {
        "rshares": 3834585662,
        "voter": "flysaga"
      },
      {
        "rshares": 19814357142,
        "voter": "midnightoil"
      },
      {
        "rshares": 45623458403,
        "voter": "xiaohui"
      },
      {
        "rshares": 1327717265,
        "voter": "xiaokongcom"
      },
      {
        "rshares": 63750303,
        "voter": "biggdogg"
      },
      {
        "rshares": 54355927,
        "voter": "tinca"
      },
      {
        "rshares": 14055782855,
        "voter": "scaredycatguide"
      },
      {
        "rshares": 3569023089,
        "voter": "xianjun"
      },
      {
        "rshares": 1227614779,
        "voter": "bledarus"
      },
      {
        "rshares": 235297436,
        "voter": "microluck"
      },
      {
        "rshares": 6857054058,
        "voter": "theb0red1"
      },
      {
        "rshares": 71823713867,
        "voter": "helikopterben"
      },
      {
        "rshares": 50094162,
        "voter": "pollina"
      },
      {
        "rshares": 11509623311,
        "voter": "hilarski"
      },
      {
        "rshares": 54497132206,
        "voter": "skum"
      },
      {
        "rshares": 12067433608,
        "voter": "ryan-singer"
      },
      {
        "rshares": 384999327,
        "voter": "eight-rad"
      },
      {
        "rshares": 2311621568,
        "voter": "blockcodes"
      },
      {
        "rshares": 53351751,
        "voter": "rusla"
      },
      {
        "rshares": 50094345,
        "voter": "kosmatimuc"
      },
      {
        "rshares": 84510824,
        "voter": "tito-baron"
      },
      {
        "rshares": 23711007445,
        "voter": "dubi"
      },
      {
        "rshares": 50196187,
        "voter": "post-successful"
      },
      {
        "rshares": 4120769636,
        "voter": "burnin"
      },
      {
        "rshares": 50531169,
        "voter": "wolfdaze"
      },
      {
        "rshares": 1301309204,
        "voter": "robotev"
      }
    ],
    "author": "james-show",
    "author_payout_value": "0.000 HBD",
    "author_reputation": 58.33,
    "beneficiaries": [],
    "blacklists": [],
    "body": "Trading Steem is not hard. In that part steem(it) development team has done a great job. Compared to the establishment Steem is a huge step in the right direction of fairness and openness.\n# How the JS index works\nJS measures the net result of the buyers and sellers actions.\nEveryone buying Steem (or anything else) in any financial instruments market does it to profit. Interesting distinction is however if those buyers or seller do expect their profits short term or long term.\n\n## How short term Steem \u201cspeculators\u201d act?\nThey buy steem and expect return in a matter of days, weeks, months.\n## How long term Steem \u201cinvestors\u201d act?\nThey buy steem and expect return in a matter of years. They buy steem, and in this particular high devaluation environment that Steem is quickly power up .\n\nMeasuring the net result from the Steem \u201cspeculators\u201d and  Steem \u201cinvestors\u201d buying, compared to Steem owners selling can give us the ultimate tool to measure the future price movement of Steem (in  the short to medium term).\n\n# And it turns out to be incredible easy\nAll of the described above is nothing more than the \u2026 increase/decrease of the total Steem held by exchanges! (with a few caveats I will keep  proprietary for now)\n\n# How this matters\u2026 give me a practice example.\nOK here it is.\nSteem hit a local low of 0.001224 btc/steem on 08/29 4:30 UTC. Since then the price is generally higher. Should you buy (out of FOMO) or wait for the price to come down to even lower levels sometime in the near future.\nIf JS index has fallen down since  08/29 (as it has indeed) this means that all the buying (price increase) was by short time speculators. So, if no news justifie their buying exuberance, you can expect soon those speculative buyers to give up/cash out of their short term position and the price to continue following the long term trend of the JS index itself.\n\n# Initial JS index\nThe index is set at __1000.000__ as for 2016-07-26 12:56:12 UTC\n\n# Current  JS index\nAs of 2016-08-31 03:03 (UTC) the value is: __553.650__\n#\n[EDIT]\nBelow is a chart of JS Index and Steem price for July 27th to Aug 30th NB some days have more than one data point.\n#\n\n![Imgur](http://i.imgur.com/Ukazg7G.png)\n#\n#steemit #trading #finance #steem #money",
    "category": "steemit",
    "children": 18,
    "created": "2016-08-31T04:11:24",
    "curator_payout_value": "0.000 HBD",
    "depth": 0,
    "is_paidout": false,
    "json_metadata": {
      "image": [
        "http://i.imgur.com/Ukazg7G.png"
      ],
      "tags": [
        "steemit",
        "trading",
        "finance",
        "steem",
        "money"
      ]
    },
    "max_accepted_payout": "1000000.000 HBD",
    "net_rshares": 24273347100904,
    "payout": 68.636,
    "payout_at": "2016-09-07T04:11:24",
    "pending_payout_value": "68.636 HBD",
    "percent_hbd": 10000,
    "permlink": "the-only-index-you-should-know-to-successfully-buy-and-sell-steem-introducing-the-js-index",
    "post_id": 1066139,
    "promoted": "110.001 HBD",
    "replies": [],
    "stats": {
      "flag_weight": 0.0,
      "gray": false,
      "hide": false,
      "total_votes": 88
    },
    "title": "The only index you should know to successfully buy and sell Steem \u2013 Introducing the JS Index!",
    "updated": "2016-08-31T15:07:03",
    "url": "/steemit/@james-show/the-only-index-you-should-know-to-successfully-buy-and-sell-steem-introducing-the-js-index"
  }
]
