[
  {
    "active_votes": [],
    "author": "test-creator",
    "author_payout_value": "0.000 HBD",
    "author_reputation": 25.0,
    "author_role": "guest",
    "author_title": "",
    "beneficiaries": [],
    "blacklists": [],
    "body": "hello from pinned post 2",
    "category": "hive-135485",
    "children": 0,
    "community": "hive-135485",
    "community_title": "World News",
    "created": "2016-09-15T18:01:51",
    "curator_payout_value": "0.000 HBD",
    "depth": 0,
    "is_paidout": false,
    "json_metadata": {},
    "max_accepted_payout": "1000000.000 HBD",
    "net_rshares": 0,
    "payout": 0.0,
    "payout_at": "2016-09-22T18:01:51",
    "pending_payout_value": "0.000 HBD",
    "percent_hbd": 10000,
    "permlink": "pinpost2",
    "post_id": 1256930,
    "promoted": "0.000 HBD",
    "replies": [],
    "stats": {
      "flag_weight": 0.0,
      "gray": false,
      "hide": false,
      "is_pinned": true,
      "total_votes": 0
    },
    "title": "Pinpost 2",
    "updated": "2016-09-15T18:01:51",
    "url": "/hive-135485/@test-creator/pinpost2"
  },
  {
    "active_votes": [
      {
        "rshares": 30000000,
        "voter": "alice"
      }
    ],
    "author": "test-creator",
    "author_payout_value": "0.000 HBD",
    "author_reputation": 25.0,
    "author_role": "guest",
    "author_title": "",
    "beneficiaries": [],
    "blacklists": [],
    "body": "hello from pinned post 1",
    "category": "hive-135485",
    "children": 0,
    "community": "hive-135485",
    "community_title": "World News",
    "created": "2016-09-15T18:01:51",
    "curator_payout_value": "0.000 HBD",
    "depth": 0,
    "is_paidout": false,
    "json_metadata": {},
    "max_accepted_payout": "1000000.000 HBD",
    "net_rshares": 30000000,
    "payout": 0.003,
    "payout_at": "2016-09-22T18:01:51",
    "pending_payout_value": "0.003 HBD",
    "percent_hbd": 10000,
    "permlink": "pinpost1",
    "post_id": 1256929,
    "promoted": "0.000 HBD",
    "replies": [],
    "stats": {
      "flag_weight": 0.0,
      "gray": false,
      "hide": false,
      "is_pinned": true,
      "total_votes": 1
    },
    "title": "Pinpost 1",
    "updated": "2016-09-15T18:01:51",
    "url": "/hive-135485/@test-creator/pinpost1"
  },
  {
    "active_votes": [],
    "author": "test-creator",
    "author_payout_value": "0.000 HBD",
    "author_reputation": 25.0,
    "author_role": "guest",
    "author_title": "",
    "beneficiaries": [],
    "blacklists": [],
    "body": "This is my pinned post in hive-135485 community",
    "category": "hive-135485",
    "children": 0,
    "community": "hive-135485",
    "community_title": "World News",
    "created": "2016-09-15T18:01:51",
    "curator_payout_value": "0.000 HBD",
    "depth": 0,
    "is_paidout": false,
    "json_metadata": {},
    "max_accepted_payout": "1000000.000 HBD",
    "net_rshares": 0,
    "payout": 0.0,
    "payout_at": "2016-09-22T18:01:51",
    "pending_payout_value": "0.000 HBD",
    "percent_hbd": 10000,
    "permlink": "pinned-post",
    "post_id": 1256928,
    "promoted": "0.000 HBD",
    "replies": [],
    "stats": {
      "flag_weight": 0.0,
      "gray": false,
      "hide": false,
      "is_pinned": true,
      "total_votes": 0
    },
    "title": "My pinned post",
    "updated": "2016-09-15T18:01:51",
    "url": "/hive-135485/@test-creator/pinned-post"
  },
  {
    "active_votes": [
      {
        "rshares": 20000000,
        "voter": "ignoreall"
      }
    ],
    "author": "agartha",
    "author_payout_value": "0.000 HBD",
    "author_reputation": 25.0,
    "author_role": "guest",
    "author_title": "",
    "beneficiaries": [],
    "blacklists": [],
    "body": "Can someone tell ignoreall to stop muting me?",
    "category": "hive-135485",
    "children": 0,
    "community": "hive-135485",
    "community_title": "World News",
    "created": "2016-09-15T18:02:03",
    "curator_payout_value": "0.000 HBD",
    "depth": 0,
    "is_paidout": false,
    "json_metadata": {},
    "max_accepted_payout": "1000000.000 HBD",
    "net_rshares": 20000000,
    "payout": 0.002,
    "payout_at": "2016-09-22T18:02:03",
    "pending_payout_value": "0.002 HBD",
    "percent_hbd": 10000,
    "permlink": "regular-post",
    "post_id": 1256960,
    "promoted": "0.000 HBD",
    "replies": [],
    "stats": {
      "flag_weight": 0.0,
      "gray": false,
      "hide": false,
      "total_votes": 1
    },
    "title": "Why am I ignored by ignoreall",
    "updated": "2016-09-15T18:02:03",
    "url": "/hive-135485/@agartha/regular-post"
  },
  {
    "active_votes": [
      {
        "rshares": 11000000,
        "voter": "alice"
      }
    ],
    "author": "ignoreall",
    "author_payout_value": "0.000 HBD",
    "author_reputation": 25.0,
    "author_role": "guest",
    "author_title": "",
    "beneficiaries": [],
    "blacklists": [],
    "body": "I want to write something to the community as well",
    "category": "hive-135485",
    "children": 0,
    "community": "hive-135485",
    "community_title": "World News",
    "created": "2016-09-15T18:02:00",
    "curator_payout_value": "0.000 HBD",
    "depth": 0,
    "is_paidout": false,
    "json_metadata": {},
    "max_accepted_payout": "1000000.000 HBD",
    "net_rshares": 11000000,
    "payout": 0.001,
    "payout_at": "2016-09-22T18:02:00",
    "pending_payout_value": "0.001 HBD",
    "percent_hbd": 10000,
    "permlink": "regular-post",
    "post_id": 1256955,
    "promoted": "0.000 HBD",
    "replies": [],
    "stats": {
      "flag_weight": 0.0,
      "gray": false,
      "hide": false,
      "total_votes": 1
    },
    "title": "Regular community post",
    "updated": "2016-09-15T18:02:00",
    "url": "/hive-135485/@ignoreall/regular-post"
  },
  {
    "active_votes": [
      {
        "rshares": 40000000,
        "voter": "alice"
      }
    ],
    "author": "blocktrades",
    "author_payout_value": "0.000 HBD",
    "author_reputation": 68.63,
    "author_role": "admin",
    "author_title": "",
    "beneficiaries": [],
    "blacklists": [],
    "body": "only crocodiles 01",
    "category": "hive-135485",
    "children": 0,
    "community": "hive-135485",
    "community_title": "World News",
    "created": "2016-09-15T18:02:00",
    "curator_payout_value": "0.000 HBD",
    "depth": 0,
    "is_paidout": false,
    "json_metadata": {},
    "max_accepted_payout": "1000000.000 HBD",
    "net_rshares": 40000000,
    "payout": 0.004,
    "payout_at": "2016-09-22T18:02:00",
    "pending_payout_value": "0.004 HBD",
    "percent_hbd": 10000,
    "permlink": "crocodile01",
    "post_id": 1256953,
    "promoted": "0.000 HBD",
    "replies": [],
    "stats": {
      "flag_weight": 0.0,
      "gray": true,
      "hide": false,
      "total_votes": 1
    },
    "title": "powerful crocodile 01",
    "updated": "2016-09-15T18:02:00",
    "url": "/hive-135485/@blocktrades/crocodile01"
  },
  {
    "active_votes": [
      {
        "rshares": 20000000,
        "voter": "alice"
      }
    ],
    "author": "test-creator",
    "author_payout_value": "0.000 HBD",
    "author_reputation": 25.0,
    "author_role": "guest",
    "author_title": "",
    "beneficiaries": [],
    "blacklists": [],
    "body": "hello from non-pinned post 3",
    "category": "hive-135485",
    "children": 0,
    "community": "hive-135485",
    "community_title": "World News",
    "created": "2016-09-15T18:01:51",
    "curator_payout_value": "0.000 HBD",
    "depth": 0,
    "is_paidout": false,
    "json_metadata": {},
    "max_accepted_payout": "1000000.000 HBD",
    "net_rshares": 20000000,
    "payout": 0.002,
    "payout_at": "2016-09-22T18:01:51",
    "pending_payout_value": "0.002 HBD",
    "percent_hbd": 10000,
    "permlink": "nonpinpost3",
    "post_id": 1256943,
    "promoted": "0.000 HBD",
    "replies": [],
    "stats": {
      "flag_weight": 0.0,
      "gray": false,
      "hide": false,
      "total_votes": 1
    },
    "title": "Not pinned post 3",
    "updated": "2016-09-15T18:01:51",
    "url": "/hive-135485/@test-creator/nonpinpost3"
  },
  {
    "active_votes": [],
    "author": "test-creator",
    "author_payout_value": "0.000 HBD",
    "author_reputation": 25.0,
    "author_role": "guest",
    "author_title": "",
    "beneficiaries": [],
    "blacklists": [],
    "body": "hello from non-pinned post 2",
    "category": "hive-135485",
    "children": 0,
    "community": "hive-135485",
    "community_title": "World News",
    "created": "2016-09-15T18:01:51",
    "curator_payout_value": "0.000 HBD",
    "depth": 0,
    "is_paidout": false,
    "json_metadata": {},
    "max_accepted_payout": "1000000.000 HBD",
    "net_rshares": 0,
    "payout": 0.0,
    "payout_at": "2016-09-22T18:01:51",
    "pending_payout_value": "0.000 HBD",
    "percent_hbd": 10000,
    "permlink": "nonpinpost2",
    "post_id": 1256934,
    "promoted": "0.000 HBD",
    "replies": [],
    "stats": {
      "flag_weight": 0.0,
      "gray": false,
      "hide": false,
      "total_votes": 0
    },
    "title": "Not pinned post 2",
    "updated": "2016-09-15T18:01:51",
    "url": "/hive-135485/@test-creator/nonpinpost2"
  },
  {
    "active_votes": [
      {
        "rshares": 40000000,
        "voter": "alice"
      }
    ],
    "author": "test-creator",
    "author_payout_value": "0.000 HBD",
    "author_reputation": 25.0,
    "author_role": "guest",
    "author_title": "",
    "beneficiaries": [],
    "blacklists": [],
    "body": "hello from non-pinned post 1",
    "category": "hive-135485",
    "children": 0,
    "community": "hive-135485",
    "community_title": "World News",
    "created": "2016-09-15T18:01:51",
    "curator_payout_value": "0.000 HBD",
    "depth": 0,
    "is_paidout": false,
    "json_metadata": {},
    "max_accepted_payout": "1000000.000 HBD",
    "net_rshares": 40000000,
    "payout": 0.004,
    "payout_at": "2016-09-22T18:01:51",
    "pending_payout_value": "0.004 HBD",
    "percent_hbd": 10000,
    "permlink": "nonpinpost1",
    "post_id": 1256931,
    "promoted": "0.000 HBD",
    "replies": [],
    "stats": {
      "flag_weight": 0.0,
      "gray": false,
      "hide": false,
      "total_votes": 1
    },
    "title": "Not pinned post 1",
    "updated": "2016-09-15T18:01:51",
    "url": "/hive-135485/@test-creator/nonpinpost1"
  },
  {
    "active_votes": [],
    "author": "test-creator",
    "author_payout_value": "0.000 HBD",
    "author_reputation": 25.0,
    "author_role": "guest",
    "author_title": "",
    "beneficiaries": [],
    "blacklists": [],
    "body": "This is my muted post in hive-135485 community",
    "category": "hive-135485",
    "children": 0,
    "community": "hive-135485",
    "community_title": "World News",
    "created": "2016-09-15T18:01:51",
    "curator_payout_value": "0.000 HBD",
    "depth": 0,
    "is_paidout": false,
    "json_metadata": {},
    "max_accepted_payout": "1000000.000 HBD",
    "net_rshares": 0,
    "payout": 0.0,
    "payout_at": "2016-09-22T18:01:51",
    "pending_payout_value": "0.000 HBD",
    "percent_hbd": 10000,
    "permlink": "muted-post",
    "post_id": 1256927,
    "promoted": "0.000 HBD",
    "replies": [],
    "stats": {
      "flag_weight": 0.0,
      "gray": true,
      "hide": false,
      "total_votes": 0
    },
    "title": "My muted post",
    "updated": "2016-09-15T18:01:51",
    "url": "/hive-135485/@test-creator/muted-post"
  }
]
