[
  {
    "active_votes": [],
    "author": "good-karma",
    "author_payout_value": "0.000 HBD",
    "author_reputation": 62.74,
    "beneficiaries": [],
    "blacklists": [],
    "body": "only spiders 02",
    "category": "hive-117600",
    "children": 0,
    "created": "2016-09-15T18:01:57",
    "curator_payout_value": "0.000 HBD",
    "depth": 0,
    "is_paidout": false,
    "json_metadata": {},
    "max_accepted_payout": "1000000.000 HBD",
    "net_rshares": 0,
    "payout": 0.0,
    "payout_at": "2016-09-22T18:01:57",
    "pending_payout_value": "0.000 HBD",
    "percent_hbd": 10000,
    "permlink": "spider02",
    "post_id": 1256947,
    "promoted": "0.000 HBD",
    "replies": [],
    "stats": {
      "flag_weight": 0.0,
      "gray": true,
      "hide": false,
      "is_pinned": true,
      "total_votes": 0
    },
    "title": "powerful spider 02",
    "updated": "2016-09-15T18:01:57",
    "url": "/hive-117600/@good-karma/spider02"
  },
  {
    "active_votes": [],
    "author": "good-karma",
    "author_payout_value": "0.000 HBD",
    "author_reputation": 62.74,
    "beneficiaries": [],
    "blacklists": [],
    "body": "only spiders 01",
    "category": "hive-117600",
    "children": 0,
    "created": "2016-09-15T18:01:57",
    "curator_payout_value": "0.000 HBD",
    "depth": 0,
    "is_paidout": false,
    "json_metadata": {},
    "max_accepted_payout": "1000000.000 HBD",
    "net_rshares": 0,
    "payout": 0.0,
    "payout_at": "2016-09-22T18:01:57",
    "pending_payout_value": "0.000 HBD",
    "percent_hbd": 10000,
    "permlink": "spider01",
    "post_id": 1256946,
    "promoted": "0.000 HBD",
    "replies": [],
    "stats": {
      "flag_weight": 0.0,
      "gray": false,
      "hide": false,
      "is_pinned": true,
      "total_votes": 0
    },
    "title": "powerful spider 01",
    "updated": "2016-09-15T18:01:57",
    "url": "/hive-117600/@good-karma/spider01"
  },
  {
    "active_votes": [],
    "author": "abit",
    "author_payout_value": "0.000 HBD",
    "author_reputation": 63.77,
    "beneficiaries": [],
    "blacklists": [],
    "body": "only snakes 02",
    "category": "hive-117600",
    "children": 0,
    "created": "2016-09-15T18:01:54",
    "curator_payout_value": "0.000 HBD",
    "depth": 0,
    "is_paidout": false,
    "json_metadata": {},
    "max_accepted_payout": "1000000.000 HBD",
    "net_rshares": 0,
    "payout": 0.0,
    "payout_at": "2016-09-22T18:01:54",
    "pending_payout_value": "0.000 HBD",
    "percent_hbd": 10000,
    "permlink": "anaconda02",
    "post_id": 1256945,
    "promoted": "0.000 HBD",
    "replies": [],
    "stats": {
      "flag_weight": 0.0,
      "gray": false,
      "hide": false,
      "is_pinned": true,
      "total_votes": 0
    },
    "title": "powerful snake 02",
    "updated": "2016-09-15T18:01:54",
    "url": "/hive-117600/@abit/anaconda02"
  },
  {
    "active_votes": [],
    "author": "abit",
    "author_payout_value": "0.000 HBD",
    "author_reputation": 63.77,
    "beneficiaries": [],
    "blacklists": [],
    "body": "only snakes 01",
    "category": "hive-117600",
    "children": 0,
    "created": "2016-09-15T18:01:54",
    "curator_payout_value": "0.000 HBD",
    "depth": 0,
    "is_paidout": false,
    "json_metadata": {},
    "max_accepted_payout": "1000000.000 HBD",
    "net_rshares": 0,
    "payout": 0.0,
    "payout_at": "2016-09-22T18:01:54",
    "pending_payout_value": "0.000 HBD",
    "percent_hbd": 10000,
    "permlink": "anaconda01",
    "post_id": 1256944,
    "promoted": "0.000 HBD",
    "replies": [],
    "stats": {
      "flag_weight": 0.0,
      "gray": false,
      "hide": false,
      "is_pinned": true,
      "total_votes": 0
    },
    "title": "powerful snake 01",
    "updated": "2016-09-15T18:01:54",
    "url": "/hive-117600/@abit/anaconda01"
  },
  {
    "active_votes": [],
    "author": "test-safari",
    "author_payout_value": "0.000 HBD",
    "author_reputation": 25.0,
    "beneficiaries": [],
    "blacklists": [],
    "body": "tell me secret 05",
    "category": "hive-117600",
    "children": 0,
    "created": "2016-09-15T18:01:30",
    "curator_payout_value": "0.000 HBD",
    "depth": 0,
    "is_paidout": false,
    "json_metadata": {},
    "max_accepted_payout": "1000000.000 HBD",
    "net_rshares": 0,
    "payout": 0.0,
    "payout_at": "2016-09-22T18:01:30",
    "pending_payout_value": "0.000 HBD",
    "percent_hbd": 10000,
    "permlink": "secrets5",
    "post_id": 1256847,
    "promoted": "0.000 HBD",
    "replies": [],
    "stats": {
      "flag_weight": 0.0,
      "gray": true,
      "hide": false,
      "is_pinned": true,
      "total_votes": 0
    },
    "title": "I love secrets 05",
    "updated": "2016-09-15T18:01:30",
    "url": "/hive-117600/@test-safari/secrets5"
  }
]
