[
  {
    "active_votes": [
      {
        "rshares": 1979857275,
        "voter": "cwbrooch"
      },
      {
        "rshares": 3911638805,
        "voter": "zaitsevalesyaa"
      }
    ],
    "author": "cwbrooch",
    "author_payout_value": "0.000 HBD",
    "author_reputation": 52.99,
    "beneficiaries": [],
    "blacklists": [],
    "body": "<html>\n<p>This is part 2 of my Memoir. &nbsp;Missed Part 1?<a href=\"https://steemit.com/story/@cwbrooch/russian-roulette-a-memoir-of-my-two-years-in-moscow-part-1-surviving-underground\"> Click here.</a><br>\nDon't know what's going on? <a href=\"https://steemit.com/story/@cwbrooch/russian-roulette-a-memoir-of-my-two-years-of-living-in-moscow-preamble\">Start from the beginning here.</a></p>\n<p>If you like what you're reading, follow me @cwbrooch for more craziness. if you love what you're reading recommend me to other peeps :) feedback is also very appreciated.</p>\n<p><img src=\"https://s14.postimg.org/bpiqdmgpt/Untitled.jpg\" width=\"1066\" height=\"800\"/></p>\n<h1>Russian Roulette - A Memoir of my Two Years in Moscow - Part 2 - Under the Table Tactics</h1>\n<p>In this part of my memoir I am going to attempt to describe the dark side of Moscow. All stories depicted here either happened directly to people I knew, or were described to me as &nbsp;a <em>it's-russia-get-used-to-it </em>anecdote.<br>\nYes, I will be talking about corruption and paying people under the table for things but bear in mind that even though it seems like a common practice definitely not all people do that and not all people experience the phenomenon.</p>\n<h3>A ROUTINE POLICE CHECK<strong>&nbsp;</strong></h3>\n<p>It is said that it is extremely wise to keep 2k-5k Rubles (about 28-68 Euro, 30-77 Dollars, 23-58 Pounds) in your registration papers at all times. They tend to disappear when you get your documents back from the officer... If one does not have such loose change, the guy tends to make one's life difficult. \"<em>You were speeding\", \"You didn't stop at the STOP sign\", \"You're light is out\" </em>etc. Driving is another interesting phenomenon in Moscow. You might think that since the metro is so packed, the streets will be empty. On the contrary, but I will not get into that right now as that makes a completely different post... &nbsp;However, what I will tell you is &nbsp;how one of my students passed her driving exam, which leads us to...</p>\n<h3>PAYING TO PASS AN EXAM</h3>\n<p>After her first failed attempt, my student looked at her instructor/examiner and asked: \"Could you please tell me what I did wrong, so I can work on it in the future?\" He stared back at her surprised and announced: \"Well, you didn't pay me extra, what do you expect?!\" At that point even I was shocked - \"So people openly tell you they want money?!\" \"Get used to it Kasia, It's Russia....\"<br>\nNeedless to say, she was forced to pay the second time around and surprise, surprise, she passed....<br>\n<br>\nI taught English in a company. I came one week, and saw that everyone was kind of in a rush and slightly agitated. I asked what the problem was and they said they were waiting for an audit. I remember wishing them good luck... One lady looked at me and smiled \"We paid the guys to look the other way, it will be fine!\" I didn't even bother to comment as I had aleady known there was no point...</p>\n<h3>GETTING INTO A PRIVATE EVENT</h3>\n<p>It was the three of us - my BF, his friend and I. We wanted to do some clubbing and the friend decided we should go to a very trendy bar in the heart of Moscow. He had a loyalty card there and was well known among the bouncers. We didn't really look the part, but a hefty fee paid for each of us (by the friend) was enough to let us in...</p>\n<p>That was a minor party. Let's talk about the big stuff, involving bigger money!<br>\nIf you know someone, who knows someone, who knows someone you might be able to (legally) attend the dress rehearsal of the famous Victory Parade in May (the 9th to be exact). It costs about 10k (137 Euro, 116 Pounds , 153 Dollars) Watch fragments of the video below to see the magnitude of what I am talking about.&nbsp;</p>\n<p>The whole thing is long, play with it a little bit. The good stuff starts at about 40 minutes. <a href=\"https://www.youtube.com/channel/UC4qBu3EvraPWezHbaC7npIQ\">Source</a></p>\n<p>https://www.youtube.com/watch?v=5EI3FYynz-Q</p>\n<p>To enter the actual parade however, you need to be a prominent member of the society (e.g. ex-military) or someone famous or filthy rich :)</p>\n<p>The event itself is quite impressive and for soldiers taking part in the march it is an honor among honors. &nbsp;<br>\nWe had the privilege of living 15 minutes on foot from the Red Square so we saw all the preparations and marches right outside our windows (till 11pm at night...)</p>\n<p><img src=\"https://lh3.googleusercontent.com/3OMfOqwX2pQ5BYeql8V1tg4J6VcMzG75pLD-nhsfHw0BYFLEQOQSeVl-sVdEkDwS6VfPco-FukpjwQONwimoOhzzT4GIPDt_VGbJfNDYaltTvEcyOFK5do7PZD1-tjDW0nxKYhUQdxG4yoxX6ZS590fMaveLKSI2Voz579yTME9U8D7UgN7R3ufBrAcq0KV8kA9VqMVxryabh2X_jBiMnP3Uwjj_hrWn3ARzHggZMRuo3G3ORSKDpoqcBA25bRDeWHe7nVT4X58NolQ4yY8HVjzyUr4zDneI8dy_eHnSf0F0FBZ8kn4NQQ3ueVR84tu-Ot64CZb9a1SetmKmupvAxBbuS8z3jBsvCECD8A5jz9qevTOkgHEbV0z2hVteH64gCLg3OI9mRVqw2GWAYwNSUlGGtwCxmwXq3p_j_igwncarIhIF2HX_bV0ACrucmewR6IiIdVfaKKAO9g2ycLbJRr_SBwE9TxBND9ar0R267Grzq5SHywG71h1nxZnXInW-HQ2l1cou8zqdiEUanqkeSbgIunZVNBcEnYYinmF-WZd5y0_Luc8rdDYy0GlKAtAJ4z0-woKDs6d_XKWhiWsYOAW3rWwCe3cJylK_6H7wNO2PlBKL=w1163-h775-no\" width=\"1162\" height=\"775\"/></p>\n<p>PS. I am aware that my portrayal of Moscow might seem bleak and depressing. Believe me, it was not. I;m simply trying to describe the juicy bits, the interesting stuff :) My next post will be more optimistic as I will be talking about sports, parks an recreations &nbsp;:)</p>\n<p>&nbsp;____________________________________________________________________________</p>\n<p>Thank you for reading Part 2 of my memoir.</p>\n<p>Want to find out more about living in Moscow? Follow me <a href=\"https://steemit.com/@cwbrooch\">@cwbrooch</a> :)</p>\n<p>My other work on Streemit:</p>\n<p>1) <a href=\"https://steemit.com/story/@cwbrooch/russian-roulette-a-memoir-of-my-two-years-of-living-in-moscow-preamble\">Russian Roulette - Preamble</a>&nbsp;</p>\n<p>2) <a href=\"https://steemit.com/story/@cwbrooch/russian-roulette-a-memoir-of-my-two-years-in-moscow-part-1-surviving-underground\">Russian Roulette - Part 1 - Surviving Underground</a></p>\n<p>3) <a href=\"https://steemit.com/languages/@cwbrooch/why-shouldn-t-you-use-google-translate-for-learning-english-and-which-dictionaries-are-faaaar-better\">Why shouldn't you use google translate for learning English and which dictionaries are far better</a>.&nbsp;</p>\n<p>4) &nbsp;<a href=\"https://steemit.com/languages/@cwbrooch/how-to-learn-vocabulary-effectively-in-any-language\">How to learn vocabulary effectively in any language!</a></p>\n<p>5) <a href=\"https://steemit.com/introduceyourself/@cwbrooch/teacher-story-teller-cat-lover-about-me\">About me: introduction</a> &nbsp;<br>\n&nbsp;</p>\n<p><br></p>\n</html>",
    "category": "story",
    "children": 0,
    "created": "2016-09-15T19:41:09",
    "curator_payout_value": "0.000 HBD",
    "depth": 0,
    "is_paidout": false,
    "json_metadata": {
      "image": [
        "https://s14.postimg.org/bpiqdmgpt/Untitled.jpg",
        "https://img.youtube.com/vi/5EI3FYynz-Q/0.jpg",
        "https://lh3.googleusercontent.com/3OMfOqwX2pQ5BYeql8V1tg4J6VcMzG75pLD-nhsfHw0BYFLEQOQSeVl-sVdEkDwS6VfPco-FukpjwQONwimoOhzzT4GIPDt_VGbJfNDYaltTvEcyOFK5do7PZD1-tjDW0nxKYhUQdxG4yoxX6ZS590fMaveLKSI2Voz579yTME9U8D7UgN7R3ufBrAcq0KV8kA9VqMVxryabh2X_jBiMnP3Uwjj_hrWn3ARzHggZMRuo3G3ORSKDpoqcBA25bRDeWHe7nVT4X58NolQ4yY8HVjzyUr4zDneI8dy_eHnSf0F0FBZ8kn4NQQ3ueVR84tu-Ot64CZb9a1SetmKmupvAxBbuS8z3jBsvCECD8A5jz9qevTOkgHEbV0z2hVteH64gCLg3OI9mRVqw2GWAYwNSUlGGtwCxmwXq3p_j_igwncarIhIF2HX_bV0ACrucmewR6IiIdVfaKKAO9g2ycLbJRr_SBwE9TxBND9ar0R267Grzq5SHywG71h1nxZnXInW-HQ2l1cou8zqdiEUanqkeSbgIunZVNBcEnYYinmF-WZd5y0_Luc8rdDYy0GlKAtAJ4z0-woKDs6d_XKWhiWsYOAW3rWwCe3cJylK_6H7wNO2PlBKL=w1163-h775-no"
      ],
      "links": [
        "https://steemit.com/story/@cwbrooch/russian-roulette-a-memoir-of-my-two-years-in-moscow-part-1-surviving-underground",
        "https://steemit.com/story/@cwbrooch/russian-roulette-a-memoir-of-my-two-years-of-living-in-moscow-preamble",
        "https://www.youtube.com/channel/UC4qBu3EvraPWezHbaC7npIQ",
        "https://www.youtube.com/watch?v=5EI3FYynz-Q",
        "https://steemit.com/@cwbrooch",
        "https://steemit.com/languages/@cwbrooch/why-shouldn-t-you-use-google-translate-for-learning-english-and-which-dictionaries-are-faaaar-better",
        "https://steemit.com/languages/@cwbrooch/how-to-learn-vocabulary-effectively-in-any-language",
        "https://steemit.com/introduceyourself/@cwbrooch/teacher-story-teller-cat-lover-about-me"
      ],
      "tags": [
        "story",
        "writing",
        "travel",
        "life",
        "russia"
      ],
      "users": [
        "cwbrooch"
      ]
    },
    "max_accepted_payout": "1000000.000 HBD",
    "net_rshares": 5891496080,
    "payout": 0.001,
    "payout_at": "2016-09-22T19:41:09",
    "pending_payout_value": "0.001 HBD",
    "percent_hbd": 10000,
    "permlink": "russian-roulette-a-memoir-part-2-under-the-table-tactics",
    "post_id": 1258034,
    "promoted": "0.000 HBD",
    "replies": [],
    "stats": {
      "flag_weight": 0.0,
      "gray": false,
      "hide": false,
      "total_votes": 2
    },
    "title": "Russian Roulette - a Memoir [Part 2] - Under-the-table Tactics",
    "updated": "2016-09-15T19:42:57",
    "url": "/story/@cwbrooch/russian-roulette-a-memoir-part-2-under-the-table-tactics"
  },
  {
    "active_votes": [
      {
        "rshares": 1856124515188,
        "voter": "badassmother"
      },
      {
        "rshares": 1511911763,
        "voter": "fkn"
      },
      {
        "rshares": 1987313581,
        "voter": "elishagh1"
      },
      {
        "rshares": 1061309796,
        "voter": "murh"
      },
      {
        "rshares": 10685732759,
        "voter": "kimziv"
      },
      {
        "rshares": 7380892516,
        "voter": "furion"
      },
      {
        "rshares": 13847065167,
        "voter": "aaseb"
      },
      {
        "rshares": 233089182,
        "voter": "poseidon"
      },
      {
        "rshares": 1226120506,
        "voter": "positive"
      },
      {
        "rshares": 1805841949,
        "voter": "sisterholics"
      },
      {
        "rshares": 63861075353,
        "voter": "laonie"
      },
      {
        "rshares": 2665078950,
        "voter": "myfirst"
      },
      {
        "rshares": 12962686205,
        "voter": "somebody"
      },
      {
        "rshares": 484662341,
        "voter": "flysaga"
      },
      {
        "rshares": 2863548500,
        "voter": "midnightoil"
      },
      {
        "rshares": 7162422615,
        "voter": "xiaohui"
      },
      {
        "rshares": 485163523,
        "voter": "elfkitchen"
      },
      {
        "rshares": 223914723,
        "voter": "xiaokongcom"
      },
      {
        "rshares": 451374022,
        "voter": "xianjun"
      },
      {
        "rshares": 82361209107,
        "voter": "markrmorrisjr"
      }
    ],
    "author": "markrmorrisjr",
    "author_payout_value": "0.000 HBD",
    "author_reputation": 66.26,
    "beneficiaries": [],
    "blacklists": [],
    "body": "## In this episode, a hot Aedapt girl helps Jack escape Killer giant Cockroaches! ##\n\n**Jake was peering through cracks between the plaster laths back into the room where they guard stood.** \n\n![enter image description here](https://s22.postimg.org/d4vifrmo1/Madison.jpg)\n***Missed an episode? Great more great reading for you [on my blog](https://steemit.com/@markrmorrisjr)! Be sure to follow me for awesome daily updates in your feed and leave me comments. I love comments!***\n\n\u201cNo, we\u2019re not that smart when we\u2019re under. We can really only do what we hear them telling us to do.\u201d Jake whispered, calmly as the big guard moved within inches of the wall, snorting. The guard turned, blasted a hole in the ceiling with his gun and charged back into the hall. \n\n*They heard him blasting the door of the next room open.*\n\n\u201cWe can\u2019t stay here. I\u2019m guessing you\u2019ve got this one on a signal blocker and there\u2019s not much time.\u201d \n\nThe girl turned and ran to a corner, where an iron hand rail rose up out of the floor in a curve. She disappeared through the floor and as Jack followed, he found a narrow, spiraling stair that led below. \n\nHe lost his footing and slid down the stairs, narrowly missing the girl. She stood in the room below, with ear to the door that led into the hall.\n\n![enter image description here](https://s16.postimg.org/90derv079/spiral_stair.jpg)\n\n*Jake followed close behind. The girl with the violet eyes opened the door and stepped out into the hall with the awakened Nosher right behind her and Jack bringing up the rear. Jack had no idea what to do next, but the girl seemed to be in her element, and willing to help.*\n\n**Hopefully, she was not leading them into more danger.** \n\nHe followed her past one door, and into the darkened room where they had first started. It was empty, which could only mean one thing. The Noshers who had recently occupied it were upstairs right now with the ugly guard. They were looking for Jack and the others and would soon head back down.\n\n\u201cShouldn\u2019t we just get out of here?\u201d Jack said. He stood with his back to the wall and the door opened a crack so that one eye could see down the hall toward the upper stairs.\n\n\u201cNot without these,\u201d the girl walked to where the guard had been and pointed up at the weapons, suspended above. She ran a hand along the doorframe, \u201cIt ought to be along here somewhere.\u201d She said.\n\n**\u201cWhat is?\u201d Jack hissed, shifting as her body pressed against his.** \n\nShe ran her hand along the top of the doorframe. He froze; she smelled good. It had been a long time since a girl had gotten this close to him, junior prom, in fact. He did not have a lot of time for dating with his work schedule. \n\n*To top it off, the smell of burnt fries that clung to him even after an hour in the shower was hardly an aphrodisiac.*\n\nThe girl put one hand on his chest and stood on tiptoe, pressing tight against him. \u201cOh, don\u2019t kid yourself; you just happened to be in my way.\u201d She laughed, scornfully, and pressed a hidden button at the top right corner of the door. Weapons rained down with a crash, and she quickly chose two handguns, handing one to Jack. \n\nShe pressed the button again, and the remaining weapons zipped back up into position. Jack had to grip the gun in his hand firmly to keep it from joining them.\n\n![enter image description here](https://s13.postimg.org/xp1l7jjyv/guns.jpg)\n\n**\u201cElectro magnet,\u201d she said and opened the door, moving out, weapon first.**\n\n\u201cI knew that,\u201d Jack said. He flattened himself against the hallway wall, like a TV detective. The magnet had occurred to him, but in his addled state, he had not really grasped the concept. Mostly he just did not like the idea of her being smarter than he was. \n\n\u201cKeep up\u201d he hissed to Jake, who had managed to grab a revolver.\nThe three moved quickly down the hall and turned toward the front door. The two roaches Jack had seen earlier, peered out from either side. \n\n**They had weapons leveled in his direction.**\n\n*The girl crouched and moved forward as if she were still a Nosher. It worked. Jack followed suit, and Jake did his best. His human consciousness was getting stronger by the minute.* \n\nHe had even started getting color back in his cheeks, and Jack was beginning to notice that the man seemed oddly familiar, the more human he became. \u201cCould be a side effect of this Nosher thinking,\" he guessed.\n\n\u201cThey're right behind us,\u201d the girl hissed to one of the roaches. \u201cBlast the next thing that comes down those stairs, you got me?\u201d \n\n**The bug clicked and hissed.** \n\n*Jack assumed it was a yes, because the two giant insects moved in and took up positions on either side of the hall.*\n\nJack bolted out the door and was relieved to see the Rabbit zip up just in time. Phineas sat behind the wheel, and the Things were nowhere in sight. Behind them, they heard the roaches open fire, and then a huge blast echoed down the hall. \n\n![enter image description here](https://s13.postimg.org/4klau8zdj/phin_rabbit.jpg)\n\nA gust of wind barreled out the door, raining cockroach guts over the three escaping figures. Jake stumbled, and Jack picked him up and shoved him into the back seat of the Rabbit.\n\nHe turned back to let the girl in, but she was gone. Phineas stood up on the running board, slapping the roof of the vehicle furiously. \u201cGet in the car! Let\u2019s go man!\u201d\n\n*By the time Jack had slid into the passenger seat, Phineas had the Rabbit patching out. They were up to top speed in a matter of seconds.*\n\n**\u201cFind a me a safe dime!\u201d Phineas yelled, standing as he worked the pedals and tried to see over the steering wheel at the same time.**\n\n\u201cWhat?\u201d Jack yelled over the whine of the engine.\n\n\u201cDime, a dimension, get us out of here.\u201d Phineas pleaded.\n\nJack opened the glove compartment and fiddled with the controls, but nothing happened.\n\n**\u201cDamn, guess I have to do everything, Phineas grumbled, \u201chere, take the wheel.\u201d** \n\n*The Leprechaun ducked under Jack\u2019s arms as he grabbed the steering wheel from his position in the passenger\u2019s seat.* \n\nPhineas leaned across the stick shift, his feet working the pedals as he started manipulating the glovebox controls. Jack\u2019s view through the windshield changed every few seconds. It was making steering from the passenger\u2019s seat even more of a challenge.\n\n*Meanwhile, Jake hunkered down in the back seat. From where Jack sat, he was not looking so good. He wondered how much time they had left.*\n\nJack swerved to miss a slow-moving vehicle that had just appeared as they shifted dimensions. Finally, Phineas settled for one that put them on a narrow two-lane country road. \n\nThe town disappeared, replaced by rows of fences. Phineas braked and turned off onto the shoulder of the road, rolling to a stop.\n\nJack\u2019s heartbeat slowly returned to normal. Meanwhile, Jake sounded like he was winding up in the back seat, his voice rolling into a high-pitched whine, perforated with short puffs of breath, like a woman in labor on a late-night sitcom.\n\n**\u201cYou okay, back there?\u201d Jack asked, climbing out onto the shoulder.** \n\nJake launched himself out of the back seat, landed face down in a shallow ditch, and promptly lost the entire contents of his stomach in a single \n\n\u201cralph\u201d.\n--------\n\nJack turned away, pulling his elbow up over his nose to avoid the horrendous smell of vomit. Meanwhile, Phineas dove around the hood of the car and into the ditch, pawing through the puke as if he was panning for gold. \n\n*A few seconds later, he came up for air, triumphantly holding the thumb drive.*\n\nHe stood, wiping his hands on Jake\u2019s jacket, and then looked at his watch. \u201cIt\u2019s past time,\u201d He said, pulling the transmitter from the man\u2019s neck. Jake lolled into the ditch; his eyes fluttered, and Phineas shoved Jack toward the driver\u2019s seat.\n\n**\u201cLet\u2019s go. We don\u2019t want to be here when they come to collect him.\u201d He said, climbing into the passenger\u2019s seat.**\n\n***Will Jake see the girl again? What about his Nosher friend, what becomes of him? Will they ever get the smell out of the ALICE? Stay tuned!***\n\n## Look for the upvote button below. If you liked the post, upvote and share! If you're not on Steemit yet, why not? You get free money for signing up! ##",
    "category": "story",
    "children": 0,
    "created": "2016-09-15T19:40:48",
    "curator_payout_value": "0.000 HBD",
    "depth": 0,
    "is_paidout": false,
    "json_metadata": {
      "image": [
        "https://s22.postimg.org/d4vifrmo1/Madison.jpg",
        "https://s16.postimg.org/90derv079/spiral_stair.jpg",
        "https://s13.postimg.org/xp1l7jjyv/guns.jpg",
        "https://s13.postimg.org/4klau8zdj/phin_rabbit.jpg"
      ],
      "links": [
        "https://steemit.com/@markrmorrisjr"
      ],
      "tags": [
        "story",
        "life",
        "fiction",
        "anarchy",
        "minnowsunited"
      ]
    },
    "max_accepted_payout": "1000000.000 HBD",
    "net_rshares": 2069384927746,
    "payout": 0.691,
    "payout_at": "2016-09-22T19:40:48",
    "pending_payout_value": "0.691 HBD",
    "percent_hbd": 10000,
    "permlink": "original-fiction-jacked-book-one-the-origin-dime-chronicles-episode-10",
    "post_id": 1258030,
    "promoted": "0.000 HBD",
    "replies": [],
    "stats": {
      "flag_weight": 0.0,
      "gray": false,
      "hide": false,
      "total_votes": 20
    },
    "title": "Original Fiction: JACKED Book One, The Origin Dime Chronicles, Episode 10",
    "updated": "2016-09-15T19:40:48",
    "url": "/story/@markrmorrisjr/original-fiction-jacked-book-one-the-origin-dime-chronicles-episode-10"
  },
  {
    "active_votes": [
      {
        "rshares": 201736965,
        "voter": "blend"
      }
    ],
    "author": "blend",
    "author_payout_value": "0.000 HBD",
    "author_reputation": 45.17,
    "beneficiaries": [],
    "blacklists": [],
    "body": "<html>\n<ul>\n  <li>&nbsp;I\u2019m as surprised as anyone to be saying this but <em>holy shit</em>, these vape trick are really impressive.Yes, vaping still makes most people look like an extra who just stepped off the set of <em>Blade Runner.</em> But god dammit, King Titus is doing some stuff with smoke in this video that doesn\u2019t seem physically possible.How is he moving smoke rings through the air without breaking them? Let\u2019s just soak that in for a hot second. <img src=\"http://i.kinja-img.com/gawker-media/image/upload/t_original/p8yuecbnagacjm6khr6t.jpg\" width=\"800\" height=\"363\"/></li>\n</ul>\n</html>\nhttps://youtu.be/i3Nd_FK1zUg\nsource>http://www.gizmodo.com.au/2016/09/so-uh-vape-tricks-are-cool-now/",
    "category": "art",
    "children": 0,
    "created": "2016-09-15T19:40:36",
    "curator_payout_value": "0.000 HBD",
    "depth": 0,
    "is_paidout": false,
    "json_metadata": {
      "image": [
        "http://i.kinja-img.com/gawker-media/image/upload/t_original/p8yuecbnagacjm6khr6t.jpg",
        "https://img.youtube.com/vi/i3Nd_FK1zUg/0.jpg"
      ],
      "links": [
        "https://youtu.be/i3Nd_FK1zUg"
      ],
      "tags": [
        "art",
        "story",
        "life",
        ""
      ]
    },
    "max_accepted_payout": "1000000.000 HBD",
    "net_rshares": 201736965,
    "payout": 0.0,
    "payout_at": "2016-09-22T19:40:36",
    "pending_payout_value": "0.000 HBD",
    "percent_hbd": 10000,
    "permlink": "so-uh-vape-tricks-are-cool-now",
    "post_id": 1258029,
    "promoted": "0.000 HBD",
    "replies": [],
    "stats": {
      "flag_weight": 0.0,
      "gray": false,
      "hide": false,
      "total_votes": 1
    },
    "title": "So, Uh... Vape Tricks Are Cool Now?",
    "updated": "2016-09-15T19:40:36",
    "url": "/art/@blend/so-uh-vape-tricks-are-cool-now"
  },
  {
    "active_votes": [],
    "author": "philanthropest",
    "author_payout_value": "0.000 HBD",
    "author_reputation": 29.41,
    "beneficiaries": [],
    "blacklists": [],
    "body": "<html>\n<p>James Comey -the Director of the FBI - puts tape over his personal laptop camera and webcams. &nbsp;</p>\n<p>I'm not crazy for having masking tape over my camera...I'm not alone....</p>\n<p>https://www.youtube.com/watch?v=y02aBfNT8n4</p>\n<p>WHY AREN'T PEOPLE MORE CONCERNED ABOUT BEING LISTENED TO...YES, IT IS INVASIVE TO KNOW YOU ARE BEING WATCHED, BUT....</p>\n<ul>\n  <li>People SAY more revealing and interesting stuff than they DO....so, I would much rather be a blind fly on the wall than deaf. &nbsp;</li>\n</ul>\n<h1><strong>AS IF THEY AREN'T LISTENING</strong> TO YOU/ME....IF THEY ARE WATCHING...THEY ARE OBVIOUSLY LISTENING</h1>\n</html>",
    "category": "freedom",
    "children": 0,
    "created": "2016-09-15T19:40:21",
    "curator_payout_value": "0.000 HBD",
    "depth": 0,
    "is_paidout": false,
    "json_metadata": {
      "image": [
        "https://img.youtube.com/vi/y02aBfNT8n4/0.jpg"
      ],
      "links": [
        "https://www.youtube.com/watch?v=y02aBfNT8n4"
      ],
      "tags": [
        "freedom",
        "anarchy",
        "steem",
        "life",
        ""
      ]
    },
    "max_accepted_payout": "1000000.000 HBD",
    "net_rshares": 0,
    "payout": 0.0,
    "payout_at": "2016-09-22T19:40:21",
    "pending_payout_value": "0.000 HBD",
    "percent_hbd": 10000,
    "permlink": "cover-your-laptop-and-phone-camera-comey-dir-of-the-fbi-does",
    "post_id": 1258024,
    "promoted": "0.000 HBD",
    "replies": [],
    "stats": {
      "flag_weight": 0.0,
      "gray": false,
      "hide": false,
      "total_votes": 0
    },
    "title": "COVER YOUR LAPTOP -and phone- CAMERA -   Comey;  DIR OF THE FBI DOES",
    "updated": "2016-09-15T19:42:36",
    "url": "/freedom/@philanthropest/cover-your-laptop-and-phone-camera-comey-dir-of-the-fbi-does"
  },
  {
    "active_votes": [
      {
        "rshares": 231815399848,
        "voter": "anonymous"
      },
      {
        "rshares": 1856124515188,
        "voter": "badassmother"
      },
      {
        "rshares": 1950776472028,
        "voter": "xeroc"
      },
      {
        "rshares": 466189427281,
        "voter": "recursive2"
      },
      {
        "rshares": 440845842,
        "voter": "lee2"
      },
      {
        "rshares": 26932369613,
        "voter": "lee3"
      },
      {
        "rshares": 8677356665,
        "voter": "lee4"
      },
      {
        "rshares": 22149156424,
        "voter": "lee5"
      },
      {
        "rshares": 24694558802,
        "voter": "fkn"
      },
      {
        "rshares": 468295495,
        "voter": "paco-steem"
      },
      {
        "rshares": 5641891453,
        "voter": "spaninv"
      },
      {
        "rshares": 31733693573,
        "voter": "instructor2121"
      },
      {
        "rshares": 319978787382,
        "voter": "teamsteem"
      },
      {
        "rshares": 32459455171,
        "voter": "elishagh1"
      },
      {
        "rshares": 584301957019,
        "voter": "nanzo-scoop"
      },
      {
        "rshares": 183455862202,
        "voter": "steve-walschot"
      },
      {
        "rshares": 177422979921,
        "voter": "mummyimperfect"
      },
      {
        "rshares": 1061309796,
        "voter": "murh"
      },
      {
        "rshares": 40553528416,
        "voter": "ranko-k"
      },
      {
        "rshares": 970610699889,
        "voter": "cyber"
      },
      {
        "rshares": 49581638772,
        "voter": "ak2020"
      },
      {
        "rshares": 61303208719,
        "voter": "justtryme90"
      },
      {
        "rshares": 35244223389,
        "voter": "drinkzya"
      },
      {
        "rshares": 3848697023555,
        "voter": "satoshifund"
      },
      {
        "rshares": 365370465,
        "voter": "stiletto"
      },
      {
        "rshares": 55960464168,
        "voter": "thecryptodrive"
      },
      {
        "rshares": 275083790158,
        "voter": "trogdor"
      },
      {
        "rshares": 5047565689,
        "voter": "tee-em"
      },
      {
        "rshares": 31346657524,
        "voter": "michaelx"
      },
      {
        "rshares": 203028922423,
        "voter": "kimziv"
      },
      {
        "rshares": 45359587433,
        "voter": "honeythief"
      },
      {
        "rshares": 75335893384,
        "voter": "emily-cook"
      },
      {
        "rshares": 34073741916,
        "voter": "cryptoiskey"
      },
      {
        "rshares": 484636799,
        "voter": "mrhankeh"
      },
      {
        "rshares": 36267999733,
        "voter": "clement"
      },
      {
        "rshares": 49807514764,
        "voter": "isteemit"
      },
      {
        "rshares": 68450624110,
        "voter": "bacchist"
      },
      {
        "rshares": 52094130602,
        "voter": "venuspcs"
      },
      {
        "rshares": 462747522217,
        "voter": "roelandp"
      },
      {
        "rshares": 5271256317,
        "voter": "riscadox"
      },
      {
        "rshares": 118094280271,
        "voter": "furion"
      },
      {
        "rshares": 578386960,
        "voter": "barbara2"
      },
      {
        "rshares": 642869652,
        "voter": "ch0c0latechip"
      },
      {
        "rshares": 594982040,
        "voter": "doge4lyf"
      },
      {
        "rshares": 14886225123,
        "voter": "ausbitbank"
      },
      {
        "rshares": 2531219186,
        "voter": "steem1653"
      },
      {
        "rshares": 185306737687,
        "voter": "anyx"
      },
      {
        "rshares": 80777327,
        "voter": "snowden"
      },
      {
        "rshares": 5250267854,
        "voter": "thegoodguy"
      },
      {
        "rshares": 13847065167,
        "voter": "aaseb"
      },
      {
        "rshares": 4209550858,
        "voter": "karen13"
      },
      {
        "rshares": 89580632,
        "voter": "wildchild"
      },
      {
        "rshares": 14455781997,
        "voter": "nippel66"
      },
      {
        "rshares": 4428694472,
        "voter": "poseidon"
      },
      {
        "rshares": 3709674578,
        "voter": "bitcoiner"
      },
      {
        "rshares": 30989849211,
        "voter": "zaebars"
      },
      {
        "rshares": 20026634941,
        "voter": "positive"
      },
      {
        "rshares": 799615699,
        "voter": "raymonjohnstone"
      },
      {
        "rshares": 50626015,
        "voter": "steemchain"
      },
      {
        "rshares": 34310997040,
        "voter": "sisterholics"
      },
      {
        "rshares": 4150694741,
        "voter": "tygergamer"
      },
      {
        "rshares": 674282213,
        "voter": "fnait"
      },
      {
        "rshares": 599033376,
        "voter": "keepcalmand"
      },
      {
        "rshares": 21249911268,
        "voter": "sisters"
      },
      {
        "rshares": 135241026997,
        "voter": "steemdrive"
      },
      {
        "rshares": 50580942653,
        "voter": "gomeravibz"
      },
      {
        "rshares": 2157263872,
        "voter": "merej99"
      },
      {
        "rshares": 1181429894047,
        "voter": "laonie"
      },
      {
        "rshares": 22969530313,
        "voter": "laonie1"
      },
      {
        "rshares": 23486336661,
        "voter": "laonie2"
      },
      {
        "rshares": 23494631758,
        "voter": "laonie3"
      },
      {
        "rshares": 41308723727,
        "voter": "myfirst"
      },
      {
        "rshares": 246291037911,
        "voter": "somebody"
      },
      {
        "rshares": 9208584487,
        "voter": "flysaga"
      },
      {
        "rshares": 5831884826,
        "voter": "brendio"
      },
      {
        "rshares": 54407421509,
        "voter": "midnightoil"
      },
      {
        "rshares": 4190432650,
        "voter": "ullikume"
      },
      {
        "rshares": 538023492,
        "voter": "marinaz"
      },
      {
        "rshares": 50577648,
        "voter": "michellek"
      },
      {
        "rshares": 23490308796,
        "voter": "laonie4"
      },
      {
        "rshares": 23488038283,
        "voter": "laonie5"
      },
      {
        "rshares": 23485060556,
        "voter": "laonie6"
      },
      {
        "rshares": 23480907119,
        "voter": "laonie7"
      },
      {
        "rshares": 3157899297,
        "voter": "kurtbeil"
      },
      {
        "rshares": 23477459041,
        "voter": "laonie8"
      },
      {
        "rshares": 23474757706,
        "voter": "laonie9"
      },
      {
        "rshares": 2370331931,
        "voter": "steemleak"
      },
      {
        "rshares": 136086029693,
        "voter": "xiaohui"
      },
      {
        "rshares": 88206053,
        "voter": "bigsambucca"
      },
      {
        "rshares": 6630568148,
        "voter": "elfkitchen"
      },
      {
        "rshares": 99940391922,
        "voter": "joele"
      },
      {
        "rshares": 2354334523,
        "voter": "paynode"
      },
      {
        "rshares": 4254379739,
        "voter": "xiaokongcom"
      },
      {
        "rshares": 8576106418,
        "voter": "xianjun"
      },
      {
        "rshares": 72135954,
        "voter": "stevescriber"
      },
      {
        "rshares": 51247757,
        "voter": "loli"
      },
      {
        "rshares": 52419023,
        "voter": "nano2nd"
      },
      {
        "rshares": 576343622,
        "voter": "microluck"
      },
      {
        "rshares": 60225791,
        "voter": "cryptoblu"
      },
      {
        "rshares": 60219243,
        "voter": "instructor"
      },
      {
        "rshares": 802020725261,
        "voter": "dollarvigilante"
      },
      {
        "rshares": 3977281078,
        "voter": "lamech-m"
      },
      {
        "rshares": 23468551300,
        "voter": "laonie10"
      },
      {
        "rshares": 8536250240,
        "voter": "garywilson"
      },
      {
        "rshares": 50829277,
        "voter": "bitchplease"
      },
      {
        "rshares": 99130059443,
        "voter": "barrycooper"
      },
      {
        "rshares": 31611733517,
        "voter": "hilarski"
      },
      {
        "rshares": 2029369552,
        "voter": "shadowspub"
      },
      {
        "rshares": 8390958262,
        "voter": "rimann"
      },
      {
        "rshares": 56999917,
        "voter": "rickmiller"
      },
      {
        "rshares": 5401518277,
        "voter": "nulliusinverba"
      },
      {
        "rshares": 22792452702,
        "voter": "mikehere"
      },
      {
        "rshares": 22621847215,
        "voter": "laonie11"
      },
      {
        "rshares": 3411072843,
        "voter": "xanoxt"
      },
      {
        "rshares": 174778016,
        "voter": "greatness"
      },
      {
        "rshares": 26574132419,
        "voter": "sponge-bob"
      },
      {
        "rshares": 4044803243,
        "voter": "l0k1"
      },
      {
        "rshares": 50798127,
        "voter": "freesteem"
      },
      {
        "rshares": 2353724275,
        "voter": "zettar"
      },
      {
        "rshares": 1655277599,
        "voter": "smisi"
      },
      {
        "rshares": 53413720,
        "voter": "lighter"
      },
      {
        "rshares": 258239323,
        "voter": "maarnio"
      },
      {
        "rshares": 50931848,
        "voter": "analyzethis"
      },
      {
        "rshares": 5934390558,
        "voter": "dexter-k"
      },
      {
        "rshares": 51716816,
        "voter": "doggnostic"
      },
      {
        "rshares": 659649765,
        "voter": "ct-gurus"
      },
      {
        "rshares": 51449632,
        "voter": "jenny-talls"
      },
      {
        "rshares": 415654681468,
        "voter": "charlieshrem"
      },
      {
        "rshares": 63546443837,
        "voter": "tracemayer"
      },
      {
        "rshares": 26568286493,
        "voter": "brains"
      },
      {
        "rshares": 1702730509,
        "voter": "alwayzgame"
      },
      {
        "rshares": 1282974860,
        "voter": "bitcoinparadise"
      },
      {
        "rshares": 50528809,
        "voter": "cwb"
      },
      {
        "rshares": 2127783725,
        "voter": "steemsquad"
      },
      {
        "rshares": 61292139,
        "voter": "inarix03"
      },
      {
        "rshares": 431087473,
        "voter": "littlemorelove"
      },
      {
        "rshares": 51636819,
        "voter": "mbizryu0"
      },
      {
        "rshares": 51631638,
        "voter": "archij"
      },
      {
        "rshares": 51530815,
        "voter": "movie7283"
      },
      {
        "rshares": 51527606,
        "voter": "ppcompp2"
      },
      {
        "rshares": 51520427,
        "voter": "jj1968"
      },
      {
        "rshares": 51516489,
        "voter": "cineger"
      },
      {
        "rshares": 51497383,
        "voter": "sksduddk"
      },
      {
        "rshares": 51490214,
        "voter": "jjc0719"
      },
      {
        "rshares": 50233449,
        "voter": "teemsteem"
      },
      {
        "rshares": 50677982,
        "voter": "sjytoy"
      },
      {
        "rshares": 50676799,
        "voter": "shy2675"
      },
      {
        "rshares": 50675747,
        "voter": "suance1009"
      },
      {
        "rshares": 50674176,
        "voter": "hasqmd"
      },
      {
        "rshares": 50673722,
        "voter": "fischer67"
      },
      {
        "rshares": 50672116,
        "voter": "elya1"
      },
      {
        "rshares": 50632828,
        "voter": "xclamp45"
      },
      {
        "rshares": 50618471,
        "voter": "likeagame1"
      },
      {
        "rshares": 50616898,
        "voter": "apple4006"
      },
      {
        "rshares": 50615195,
        "voter": "bigbell61"
      },
      {
        "rshares": 50612850,
        "voter": "dolpo777"
      },
      {
        "rshares": 50611931,
        "voter": "dongperi"
      },
      {
        "rshares": 50610620,
        "voter": "lion2byung"
      },
      {
        "rshares": 50610002,
        "voter": "cwj1973"
      },
      {
        "rshares": 50609329,
        "voter": "psj212"
      },
      {
        "rshares": 50608661,
        "voter": "owithed2"
      },
      {
        "rshares": 50606929,
        "voter": "fiself2"
      },
      {
        "rshares": 50605131,
        "voter": "trablinever1"
      },
      {
        "rshares": 50603861,
        "voter": "nuals1940"
      },
      {
        "rshares": 50602310,
        "voter": "fanceth2"
      },
      {
        "rshares": 50355943,
        "voter": "forea1995"
      },
      {
        "rshares": 50354561,
        "voter": "holow1968"
      },
      {
        "rshares": 50353969,
        "voter": "peaces1952"
      },
      {
        "rshares": 50346496,
        "voter": "himighar2"
      },
      {
        "rshares": 50345607,
        "voter": "aromese1974"
      },
      {
        "rshares": 50344921,
        "voter": "runis1943"
      },
      {
        "rshares": 50344067,
        "voter": "tong1962"
      },
      {
        "rshares": 50340744,
        "voter": "hishe1997"
      },
      {
        "rshares": 1979857275,
        "voter": "cwbrooch"
      },
      {
        "rshares": 52329350,
        "voter": "ninjapainter"
      },
      {
        "rshares": 51393104,
        "voter": "buit1989"
      },
      {
        "rshares": 51389981,
        "voter": "imadecoult1"
      },
      {
        "rshares": 51387526,
        "voter": "infees2"
      },
      {
        "rshares": 51384095,
        "voter": "suar1997"
      },
      {
        "rshares": 51382067,
        "voter": "sobsell93"
      },
      {
        "rshares": 51380710,
        "voter": "stroned96"
      },
      {
        "rshares": 51378107,
        "voter": "drethe"
      },
      {
        "rshares": 51377505,
        "voter": "qualwas"
      },
      {
        "rshares": 51376367,
        "voter": "phent1994"
      },
      {
        "rshares": 51375075,
        "voter": "baboyes"
      },
      {
        "rshares": 51373532,
        "voter": "whor1973"
      },
      {
        "rshares": 51372739,
        "voter": "youreforn"
      },
      {
        "rshares": 51371902,
        "voter": "voll1981"
      },
      {
        "rshares": 51370717,
        "voter": "copenty2"
      },
      {
        "rshares": 51369717,
        "voter": "maject2"
      },
      {
        "rshares": 51367233,
        "voter": "coust1997"
      },
      {
        "rshares": 51366398,
        "voter": "busionea84"
      },
      {
        "rshares": 51365174,
        "voter": "therver1"
      },
      {
        "rshares": 51364022,
        "voter": "appirdsmanne1990"
      },
      {
        "rshares": 51362967,
        "voter": "alienighted87"
      },
      {
        "rshares": 51359746,
        "voter": "anity1994"
      },
      {
        "rshares": 59959066,
        "voter": "themphe1"
      },
      {
        "rshares": 51355864,
        "voter": "abild1988"
      },
      {
        "rshares": 51353540,
        "voter": "spoll1973"
      },
      {
        "rshares": 66162576,
        "voter": "afteld1"
      },
      {
        "rshares": 1630374239,
        "voter": "rusteemitblog"
      },
      {
        "rshares": 31008332335,
        "voter": "goldmatters"
      },
      {
        "rshares": 68608760,
        "voter": "dealzgal"
      },
      {
        "rshares": 64921864,
        "voter": "storage"
      },
      {
        "rshares": 55388665,
        "voter": "blackmarket"
      },
      {
        "rshares": 58454327,
        "voter": "gifts"
      },
      {
        "rshares": 93882016,
        "voter": "expat"
      },
      {
        "rshares": 188217107,
        "voter": "techslut"
      },
      {
        "rshares": 137659447,
        "voter": "steemtrail"
      },
      {
        "rshares": 3035584586,
        "voter": "steemlift"
      },
      {
        "rshares": 123580867,
        "voter": "toddemaher1"
      }
    ],
    "author": "charlieshrem",
    "author_payout_value": "0.000 HBD",
    "author_reputation": 67.32,
    "beneficiaries": [],
    "blacklists": [],
    "body": "[![1427721443457173 (1).jpg](https://s15.postimg.org/e6gxjg8cb/1427721443457173_1.jpg)](https://postimg.org/image/5bg38xjjr/)\n\nThe day I went to prison I published an article Bitcoin for Prison. While I didn't get to read or see the article until someone mailed me a physical copy, I found out that my article had started a number of discussions and follow-on commentary.\n\nDuring my stay at Lewisburg Federal Prison Camp I observed many economic theories put into effect by inmates and the prison administration, including Gresham's law, hyperinflation, currency exchange, and others.\n\nThere are two markets in prison, the \"Administration Run Market\" (ARM) and the \"Inmate Run Market\" (IRM). \n\nFor the ARM, family and friends can add money to your account through Western Union, MoneyGram, or mailing a check. These funds get added to your account fairly quickly and can be used almost immediately, however with a strict spending limit. You get 300 minutes of phone use per month for about $70, and email costs about $0.05 a minute and is only available at specific times to specific people. Once a week you can shop in the commissary with a $360 a month spending limit. Further, certain products have limits of how much you can buy, for example the Mackerel (described below). Alternatively, the IRM is where you can buy sandwiches, wraps, pizzas, Italian ices, hire a personal trainer, get a haircut, pay someone to clean your cube, repair a watch, even inmate run caterers for your birthday or going home party. Additionally there were inmate run 'stores' which sold commissary items at a markup since you could only commissary shop once a week.\n\n[![mackerel-203x300.png](https://s18.postimg.org/pkn7zm1h5/mackerel_203x300.png)](https://postimg.org/image/iu6qq6eb9/)\n\nThe Mackerel (meaning literal packets of fish) is one of the competing currencies in the IRM. It has utility by being one of the best sources of protein on the compound. You can save it for a long time, the shelf life is a few years. The price is relatively the same across all prisons in the country, so even if you transfer prisons your property comes with you, including your Mackerel which is worth the same somewhere else. Unlike tunafish, chicken packets and protein bars, more people eat Mackerel. Those other food items can be used as currency as well, for example the guy who fixes your watch may only accept protein bars because he hates fish. There was even a form of digital currency being used, which I will discuss in another post.\n\n[![pzyQaHU.png](https://s15.postimg.org/tggsqn3uj/pzy_Qa_HU.png)](https://postimg.org/image/nfj3tkh87/)\n\nUtility and medium of exchange give it some value but what about scarcity ? If there is a virtually unlimited amount of Mackerel in the IRM, just like the Federal Reserve printing money, there is no scarcity and hyperinflation can occure if it is debased. \n\nUsing a simple equation, 467 (Number of Inmates) * 14 (Maximum Quantity Allowed to Purchase Per Inmate) * 52 (weeks, assuming every inmate buys the maximum mount of Mackerel every week)\n\nSo if in 2015 we assume that the Supply and Velocity grows at the exact same rate with the Price Level and Transactions unchanging, the amount of Mackerel would essentially double on an even inflation rate. This does not factor in the 3 year shelf life, where expired Mackerel becomes a secondary currency. I will discuss in my next post. \n\nI like to believe that the value of money is determined also psychological factors, like a commodity and not only by mechanical or mathematical factors. In prison many of these psychological factors come into play.\n\n[![1867-1967-Ten-10\u00a2-Cents-Commemorative-Centennial.jpg](https://s15.postimg.org/yqgpkthrv/1867_1967_Ten_10_Cents_Commemorative_Centennial.jpg)](https://postimg.org/image/ceiwrfinr/)\n\nMost people use Mackerel as a day-to-day currency for normal transactions, but for reasons I will explain in my next post, they are not the best long term store of value which is important for a currency. For longer term store of value, many inmates use stamps. Stamps have a set rate by the United States Postal Service and have similar characteristics as Mackerel aside for being edible. However, with the introduction of email on the compound many people stopped writing letters as email is cheaper and faster therefore reducing stamps ability to be a transactional currency as a majority of the inmates have no use for them. As a store of value they still hold weight because they are small and easy to store large amounts, while Mackerel is not.\n\nThe biggest value stamps have is that they can be mailed home and your family can redeem them for dollars as the local post office, but that feature can be stopped by better mail screening and overnight the stamp could lose its store of value utility. \n\nIn my next post I will discuss how currency exchangers work, what happens when the prison administration purposely floods the market, and how a secondary currency was created out of expired Mackerel called \u201cMoney Maks\u201d",
    "category": "story",
    "children": 2,
    "created": "2016-09-15T19:39:15",
    "curator_payout_value": "0.000 HBD",
    "depth": 0,
    "is_paidout": false,
    "json_metadata": {
      "image": [
        "https://s15.postimg.org/e6gxjg8cb/1427721443457173_1.jpg",
        "https://s18.postimg.org/pkn7zm1h5/mackerel_203x300.png",
        "https://s15.postimg.org/tggsqn3uj/pzy_Qa_HU.png",
        "https://s15.postimg.org/yqgpkthrv/1867_1967_Ten_10_Cents_Commemorative_Centennial.jpg"
      ],
      "links": [
        "https://postimg.org/image/5bg38xjjr/",
        "https://postimg.org/image/iu6qq6eb9/",
        "https://postimg.org/image/nfj3tkh87/",
        "https://postimg.org/image/ceiwrfinr/"
      ],
      "tags": [
        "story",
        "life",
        "bitcoin"
      ]
    },
    "max_accepted_payout": "1000000.000 HBD",
    "net_rshares": 16647533396431,
    "payout": 18.922,
    "payout_at": "2016-09-22T19:39:15",
    "pending_payout_value": "18.922 HBD",
    "percent_hbd": 10000,
    "permlink": "mackerelcoin-and-my-socioeconomic-observations-from-prison-part-1-by-charlie-shrem",
    "post_id": 1258012,
    "promoted": "0.000 HBD",
    "replies": [],
    "stats": {
      "flag_weight": 0.0,
      "gray": false,
      "hide": false,
      "total_votes": 211
    },
    "title": "MackerelCoin & My Socioeconomic Observations from Prison (Part 1 by Charlie Shrem)",
    "updated": "2016-09-15T19:39:15",
    "url": "/story/@charlieshrem/mackerelcoin-and-my-socioeconomic-observations-from-prison-part-1-by-charlie-shrem"
  },
  {
    "active_votes": [
      {
        "rshares": 99588913,
        "voter": "rebeccamorgan"
      },
      {
        "rshares": 2264991522,
        "voter": "bluechoochoo"
      }
    ],
    "author": "rebeccamorgan",
    "author_payout_value": "0.000 HBD",
    "author_reputation": 43.74,
    "beneficiaries": [],
    "blacklists": [],
    "body": "<html>\n<p><img src=\"https://encrypted-tbn2.gstatic.com/images?q=tbn:ANd9GcSvPcipLOst42r-1eVPTuUXJ1aF4RhA6dpo9vwTt_HgsdBHW9GYXA\" width=\"259\" height=\"194\"/></p>\n<p>I don't know about you, but one of my favorite parts of eating sushi is the pickled ginger. Today, I stopped by the store to pick up some pickled ginger to go with the sushi I was making for lunch, but I was totally bummed that they didn't have any.</p>\n<p>So I went home and did what I do a lot...I improvised. Remembering the bag of whole, unpeeled ginger I had thrown in the freezer a while back, I got it out. Turns out, you can make great pickled ginger at home, and it's super easy!&nbsp;</p>\n<p>Recipe:</p>\n<p>1/4 cup peeled, thinly sliced ginger</p>\n<p>1/4 cup seasoned sushi vinegar</p>\n<p>1 tablespoon ginger</p>\n<p>Put all the ingredients in a small seal-able container and let set in the refrigerator for at least one hour.</p>\n<p>I love to eat this with a simple tempura shrimp roll using 1 sheet of nori, 1/2 cup sushi rice, and tempura shrimp.</p>\n<p>YUM!</p>\n</html>",
    "category": "food",
    "children": 0,
    "created": "2016-09-15T19:39:12",
    "curator_payout_value": "0.000 HBD",
    "depth": 0,
    "is_paidout": false,
    "json_metadata": {
      "image": [
        "https://encrypted-tbn2.gstatic.com/images?q=tbn:ANd9GcSvPcipLOst42r-1eVPTuUXJ1aF4RhA6dpo9vwTt_HgsdBHW9GYXA"
      ],
      "tags": [
        "food",
        "recipe",
        "life",
        ""
      ]
    },
    "max_accepted_payout": "1000000.000 HBD",
    "net_rshares": 2364580435,
    "payout": 0.0,
    "payout_at": "2016-09-22T19:39:12",
    "pending_payout_value": "0.000 HBD",
    "percent_hbd": 10000,
    "permlink": "recipe-pickled-ginger-for-sushi",
    "post_id": 1258010,
    "promoted": "0.000 HBD",
    "replies": [],
    "stats": {
      "flag_weight": 0.0,
      "gray": false,
      "hide": false,
      "total_votes": 2
    },
    "title": "[recipe] pickled ginger for sushi",
    "updated": "2016-09-15T19:39:12",
    "url": "/food/@rebeccamorgan/recipe-pickled-ginger-for-sushi"
  },
  {
    "active_votes": [
      {
        "rshares": 153246055,
        "voter": "ladenlabel"
      }
    ],
    "author": "ladenlabel",
    "author_payout_value": "0.000 HBD",
    "author_reputation": 25.0,
    "beneficiaries": [],
    "blacklists": [],
    "body": "Each day more and more people are jumping onto the \u201cgreen\u201d bandwagon as an attempt protect themselves and \nfamilies from the hidden dangers in chemical products. It\u2019s no secret anymore that many of these concoctions are \nloaded with carcinogens that damage the neurological, reproductive, and hormonal systems.\n\n For example fluoride is a substance found in most drinking water that to me and many doctors alike would say is unethical.\n \nFluoride is not an essential nutrient. No disease, not even tooth decay, is caused by a \u201cfluoride deficiency.\u201d Not a single biological process has been shown to require fluoride. On the contrary there is extensive evidence that fluoride can interfere with many important biological processes. Fluoride interferes with numerous enzymes. In combination with aluminum, fluoride interferes with G-proteins. Such interactions give aluminum-fluoride complexes the potential to interfere with signals from growth factors, hormones and neurotransmitters. More and more studies indicate that fluoride can interfere with biochemistry in fundamental ways.\n\nFluoride may damage the brain. According to the National Research Council, \u201cit is apparent that fluorides have the ability to interfere with the functions of the brain.\u201d In a review of the literature commissioned by the US Environmental Protection Agency (EPA), fluoride has been listed among about 100 chemicals for which there is \u201csubstantial evidence of developmental neurotoxicity.\u201d Animal experiments show that fluoride accumulates in the brain and alters mental behavior in a manner consistent with a neurotoxic agent. In total, there have now been over 100 animal experiments showing that fluoride can damage the brain and impact learning and behavior. According to fluoridation proponents, these animal studies can be ignored because high doses were used. However, it is important to note that rats generally require five times more fluoride to reach the same plasma levels in humans. Further, one animal experiment found effects at remarkably low doses. In this study, rats fed for one year with 1 ppm fluoride in their water (the same level used in fluoridation programs), using either sodium fluoride or aluminum fluoride, had morphological changes to their kidneys and brains, an increased uptake of aluminum in the brain, and the formation of beta-amyloid deposits which are associated with Alzheimer\u2019s disease. Other animal studies have found effects on the brain at water fluoride levels as low as 5 ppm.\n\nWhile fluoridation may not be the greatest environmental health threat, it is one of the easiest to end. \nMany People are aware of these issues and today there are more alternative options than ever before.\n\nwaterliberty.com is one site I've came across with products and tips for a  healthier lifestyle. \n\nTo find more info on fluoride this is a good site: fluoridealert.org/articles/50-reasons/",
    "category": "health",
    "children": 0,
    "created": "2016-09-15T19:36:36",
    "curator_payout_value": "0.000 HBD",
    "depth": 0,
    "is_paidout": false,
    "json_metadata": {
      "tags": [
        "health",
        "life",
        ""
      ]
    },
    "max_accepted_payout": "1000000.000 HBD",
    "net_rshares": 153246055,
    "payout": 0.0,
    "payout_at": "2016-09-22T19:36:36",
    "pending_payout_value": "0.000 HBD",
    "percent_hbd": 0,
    "permlink": "water-liberty-bringing-it-back-to-its-primordial-clean-and-pristine-state",
    "post_id": 1257985,
    "promoted": "0.000 HBD",
    "replies": [],
    "stats": {
      "flag_weight": 0.0,
      "gray": false,
      "hide": false,
      "total_votes": 1
    },
    "title": "Water Liberty, bringing it back to its primordial clean and pristine state",
    "updated": "2016-09-15T19:36:36",
    "url": "/health/@ladenlabel/water-liberty-bringing-it-back-to-its-primordial-clean-and-pristine-state"
  },
  {
    "active_votes": [
      {
        "rshares": 3911638805,
        "voter": "zaitsevalesyaa"
      },
      {
        "rshares": 1131354587,
        "voter": "patimaker"
      },
      {
        "rshares": 150728858,
        "voter": "alexandrapop"
      }
    ],
    "author": "patimaker",
    "author_payout_value": "0.000 HBD",
    "author_reputation": 51.12,
    "beneficiaries": [],
    "blacklists": [],
    "body": "I just decided to draw a bird\nVery often I do not sleep at night, so I draw sorts of things\n\nhttp://s017.radikal.ru/i410/1609/b9/c2414d721dd3.png",
    "category": "art",
    "children": 1,
    "created": "2016-09-15T19:33:24",
    "curator_payout_value": "0.000 HBD",
    "depth": 0,
    "is_paidout": false,
    "json_metadata": {
      "image": [
        "http://s017.radikal.ru/i410/1609/b9/c2414d721dd3.png"
      ],
      "tags": [
        "art",
        "drawing",
        "life",
        "picture",
        "painting"
      ]
    },
    "max_accepted_payout": "1000000.000 HBD",
    "net_rshares": 5193722250,
    "payout": 0.001,
    "payout_at": "2016-09-22T19:33:24",
    "pending_payout_value": "0.001 HBD",
    "percent_hbd": 10000,
    "permlink": "night-sketch-funny-bird",
    "post_id": 1257949,
    "promoted": "0.000 HBD",
    "replies": [],
    "stats": {
      "flag_weight": 0.0,
      "gray": false,
      "hide": false,
      "total_votes": 3
    },
    "title": "Night sketch - Funny bird",
    "updated": "2016-09-15T19:33:24",
    "url": "/art/@patimaker/night-sketch-funny-bird"
  },
  {
    "active_votes": [
      {
        "rshares": 503970587,
        "voter": "fkn"
      },
      {
        "rshares": 662437860,
        "voter": "elishagh1"
      },
      {
        "rshares": 1061309796,
        "voter": "murh"
      },
      {
        "rshares": 5342866379,
        "voter": "kimziv"
      },
      {
        "rshares": 2460297505,
        "voter": "furion"
      },
      {
        "rshares": 116544591,
        "voter": "poseidon"
      },
      {
        "rshares": 408706835,
        "voter": "positive"
      },
      {
        "rshares": 902920974,
        "voter": "sisterholics"
      },
      {
        "rshares": 31930537676,
        "voter": "laonie"
      },
      {
        "rshares": 1332539475,
        "voter": "myfirst"
      },
      {
        "rshares": 6481343102,
        "voter": "somebody"
      },
      {
        "rshares": 242331170,
        "voter": "flysaga"
      },
      {
        "rshares": 1431774250,
        "voter": "midnightoil"
      },
      {
        "rshares": 3581211307,
        "voter": "xiaohui"
      },
      {
        "rshares": 161721174,
        "voter": "elfkitchen"
      },
      {
        "rshares": 111957361,
        "voter": "xiaokongcom"
      },
      {
        "rshares": 225687011,
        "voter": "xianjun"
      },
      {
        "rshares": 2550264720,
        "voter": "benberger"
      }
    ],
    "author": "benberger",
    "author_payout_value": "0.000 HBD",
    "author_reputation": 54.89,
    "beneficiaries": [],
    "blacklists": [],
    "body": "http://i67.tinypic.com/307wwzn.jpg",
    "category": "life",
    "children": 0,
    "created": "2016-09-15T19:33:00",
    "curator_payout_value": "0.000 HBD",
    "depth": 0,
    "is_paidout": false,
    "json_metadata": {
      "image": [
        "http://i67.tinypic.com/307wwzn.jpg"
      ],
      "tags": [
        "life",
        "fun",
        "comedy",
        "fail",
        "cartoon"
      ]
    },
    "max_accepted_payout": "1000000.000 HBD",
    "net_rshares": 59508421773,
    "payout": 0.013,
    "payout_at": "2016-09-22T19:33:00",
    "pending_payout_value": "0.013 HBD",
    "percent_hbd": 10000,
    "permlink": "please-identify-your-sexuell-orientation",
    "post_id": 1257941,
    "promoted": "0.000 HBD",
    "replies": [],
    "stats": {
      "flag_weight": 0.0,
      "gray": false,
      "hide": false,
      "total_votes": 18
    },
    "title": "Please identify your sexuell orientation:",
    "updated": "2016-09-15T19:33:00",
    "url": "/life/@benberger/please-identify-your-sexuell-orientation"
  },
  {
    "active_votes": [
      {
        "rshares": 154779613,
        "voter": "blendplayz"
      }
    ],
    "author": "blendplayz",
    "author_payout_value": "0.000 HBD",
    "author_reputation": 26.94,
    "beneficiaries": [],
    "blacklists": [],
    "body": "<html>\n<ul>\n  <li>&nbsp;&nbsp;Tiki mugs are a cool thing to collect and tiki drinks are out-of-this-world-delicious. So why aren\u2019t you making more tiki drinks at home?Because they have a reputation for being incredibly complicated, that\u2019s why. But New York City bartender and tiki enthusiast <a href=\"https://twitter.com/tikiderelict\">Brian Miller</a> \u2014 who\u2019s studied the repertoire of tiki godfather Donn Beach closely \u2014 is here to help.Below, he recommends five rum-based tiki recipes that strike a balance between being authentic and doable without having to revamp your entire liquor collection. Master them and you\u2019ll earn major home bartender cred.&nbsp;&nbsp;</li>\n  <li><img src=\"http://static.businessinsider.com/image/55aead2a2acae719008b898c-1200/image.jpg\" width=\"1200\" height=\"1200\"/><img src=\"http://static.businessinsider.com/image/55aead3f2acae719008b8990-1200/image.jpg\" width=\"1200\" height=\"1200\"/><img src=\"http://static.businessinsider.com/image/55aead502acae7f4028b89c3-1200/image.jpg\" width=\"1200\" height=\"1200\"/><img src=\"http://static.businessinsider.com/image/55b279b42acae711008b9bea-1200/image.jpg\" width=\"1200\" height=\"1200\"/><img src=\"http://static.businessinsider.com/image/55b279c32acae7c23f8b743d-1200/image.jpg\" width=\"1200\" height=\"1200\"/></li>\n</ul>\n</html>\nSOURCE.>http://www.businessinsider.com.au/5-tiki-drink-recipes-that-arent-overly-complicated-2016-7",
    "category": "food",
    "children": 0,
    "created": "2016-09-15T19:25:27",
    "curator_payout_value": "0.000 HBD",
    "depth": 0,
    "is_paidout": false,
    "json_metadata": {
      "image": [
        "http://static.businessinsider.com/image/55aead2a2acae719008b898c-1200/image.jpg",
        "http://static.businessinsider.com/image/55aead3f2acae719008b8990-1200/image.jpg",
        "http://static.businessinsider.com/image/55aead502acae7f4028b89c3-1200/image.jpg",
        "http://static.businessinsider.com/image/55b279b42acae711008b9bea-1200/image.jpg",
        "http://static.businessinsider.com/image/55b279c32acae7c23f8b743d-1200/image.jpg"
      ],
      "links": [
        "https://twitter.com/tikiderelict",
        "http://www.businessinsider.com.au/5-tiki-drink-recipes-that-arent-overly-complicated-2016-7"
      ],
      "tags": [
        "food",
        "life"
      ]
    },
    "max_accepted_payout": "1000000.000 HBD",
    "net_rshares": 154779613,
    "payout": 0.0,
    "payout_at": "2016-09-22T19:25:27",
    "pending_payout_value": "0.000 HBD",
    "percent_hbd": 10000,
    "permlink": "5-tiki-cocktails-you-can-make-at-home",
    "post_id": 1257852,
    "promoted": "0.000 HBD",
    "replies": [],
    "stats": {
      "flag_weight": 0.0,
      "gray": false,
      "hide": false,
      "total_votes": 1
    },
    "title": "5 tiki cocktails you can make at home",
    "updated": "2016-09-15T19:25:27",
    "url": "/food/@blendplayz/5-tiki-cocktails-you-can-make-at-home"
  },
  {
    "active_votes": [
      {
        "rshares": 150215761,
        "voter": "nbofill"
      }
    ],
    "author": "nbofill",
    "author_payout_value": "0.000 HBD",
    "author_reputation": 25.0,
    "beneficiaries": [],
    "blacklists": [],
    "body": "<html>\n<p>Don\u2019t cry because it\u2019s over. Smile because it happened.&nbsp;</p>\n</html>",
    "category": "frase",
    "children": 0,
    "created": "2016-09-15T19:23:48",
    "curator_payout_value": "0.000 HBD",
    "depth": 0,
    "is_paidout": false,
    "json_metadata": {
      "tags": [
        "frase",
        "life",
        "positive",
        "news",
        "good"
      ]
    },
    "max_accepted_payout": "1000000.000 HBD",
    "net_rshares": 150215761,
    "payout": 0.0,
    "payout_at": "2016-09-22T19:23:48",
    "pending_payout_value": "0.000 HBD",
    "percent_hbd": 10000,
    "permlink": "3tfbln",
    "post_id": 1257838,
    "promoted": "0.000 HBD",
    "replies": [],
    "stats": {
      "flag_weight": 0.0,
      "gray": false,
      "hide": false,
      "total_votes": 1
    },
    "title": ":)",
    "updated": "2016-09-15T19:23:48",
    "url": "/frase/@nbofill/3tfbln"
  },
  {
    "active_votes": [
      {
        "rshares": 1517204931,
        "voter": "anwar78"
      },
      {
        "rshares": 239669638,
        "voter": "valeri"
      }
    ],
    "author": "anwar78",
    "author_payout_value": "0.000 HBD",
    "author_reputation": 32.16,
    "beneficiaries": [],
    "blacklists": [],
    "body": "https://youtu.be/ibO_fxeBltQ",
    "category": "steemit",
    "children": 0,
    "created": "2016-09-15T19:18:51",
    "curator_payout_value": "0.000 HBD",
    "depth": 0,
    "is_paidout": false,
    "json_metadata": {
      "image": [
        "https://img.youtube.com/vi/ibO_fxeBltQ/0.jpg"
      ],
      "links": [
        "https://youtu.be/ibO_fxeBltQ"
      ],
      "tags": [
        "steemit",
        "nwo",
        "politics",
        "illuminati",
        "life"
      ]
    },
    "max_accepted_payout": "1000000.000 HBD",
    "net_rshares": 1756874569,
    "payout": 0.0,
    "payout_at": "2016-09-22T19:18:51",
    "pending_payout_value": "0.000 HBD",
    "percent_hbd": 10000,
    "permlink": "the-protocols-of-the-learned-elders-of-zion",
    "post_id": 1257792,
    "promoted": "0.000 HBD",
    "replies": [],
    "stats": {
      "flag_weight": 0.0,
      "gray": false,
      "hide": false,
      "total_votes": 2
    },
    "title": "The protocols of the learned elders of Zion",
    "updated": "2016-09-15T19:18:51",
    "url": "/steemit/@anwar78/the-protocols-of-the-learned-elders-of-zion"
  },
  {
    "active_votes": [
      {
        "rshares": 7946872448,
        "voter": "smolalit"
      },
      {
        "rshares": 1855374869,
        "voter": "alex2016"
      },
      {
        "rshares": 118331751,
        "voter": "rusla"
      },
      {
        "rshares": 832935638,
        "voter": "jbaker585"
      }
    ],
    "author": "alex2016",
    "author_payout_value": "0.000 HBD",
    "author_reputation": 54.62,
    "beneficiaries": [],
    "blacklists": [],
    "body": "<b>I want to tell as we have held another photoshoot where we have tried to sustain black-and-white style of photos.</b>\n<hr color>\n\nYesterday the girl has called me and has asked whether I can finish shooting a photoshoot in some style? What has come to my mind, it to take pictures in black-and-white option as it was in early 70-80 years when the photo has only arisen.\n\nThe place for shootings have chosen the central park. Weather was cool. Have agreed about a meeting. At first the girl hesitated, and it has turned out on a shot here so\n<center>\nhttps://pp.vk.me/c836320/v836320641/185/NYRpq9qzo9w.jpg\n</center>\n<center>\nhttps://pp.vk.me/c836320/v836320641/169/iPi41rP501o.jpg\n</center>\nAfter we have spent more than 30 minutes of shootings, the girl was liberated, and has begun to work actively.\n<center>\nhttps://pp.vk.me/c836320/v836320641/17e/eU5naYLtgEw.jpg\n<br>\nhttps://pp.vk.me/c836320/v836320641/177/XNZ-jrBAvOA.jpg\n</center>\n\nGood impressions remained with me and my model. She has received photos, I have got experience. The camera I used Nikon D3100 with a lens of 55-200 mm.\n<center>\nhttps://pp.vk.me/c836320/v836320641/170/hM7NQWYiPYQ.jpg\n<center>\nhttps://pp.vk.me/c836320/v836320641/162/Qy1iCE7yhWs.jpg\n</center>\n</center>\nEstimate my article, all thanks!\n<center>https://pp.vk.me/c836320/v836320641/143/qUzy2zppzaQ.jpg\nhttps://pp.vk.me/c836320/v836320641/13c/9wEdFLSFETs.jpg\n</center>\n<hr no shade>",
    "category": "photography",
    "children": 3,
    "created": "2016-09-15T19:18:21",
    "curator_payout_value": "0.000 HBD",
    "depth": 0,
    "is_paidout": false,
    "json_metadata": {
      "image": [
        "https://pp.vk.me/c836320/v836320641/185/NYRpq9qzo9w.jpg",
        "https://pp.vk.me/c836320/v836320641/169/iPi41rP501o.jpg",
        "https://pp.vk.me/c836320/v836320641/17e/eU5naYLtgEw.jpg",
        "https://pp.vk.me/c836320/v836320641/177/XNZ-jrBAvOA.jpg",
        "https://pp.vk.me/c836320/v836320641/170/hM7NQWYiPYQ.jpg",
        "https://pp.vk.me/c836320/v836320641/162/Qy1iCE7yhWs.jpg",
        "https://pp.vk.me/c836320/v836320641/143/qUzy2zppzaQ.jpg"
      ],
      "tags": [
        "photography",
        "art",
        "photo",
        "blog",
        "life"
      ]
    },
    "max_accepted_payout": "1000000.000 HBD",
    "net_rshares": 10753514706,
    "payout": 0.002,
    "payout_at": "2016-09-22T19:18:21",
    "pending_payout_value": "0.002 HBD",
    "percent_hbd": 10000,
    "permlink": "as-we-have-held-photoshoots-in-black-and-white-colors",
    "post_id": 1257788,
    "promoted": "0.000 HBD",
    "replies": [],
    "stats": {
      "flag_weight": 0.0,
      "gray": false,
      "hide": false,
      "total_votes": 4
    },
    "title": "As we have held photoshoots in black-and-white colors",
    "updated": "2016-09-15T19:18:21",
    "url": "/photography/@alex2016/as-we-have-held-photoshoots-in-black-and-white-colors"
  },
  {
    "active_votes": [
      {
        "rshares": 234970233,
        "voter": "valeri"
      },
      {
        "rshares": 56527396,
        "voter": "blahblahblah"
      },
      {
        "rshares": 153220076,
        "voter": "nbofill"
      }
    ],
    "author": "nbofill",
    "author_payout_value": "0.000 HBD",
    "author_reputation": 25.0,
    "beneficiaries": [],
    "blacklists": [],
    "body": "<html>\n<p><img src=\"https://s12.postimg.org/ry5ny36vh/image.jpg\" width=\"1191\" height=\"800\"/></p>\n</html>",
    "category": "life",
    "children": 0,
    "created": "2016-09-15T19:18:18",
    "curator_payout_value": "0.000 HBD",
    "depth": 0,
    "is_paidout": false,
    "json_metadata": {
      "image": [
        "https://s12.postimg.org/ry5ny36vh/image.jpg"
      ],
      "tags": [
        "life",
        "steemit",
        "art",
        "food",
        "photography"
      ]
    },
    "max_accepted_payout": "1000000.000 HBD",
    "net_rshares": 444717705,
    "payout": 0.0,
    "payout_at": "2016-09-22T19:18:18",
    "pending_payout_value": "0.000 HBD",
    "percent_hbd": 0,
    "permlink": "girl",
    "post_id": 1257786,
    "promoted": "0.000 HBD",
    "replies": [],
    "stats": {
      "flag_weight": 0.0,
      "gray": false,
      "hide": false,
      "total_votes": 3
    },
    "title": "girl",
    "updated": "2016-09-15T19:18:18",
    "url": "/life/@nbofill/girl"
  },
  {
    "active_votes": [
      {
        "rshares": 9575441168,
        "voter": "fkn"
      },
      {
        "rshares": 12586319352,
        "voter": "elishagh1"
      },
      {
        "rshares": 313710480,
        "voter": "coar"
      },
      {
        "rshares": 1061309796,
        "voter": "murh"
      },
      {
        "rshares": 80142995693,
        "voter": "kimziv"
      },
      {
        "rshares": 46745652607,
        "voter": "furion"
      },
      {
        "rshares": 224272494,
        "voter": "barbara2"
      },
      {
        "rshares": 249275987,
        "voter": "ch0c0latechip"
      },
      {
        "rshares": 230707321,
        "voter": "doge4lyf"
      },
      {
        "rshares": 1748168870,
        "voter": "poseidon"
      },
      {
        "rshares": 7765429875,
        "voter": "positive"
      },
      {
        "rshares": 13543814621,
        "voter": "sisterholics"
      },
      {
        "rshares": 261456368,
        "voter": "fnait"
      },
      {
        "rshares": 232278247,
        "voter": "keepcalmand"
      },
      {
        "rshares": 478958065154,
        "voter": "laonie"
      },
      {
        "rshares": 15990473701,
        "voter": "myfirst"
      },
      {
        "rshares": 97220146544,
        "voter": "somebody"
      },
      {
        "rshares": 3634967560,
        "voter": "flysaga"
      },
      {
        "rshares": 21476613753,
        "voter": "midnightoil"
      },
      {
        "rshares": 53718169615,
        "voter": "xiaohui"
      },
      {
        "rshares": 2587538789,
        "voter": "elfkitchen"
      },
      {
        "rshares": 1679360423,
        "voter": "xiaokongcom"
      },
      {
        "rshares": 1112699443,
        "voter": "future24"
      },
      {
        "rshares": 3385305165,
        "voter": "xianjun"
      },
      {
        "rshares": 221670623,
        "voter": "microluck"
      },
      {
        "rshares": 7989270301,
        "voter": "karisa"
      },
      {
        "rshares": 61478828,
        "voter": "bonapetit"
      },
      {
        "rshares": 109229309,
        "voter": "rusla"
      },
      {
        "rshares": 136316357,
        "voter": "thedevil"
      }
    ],
    "author": "karisa",
    "author_payout_value": "0.000 HBD",
    "author_reputation": 58.57,
    "beneficiaries": [],
    "blacklists": [],
    "body": "Hello Steemit)) for a long time it was night)\nAnd I want to teach you today how to cook chicken fillet with breadcrumbs.\nI hope you will enjoy)\n\n> \u041f\u0440\u0438\u0432\u0435\u0442 \u0421\u0442\u0438\u0438\u043c\u0438\u0442)) \u0423 \u043c\u0435\u043d\u044f \u0443\u0436\u0435 \u0434\u0430\u0432\u043d\u043e \u043d\u0430\u0441\u0442\u0443\u043f\u0438\u043b\u0430 \u043d\u043e\u0447\u044c) \n\u0418 \u044f \u0445\u043e\u0447\u0443 \u0432\u0430\u0441 \u0441\u0435\u0433\u043e\u0434\u043d\u044f \u043d\u0430\u0443\u0447\u0438\u0442\u044c , \u043a\u0430\u043a \u0433\u043e\u0442\u043e\u0432\u0438\u0442\u044c \u043a\u0443\u0440\u0438\u043d\u043e\u0435 \u0444\u0438\u043b\u0435 \u0432 \u0441\u0443\u0445\u0430\u0440\u044f\u0445.\n\u041d\u0430\u0434\u0435\u044e\u0441\u044c \u0432\u0430\u043c \u043f\u043e\u043d\u0440\u0430\u0432\u0438\u0442\u0441\u044f)\n\nhttp://s017.radikal.ru/i401/1609/a8/701d5400daa7.jpg\n\n## Step 1: Take Ingredients.\nChicken fillet - 300 grams\nEgg - 1 piece\nBreadcrumbs - 100g\nCorn Flour - 60 grams\nSalt and pepper to taste\n\n>## \u0428\u0430\u0433 1: \u0411\u0435\u0440\u0435\u043c \u0418\u043d\u0433\u0440\u0438\u0434\u0438\u0435\u043d\u0442\u044b.\n> \u041a\u0443\u0440\u0438\u043d\u043d\u043e\u0435 \u0444\u0438\u043b\u0435 - 300 \u0433\u0440\u0430\u043c\u043c\n\u042f\u0439\u0446\u043e - 1 \u0448\u0442\u0443\u043a\u0430\n\u0421\u0443\u0445\u0430\u0440\u0438 - 100 \u0433\u0440\u0430\u043c\u043c\n\u041c\u0443\u043a\u0430 \u043a\u0443\u043a\u0443\u0440\u0443\u0437\u043d\u0430\u044f - 60 \u0433\u0440\u0430\u043c\u043c\n\u0421\u043e\u043b\u044c, \u043f\u0435\u0440\u0435\u0446 \u043f\u043e \u0432\u043a\u0443\u0441\u0443\n\nhttp://s018.radikal.ru/i501/1609/64/9731bfb796d4.jpg\n\n## Step 2: \nPrepare the ingredients.\nEggs break into a big bowl, and cut into chicken.\n\n>## \u0428\u0430\u0433 2:\n> \u041f\u043e\u0434\u0433\u043e\u0442\u0430\u0432\u043b\u0438\u0432\u0430\u0435\u043c \u0438\u043d\u0433\u0440\u0438\u0434\u0438\u0435\u043d\u0442\u044b. \n\u042f\u0439\u0446\u043e \u0440\u0430\u0437\u0431\u0438\u0432\u0430\u0435\u043c \u0432 \u0431\u043e\u043b\u044c\u0448\u0443\u044e \u0442\u0430\u0440\u0435\u043b\u043a\u0443, \u043d\u0430\u0440\u0435\u0437\u0430\u0435\u043c \u043a\u0443\u0440\u0438\u043d\u043d\u043e\u0435 \u0444\u0438\u043b\u0435.\n\nhttp://s020.radikal.ru/i706/1609/cd/5cbef4082a18.jpg\n\nNow dip each piece first in the flour, as in the photo.\n\n> \u0422\u0435\u043f\u0435\u0440\u044c \u043a\u0430\u0436\u0434\u044b\u0439 \u043a\u0443\u0441\u043e\u0447\u0435\u043a \u043c\u043e\u043a\u0430\u0435\u043c \u0432\u043d\u0430\u0447\u0430\u043b\u0435 \u0432 \u043c\u0443\u043a\u0443, \u043a\u0430\u043a \u043d\u0430 \u0444\u043e\u0442\u043e.\n\nhttp://s019.radikal.ru/i637/1609/cc/a1fafd8db0a9.jpg\n\nThen dipped in egg.\n\n> \u0417\u0430\u0442\u0435\u043c \u043c\u043e\u043a\u0430\u0435\u043c \u0432 \u044f\u0439\u0446\u043e.\n\nhttp://s46.radikal.ru/i111/1609/ae/2bbdb507a016.jpg\n\nThen we dipped in breadcrumbs\n\n> \u0418 \u0434\u0430\u043b\u0435\u0435 \u043c\u043e\u043a\u0430\u0435\u043c \u0432 \u0441\u0443\u0445\u0430\u0440\u0438.\n\nhttp://s018.radikal.ru/i505/1609/32/cd41cbfbe4d7.jpg\n\n## Step 3:\nIt remains only to fry our chicken fillet)\nPut it in the pan and fry for 7-8 minutes))\nEverything is ready) Bon appetit.\n\n>## \u0428\u0430\u0433 3:\n> \u041e\u0441\u0442\u0430\u0435\u0442\u0441\u044f \u0442\u043e\u043b\u044c\u043a\u043e \u043f\u043e\u0436\u0430\u0440\u0438\u0442\u044c \u043d\u0430\u0448\u0435 \u043a\u0443\u0440\u0438\u043d\u043d\u043e\u0435 \u0444\u0438\u043b\u0435) \n\u041a\u043b\u0430\u0434\u0435\u043c \u0435\u0433\u043e \u043d\u0430 \u0441\u043a\u043e\u0432\u043e\u0440\u043e\u0434\u043a\u0443 \u0438 \u0436\u0430\u0440\u0438\u043c \u0432 \u0442\u0435\u0447\u0435\u043d\u0438\u0438 7-8 \u043c\u0438\u043d\u0443\u0442))\n\u0412\u0441\u0435 \u0433\u043e\u0442\u043e\u0432\u043e) \u041f\u0440\u0438\u044f\u0442\u043d\u043e\u0433\u043e \u0430\u043f\u043f\u0435\u0442\u0438\u0442\u0430.\n\nhttp://s09.radikal.ru/i182/1609/6a/ad5522e514fa.jpg",
    "category": "food",
    "children": 1,
    "created": "2016-09-15T19:17:33",
    "curator_payout_value": "0.000 HBD",
    "depth": 0,
    "is_paidout": false,
    "json_metadata": {
      "image": [
        "http://s017.radikal.ru/i401/1609/a8/701d5400daa7.jpg",
        "http://s018.radikal.ru/i501/1609/64/9731bfb796d4.jpg",
        "http://s020.radikal.ru/i706/1609/cd/5cbef4082a18.jpg",
        "http://s019.radikal.ru/i637/1609/cc/a1fafd8db0a9.jpg",
        "http://s46.radikal.ru/i111/1609/ae/2bbdb507a016.jpg",
        "http://s018.radikal.ru/i505/1609/32/cd41cbfbe4d7.jpg",
        "http://s09.radikal.ru/i182/1609/6a/ad5522e514fa.jpg"
      ],
      "tags": [
        "food",
        "recipes",
        "life",
        "cooking"
      ]
    },
    "max_accepted_payout": "1000000.000 HBD",
    "net_rshares": 862962138444,
    "payout": 0.23,
    "payout_at": "2016-09-22T19:17:33",
    "pending_payout_value": "0.230 HBD",
    "percent_hbd": 10000,
    "permlink": "dr1uk-vegetable-soup-puree-recipe-specially-for-steemit",
    "post_id": 1257778,
    "promoted": "0.000 HBD",
    "replies": [],
    "stats": {
      "flag_weight": 0.0,
      "gray": false,
      "hide": false,
      "total_votes": 29
    },
    "title": "Chicken fillet with breadcrumbs) recipe specially for Steemit",
    "updated": "2016-09-15T19:34:42",
    "url": "/food/@karisa/dr1uk-vegetable-soup-puree-recipe-specially-for-steemit"
  },
  {
    "active_votes": [
      {
        "rshares": 22687919345,
        "voter": "prufarchy"
      },
      {
        "rshares": 7697824638,
        "voter": "lgm-1"
      },
      {
        "rshares": 83629307390,
        "voter": "serejandmyself"
      },
      {
        "rshares": 6036784485,
        "voter": "anarcho-andrei"
      },
      {
        "rshares": 109229309,
        "voter": "rusla"
      },
      {
        "rshares": 125198095,
        "voter": "emeline"
      },
      {
        "rshares": 3983913956,
        "voter": "michelle.gent"
      }
    ],
    "author": "prufarchy",
    "author_payout_value": "0.000 HBD",
    "author_reputation": 59.92,
    "beneficiaries": [],
    "blacklists": [],
    "body": "I am the watcher \nof history and time.\nEternal observer\nand witness, I.\n\nWho silently sees \nthe unfolding of life,\nan audience member \nand witness, I. \n\nWho sits and who waits\nwithout looking to find,\nlife archaeologist \nand witness, I. \n\nWho asks for nothing \nand with nothing is fine,\nan earth minimalist\nand witness, I. \n\nI just keep watching\nand try counting the cries.\nHeart bleeding reporter\nand witness, I. \n\nWhen my shift is done\nI can avert my eyes,\nonce again a human\nand witness, I. \n\n<center>https://www.steemimg.com/images/2016/09/15/image56bc9.jpg</center>",
    "category": "story",
    "children": 1,
    "created": "2016-09-15T19:16:39",
    "curator_payout_value": "0.000 HBD",
    "depth": 0,
    "is_paidout": false,
    "json_metadata": {
      "image": [
        "https://www.steemimg.com/images/2016/09/15/image56bc9.jpg"
      ],
      "tags": [
        "story",
        "art",
        "poetry",
        "life",
        "writing"
      ]
    },
    "max_accepted_payout": "1000000.000 HBD",
    "net_rshares": 124270177218,
    "payout": 0.028,
    "payout_at": "2016-09-22T19:16:39",
    "pending_payout_value": "0.028 HBD",
    "percent_hbd": 10000,
    "permlink": "i-witness-original",
    "post_id": 1257768,
    "promoted": "0.000 HBD",
    "replies": [],
    "stats": {
      "flag_weight": 0.0,
      "gray": false,
      "hide": false,
      "total_votes": 7
    },
    "title": "I, Witness (Original)",
    "updated": "2016-09-15T19:16:39",
    "url": "/story/@prufarchy/i-witness-original"
  },
  {
    "active_votes": [
      {
        "rshares": 1609525039,
        "voter": "gidlark"
      },
      {
        "rshares": 1708336843,
        "voter": "dimon14"
      },
      {
        "rshares": 1112699443,
        "voter": "future24"
      },
      {
        "rshares": 114779248,
        "voter": "bleujay"
      }
    ],
    "author": "gidlark",
    "author_payout_value": "0.000 HBD",
    "author_reputation": 48.91,
    "beneficiaries": [],
    "blacklists": [],
    "body": "<html>\n<p>https://www.steemimg.com/images/2016/09/10/IMG_0876a016a.jpg</p>\n<p><br></p>\n</html>",
    "category": "photography",
    "children": 0,
    "created": "2016-09-15T19:13:42",
    "curator_payout_value": "0.000 HBD",
    "depth": 0,
    "is_paidout": false,
    "json_metadata": {
      "image": [
        "https://www.steemimg.com/images/2016/09/10/IMG_0876a016a.jpg"
      ],
      "tags": [
        "photography",
        "nature",
        "life",
        "ru",
        "ukraine"
      ]
    },
    "max_accepted_payout": "1000000.000 HBD",
    "net_rshares": 4545340573,
    "payout": 0.0,
    "payout_at": "2016-09-22T19:13:42",
    "pending_payout_value": "0.000 HBD",
    "percent_hbd": 10000,
    "permlink": "environment-10-cloud-okruzhayushaya-sreda-10-oblaka",
    "post_id": 1257742,
    "promoted": "0.000 HBD",
    "replies": [],
    "stats": {
      "flag_weight": 0.0,
      "gray": false,
      "hide": false,
      "total_votes": 4
    },
    "title": "Environment #10 - cloud (\u041e\u043a\u0440\u0443\u0436\u0430\u044e\u0449\u0430\u044f \u0441\u0440\u0435\u0434\u0430 \u211610 - \u043e\u0431\u043b\u0430\u043a\u0430)",
    "updated": "2016-09-15T19:13:42",
    "url": "/photography/@gidlark/environment-10-cloud-okruzhayushaya-sreda-10-oblaka"
  },
  {
    "active_votes": [
      {
        "rshares": 234970233,
        "voter": "valeri"
      },
      {
        "rshares": 232757631,
        "voter": "sergey44"
      },
      {
        "rshares": 109229309,
        "voter": "rusla"
      },
      {
        "rshares": 98583209,
        "voter": "ola1"
      },
      {
        "rshares": 3994865163,
        "voter": "zaitsevalesyaa"
      }
    ],
    "author": "zaitsevalesyaa",
    "author_payout_value": "0.000 HBD",
    "author_reputation": 55.66,
    "beneficiaries": [],
    "blacklists": [],
    "body": "Hello Steemit! To make a swan I took a few days, but I am very happy, turned out beautifully. I hope, you like it!\n\nhttp://ipic.su/img/img7/fs/P9151004.1473960590.jpg\n\nhttp://ipic.su/img/img7/fs/P9140916.1473960690.jpg\n\nhttp://ipic.su/img/img7/fs/P9140922.1473960714.jpg\n\nhttp://ipic.su/img/img7/fs/P9140931.1473960731.jpg\n\nhttp://ipic.su/img/img7/fs/P9140935.1473960805.jpg\n\nhttp://ipic.su/img/img7/fs/P9140941.1473960854.jpg\n\nhttp://ipic.su/img/img7/fs/P9140951.1473960899.jpg\n\nhttp://ipic.su/img/img7/fs/P9140965.1473960972.jpg\n\nhttp://ipic.su/img/img7/fs/P9140967.1473961056.jpg\n\nhttp://ipic.su/img/img7/fs/P9140972.1473961103.jpg\n\nhttp://ipic.su/img/img7/fs/P9150982.1473961200.jpg\n\nhttp://ipic.su/img/img7/fs/P9150988.1473961248.jpg\n\nhttp://ipic.su/img/img7/fs/P9150994.1473961301.jpg\n\nhttp://ipic.su/img/img7/fs/P9151004.1473961355.jpg\n\nhttp://ipic.su/img/img7/fs/P9151009.1473961408.jpg\n\nhttp://ipic.su/img/img7/fs/P9151011.1473961457.jpg\n\n---\n\nSuitable for home decoration or as a gift!\nFor the manufacture of needed skills in origami, but everyone can, if you try! Thank you all for your attention!",
    "category": "steemit",
    "children": 0,
    "created": "2016-09-15T19:12:42",
    "curator_payout_value": "0.000 HBD",
    "depth": 0,
    "is_paidout": false,
    "json_metadata": {
      "image": [
        "http://ipic.su/img/img7/fs/P9151004.1473960590.jpg",
        "http://ipic.su/img/img7/fs/P9140916.1473960690.jpg",
        "http://ipic.su/img/img7/fs/P9140922.1473960714.jpg",
        "http://ipic.su/img/img7/fs/P9140931.1473960731.jpg",
        "http://ipic.su/img/img7/fs/P9140935.1473960805.jpg",
        "http://ipic.su/img/img7/fs/P9140941.1473960854.jpg",
        "http://ipic.su/img/img7/fs/P9140951.1473960899.jpg",
        "http://ipic.su/img/img7/fs/P9140965.1473960972.jpg",
        "http://ipic.su/img/img7/fs/P9140967.1473961056.jpg",
        "http://ipic.su/img/img7/fs/P9140972.1473961103.jpg",
        "http://ipic.su/img/img7/fs/P9150982.1473961200.jpg",
        "http://ipic.su/img/img7/fs/P9150988.1473961248.jpg",
        "http://ipic.su/img/img7/fs/P9150994.1473961301.jpg",
        "http://ipic.su/img/img7/fs/P9151004.1473961355.jpg",
        "http://ipic.su/img/img7/fs/P9151009.1473961408.jpg",
        "http://ipic.su/img/img7/fs/P9151011.1473961457.jpg"
      ],
      "tags": [
        "steemit",
        "art",
        "photography",
        "life",
        "origami"
      ]
    },
    "max_accepted_payout": "1000000.000 HBD",
    "net_rshares": 4670405545,
    "payout": 0.001,
    "payout_at": "2016-09-22T19:12:42",
    "pending_payout_value": "0.001 HBD",
    "percent_hbd": 10000,
    "permlink": "the-art-of-origami-bird-swan",
    "post_id": 1257730,
    "promoted": "0.000 HBD",
    "replies": [],
    "stats": {
      "flag_weight": 0.0,
      "gray": false,
      "hide": false,
      "total_votes": 5
    },
    "title": "The Art of Origami - bird swan.",
    "updated": "2016-09-15T19:12:42",
    "url": "/steemit/@zaitsevalesyaa/the-art-of-origami-bird-swan"
  },
  {
    "active_votes": [
      {
        "rshares": 19239985423,
        "voter": "anduweb"
      },
      {
        "rshares": 258619590,
        "voter": "sergey44"
      },
      {
        "rshares": 1112699443,
        "voter": "future24"
      },
      {
        "rshares": 109229309,
        "voter": "rusla"
      },
      {
        "rshares": 98583209,
        "voter": "ola1"
      },
      {
        "rshares": 2020262526,
        "voter": "cwbrooch"
      },
      {
        "rshares": 1442647825,
        "voter": "modernbukowski"
      }
    ],
    "author": "renzoarg",
    "author_payout_value": "0.000 HBD",
    "author_reputation": 59.15,
    "beneficiaries": [],
    "blacklists": [],
    "body": "<p>There's a monster lurking in the depth of those boxer shorts. One that threatens the health of several men, specially those that are undergoing that wonderful stage full of pimples, irregular beards and systematic rejection to anything that comes from their parents except money. Even if <strong>there protoadults are the population group with more risk of facing this demon, almost every male is a victim from this situation at least once in life</strong>. This enemy made of fear and lack of resolution is not the first drunkenness on vodka you got, neither that time you got caught trying to asphyxiate your personal fowl. Nothing like that.</p>\nhttps://pixabay.com/static/uploads/photo/2015/06/06/07/36/heart-799138_960_720.jpg\n<p>You're that guy, that teen around 16 years old and just got a girlfriend of around your same age. Out of nowhere, you're not the same. Your friends stop paying you a visit, you don't show up to do sports as you used to before, not to mention that you don't hang out with them in the Saturday nights. <strong>Because of her, again. Always her. </strong>Your friends get a bit mad at you and they have their reasons, but there's always a cool one that mentions: \"you just envy that he gets laid, let him copulate in peace!\". Yes, he knows, hit the nail, he totally understands the reasons why <strong>a 16 year old teen craves more the sheets than to prepare the Playstation,</strong> he spends more time with his girlfriend than with his friends. Obviously, this is an invented story, because when I was 16 I still played hide and seek and glued my snots under the table; two things I almost stopped doing by now.</p>\n<p>What your friends do not know is that <strong>you had to leave behind SEVERAL Saturday nights</strong> to reach what you were committed to, lets be sincere, at the end of the day the \"yes, I want\" from your side is obvious. But is the female whom holds the real power. <strong>They hold the goods to display in offer to our permanent demands</strong>, at least at that age (HA!). Bunch of nights of just \"making out\". Months and even years for some (that, or I had serious issues defining a situation then). Your friends could be great soccer players, but they'll never understand how it feels to make it to the goal, pass the goalkeeper, and not score because she says \"it's not the right moment\".</p>\nhttps://pixabay.com/static/uploads/photo/2016/07/21/15/41/no-1532844_960_720.jpg\n<p>In a wonderful crescendo of fantasy and metaphor, it is essential to break the dream and put a name to this Boxer short's Sauron, that guy that should not be named in the sacred halls of the bedroom is nothing but a <strong>haploid overload</strong>.</p>\n<p><strong>When \"the game\" starts a lot of physiologic processes are triggered, attempting to enhance the performance</strong> in the bed / couch / car / field / airplanebathroom / bullshitairplanebathroomsaretoosmallandnobodyenjoysdoingitthere. Cardiac frequency and arterial pressure increase while at the same time <strong>blood vessels dilate</strong> (veins, mainly) at the entire genital area. This McCombo leads into <strong>blood accumulation in the sexual organs</strong> as long as the stimulation persists, because once the orgasm is reached, blood vessels recover their original size and blood drains away from the area.</p>\n<p>BUUUUUUUUUUUUT (this is what feeds the demon), when there's no orgasm and you're halfway there, <strong>the nervous signals that tell your body to \"stop and let go already\" are not there</strong> as a result blood stays there, leaving your balls literally swollen along with the always enjoyable sensation of bearing two watermelons in between your legs. We should mention that having to watermelons hanging from your hipbone hurt. Some are lucky and only hurt for a small time, others... are not so lucky (we wish you luck, dear friend).</p>\nhttps://pixabay.com/static/uploads/photo/2012/02/26/11/04/ball-17133_960_720.jpg\n<p><em>Where did the 3rd one come from?</em></p>\n<p>Despite being something amazingly frequent, <strong>we know nothing about this pain caused for not finishing what you started</strong>. There's little evidence and bibliography is very limited; only anecdotic info. Some medics had the brilliant idea of calling it <strong><em>blue balls</em></strong><strong> (slang)</strong><em>,</em> because when oxygen-less blood accumulates at the scrotum the area starts tinting into the tone of the smurfs. Some surveys were ran at professional environments and all knew the topic, yet nothing shows at medicine books. So, <strong>a clear cause is also unknown</strong>. All we have is \"knowledge\" based on basic reasoning over what we know about physiology in humans; just imagine the poor volunteer that'd go into a lab so that some white overall jerks study him by not letting him finish.</p>\n<p>Another reason for this lack of info is that <strong>the treatment is rather simple, we all know it</strong> and there's no need of highly specialized doctors to perform it... You guessed it finish what you started, solo mode; because if you don't it can be a pain that lasts hours until the blood vessels recover their original size.</p>\n<p>This time, medicine based on evidence, only real guru, confirms nothing else but folklore:</p>\n<blockquote>\n<p>A bird in the hand is worth two in the blue.</p>\n</blockquote>\nhttps://pixabay.com/static/uploads/photo/2013/02/27/14/34/brent-goose-86582_960_720.jpg\n<hr>\n<blockquote>\n<p>If you liked this post and its informal way of talking about sciences, please, follow me for more!</p>\n<p>Leave a comment either for good or for bad reviews. I take everything as constructive, and I really appreciate the feedback, even from trolls (at least a troll read it before being himself!).</p>\n</blockquote>\n<hr>\n<h3>Copyrights:</h3>\n<hr>\n<blockquote>\n<p>All the previously used images are of my authory or under a CC0 license (Source: pixabay), unless openly stated.</p>\n<p>All the Images created by me possess a WTFPL licencing and they are free to redistribute, share, copy, paste, modify, sell, crop, paste, clone in whatever way you want.</p>\n</blockquote>\n<hr>",
    "category": "science",
    "children": 0,
    "created": "2016-09-15T19:12:36",
    "curator_payout_value": "0.000 HBD",
    "depth": 0,
    "is_paidout": false,
    "json_metadata": {
      "image": [
        "https://pixabay.com/static/uploads/photo/2015/06/06/07/36/heart-799138_960_720.jpg",
        "https://pixabay.com/static/uploads/photo/2016/07/21/15/41/no-1532844_960_720.jpg",
        "https://pixabay.com/static/uploads/photo/2012/02/26/11/04/ball-17133_960_720.jpg",
        "https://pixabay.com/static/uploads/photo/2013/02/27/14/34/brent-goose-86582_960_720.jpg"
      ],
      "tags": [
        "science",
        "medicine",
        "health",
        "sex",
        "life"
      ]
    },
    "max_accepted_payout": "1000000.000 HBD",
    "net_rshares": 24282027325,
    "payout": 0.005,
    "payout_at": "2016-09-22T19:12:36",
    "pending_payout_value": "0.005 HBD",
    "percent_hbd": 10000,
    "permlink": "two-in-the-blue-vasocongestion-destroyer-of-men",
    "post_id": 1257725,
    "promoted": "0.000 HBD",
    "replies": [],
    "stats": {
      "flag_weight": 0.0,
      "gray": false,
      "hide": false,
      "total_votes": 7
    },
    "title": "Two in the blue - Vasocongestion (destroyer of men)",
    "updated": "2016-09-15T19:12:36",
    "url": "/science/@renzoarg/two-in-the-blue-vasocongestion-destroyer-of-men"
  },
  {
    "active_votes": [
      {
        "rshares": 2897105713,
        "voter": "cashbandicoot"
      },
      {
        "rshares": 230270829,
        "voter": "valeri"
      },
      {
        "rshares": 66492707,
        "voter": "trytostopme"
      },
      {
        "rshares": 109229309,
        "voter": "rusla"
      },
      {
        "rshares": 51712697,
        "voter": "the-ultimatum"
      },
      {
        "rshares": 154192801,
        "voter": "waves-social"
      }
    ],
    "author": "trytostopme",
    "author_payout_value": "0.000 HBD",
    "author_reputation": 38.44,
    "beneficiaries": [],
    "blacklists": [],
    "body": "![FinTech3](https://anonimag.es/i/5a492a6a7abb3596a1984993ba879925.jpg)\n_(Image source: @the-ultimatum)_\n\n# **HOW-TO: REMOTELY SHUTDOWN A COMPUTER ON A SHARED NETWORK**\nRecently I was hanging at a local java joint, enjoying the complimentary Wi-Fi.  There, I was with fifteen other souls, all of us intently hammering away at solving the world\u2019s problems in a nice quite \u201cstudy-hall\u201d environment.  Suddenly the placid quietude was shattered by one person initiating a video conference with several colleagues, sans headphones.  She and her colleagues talked and laughed loudly; completely oblivious to the fact that they were disrupting everyone around them.\n\nFrom the dark looks, loud sighs and other non-verbal communication, it was obvious that everyone was annoyed.  I managed to survive about seven minutes of her auditory assault before summoning the will to approach her with a bleeding edge new concept\u2026 headphones.  I have captured the essence of the exchange below.\n\n\u2022\t**the-ultimatum** (**TU**)\n\u2022\t**Rude Shrew** (**RS**)\n\n> \u2022\t**TU**: \u201cWould you like to borrow these?\u201d\n \n_I extend my arm out revealing a set of headphones with a built in mic._\n> \u2022\t**RS**: [incoherent stammering while she tried to ignore me.  She responds to her colleagues]\n\n_I sweep the room with my extended arm_\n> \u2022\t**TU**: \u201cWe are all trying to work\u2026 you are more than welcome to these\u201d\n\n_She turns to me with a look of utter confusion_\n> \u2022\t**RS**: \u201cI don\u2019t know how to use those.\u201d\n\n_A lifetime of training in self-control is being challenged in this solitary moment.  A look of incredulity sweeps over my face_\n> \u2022\t**TU**: \u201cYou don\u2019t know how to plug-in and put on headphones\u2026?\u201d\n\n_[End of conversation.]_\n\n**As she continued to interrupt everyone I started to do some research and below is the content of this post.**\n\n**A Step-by-Step Guide to: Remotely Shutdown a Computer on a Shared Network**\nFollowing the steps & screenshots below you will find a very fast very simple way to boot users off a shared network or play pranks on your friends. \n\n\u2022\tFind the **cmd** prompt & _run as admin_\n\u2022\tType the command: **net view**\n\nThis will show you all the names of computers on the same network. The hardest part is targeting your subject\u2019s computer name. Trial and error.\n\n![CMD](https://anonimag.es/i/aacbbb1c18515bf66837d975858fee63.jpg)\n\nOnce you have chosen your subject follow the next steps:\n\u2022\tType the command: **ping [comp. name]**\n\n![PING](https://anonimag.es/i/0713224e9d0de131e979b0aa33ead35f.jpg)\n\n\u2022\tType the command: **shutdown -i**\n\n![SDi](https://anonimag.es/i/a3f83e1d32b2e6d54c9b0bdfa0fcb0ca.jpg)\n\nIn the **command prompt**:\n\u2022\tLeft click\n\u2022\tSelect _mark_\n\u2022\tCopy IP Address (e.g. _fe80::ddc9:3651:2554:3a93%2_)\n\nIn the **shutdown -i** pane follow these steps:\n\u2022\tPaste into _ADD_\n\u2022\tChoose _Shutdown_\n\u2022\tLeave Checked _Warn users of the action_\n\u2022\tSet the _Warn users of the action_ timer to a desired time.\n\u2022\tUncheck _Planned_\n\u2022\tChoose option _Security issue (unplanned)_\n\u2022\tType in your own _Comment_ (e.g. \"Your computer has been locked. Goodbye.\")\n\u2022\tClick _OK_\n\n![RemoteSD](https://anonimag.es/i/1abc1c79a33194a68792b5e88aa8d3b7.jpg)\n\nIf everything goes according to plan you should be able to watch your subject squirm in discomfort while the 15 second timer counts down and you and those around you are able to go back to working in peace. \n\n# **FOR EDUCATIONAL PURPOSES ONLY**\n\nWritten by: @the-ultimatum \n_https://twitter.com/WavesIs_\nEdited by: @cerberus65\nPublished by: @trytostopme",
    "category": "story",
    "children": 0,
    "created": "2016-09-15T19:11:39",
    "curator_payout_value": "0.000 HBD",
    "depth": 0,
    "is_paidout": false,
    "json_metadata": {
      "image": [
        "https://anonimag.es/i/5a492a6a7abb3596a1984993ba879925.jpg",
        "https://anonimag.es/i/aacbbb1c18515bf66837d975858fee63.jpg",
        "https://anonimag.es/i/0713224e9d0de131e979b0aa33ead35f.jpg",
        "https://anonimag.es/i/a3f83e1d32b2e6d54c9b0bdfa0fcb0ca.jpg",
        "https://anonimag.es/i/1abc1c79a33194a68792b5e88aa8d3b7.jpg"
      ],
      "links": [
        "https://twitter.com/WavesIs"
      ],
      "tags": [
        "story",
        "hacking",
        "life",
        "steemit"
      ],
      "users": [
        "the-ultimatum",
        "cerberus65",
        "trytostopme"
      ]
    },
    "max_accepted_payout": "1000000.000 HBD",
    "net_rshares": 3509004056,
    "payout": 0.0,
    "payout_at": "2016-09-22T19:11:39",
    "pending_payout_value": "0.000 HBD",
    "percent_hbd": 10000,
    "permlink": "how-to-remotely-shutdown-a-computer-on-a-shared-network",
    "post_id": 1257711,
    "promoted": "1.000 HBD",
    "replies": [],
    "stats": {
      "flag_weight": 0.0,
      "gray": false,
      "hide": false,
      "total_votes": 6
    },
    "title": "How-to: Remotely Shutdown a Computer on a Shared Network",
    "updated": "2016-09-15T19:11:39",
    "url": "/story/@trytostopme/how-to-remotely-shutdown-a-computer-on-a-shared-network"
  }
]
