[
  {
    "active_votes": [
      {
        "rshares": 231809639013,
        "voter": "anonymous"
      },
      {
        "rshares": 40042046720125,
        "voter": "blocktrades"
      },
      {
        "rshares": 4287714457313,
        "voter": "riverhead"
      },
      {
        "rshares": 34979300821,
        "voter": "altoz"
      },
      {
        "rshares": 2733708608,
        "voter": "steem1653"
      },
      {
        "rshares": 251366150295,
        "voter": "nabilov"
      },
      {
        "rshares": 3813478158,
        "voter": "btcupload"
      },
      {
        "rshares": 1557779220,
        "voter": "future24"
      },
      {
        "rshares": 84942400,
        "voter": "pompe72"
      },
      {
        "rshares": 8773949381,
        "voter": "craigwilliamz"
      },
      {
        "rshares": 271440423,
        "voter": "anomaly"
      },
      {
        "rshares": 4249431309,
        "voter": "michelle.gent"
      },
      {
        "rshares": 1871969417,
        "voter": "bapparabi"
      },
      {
        "rshares": 2497059333,
        "voter": "irensche"
      },
      {
        "rshares": 84821361,
        "voter": "katharsisdrill"
      },
      {
        "rshares": 767043998,
        "voter": "alienbutt"
      }
    ],
    "author": "alienbutt",
    "author_payout_value": "0.000 HBD",
    "author_reputation": 52.91,
    "beneficiaries": [],
    "blacklists": [],
    "body": "You decide what they are.\nAlien heads staked on a post or seed pods?\n<a href=\"http://s346.photobucket.com/user/Glenn_Scrimshaw/media/DSCN2947_zpsx86w0mif.jpg.html\" target=\"_blank\"><img src=\"http://i346.photobucket.com/albums/p432/Glenn_Scrimshaw/DSCN2947_zpsx86w0mif.jpg\" border=\"0\" alt=\" photo DSCN2947_zpsx86w0mif.jpg\"/></a>\n\n<a href=\"http://s346.photobucket.com/user/Glenn_Scrimshaw/media/DSCN2944_zps2kijcdvn.jpg.html\" target=\"_blank\"><img src=\"http://i346.photobucket.com/albums/p432/Glenn_Scrimshaw/DSCN2944_zps2kijcdvn.jpg\" border=\"0\" alt=\" photo DSCN2944_zps2kijcdvn.jpg\"/></a>",
    "category": "photography",
    "children": 4,
    "created": "2016-09-15T17:53:36",
    "curator_payout_value": "0.000 HBD",
    "depth": 0,
    "is_paidout": false,
    "json_metadata": {
      "image": [
        "http://i346.photobucket.com/albums/p432/Glenn_Scrimshaw/DSCN2947_zpsx86w0mif.jpg",
        "http://i346.photobucket.com/albums/p432/Glenn_Scrimshaw/DSCN2944_zps2kijcdvn.jpg"
      ],
      "links": [
        "http://s346.photobucket.com/user/Glenn_Scrimshaw/media/DSCN2947_zpsx86w0mif.jpg.html",
        "http://s346.photobucket.com/user/Glenn_Scrimshaw/media/DSCN2944_zps2kijcdvn.jpg.html"
      ],
      "tags": [
        "photography",
        "art",
        ""
      ]
    },
    "max_accepted_payout": "1000000.000 HBD",
    "net_rshares": 44874621891175,
    "payout": 120.09,
    "payout_at": "2016-09-22T17:53:36",
    "pending_payout_value": "120.090 HBD",
    "percent_hbd": 10000,
    "permlink": "alien-or-plant",
    "post_id": 1256778,
    "promoted": "0.000 HBD",
    "replies": [],
    "stats": {
      "flag_weight": 0.0,
      "gray": false,
      "hide": false,
      "total_votes": 16
    },
    "title": "Alien or plant?",
    "updated": "2016-09-15T18:23:18",
    "url": "/photography/@alienbutt/alien-or-plant"
  },
  {
    "active_votes": [
      {
        "rshares": 10699986834,
        "voter": "shla-rafia"
      },
      {
        "rshares": 3506039536,
        "voter": "simon.braki.love"
      }
    ],
    "author": "shla-rafia",
    "author_payout_value": "0.000 HBD",
    "author_reputation": 55.33,
    "beneficiaries": [],
    "blacklists": [],
    "body": "http://tinyimg.io/i/n2EAXoC.jpg\n\nToday started excellent. My travel friends and I inhaled and the day was golden. \n\nI hitchhiked to the center and created flyers over a nice Super Pollem joint.\n\nhttp://tinyimg.io/i/ps2kPG7.jpg\nhttp://tinyimg.io/i/vR0b1QA.jpg\n\nI promoted to:\n\n- Google Foto Employee from L.A. \n- Bodybuilder\n- Artist with atelier in the city-center\n- A coffeeshop employee\n- The man who took me into town\n- Travellers\n- Homeless people\n- Tourists from Virginia\n- And many more\n\n7 hours of hardcore promo for a better tomorrow.\n\nhttp://tinyimg.io/i/bPQeOiK.jpg\nhttp://tinyimg.io/i/xnXlrol.jpg\nhttp://tinyimg.io/i/X3F0zEa.jpg\n\nThe people react very good to the SteemFest news. In no time many people here will know about it.\n\nI am 16 hours a day active now. Thanks for reading and cheers,\n\nMarty",
    "category": "steemfest",
    "children": 0,
    "created": "2016-09-15T17:52:18",
    "curator_payout_value": "0.000 HBD",
    "depth": 0,
    "is_paidout": false,
    "json_metadata": {
      "image": [
        "http://tinyimg.io/i/n2EAXoC.jpg",
        "http://tinyimg.io/i/ps2kPG7.jpg",
        "http://tinyimg.io/i/bPQeOiK.jpg"
      ],
      "tags": [
        "steemfest",
        "promo",
        "steemit",
        "marketing",
        "amsterdam"
      ]
    },
    "max_accepted_payout": "1000000.000 HBD",
    "net_rshares": 14206026370,
    "payout": 0.003,
    "payout_at": "2016-09-22T17:52:18",
    "pending_payout_value": "0.003 HBD",
    "percent_hbd": 10000,
    "permlink": "flyer-promo-in-amsterdam-for-steemfest-and-steemit",
    "post_id": 1256768,
    "promoted": "0.200 HBD",
    "replies": [],
    "stats": {
      "flag_weight": 0.0,
      "gray": false,
      "hide": false,
      "total_votes": 2
    },
    "title": "Flyer-Promo in Amsterdam for SteemFest and Steemit",
    "updated": "2016-09-15T17:52:18",
    "url": "/steemfest/@shla-rafia/flyer-promo-in-amsterdam-for-steemfest-and-steemit"
  }
]
