{
  "comments": [
    {
      "abs_rshares": 348535275134,
      "active": "2016-09-14T18:28:00",
      "allow_curation_rewards": true,
      "allow_replies": true,
      "allow_votes": true,
      "author": "paa",
      "author_rewards": 111,
      "beneficiaries": [],
      "body": "<center>http://i64.tinypic.com/vwtyli.jpg</center>\n# These kinds of stories can only be written by real life.\n\n**Hope you'll enjoy reading!**\n\nToday I met a friend of mine who owns a carpentry's workshop. He told me the following story:\n\nNine years ago, he hired a trainee. For two and a half years, this trainee was a prime example. He was punctual, reliable, honest, and rarely sick. But after passing his written exams, things changed very quickly. It started with him coming to work late - if not calling in sick. He no longer complied with agreements and showed little interest in his work. Things reached the negative maximum when he lost a client's keychain; car, house, and office keys included. The loss for this small carpentry amounted to 5,000 \u20ac (about 5,600 USD).\n\nAfter this, my friend sat down with his trainee to discuss the future. Since the trainee had only two more weeks to go to finish his training and do the oral exams, they agreed upon a compensatory time-off. The extra hours made were generally not paid, but compensated with time off (*very common in the German construction industry*).\n\nTwo weeks later, the trainee passed his oral exams. The trainee never showed up in that carpentry again.\n\nBut they shouldn't have met for the last time. Approximately three weeks after the training was finished, the carpenter received a letter sent from the trainee's lawyer. It said the trainee claimed the salary for the last two weeks of the training. The master carpenter was furious, he felt betrayed, and he was angry and disappointed at the same time. He didn't want to pay this, so both parties met in court. The judge decided in favor of the trainee. The rationale for this decision was that there had not been a written agreement. (*The trainee had claimed having been exempted from work and local laws stipulate that the salary has to be paid in such cases.*)\n\nThis means, the master carpenter had to pay the trainee's salary, the costs for the law suit and even for the trainee's lawyer. He did so, reluctantly, and they have never met again since then.\n\nThe following years, that trainee worked for a different company, in an executive position, supervising about 10 to 15 people. He applied for a position in another company. There, he would have supervised double the number of employees than before and would have earned a lot more than in his former position. Actually, everything had been discussed already, the former trainee only waited for the final approval.\n\nThat's when the master carpenter got a phone call. The person calling was the head of a metal processing company. Said firm was only a few hundred meters away from the carpentry and the two guys knew each other quite well. Being asked for the reason of the call, the head of the metal processing company said it was about the master carpenter's former trainee who had applied for a job. He wanted to know how the trainee had done during his time at the carpentry.\n\nWhat do you think was his response?\n\nWell, the former trainee didn't get that job, if you know what I mean.\n\nSo is this Karma? I think it is. **What goes around comes around!**\n\nWhats ur opinion, I would like to hear your thoughts in the coments below.\n\n________________________________________________________________________________________________\nWhat is our Blog about: [Introduceyourself Post](https://steemit.com/introduceyourself/@paa/say-hello-to-the-guys-behind-our-blog-people-are-awesome-member-of-official-steam-wiki-faqs-and-leader-of-germany-wiki)\n\nThanks to @ines-f for the Translation. It\u00b4s always a pleasure! :D\n\n<p><center><a href=\"https://steemit.com/@paa\"><img src=\"https://img1.steemit.com/0x0/http://i.imgur.com/FzBLPgp.gif\" /></a></center></center>",
      "cashout_time": "2016-09-20T21:49:18",
      "category": "story",
      "children": 7,
      "children_abs_rshares": 0,
      "created": "2016-09-13T21:49:18",
      "curator_payout_value": {
        "amount": "8",
        "nai": "@@000000013",
        "precision": 3
      },
      "depth": 0,
      "id": 1236769,
      "json_metadata": "{\"tags\":[\"story\",\"writing\",\"life\",\"paa\",\"\"],\"users\":[\"ines-f\"],\"image\":[\"http://i64.tinypic.com/vwtyli.jpg\",\"https://img1.steemit.com/0x0/http://i.imgur.com/FzBLPgp.gif\"],\"links\":[\"https://steemit.com/introduceyourself/@paa/say-hello-to-the-guys-behind-our-blog-people-are-awesome-member-of-official-steam-wiki-faqs-and-leader-of-germany-wiki\",\"https://steemit.com/@paa\"]}",
      "last_payout": "2016-09-15T00:24:30",
      "last_update": "2016-09-13T21:49:18",
      "max_accepted_payout": {
        "amount": "1000000000",
        "nai": "@@000000013",
        "precision": 3
      },
      "max_cashout_time": "1969-12-31T23:59:59",
      "net_rshares": 348535275134,
      "net_votes": 23,
      "parent_author": "",
      "parent_permlink": "story",
      "percent_hbd": 10000,
      "permlink": "do-you-believe-in-karma-you-might-after-this-infes-f-as-co-author",
      "reward_weight": 10000,
      "root_author": "paa",
      "root_permlink": "do-you-believe-in-karma-you-might-after-this-infes-f-as-co-author",
      "title": "Do you believe in Karma? You might after this! [@infes-f as co.author]",
      "total_payout_value": {
        "amount": "70",
        "nai": "@@000000013",
        "precision": 3
      },
      "total_vote_weight": 1478507270671438343,
      "vote_rshares": 348535275134
    },
    {
      "abs_rshares": 559269711781,
      "active": "2016-09-12T10:05:03",
      "allow_curation_rewards": true,
      "allow_replies": true,
      "allow_votes": true,
      "author": "paa",
      "author_rewards": 249,
      "beneficiaries": [],
      "body": "Once upon a time it was a common thing to do these kind of posts on Stemmit after your \"Introduceyouself Post\". But we aren\u00b4t these kind of dudes. We are different, we don\u00b4t do it after 24 hours ... we wait 96 h. ;)\n\nSo, as we mentioned in our [Introduceyourself Post](https://steemit.com/introduceyourself/@paa/say-hello-to-the-guys-behind-our-blog-people-are-awesome-member-of-official-steam-wiki-faqs-and-leader-of-germany-wiki) we got a lot more to come as our interview with Clarissa. \n<center>http://i68.tinypic.com/oi9hlj.jpg</center>\n\nAnd here is our first hint. What could this be? Especially what could it be when we finished tinkering. \n<center>http://i68.tinypic.com/2hzltoj.jpg</center>\nJust guess and write it in the comments below... \n\nThis arrived us yesterday. How you like it?\n<center>http://i65.tinypic.com/2rm9x87.jpg</center>\n<center>http://i68.tinypic.com/1zfmm41.jpg</center>\n**We are loving it!**\n\nThat\u00b4s it. We will now enjoy the Sunday evening.\n\nHave a nice Sunday Steemit!\n\nNamaste.\n\n# People are Awesome!\n\n________________________________________________________________________________________________\n<a href=\"https://www.instagram.com/_alpaa_/\" rel=\"noopener\">visit us on Instagram</a>\n\n<p><center><a href=\"https://steemit.com/@paa\"><img src=\"https://img1.steemit.com/0x0/http://i.imgur.com/FzBLPgp.gif\" /></a></center></center>",
      "cashout_time": "2016-09-18T19:24:24",
      "category": "steemit",
      "children": 2,
      "children_abs_rshares": 0,
      "created": "2016-09-11T19:24:24",
      "curator_payout_value": {
        "amount": "9",
        "nai": "@@000000013",
        "precision": 3
      },
      "depth": 0,
      "id": 1211897,
      "json_metadata": "{\"tags\":[\"steemit\",\"writing\",\"deutsch\",\"story\",\"paa\"],\"image\":[\"http://i68.tinypic.com/oi9hlj.jpg\",\"http://i68.tinypic.com/2hzltoj.jpg\",\"http://i65.tinypic.com/2rm9x87.jpg\",\"http://i68.tinypic.com/1zfmm41.jpg\",\"https://img1.steemit.com/0x0/http://i.imgur.com/FzBLPgp.gif\"],\"links\":[\"https://steemit.com/introduceyourself/@paa/say-hello-to-the-guys-behind-our-blog-people-are-awesome-member-of-official-steam-wiki-faqs-and-leader-of-germany-wiki\",\"https://www.instagram.com/_alpaa_/\",\"https://steemit.com/@paa\"]}",
      "last_payout": "2016-09-12T20:55:54",
      "last_update": "2016-09-11T19:24:24",
      "max_accepted_payout": {
        "amount": "1000000000",
        "nai": "@@000000013",
        "precision": 3
      },
      "max_cashout_time": "1969-12-31T23:59:59",
      "net_rshares": 559269711781,
      "net_votes": 21,
      "parent_author": "",
      "parent_permlink": "steemit",
      "percent_hbd": 10000,
      "permlink": "our-first-24-h-on-steemit-it-s-overwhelming-caution-irony",
      "reward_weight": 10000,
      "root_author": "paa",
      "root_permlink": "our-first-24-h-on-steemit-it-s-overwhelming-caution-irony",
      "title": "Our first 24 h on Steemit \u2013 it\u00b4s overwhelming ;) [Caution Irony]",
      "total_payout_value": {
        "amount": "177",
        "nai": "@@000000013",
        "precision": 3
      },
      "total_vote_weight": 2262797749109553766,
      "vote_rshares": 559269711781
    },
    {
      "abs_rshares": 0,
      "active": "2016-09-07T22:23:09",
      "allow_curation_rewards": true,
      "allow_replies": true,
      "allow_votes": true,
      "author": "paa",
      "author_rewards": 0,
      "beneficiaries": [],
      "body": "Arigatou!",
      "cashout_time": "2016-09-14T22:23:09",
      "category": "secretwriter",
      "children": 0,
      "children_abs_rshares": 0,
      "created": "2016-09-07T22:23:09",
      "curator_payout_value": {
        "amount": "0",
        "nai": "@@000000013",
        "precision": 3
      },
      "depth": 2,
      "id": 1164832,
      "json_metadata": "{\"tags\":[\"secretwriter\"]}",
      "last_payout": "1970-01-01T00:00:00",
      "last_update": "2016-09-07T22:23:09",
      "max_accepted_payout": {
        "amount": "1000000000",
        "nai": "@@000000013",
        "precision": 3
      },
      "max_cashout_time": "1969-12-31T23:59:59",
      "net_rshares": 0,
      "net_votes": 0,
      "parent_author": "christoryan",
      "parent_permlink": "re-knozaki2015-burn-your-demons-feat-paa-as-author-20160907t220218515z",
      "percent_hbd": 10000,
      "permlink": "re-christoryan-re-knozaki2015-burn-your-demons-feat-paa-as-author-20160907t222309500z",
      "reward_weight": 10000,
      "root_author": "knozaki2015",
      "root_permlink": "burn-your-demons-feat-paa-as-author",
      "title": "",
      "total_payout_value": {
        "amount": "0",
        "nai": "@@000000013",
        "precision": 3
      },
      "total_vote_weight": 0,
      "vote_rshares": 0
    },
    {
      "abs_rshares": 0,
      "active": "2016-08-18T09:30:45",
      "allow_curation_rewards": true,
      "allow_replies": true,
      "allow_votes": true,
      "author": "paa",
      "author_rewards": 0,
      "beneficiaries": [],
      "body": "Hallo,\n\nich und meine Comunity w\u00fcrden wirklich gern daran teil nehmen. Wir wollten selbst ein \"Meet-up Berlin\" starten und dies die n\u00e4chsten Tage ver\u00f6ffentlichen. Nun meine Bitte w\u00e4re ob wir das ganze Zeitlich auf den darauf folgenden Sonntag verschieben k\u00f6nnten (11.09) dann w\u00fcrde ich und meine Freunde auch kommen.\n\nHatte auch schon kurz mit @knozaki2015 dar\u00fcber gesprochen.",
      "cashout_time": "1969-12-31T23:59:59",
      "category": "meetup",
      "children": 1,
      "children_abs_rshares": 0,
      "created": "2016-08-15T19:24:24",
      "curator_payout_value": {
        "amount": "0",
        "nai": "@@000000013",
        "precision": 3
      },
      "depth": 1,
      "id": 821938,
      "json_metadata": "{\"tags\":[\"meetup\"],\"users\":[\"knozaki2015\"]}",
      "last_payout": "2016-09-14T17:16:15",
      "last_update": "2016-08-15T19:25:45",
      "max_accepted_payout": {
        "amount": "1000000000",
        "nai": "@@000000013",
        "precision": 3
      },
      "max_cashout_time": "1969-12-31T23:59:59",
      "net_rshares": 0,
      "net_votes": 2,
      "parent_author": "einsteinpotsdam",
      "parent_permlink": "steem-meetup-steemit-s-first-meetup-in-berlin-potsdam-germany-9-9-2016",
      "percent_hbd": 10000,
      "permlink": "re-einsteinpotsdam-steem-meetup-steemit-s-first-meetup-in-berlin-potsdam-germany-9-9-2016-20160815t192425096z",
      "reward_weight": 10000,
      "root_author": "einsteinpotsdam",
      "root_permlink": "steem-meetup-steemit-s-first-meetup-in-berlin-potsdam-germany-9-9-2016",
      "title": "",
      "total_payout_value": {
        "amount": "0",
        "nai": "@@000000013",
        "precision": 3
      },
      "total_vote_weight": 0,
      "vote_rshares": 0
    },
    {
      "abs_rshares": 0,
      "active": "2016-09-07T22:24:24",
      "allow_curation_rewards": true,
      "allow_replies": true,
      "allow_votes": true,
      "author": "paa",
      "author_rewards": 0,
      "beneficiaries": [],
      "body": "I appreciate it!",
      "cashout_time": "2016-09-14T22:24:24",
      "category": "secretwriter",
      "children": 0,
      "children_abs_rshares": 0,
      "created": "2016-09-07T22:24:24",
      "curator_payout_value": {
        "amount": "0",
        "nai": "@@000000013",
        "precision": 3
      },
      "depth": 2,
      "id": 1164847,
      "json_metadata": "{\"tags\":[\"secretwriter\"]}",
      "last_payout": "1970-01-01T00:00:00",
      "last_update": "2016-09-07T22:24:24",
      "max_accepted_payout": {
        "amount": "1000000000",
        "nai": "@@000000013",
        "precision": 3
      },
      "max_cashout_time": "1969-12-31T23:59:59",
      "net_rshares": 0,
      "net_votes": 0,
      "parent_author": "elenirossidou",
      "parent_permlink": "re-knozaki2015-burn-your-demons-feat-paa-as-author-20160907t220438452z",
      "percent_hbd": 10000,
      "permlink": "re-elenirossidou-re-knozaki2015-burn-your-demons-feat-paa-as-author-20160907t222424659z",
      "reward_weight": 10000,
      "root_author": "knozaki2015",
      "root_permlink": "burn-your-demons-feat-paa-as-author",
      "title": "",
      "total_payout_value": {
        "amount": "0",
        "nai": "@@000000013",
        "precision": 3
      },
      "total_vote_weight": 0,
      "vote_rshares": 0
    },
    {
      "abs_rshares": 125704277876,
      "active": "2016-08-19T08:11:42",
      "allow_curation_rewards": true,
      "allow_replies": true,
      "allow_votes": true,
      "author": "paa",
      "author_rewards": 33,
      "beneficiaries": [],
      "body": "Da bin ich wohl zur rechten Zeit gekommen :D\n\nPS: Habe dir mal in Steemit Lobby geschrieben! W\u00fcrde mich mal gern kurz mit dir Unterhalten! \n\nGr\u00fc\u00dfe :D",
      "cashout_time": "2016-08-25T23:53:45",
      "category": "deutsch",
      "children": 1,
      "children_abs_rshares": 0,
      "created": "2016-08-18T23:53:45",
      "curator_payout_value": {
        "amount": "16",
        "nai": "@@000000013",
        "precision": 3
      },
      "depth": 2,
      "id": 880165,
      "json_metadata": "{\"tags\":[\"deutsch\"]}",
      "last_payout": "2016-08-20T06:06:09",
      "last_update": "2016-08-18T23:53:45",
      "max_accepted_payout": {
        "amount": "1000000000",
        "nai": "@@000000013",
        "precision": 3
      },
      "max_cashout_time": "1969-12-31T23:59:59",
      "net_rshares": 125704277876,
      "net_votes": 1,
      "parent_author": "fabio",
      "parent_permlink": "re-paa-wahnsinns-neuigkeiten-wir-bekommen-steemit-faq-s-und-wiki-20160818t234712673z",
      "percent_hbd": 10000,
      "permlink": "re-fabio-re-paa-wahnsinns-neuigkeiten-wir-bekommen-steemit-faq-s-und-wiki-20160818t235345691z",
      "reward_weight": 10000,
      "root_author": "paa",
      "root_permlink": "wahnsinns-neuigkeiten-wir-bekommen-steemit-faq-s-und-wiki",
      "title": "",
      "total_payout_value": {
        "amount": "48",
        "nai": "@@000000013",
        "precision": 3
      },
      "total_vote_weight": 562045771284127741,
      "vote_rshares": 125704277876
    },
    {
      "abs_rshares": 0,
      "active": "2016-09-12T10:05:03",
      "allow_curation_rewards": true,
      "allow_replies": true,
      "allow_votes": true,
      "author": "paa",
      "author_rewards": 0,
      "beneficiaries": [],
      "body": "About 20\u20ac. Write me in Steemit.chat for further details.",
      "cashout_time": "2016-09-19T10:05:03",
      "category": "steemit",
      "children": 0,
      "children_abs_rshares": 0,
      "created": "2016-09-12T10:05:03",
      "curator_payout_value": {
        "amount": "0",
        "nai": "@@000000013",
        "precision": 3
      },
      "depth": 2,
      "id": 1218233,
      "json_metadata": "{\"tags\":[\"steemit\"]}",
      "last_payout": "1970-01-01T00:00:00",
      "last_update": "2016-09-12T10:05:03",
      "max_accepted_payout": {
        "amount": "1000000000",
        "nai": "@@000000013",
        "precision": 3
      },
      "max_cashout_time": "1969-12-31T23:59:59",
      "net_rshares": 0,
      "net_votes": 0,
      "parent_author": "kattz",
      "parent_permlink": "re-paa-our-first-24-h-on-steemit-it-s-overwhelming-caution-irony-20160911t193356131z",
      "percent_hbd": 10000,
      "permlink": "re-kattz-re-paa-our-first-24-h-on-steemit-it-s-overwhelming-caution-irony-20160912t100504200z",
      "reward_weight": 10000,
      "root_author": "paa",
      "root_permlink": "our-first-24-h-on-steemit-it-s-overwhelming-caution-irony",
      "title": "",
      "total_payout_value": {
        "amount": "0",
        "nai": "@@000000013",
        "precision": 3
      },
      "total_vote_weight": 0,
      "vote_rshares": 0
    },
    {
      "abs_rshares": 0,
      "active": "2016-09-14T18:24:27",
      "allow_curation_rewards": true,
      "allow_replies": true,
      "allow_votes": true,
      "author": "paa",
      "author_rewards": 0,
      "beneficiaries": [],
      "body": "Wow, thx a lot! I feel honored! :D",
      "cashout_time": "2016-09-21T18:24:27",
      "category": "story",
      "children": 0,
      "children_abs_rshares": 0,
      "created": "2016-09-14T18:24:27",
      "curator_payout_value": {
        "amount": "0",
        "nai": "@@000000013",
        "precision": 3
      },
      "depth": 2,
      "id": 1245676,
      "json_metadata": "{\"tags\":[\"story\"]}",
      "last_payout": "1970-01-01T00:00:00",
      "last_update": "2016-09-14T18:24:27",
      "max_accepted_payout": {
        "amount": "1000000000",
        "nai": "@@000000013",
        "precision": 3
      },
      "max_cashout_time": "1969-12-31T23:59:59",
      "net_rshares": 0,
      "net_votes": 0,
      "parent_author": "masonmiler",
      "parent_permlink": "re-paa-do-you-believe-in-karma-you-might-after-this-infes-f-as-co-author-20160914t174608162z",
      "percent_hbd": 10000,
      "permlink": "re-masonmiler-re-paa-do-you-believe-in-karma-you-might-after-this-infes-f-as-co-author-20160914t182428610z",
      "reward_weight": 10000,
      "root_author": "paa",
      "root_permlink": "do-you-believe-in-karma-you-might-after-this-infes-f-as-co-author",
      "title": "",
      "total_payout_value": {
        "amount": "0",
        "nai": "@@000000013",
        "precision": 3
      },
      "total_vote_weight": 0,
      "vote_rshares": 0
    },
    {
      "abs_rshares": 1342910644678,
      "active": "2016-08-30T15:37:00",
      "allow_curation_rewards": true,
      "allow_replies": true,
      "allow_votes": true,
      "author": "paa",
      "author_rewards": 462,
      "beneficiaries": [],
      "body": "While i\u00b4m powering down, what happens in between these 2 years.  \n\nFirst Question: Do i get all the Steem Power at once or on a weekly base?  \n\nMy Second Question is related to the first: \nIf its payed out at once, do i still can use the Steem Power to vote, while im powering down?",
      "cashout_time": "2016-08-25T22:53:45",
      "category": "steem",
      "children": 10,
      "children_abs_rshares": 0,
      "created": "2016-08-18T22:53:45",
      "curator_payout_value": {
        "amount": "224",
        "nai": "@@000000013",
        "precision": 3
      },
      "depth": 1,
      "id": 879368,
      "json_metadata": "{\"tags\":[\"steem\"]}",
      "last_payout": "2016-08-20T01:23:51",
      "last_update": "2016-08-18T22:53:45",
      "max_accepted_payout": {
        "amount": "1000000000",
        "nai": "@@000000013",
        "precision": 3
      },
      "max_cashout_time": "1969-12-31T23:59:59",
      "net_rshares": 1342910644678,
      "net_votes": 12,
      "parent_author": "ned",
      "parent_permlink": "the-first-phase-of-the-steem-faq-and-wikee-consolidation-of-knowledge",
      "percent_hbd": 10000,
      "permlink": "re-ned-the-first-phase-of-the-steem-faq-and-wikee-consolidation-of-knowledge-20160818t225346524z",
      "reward_weight": 10000,
      "root_author": "ned",
      "root_permlink": "the-first-phase-of-the-steem-faq-and-wikee-consolidation-of-knowledge",
      "title": "",
      "total_payout_value": {
        "amount": "686",
        "nai": "@@000000013",
        "precision": 3
      },
      "total_vote_weight": 4636485732904918965,
      "vote_rshares": 1342910644678
    },
    {
      "abs_rshares": 0,
      "active": "2016-09-08T21:31:51",
      "allow_curation_rewards": true,
      "allow_replies": true,
      "allow_votes": true,
      "author": "paa",
      "author_rewards": 0,
      "beneficiaries": [],
      "body": "Dankesch\u00f6n! Wir werden uns M\u00fche geben :D",
      "cashout_time": "2016-09-15T21:31:51",
      "category": "introduceyourself",
      "children": 0,
      "children_abs_rshares": 0,
      "created": "2016-09-08T21:31:51",
      "curator_payout_value": {
        "amount": "0",
        "nai": "@@000000013",
        "precision": 3
      },
      "depth": 2,
      "id": 1177294,
      "json_metadata": "{\"tags\":[\"introduceyourself\"]}",
      "last_payout": "1970-01-01T00:00:00",
      "last_update": "2016-09-08T21:31:51",
      "max_accepted_payout": {
        "amount": "1000000000",
        "nai": "@@000000013",
        "precision": 3
      },
      "max_cashout_time": "1969-12-31T23:59:59",
      "net_rshares": 0,
      "net_votes": 0,
      "parent_author": "pollux.one",
      "parent_permlink": "re-paa-say-hello-to-the-guys-behind-our-blog-people-are-awesome-member-of-official-steam-wiki-faqs-and-leader-of-germany-wiki-20160908t204805704z",
      "percent_hbd": 10000,
      "permlink": "re-polluxone-re-paa-say-hello-to-the-guys-behind-our-blog-people-are-awesome-member-of-official-steam-wiki-faqs-and-leader-of-germany-wiki-20160908t213152228z",
      "reward_weight": 10000,
      "root_author": "paa",
      "root_permlink": "say-hello-to-the-guys-behind-our-blog-people-are-awesome-member-of-official-steam-wiki-faqs-and-leader-of-germany-wiki",
      "title": "",
      "total_payout_value": {
        "amount": "0",
        "nai": "@@000000013",
        "precision": 3
      },
      "total_vote_weight": 0,
      "vote_rshares": 0
    }
  ]
}
