[
  {
    "active_votes": [
      {
        "rshares": 591990611884,
        "voter": "barrie"
      },
      {
        "rshares": 31579511300870,
        "voter": "smooth"
      },
      {
        "rshares": 376093817689,
        "voter": "anonymous"
      },
      {
        "rshares": 1714541004552,
        "voter": "disney"
      },
      {
        "rshares": 2496518939449,
        "voter": "badassmother"
      },
      {
        "rshares": 2062243289522,
        "voter": "hr1"
      },
      {
        "rshares": 1085353427426,
        "voter": "rossco99"
      },
      {
        "rshares": 4538559812672,
        "voter": "wang"
      },
      {
        "rshares": 5923728089769,
        "voter": "steemit200"
      },
      {
        "rshares": 3104356603,
        "voter": "boy"
      },
      {
        "rshares": 3769072916,
        "voter": "bue-witness"
      },
      {
        "rshares": 684028478,
        "voter": "bunny"
      },
      {
        "rshares": 54905645838,
        "voter": "bue"
      },
      {
        "rshares": 1663409243,
        "voter": "mini"
      },
      {
        "rshares": 213796245,
        "voter": "moon"
      },
      {
        "rshares": 1764273961937,
        "voter": "joseph"
      },
      {
        "rshares": 3374351551059,
        "voter": "au1nethyb1"
      },
      {
        "rshares": 425622480616,
        "voter": "recursive2"
      },
      {
        "rshares": 422497905400,
        "voter": "recursive3"
      },
      {
        "rshares": 2772724947160,
        "voter": "recursive"
      },
      {
        "rshares": 877770225847,
        "voter": "boombastic"
      },
      {
        "rshares": 115672736067,
        "voter": "mrs.agsexplorer"
      },
      {
        "rshares": 8480888098,
        "voter": "bingo-0"
      },
      {
        "rshares": 2105884791,
        "voter": "bingo-1"
      },
      {
        "rshares": 5856893461183,
        "voter": "smooth.witness"
      },
      {
        "rshares": 447787421528,
        "voter": "boatymcboatface"
      },
      {
        "rshares": 30668962764,
        "voter": "proctologic"
      },
      {
        "rshares": 10323417001,
        "voter": "idol"
      },
      {
        "rshares": 625014361,
        "voter": "healthcare"
      },
      {
        "rshares": 973167006,
        "voter": "daniel.pan"
      },
      {
        "rshares": 7859123838,
        "voter": "woo7739"
      },
      {
        "rshares": 26057305221,
        "voter": "dedriss"
      },
      {
        "rshares": 288356419,
        "voter": "helen.tan"
      },
      {
        "rshares": 76453749571,
        "voter": "unosuke"
      },
      {
        "rshares": 24303897624,
        "voter": "yefet"
      },
      {
        "rshares": 308037414070,
        "voter": "noaommerrr"
      },
      {
        "rshares": 1701845008,
        "voter": "jocelyn"
      },
      {
        "rshares": 81734599010,
        "voter": "acidsun"
      },
      {
        "rshares": 14678469507,
        "voter": "gregory-f"
      },
      {
        "rshares": 82882212377,
        "voter": "edgeland"
      },
      {
        "rshares": 16284150154,
        "voter": "jademont"
      },
      {
        "rshares": 1168569858681,
        "voter": "gavvet"
      },
      {
        "rshares": 7082136473,
        "voter": "fkn"
      },
      {
        "rshares": 32768090647,
        "voter": "thedarkestplum"
      },
      {
        "rshares": 1223784042,
        "voter": "spaninv"
      },
      {
        "rshares": 9316255939,
        "voter": "elishagh1"
      },
      {
        "rshares": 708132881752,
        "voter": "nanzo-scoop"
      },
      {
        "rshares": 609077198,
        "voter": "acidyo"
      },
      {
        "rshares": 215079505039,
        "voter": "mummyimperfect"
      },
      {
        "rshares": 82051775491,
        "voter": "asch"
      },
      {
        "rshares": 1412717939,
        "voter": "murh"
      },
      {
        "rshares": 3309283077,
        "voter": "cryptofunk"
      },
      {
        "rshares": 596625048,
        "voter": "kodi"
      },
      {
        "rshares": 2318230590,
        "voter": "error"
      },
      {
        "rshares": 11928636334,
        "voter": "andu"
      },
      {
        "rshares": 967066200678,
        "voter": "cyber"
      },
      {
        "rshares": 59691093812,
        "voter": "ak2020"
      },
      {
        "rshares": 260051658583,
        "voter": "billbutler"
      },
      {
        "rshares": 387023519455,
        "voter": "taoteh1221"
      },
      {
        "rshares": 426979512,
        "voter": "applecrisp"
      },
      {
        "rshares": 53650851852,
        "voter": "juanmiguelsalas"
      },
      {
        "rshares": 20442821868,
        "voter": "ratel"
      },
      {
        "rshares": 54983226185,
        "voter": "kus-knee"
      },
      {
        "rshares": 19199187255,
        "voter": "ziv"
      },
      {
        "rshares": 15768757171,
        "voter": "zakharya"
      },
      {
        "rshares": 284809195303,
        "voter": "trogdor"
      },
      {
        "rshares": 37144207256,
        "voter": "cheftony"
      },
      {
        "rshares": 5923854305,
        "voter": "mark-waser"
      },
      {
        "rshares": 155769648820,
        "voter": "kimziv"
      },
      {
        "rshares": 31927952685,
        "voter": "talanhorne"
      },
      {
        "rshares": 5987748433,
        "voter": "fuck.off"
      },
      {
        "rshares": 2313127883,
        "voter": "superfreek"
      },
      {
        "rshares": 5761892950,
        "voter": "iloveporn"
      },
      {
        "rshares": 4974009427,
        "voter": "the.bot"
      },
      {
        "rshares": 7008496413,
        "voter": "johnbradshaw"
      },
      {
        "rshares": 4883696739,
        "voter": "the.whale"
      },
      {
        "rshares": 3532885100,
        "voter": "michaellamden68"
      },
      {
        "rshares": 20274404213,
        "voter": "thebatchman"
      },
      {
        "rshares": 238320350557,
        "voter": "asmolokalo"
      },
      {
        "rshares": 4738283091,
        "voter": "unicornfarts"
      },
      {
        "rshares": 3370955327,
        "voter": "orly"
      },
      {
        "rshares": 18216022752,
        "voter": "konstantin"
      },
      {
        "rshares": 35885983723,
        "voter": "hitmeasap"
      },
      {
        "rshares": 5001251487,
        "voter": "vote"
      },
      {
        "rshares": 131140711350,
        "voter": "jackkang"
      },
      {
        "rshares": 5145184079,
        "voter": "kissmybutt"
      },
      {
        "rshares": 9218220990,
        "voter": "r4fken"
      },
      {
        "rshares": 136041277536,
        "voter": "derekareith"
      },
      {
        "rshares": 748080676265,
        "voter": "slowwalker"
      },
      {
        "rshares": 25352757646,
        "voter": "furion"
      },
      {
        "rshares": 6301237525,
        "voter": "owdy"
      },
      {
        "rshares": 178245838,
        "voter": "barbara2"
      },
      {
        "rshares": 198048180,
        "voter": "ch0c0latechip"
      },
      {
        "rshares": 183298393,
        "voter": "doge4lyf"
      },
      {
        "rshares": 10686789605,
        "voter": "spiz0r"
      },
      {
        "rshares": 1231478161,
        "voter": "dicov"
      },
      {
        "rshares": 1081016242,
        "voter": "steem1653"
      },
      {
        "rshares": 66978870,
        "voter": "cynetyc"
      },
      {
        "rshares": 17059305574,
        "voter": "sebastien"
      },
      {
        "rshares": 4694073446,
        "voter": "thegoodguy"
      },
      {
        "rshares": 16164333545,
        "voter": "aaseb"
      },
      {
        "rshares": 1922585547,
        "voter": "incomemonthly"
      },
      {
        "rshares": 237016336,
        "voter": "pet1000"
      },
      {
        "rshares": 3541568372,
        "voter": "karen13"
      },
      {
        "rshares": 25460833236,
        "voter": "igster"
      },
      {
        "rshares": 1369503396,
        "voter": "jrd8526"
      },
      {
        "rshares": 368844141,
        "voter": "karenmckersie"
      },
      {
        "rshares": 148035166165,
        "voter": "bonface"
      },
      {
        "rshares": 42140494884,
        "voter": "milestone"
      },
      {
        "rshares": 35905982750,
        "voter": "creemej"
      },
      {
        "rshares": 3867844328,
        "voter": "maximkichev"
      },
      {
        "rshares": 13516475290,
        "voter": "nippel66"
      },
      {
        "rshares": 22604933694,
        "voter": "phenom"
      },
      {
        "rshares": 2552794240,
        "voter": "sgnsteems"
      },
      {
        "rshares": 170420278318,
        "voter": "blueorgy"
      },
      {
        "rshares": 10738977587,
        "voter": "benjiberigan"
      },
      {
        "rshares": 6416265598,
        "voter": "smolalit"
      },
      {
        "rshares": 319096489429,
        "voter": "calaber24p"
      },
      {
        "rshares": 8088071162,
        "voter": "magz8716"
      },
      {
        "rshares": 18503748379,
        "voter": "bendjmiller222"
      },
      {
        "rshares": 3573822690,
        "voter": "tarindel"
      },
      {
        "rshares": 23206467213,
        "voter": "deanliu"
      },
      {
        "rshares": 7651216007,
        "voter": "neroru"
      },
      {
        "rshares": 172165723826,
        "voter": "jl777"
      },
      {
        "rshares": 1083403519,
        "voter": "oecp85"
      },
      {
        "rshares": 7072264218,
        "voter": "lostnuggett"
      },
      {
        "rshares": 5738308200,
        "voter": "positive"
      },
      {
        "rshares": 1820992973,
        "voter": "yarly"
      },
      {
        "rshares": 275109479,
        "voter": "yarly2"
      },
      {
        "rshares": 275521387,
        "voter": "yarly3"
      },
      {
        "rshares": 159279578,
        "voter": "yarly4"
      },
      {
        "rshares": 160178852,
        "voter": "yarly5"
      },
      {
        "rshares": 91302559,
        "voter": "yarly7"
      },
      {
        "rshares": 100795640938,
        "voter": "crazymumzysa"
      },
      {
        "rshares": 11195265993,
        "voter": "crypto.owl"
      },
      {
        "rshares": 14938679503,
        "voter": "lemooljiang"
      },
      {
        "rshares": 20253926275,
        "voter": "krabgat"
      },
      {
        "rshares": 42179791044,
        "voter": "claudiop63"
      },
      {
        "rshares": 11058182490,
        "voter": "webdeals"
      },
      {
        "rshares": 14671890368,
        "voter": "proto"
      },
      {
        "rshares": 639318990,
        "voter": "curator"
      },
      {
        "rshares": 24648572239,
        "voter": "sisterholics"
      },
      {
        "rshares": 441281474,
        "voter": "yarly10"
      },
      {
        "rshares": 236361100,
        "voter": "yarly11"
      },
      {
        "rshares": 5605957108,
        "voter": "royalmacro"
      },
      {
        "rshares": 15611868924,
        "voter": "michaeldodridge"
      },
      {
        "rshares": 82681797,
        "voter": "yarly12"
      },
      {
        "rshares": 202237510,
        "voter": "fnait"
      },
      {
        "rshares": 184533763,
        "voter": "keepcalmand"
      },
      {
        "rshares": 2624581069,
        "voter": "nelu.ceban"
      },
      {
        "rshares": 40054483422,
        "voter": "celebr1ty"
      },
      {
        "rshares": 1647006836,
        "voter": "remlaps"
      },
      {
        "rshares": 1581975166,
        "voter": "kareemaudi"
      },
      {
        "rshares": 152942524,
        "voter": "steemster1"
      },
      {
        "rshares": 116004891,
        "voter": "bullionstackers"
      },
      {
        "rshares": 843609166,
        "voter": "mar1978co"
      },
      {
        "rshares": 972844351,
        "voter": "metaflute"
      },
      {
        "rshares": 7347066421,
        "voter": "taker"
      },
      {
        "rshares": 917789735,
        "voter": "pakisnxt"
      },
      {
        "rshares": 3321146223,
        "voter": "nekromarinist"
      },
      {
        "rshares": 61911147,
        "voter": "sharon"
      },
      {
        "rshares": 6909403012,
        "voter": "dumar022"
      },
      {
        "rshares": 63085782,
        "voter": "lillianjones"
      },
      {
        "rshares": 823958016646,
        "voter": "laonie"
      },
      {
        "rshares": 23121983186,
        "voter": "rawnetics"
      },
      {
        "rshares": 24516888688,
        "voter": "laoyao"
      },
      {
        "rshares": 28748903721,
        "voter": "myfirst"
      },
      {
        "rshares": 187029929627,
        "voter": "somebody"
      },
      {
        "rshares": 16118578628,
        "voter": "persianqueen"
      },
      {
        "rshares": 6995942254,
        "voter": "flysaga"
      },
      {
        "rshares": 26513983514,
        "voter": "kental"
      },
      {
        "rshares": 12612260159,
        "voter": "poeticsnake"
      },
      {
        "rshares": 41323993050,
        "voter": "midnightoil"
      },
      {
        "rshares": 2350089010,
        "voter": "kalimor"
      },
      {
        "rshares": 64812629,
        "voter": "coderg"
      },
      {
        "rshares": 3334146073,
        "voter": "darrenturetzky"
      },
      {
        "rshares": 1608474150,
        "voter": "andrew0"
      },
      {
        "rshares": 1492466365,
        "voter": "labradorsem"
      },
      {
        "rshares": 99450521693,
        "voter": "xiaohui"
      },
      {
        "rshares": 137008986670,
        "voter": "terrycraft"
      },
      {
        "rshares": 5370236167,
        "voter": "oflyhigh"
      },
      {
        "rshares": 3232469909,
        "voter": "xiaokongcom"
      },
      {
        "rshares": 2117572358,
        "voter": "natalymaty"
      },
      {
        "rshares": 63570195,
        "voter": "msjennifer"
      },
      {
        "rshares": 58467607,
        "voter": "ciao"
      },
      {
        "rshares": 9569543134,
        "voter": "thebotkiller"
      },
      {
        "rshares": 62179810,
        "voter": "bubblefantasy"
      },
      {
        "rshares": 1625904484,
        "voter": "jrcornel"
      },
      {
        "rshares": 57931304,
        "voter": "dmns"
      },
      {
        "rshares": 57914427,
        "voter": "steemo"
      },
      {
        "rshares": 529640019,
        "voter": "lordemau"
      },
      {
        "rshares": 6513999310,
        "voter": "xianjun"
      },
      {
        "rshares": 56535984,
        "voter": "steema"
      },
      {
        "rshares": 1590512333,
        "voter": "erikclark13"
      },
      {
        "rshares": 72860952,
        "voter": "confucius"
      },
      {
        "rshares": 12281917653,
        "voter": "borran"
      },
      {
        "rshares": 3031915101,
        "voter": "bledarus"
      },
      {
        "rshares": 84330005643,
        "voter": "miacats"
      },
      {
        "rshares": 60173663,
        "voter": "party1998"
      },
      {
        "rshares": 218348347,
        "voter": "party1999"
      },
      {
        "rshares": 57405835,
        "voter": "jarvis"
      },
      {
        "rshares": 427570271,
        "voter": "microluck"
      },
      {
        "rshares": 115447097,
        "voter": "smartguylabcoat"
      },
      {
        "rshares": 56726999,
        "voter": "fortuner"
      },
      {
        "rshares": 1562412827,
        "voter": "chinadaily"
      },
      {
        "rshares": 65008276,
        "voter": "kana"
      },
      {
        "rshares": 2770581638,
        "voter": "virtualgrowth"
      },
      {
        "rshares": 1443208704,
        "voter": "anotherjoe"
      },
      {
        "rshares": 93667444118,
        "voter": "serejandmyself"
      },
      {
        "rshares": 249946232,
        "voter": "jimmytwoshoes"
      },
      {
        "rshares": 13247149507,
        "voter": "gvargas123"
      },
      {
        "rshares": 4641324492,
        "voter": "themanualbot"
      },
      {
        "rshares": 55414210,
        "voter": "johnbyrd"
      },
      {
        "rshares": 55396880,
        "voter": "thomasaustin"
      },
      {
        "rshares": 55394920,
        "voter": "thermor"
      },
      {
        "rshares": 55406673,
        "voter": "ficholl"
      },
      {
        "rshares": 55387660,
        "voter": "widell"
      },
      {
        "rshares": 54991366,
        "voter": "revelbrooks"
      },
      {
        "rshares": 2342915652,
        "voter": "levycore"
      },
      {
        "rshares": 383708931,
        "voter": "mig641"
      },
      {
        "rshares": 3036108426,
        "voter": "netaterra"
      },
      {
        "rshares": 72138480,
        "voter": "joelbow"
      },
      {
        "rshares": 8040385236,
        "voter": "craigwilliamz"
      },
      {
        "rshares": 4588775849,
        "voter": "onetree"
      },
      {
        "rshares": 59174034,
        "voter": "pataxis"
      },
      {
        "rshares": 53853911,
        "voter": "curpose"
      },
      {
        "rshares": 1041837560,
        "voter": "runridefly"
      },
      {
        "rshares": 181897867,
        "voter": "darkflame"
      },
      {
        "rshares": 16402756705,
        "voter": "anarchofacebook"
      },
      {
        "rshares": 2299111133,
        "voter": "funkywanderer"
      },
      {
        "rshares": 633134408,
        "voter": "gear66"
      },
      {
        "rshares": 53961187,
        "voter": "troich"
      },
      {
        "rshares": 1653975470,
        "voter": "davidjkelley"
      },
      {
        "rshares": 168510966,
        "voter": "team101"
      },
      {
        "rshares": 52842496,
        "voter": "crion"
      },
      {
        "rshares": 52505412,
        "voter": "hitherise"
      },
      {
        "rshares": 53613607,
        "voter": "wiss"
      },
      {
        "rshares": 9279312943,
        "voter": "ghasemkiani"
      },
      {
        "rshares": 18058348159,
        "voter": "sponge-bob"
      },
      {
        "rshares": 15515417400,
        "voter": "digital-wisdom"
      },
      {
        "rshares": 3859756037,
        "voter": "ethical-ai"
      },
      {
        "rshares": 53252658,
        "voter": "stroully"
      },
      {
        "rshares": 57345607,
        "voter": "teruneo"
      },
      {
        "rshares": 5661947470,
        "voter": "jwaser"
      },
      {
        "rshares": 52916909,
        "voter": "thadm"
      },
      {
        "rshares": 52915101,
        "voter": "prof"
      },
      {
        "rshares": 925584134,
        "voter": "smisi"
      },
      {
        "rshares": 52560790,
        "voter": "yorsens"
      },
      {
        "rshares": 284024055,
        "voter": "maarnio"
      },
      {
        "rshares": 130780586,
        "voter": "the-ego-is-you"
      },
      {
        "rshares": 52242652,
        "voter": "bane"
      },
      {
        "rshares": 52236265,
        "voter": "vive"
      },
      {
        "rshares": 52230725,
        "voter": "coad"
      },
      {
        "rshares": 2667484951,
        "voter": "bwaser"
      },
      {
        "rshares": 51922012,
        "voter": "sofa"
      },
      {
        "rshares": 343977572,
        "voter": "panther"
      },
      {
        "rshares": 59422248,
        "voter": "plantbasedjunkie"
      },
      {
        "rshares": 18046280397,
        "voter": "brains"
      },
      {
        "rshares": 50933404,
        "voter": "ailo"
      },
      {
        "rshares": 1283965236,
        "voter": "steemafon"
      },
      {
        "rshares": 124282014,
        "voter": "emeline"
      },
      {
        "rshares": 5314849381,
        "voter": "chick1"
      },
      {
        "rshares": 50569452,
        "voter": "aoki"
      },
      {
        "rshares": 50516543,
        "voter": "typingagent"
      },
      {
        "rshares": 50514225,
        "voter": "cwb"
      },
      {
        "rshares": 63398057,
        "voter": "freebornangel"
      },
      {
        "rshares": 59801281,
        "voter": "nelyp"
      },
      {
        "rshares": 58801005,
        "voter": "t-bot"
      },
      {
        "rshares": 2394399729,
        "voter": "ellepdub"
      },
      {
        "rshares": 9778513643,
        "voter": "herpetologyguy"
      },
      {
        "rshares": 50441122,
        "voter": "eavy"
      },
      {
        "rshares": 50454901,
        "voter": "roto"
      },
      {
        "rshares": 52460746,
        "voter": "cryptofarmer"
      },
      {
        "rshares": 4801072114,
        "voter": "morgan.waser"
      },
      {
        "rshares": 51235131,
        "voter": "glassheart"
      },
      {
        "rshares": 51218466,
        "voter": "weare"
      },
      {
        "rshares": 51141851,
        "voter": "slow"
      },
      {
        "rshares": 1153310597,
        "voter": "anns"
      },
      {
        "rshares": 50875769,
        "voter": "cyan"
      },
      {
        "rshares": 50796122,
        "voter": "factom"
      },
      {
        "rshares": 50565798,
        "voter": "penthouse"
      },
      {
        "rshares": 50543061,
        "voter": "rabobank"
      },
      {
        "rshares": 50538694,
        "voter": "fenix"
      },
      {
        "rshares": 50245824,
        "voter": "steembets"
      },
      {
        "rshares": 59746972,
        "voter": "piphunters"
      },
      {
        "rshares": 3678261293,
        "voter": "strong-ai"
      },
      {
        "rshares": 76019801,
        "voter": "igtes"
      },
      {
        "rshares": 80674477,
        "voter": "olesia83"
      },
      {
        "rshares": 154471584,
        "voter": "buffett"
      },
      {
        "rshares": 104933884,
        "voter": "siniceku"
      },
      {
        "rshares": 282877474,
        "voter": "witchcraftblog"
      },
      {
        "rshares": 161096439,
        "voter": "bethsoft"
      },
      {
        "rshares": 160957729,
        "voter": "realtime"
      },
      {
        "rshares": 160880639,
        "voter": "illusions"
      },
      {
        "rshares": 160861015,
        "voter": "cybergirl"
      },
      {
        "rshares": 144470371,
        "voter": "laskoff"
      },
      {
        "rshares": 160835930,
        "voter": "skrillex"
      },
      {
        "rshares": 158081936,
        "voter": "pawel-krawczyk"
      },
      {
        "rshares": 164032761,
        "voter": "jeremydaw"
      },
      {
        "rshares": 159963865,
        "voter": "sledgehammer"
      },
      {
        "rshares": 159957397,
        "voter": "pirelli"
      },
      {
        "rshares": 159506164,
        "voter": "greenpeace"
      },
      {
        "rshares": 158732321,
        "voter": "steemwallet"
      },
      {
        "rshares": 149373971,
        "voter": "modernbukowski"
      },
      {
        "rshares": 158486055,
        "voter": "zendesk"
      },
      {
        "rshares": 130506461,
        "voter": "insight2incite"
      },
      {
        "rshares": 136547183,
        "voter": "danie"
      },
      {
        "rshares": 155110756,
        "voter": "matteopoole"
      },
      {
        "rshares": 136350043,
        "voter": "roger.steemit"
      }
    ],
    "author": "gavvet",
    "author_payout_value": "0.000 HBD",
    "author_reputation": 72.8,
    "beneficiaries": [],
    "blacklists": [],
    "body": "https://upload.wikimedia.org/wikipedia/commons/thumb/0/00/Emblem_of_Italy.svg/390px-Emblem_of_Italy.svg.png\nImage Credit\n>In a recent, very inspirational post @gavvet has highlighted the importance (both from a cultural and a community development viewpoint) of fostering the growth of linguistic diversity on Steemit. \nhttps://steemit.com/languages/@gavvet/the-birth-of-linguistic-diversity-on-steemit\n\nIn un post pubblicato recentemente, @gavvet ha messo in evidenza l\u00b4importanza (sia dal punto di vista culturale che in termini di sviluppo della comunita\u00b4) della crescita della diversita\u00b4 linguistica su Steemit.\n\n>Publishing high-quality content in languages other than English (possibly including English translations to increase visibility) is a key step towards making Steemit viral worldwide. However, at the moment posting on Steemit in \u201cforeign\u201d languages is a bit of a chicken and egg game\u2026 \n\n>Many people feel their language community is too small for their native language post to have an impact, but at the same time everybody acknowledges that the community will hardly grow unless they publish more posts in their own language and then share them on e.g.Facebook, so that outsiders can discover Steemit and decide to join.\n\nLa pubblicazione di materiale di qualita\u00b4 su Steemit in lingue diverse dall\u00b4inglese (eventualmente con una traduzione in inglese per aumentarne la visibilita\u00b4) e\u00b4 un passaggio chiave per la crescita virale di Steemit su scala globale. Tuttavia, al momento la pubblicazione su Steemit in lingue \u201cstraniere\u201d e\u00b4 bloccata in un circolo vizioso...\nMolti considerano che la propria comunita\u00b4 linguistica e\u00b4 troppo piccola perche\u00b4 un post in lingua originale abbia un impatto visibile, ma allo stesso tempo tutti sono d\u00b4accordo nel dire che la comunita\u00b4 non puo\u00b4 crescere se non si pubblicano piu\u00b4 post in lingua originale e non si condividono su Facebook, ecc, per permettere a persone esterne di scoprire Steemit ed iscriversi.\n\nhttps://upload.wikimedia.org/wikipedia/commons/thumb/6/6a/Trevi_fountain_2015.jpg/640px-Trevi_fountain_2015.jpg\nImage Credit\n>I think that one way out of this deadlock involves seeking help from a highly visible \u201cwhale\u201d, willing to promote foreign language posts (including English translation) through the \u201cfeatured author\u201d scheme. The idea is that if such posts make a sizeable impact, this will raise awareness of the size of the language community and motivate foreign language writers. As my native language is Italian, and @gavvet has kindly agreed to support this idea, I am asking all Italian authors who are interested in writing a bilingual (English/Italian) post to be featured by @gavvet, to get in touch with me @claudiop63 via the chat and also to join the #italian channel in order to discuss strategies, etc.\n\nLet\u00b4s bring more Italy into Steemit!  \n-\n\nRitengo che una strategia per spezzare il circolo vizioso possa essere quella di farsi aiutare da una \u201cwhale\u201d che sia pronta a promuovere post in lingua straniera (che includano una traduzione in inglese), attraverso il sistema \u201cfeatured author\u201d. L\u00b4idea e\u00b4 che se tali post avranno un impatto visibile, la comunita\u00b4 linguistica si rinsaldera\u00b4 e gli autori saranno motivati a pubblicare in lingua originale.\nVisto che io sono di madrelingua italiana, e che @gavvet ha gentilmente accettato di sostenere questa strategia, chiedo a tutti gli autori italiani interessati a pubblicare post bilingui (Italiano/Inglese) come featured authors di @gavvet di contattarmi @claudiop63 tramite la chat e di entrare, se non lo hanno gia\u00b4 fatto, nel canale #italian, per poi discutere strategie, ecc.\n\nCerchiamo di riempire Steemit di Italia!\n-",
    "category": "steemit",
    "children": 12,
    "created": "2016-09-09T15:45:39",
    "curator_payout_value": "0.000 HBD",
    "depth": 0,
    "is_paidout": false,
    "json_metadata": {
      "image": [
        "https://upload.wikimedia.org/wikipedia/commons/thumb/0/00/Emblem_of_Italy.svg/390px-Emblem_of_Italy.svg.png",
        "https://upload.wikimedia.org/wikipedia/commons/thumb/6/6a/Trevi_fountain_2015.jpg/640px-Trevi_fountain_2015.jpg"
      ],
      "links": [
        "https://steemit.com/languages/@gavvet/the-birth-of-linguistic-diversity-on-steemit"
      ],
      "tags": [
        "steemit",
        "writing",
        "steemit-ideas",
        "it-steem",
        "italian"
      ],
      "users": [
        "gavvet",
        "claudiop63"
      ]
    },
    "max_accepted_payout": "1000000.000 HBD",
    "net_rshares": 76478053246573,
    "payout": 551.257,
    "payout_at": "2016-09-16T15:45:39",
    "pending_payout_value": "551.257 HBD",
    "percent_hbd": 10000,
    "permlink": "federating-and-growing-the-italian-speaking-community-featuring-claudiop63-as-author",
    "post_id": 1185568,
    "promoted": "0.000 HBD",
    "replies": [],
    "stats": {
      "flag_weight": 0.0,
      "gray": false,
      "hide": false,
      "total_votes": 309
    },
    "title": "Federating and Growing the Italian-Speaking Community! (featuring @claudiop63 as author)",
    "updated": "2016-09-09T15:45:39",
    "url": "/steemit/@gavvet/federating-and-growing-the-italian-speaking-community-featuring-claudiop63-as-author"
  },
  {
    "active_votes": [
      {
        "rshares": 7376349250899,
        "voter": "steempty"
      },
      {
        "rshares": 347165551187,
        "voter": "anonymous"
      },
      {
        "rshares": 44274584365947,
        "voter": "ned"
      },
      {
        "rshares": 3104392312,
        "voter": "boy"
      },
      {
        "rshares": 3769119494,
        "voter": "bue-witness"
      },
      {
        "rshares": 684036241,
        "voter": "bunny"
      },
      {
        "rshares": 54908039872,
        "voter": "bue"
      },
      {
        "rshares": 1663427874,
        "voter": "mini"
      },
      {
        "rshares": 213797798,
        "voter": "moon"
      },
      {
        "rshares": 2179781689511,
        "voter": "bhuz"
      },
      {
        "rshares": 73521122782,
        "voter": "aizensou"
      },
      {
        "rshares": 425629339547,
        "voter": "recursive2"
      },
      {
        "rshares": -2705241943122,
        "voter": "recursive"
      },
      {
        "rshares": 1131791016752,
        "voter": "cass"
      },
      {
        "rshares": 625020571,
        "voter": "healthcare"
      },
      {
        "rshares": 973177874,
        "voter": "daniel.pan"
      },
      {
        "rshares": 830121840154,
        "voter": "steemrollin"
      },
      {
        "rshares": 288359524,
        "voter": "helen.tan"
      },
      {
        "rshares": 392749106258,
        "voter": "craig-grant"
      },
      {
        "rshares": 73536772482,
        "voter": "easteagle13"
      },
      {
        "rshares": 18718327214,
        "voter": "fkn"
      },
      {
        "rshares": 437226882,
        "voter": "paco-steem"
      },
      {
        "rshares": 4895173431,
        "voter": "spaninv"
      },
      {
        "rshares": 26804675937,
        "voter": "james-show"
      },
      {
        "rshares": 2024361326,
        "voter": "gekko"
      },
      {
        "rshares": 25288596864,
        "voter": "elishagh1"
      },
      {
        "rshares": 20099547557,
        "voter": "acidyo"
      },
      {
        "rshares": 147573839789,
        "voter": "steve-walschot"
      },
      {
        "rshares": 1412747751,
        "voter": "murh"
      },
      {
        "rshares": 260051658583,
        "voter": "billbutler"
      },
      {
        "rshares": 13566797440,
        "voter": "hien-tran"
      },
      {
        "rshares": 341225233,
        "voter": "stiletto"
      },
      {
        "rshares": 13354424579,
        "voter": "facer"
      },
      {
        "rshares": 1200786297,
        "voter": "johnerminer"
      },
      {
        "rshares": 31290973763,
        "voter": "michaelx"
      },
      {
        "rshares": 184732571490,
        "voter": "thedashguy"
      },
      {
        "rshares": 188002796893,
        "voter": "kimziv"
      },
      {
        "rshares": 6741772425,
        "voter": "tyler-fletcher"
      },
      {
        "rshares": 15700155766,
        "voter": "magnebit"
      },
      {
        "rshares": 497410679,
        "voter": "mrhankeh"
      },
      {
        "rshares": 26357168295,
        "voter": "acassity"
      },
      {
        "rshares": 207235087440,
        "voter": "asmolokalo"
      },
      {
        "rshares": 328681996462,
        "voter": "roelandp"
      },
      {
        "rshares": 55888461363,
        "voter": "sonzweil"
      },
      {
        "rshares": 254380477,
        "voter": "mstang83"
      },
      {
        "rshares": 276540283,
        "voter": "eugeney"
      },
      {
        "rshares": 237567730,
        "voter": "aidar88"
      },
      {
        "rshares": 427726403899,
        "voter": "juneaugoldbuyer"
      },
      {
        "rshares": 10242467766,
        "voter": "r4fken"
      },
      {
        "rshares": 31087345031,
        "voter": "picokernel"
      },
      {
        "rshares": 63385860760,
        "voter": "furion"
      },
      {
        "rshares": 515128572920,
        "voter": "neoxian"
      },
      {
        "rshares": 451567923,
        "voter": "barbara2"
      },
      {
        "rshares": 501733856,
        "voter": "ch0c0latechip"
      },
      {
        "rshares": 464367728,
        "voter": "doge4lyf"
      },
      {
        "rshares": 10267745462,
        "voter": "spiz0r"
      },
      {
        "rshares": 14937577469,
        "voter": "ausbitbank"
      },
      {
        "rshares": 1081057545,
        "voter": "steem1653"
      },
      {
        "rshares": 4587496780,
        "voter": "thegoodguy"
      },
      {
        "rshares": 222795356,
        "voter": "pet1000"
      },
      {
        "rshares": 19451642041,
        "voter": "str11ngfello"
      },
      {
        "rshares": 3541613089,
        "voter": "karen13"
      },
      {
        "rshares": 3144302620,
        "voter": "jbouchard12"
      },
      {
        "rshares": 24462414835,
        "voter": "igster"
      },
      {
        "rshares": 79393522553,
        "voter": "ntomaino"
      },
      {
        "rshares": 42141046380,
        "voter": "milestone"
      },
      {
        "rshares": 89569037,
        "voter": "wildchild"
      },
      {
        "rshares": 13235028002,
        "voter": "nippel66"
      },
      {
        "rshares": 3403721399,
        "voter": "tarindel"
      },
      {
        "rshares": 172170120707,
        "voter": "jl777"
      },
      {
        "rshares": 7072264218,
        "voter": "lostnuggett"
      },
      {
        "rshares": 15576505282,
        "voter": "positive"
      },
      {
        "rshares": 23812000153,
        "voter": "masterinvestor"
      },
      {
        "rshares": 48416629676,
        "voter": "steemapp"
      },
      {
        "rshares": 14672233176,
        "voter": "proto"
      },
      {
        "rshares": 614745323,
        "voter": "curator"
      },
      {
        "rshares": 29931116488,
        "voter": "sisterholics"
      },
      {
        "rshares": 14665762430,
        "voter": "michaeldodridge"
      },
      {
        "rshares": 512358622,
        "voter": "fnait"
      },
      {
        "rshares": 467497332,
        "voter": "keepcalmand"
      },
      {
        "rshares": 921642016,
        "voter": "metaflute"
      },
      {
        "rshares": 39800990412,
        "voter": "gomeravibz"
      },
      {
        "rshares": 7347175730,
        "voter": "taker"
      },
      {
        "rshares": 3321239318,
        "voter": "nekromarinist"
      },
      {
        "rshares": 1014130741336,
        "voter": "laonie"
      },
      {
        "rshares": 21154154829,
        "voter": "rawnetics"
      },
      {
        "rshares": 488479148,
        "voter": "fintech-jesus"
      },
      {
        "rshares": 23411380876,
        "voter": "laonie1"
      },
      {
        "rshares": 23922770445,
        "voter": "laonie2"
      },
      {
        "rshares": 23931515943,
        "voter": "laonie3"
      },
      {
        "rshares": 36590374553,
        "voter": "myfirst"
      },
      {
        "rshares": 232181512613,
        "voter": "somebody"
      },
      {
        "rshares": 8684796827,
        "voter": "flysaga"
      },
      {
        "rshares": 2766736973,
        "voter": "chris.roy"
      },
      {
        "rshares": 51300024326,
        "voter": "midnightoil"
      },
      {
        "rshares": 23927381371,
        "voter": "laonie4"
      },
      {
        "rshares": 23925693365,
        "voter": "laonie5"
      },
      {
        "rshares": 23923074313,
        "voter": "laonie6"
      },
      {
        "rshares": 23919971478,
        "voter": "laonie7"
      },
      {
        "rshares": 1377661260,
        "voter": "labradorsem"
      },
      {
        "rshares": 23916289883,
        "voter": "laonie8"
      },
      {
        "rshares": 23914622519,
        "voter": "laonie9"
      },
      {
        "rshares": 117212658457,
        "voter": "xiaohui"
      },
      {
        "rshares": 60010840,
        "voter": "jackkomber"
      },
      {
        "rshares": 1368553119,
        "voter": "paynode"
      },
      {
        "rshares": 4012799516,
        "voter": "xiaokongcom"
      },
      {
        "rshares": 501320787,
        "voter": "ricardoguthrie"
      },
      {
        "rshares": 61677203,
        "voter": "diversesteem"
      },
      {
        "rshares": 1625904484,
        "voter": "jrcornel"
      },
      {
        "rshares": 8086511647,
        "voter": "xianjun"
      },
      {
        "rshares": 58977371,
        "voter": "jers"
      },
      {
        "rshares": 3195802403,
        "voter": "bledarus"
      },
      {
        "rshares": 50027573,
        "voter": "loli"
      },
      {
        "rshares": 84334739073,
        "voter": "miacats"
      },
      {
        "rshares": 530776888,
        "voter": "microluck"
      },
      {
        "rshares": 58964015,
        "voter": "dimitriy"
      },
      {
        "rshares": 23908415458,
        "voter": "laonie10"
      },
      {
        "rshares": 2976871874,
        "voter": "netaterra"
      },
      {
        "rshares": 7674971846,
        "voter": "craigwilliamz"
      },
      {
        "rshares": 581734461,
        "voter": "daut44"
      },
      {
        "rshares": 232089407,
        "voter": "brandon-rosano"
      },
      {
        "rshares": 118894339,
        "voter": "billstclair"
      },
      {
        "rshares": 1042033097,
        "voter": "runridefly"
      },
      {
        "rshares": 884230796,
        "voter": "pollux.one"
      },
      {
        "rshares": 53608244,
        "voter": "jlufer"
      },
      {
        "rshares": 108931030653,
        "voter": "shenanigator"
      },
      {
        "rshares": 647204061,
        "voter": "gear66"
      },
      {
        "rshares": 3068876882,
        "voter": "richardcrill"
      },
      {
        "rshares": 23554872251,
        "voter": "laonie11"
      },
      {
        "rshares": 44243439919,
        "voter": "sponge-bob"
      },
      {
        "rshares": -145412269,
        "voter": "the-ego-is-you"
      },
      {
        "rshares": 85242648206,
        "voter": "cnfund"
      },
      {
        "rshares": 56115613811,
        "voter": "tracemayer"
      },
      {
        "rshares": 44213782610,
        "voter": "brains"
      },
      {
        "rshares": 125198095,
        "voter": "emeline"
      },
      {
        "rshares": 1379855528,
        "voter": "bitcoinparadise"
      },
      {
        "rshares": 100628450,
        "voter": "positivesteem"
      },
      {
        "rshares": 5175145781,
        "voter": "chick1"
      },
      {
        "rshares": 3134124136,
        "voter": "steempowerwhale"
      },
      {
        "rshares": 50516543,
        "voter": "typingagent"
      },
      {
        "rshares": 92968218,
        "voter": "inarix03"
      },
      {
        "rshares": 1514029449,
        "voter": "robotev"
      },
      {
        "rshares": 59746972,
        "voter": "piphunters"
      },
      {
        "rshares": 521874035,
        "voter": "grisha-danunaher"
      },
      {
        "rshares": 78462337,
        "voter": "comeup"
      },
      {
        "rshares": 130634157,
        "voter": "james93"
      },
      {
        "rshares": 139650528,
        "voter": "danie"
      },
      {
        "rshares": 155069498,
        "voter": "silver-lyon"
      },
      {
        "rshares": 148768653,
        "voter": "rnrador"
      },
      {
        "rshares": 136350043,
        "voter": "roger.steemit"
      },
      {
        "rshares": 154135510,
        "voter": "vlfl"
      }
    ],
    "author": "steemapp",
    "author_payout_value": "0.000 HBD",
    "author_reputation": 58.83,
    "beneficiaries": [],
    "blacklists": [],
    "body": "<center>[![SteemyLogoHeadOnlyLarge00009.md.png](https://www.steemimg.com/images/2016/09/09/SteemyLogoHeadOnlyLarge00009.md.png)](https://www.steemimg.com/image/uGfn3)</center>\n\n# BETA AVAILABLE - Steemy for iOS and Android\n(*special shout out to @xeroc for his guiding hand during on-device tx signing implementation)\n\nWe're happy to announce that the first public beta of [Steemy](https://steemit.com/steemit/@steemapp/introducing-steemy-fully-native-ios-android-apps-for-steem) is available for iOS and Android!  If you'd like to participate in the beta, simply send an email to steemapp@gmail.com and which device (iOS or Android) so we can send you a beta invite.  We're utilizing hockeyapp.net (microsoft) to manage the beta. \n\n### Some important things about the beta:\n- *Use at your own risk - **period**.*  \n- Don't login with an account that has your life savings in STEEM. Why? Because this is a beta product!\n- Don't login with your password if you don't feel comfortable - you can still use the app without logging in. Key import options will be available in a future version.\n- Images you upload from your mobile device are publicly available to the world. \n- Image hosting providers could change during the beta and your images could be wiped out permanently without notice\n- We receive crash reports, analytics and other useful debugging information from HockeyApp\n- Once signed up, you will receive notifications to download all future versions of the beta\n- Are there known issues? Yup! Expect frequent beta versions with no announcement.\n- Hockey provides features to send us feedback directly. There's a 100% chance we'll get your feedback if you submit through hockey app or email us steemapp@gmail.com.\n\n# How You Can Help\nWe are developing at a feverishly-fast pace...as fast as two guys can who have day jobs and families to support.  If we could, we'd say adios to the day job and focus 100% on Steemy (that's a dream I have weekly).   That being said, the reality is that we are building this with our own time, energy and spare funds.   That makes us no less passionate or driven, but imposes real-world constraints on development.\n\nYou can help us by:\n1) Participating in the beta\n2) Giving us constructive feedback on crashes, design, and other app-specifics\n3) Of course, financial - any funds we receive via upvoting go directly to supporting our monthly server costs, red bull addiction, etc...\n\n# How to sign up for the beta\n- Email us at steemapp@gmail.com and tell us which device (iOS or Android) you want an invite for\n- Or, if you don't care who sees your email address, post a comment below and specify iOS or Android (or both)\n\n# What is Steemy?\n\n[Learn more about Steemy Here](https://steemit.com/steemit/@steemapp/introducing-steemy-fully-native-ios-android-apps-for-steem)",
    "category": "steemit",
    "children": 12,
    "created": "2016-09-09T16:36:24",
    "curator_payout_value": "0.000 HBD",
    "depth": 0,
    "is_paidout": false,
    "json_metadata": {
      "image": [
        "https://www.steemimg.com/images/2016/09/09/SteemyLogoHeadOnlyLarge00009.md.png"
      ],
      "links": [
        "https://www.steemimg.com/image/uGfn3",
        "https://steemit.com/steemit/@steemapp/introducing-steemy-fully-native-ios-android-apps-for-steem"
      ],
      "tags": [
        "steemit",
        "steem",
        "steemapp",
        "steemy",
        "steemmobile"
      ],
      "users": [
        "xeroc"
      ]
    },
    "max_accepted_payout": "1000000.000 HBD",
    "net_rshares": 59917201858253,
    "payout": 334.065,
    "payout_at": "2016-09-16T16:36:24",
    "pending_payout_value": "334.065 HBD",
    "percent_hbd": 10000,
    "permlink": "ann-steemy-mobile-app-beta-available-for-ios-android",
    "post_id": 1186153,
    "promoted": "110.000 HBD",
    "replies": [],
    "stats": {
      "flag_weight": 3.0,
      "gray": false,
      "hide": false,
      "total_votes": 151
    },
    "title": "[ANN] Steemy Mobile App - Beta Available for iOS/Android",
    "updated": "2016-09-09T17:25:18",
    "url": "/steemit/@steemapp/ann-steemy-mobile-app-beta-available-for-ios-android"
  },
  {
    "active_votes": [
      {
        "rshares": 376126048708,
        "voter": "anonymous"
      },
      {
        "rshares": 10010108040620,
        "voter": "rainman"
      },
      {
        "rshares": 41022528799626,
        "voter": "blocktrades"
      },
      {
        "rshares": 109978977003,
        "voter": "svk"
      },
      {
        "rshares": 3104786127,
        "voter": "boy"
      },
      {
        "rshares": 3769614077,
        "voter": "bue-witness"
      },
      {
        "rshares": 684099809,
        "voter": "bunny"
      },
      {
        "rshares": 54952575386,
        "voter": "bue"
      },
      {
        "rshares": 1663623227,
        "voter": "mini"
      },
      {
        "rshares": 3578270006246,
        "voter": "witness.svk"
      },
      {
        "rshares": 213807099,
        "voter": "moon"
      },
      {
        "rshares": 625076388,
        "voter": "healthcare"
      },
      {
        "rshares": 973278654,
        "voter": "daniel.pan"
      },
      {
        "rshares": 7859851792,
        "voter": "woo7739"
      },
      {
        "rshares": 288376577,
        "voter": "helen.tan"
      },
      {
        "rshares": 538013623291,
        "voter": "eeks"
      },
      {
        "rshares": 1412880442,
        "voter": "murh"
      },
      {
        "rshares": 51417907801,
        "voter": "juanmiguelsalas"
      },
      {
        "rshares": 1352711862,
        "voter": "fjccoin"
      },
      {
        "rshares": 2064636294,
        "voter": "stephen-somers"
      },
      {
        "rshares": 23421305774,
        "voter": "ozzy-vega"
      },
      {
        "rshares": 4703624122,
        "voter": "crok"
      },
      {
        "rshares": 56991239380,
        "voter": "asmolokalo"
      },
      {
        "rshares": 82211579804,
        "voter": "sigmajin"
      },
      {
        "rshares": 214389409,
        "voter": "ardina"
      },
      {
        "rshares": 910622311,
        "voter": "steem1653"
      },
      {
        "rshares": 208099380121,
        "voter": "jesta"
      },
      {
        "rshares": 24962097609,
        "voter": "igster"
      },
      {
        "rshares": 12675920757,
        "voter": "nippel66"
      },
      {
        "rshares": 42209127713,
        "voter": "mynameisbrian"
      },
      {
        "rshares": 6690196206,
        "voter": "lostnuggett"
      },
      {
        "rshares": 18841004011,
        "voter": "carlidos"
      },
      {
        "rshares": 282703543,
        "voter": "sergey44"
      },
      {
        "rshares": 742495639,
        "voter": "quigua"
      },
      {
        "rshares": 14068794449,
        "voter": "lemooljiang"
      },
      {
        "rshares": 1100850186,
        "voter": "metaflute"
      },
      {
        "rshares": 21155443842,
        "voter": "rawnetics"
      },
      {
        "rshares": 3151579842,
        "voter": "timcliff"
      },
      {
        "rshares": 5814673303,
        "voter": "brendio"
      },
      {
        "rshares": 14657291228,
        "voter": "gmurph"
      },
      {
        "rshares": 19548946934,
        "voter": "velourex"
      },
      {
        "rshares": 60206066,
        "voter": "jers"
      },
      {
        "rshares": 61879661,
        "voter": "sijoittaja"
      },
      {
        "rshares": 8923202123,
        "voter": "kyriacos"
      },
      {
        "rshares": 71017762410,
        "voter": "anotherjoe"
      },
      {
        "rshares": 59059859,
        "voter": "alfaman"
      },
      {
        "rshares": 23482370668,
        "voter": "andrewawerdna"
      },
      {
        "rshares": 5704996921,
        "voter": "trev"
      },
      {
        "rshares": 8040548981,
        "voter": "craigwilliamz"
      },
      {
        "rshares": 5238393347,
        "voter": "ats-david"
      },
      {
        "rshares": 521036073,
        "voter": "runridefly"
      },
      {
        "rshares": 2903664342,
        "voter": "richardcrill"
      },
      {
        "rshares": 2959088626,
        "voter": "thebeachedwhale"
      },
      {
        "rshares": 1105478887,
        "voter": "wulfmeister"
      },
      {
        "rshares": 567259127,
        "voter": "jessicanicklos"
      },
      {
        "rshares": 60333104,
        "voter": "heroic15397"
      },
      {
        "rshares": 51709606,
        "voter": "mari5555na"
      },
      {
        "rshares": 68547956,
        "voter": "piphunters"
      },
      {
        "rshares": 53241786,
        "voter": "saiku"
      },
      {
        "rshares": 150657538,
        "voter": "siniceku"
      },
      {
        "rshares": 158798473,
        "voter": "zapply"
      },
      {
        "rshares": 505508791,
        "voter": "kjsxj"
      },
      {
        "rshares": 148745502,
        "voter": "roger.steemit"
      }
    ],
    "author": "mynameisbrian",
    "author_payout_value": "0.000 HBD",
    "author_reputation": 61.0,
    "beneficiaries": [],
    "blacklists": [],
    "body": "<center>\n<img src=\"https://lh3.googleusercontent.com/N2lIGLo3uT2JFoq6jf2_tX3-OcrvMJSikt52VL93JIOQc4QLs1jdBO4cCETxKP8PD-lJG0QwWxC-dy5YSOOl_QE5Bq2tY-bmQ2uOy7_TiVNdsgoZURF10_lOpfOFMroEyJh_5PMOxiEyL8ZWEa9pqeygKNUZ0-BY1hmfhduYI3Ktqi0ftEGOydSLdrDEjBrq8j04Ih2rbdQfLGYNhGboVLI3TTq-0G4P2Xge79_ZhgKafjC3_pP_5it2LreHrbYqZDxDSfSwudgSUlMq5TWzNmdKyo9hM2yYBHVK4UnVvNse8TYeR3-YZqd9mvQIFXlOoKU-IhNmo6vGOw9_8PoYG_L4i0tt2234F25_zSp0SdiFAagouMs4uYO5FXVcAsjohineDZZORZKoa8l_gWiwBaSsu5rbkpy_1_B0fLacKhqz50CqfL9UplR3YTHiiyKsZ4fyQbBM5J0kobYPrl-G5UWiBA1lzyCFIZ2vkg4MkPE7mG__ONUJKzSSYCRZXwznBIXbeCFtXwJPeU5PcMyN-Zhye97hqkLUDCrKDJTCesV0KyiGnvFA9h3cUiIwDGEjC9z1H93P86-ZvWit8d4nHp702biBStM_WynDrHRYycKdkPIi9Q=w494-h350-no\" />\n</center>\n\n<h2>Steemit Account Verification Proposal</h2>\n\n<h3>The Need for Account Verification</h3>\n\n***Have you ever read a post and wanted to learn more about the author and their background?***\n\nCurrently you must scour through the author's blog to see if they have written an *'introduceyourself'* post, often times leaving you empty handed. A simple account verification system that allows users to link their steemit account with other social networking accounts *(e.g. Facebook, Twitter, LinkedIn...)* as well as their personal websites would alleviate this issue and also help to promote steemit through other social networking platforms.\n\nOriginally I was going to attempt to create such a system and integrate it with steemit; however, I simply don't have the time and thus I am sharing the idea with the community on the chance that someone else may wish to do so.\n\n<h3>The Design</h3>\n\n<img src=\"https://lh3.googleusercontent.com/AWdK49zLVp_tz15Q4MtAfalIJ5kTd85nroi58l7JPzkX1Gk2MGJ_yqPhNcS4X-Ox-1mN28W9mdFfQsDyyXolwoWozj8aXsur5iohB9YuXjUI8W3IzTQf9gw2Tb4qljT8NZnuS8JsJEhpBd-PvC2z4OGC4RZt4VOgRVI6J5-Y49wcGjsCDvXa1Jbnn2rQFYVuuRDjC3FLdN3JVRDbovcAJimj1656JxOgeMyh2pDzb4M1957cEK2gSzxIdOqqLrkE4-FpZuGkkyOuUnIv2vDunwqcoJHXf7aPX3-m5zyMs-wW98HmjWaEPBNJnW4quQB8pv9M7fiKAxpawYypdeg5eHV3aeuKwaX4wZuWfiN-1c1eNOeiO5fcjjPlmvA0LxnLZ7vxp3xrwYpOVS1X10VAtuAafiEA6EU5HrsVrAtk5XqbyNuV1xmyv0gcXQyYoGW7c5o_7yq-GhBnXz-HBBHo_KXaPi3ij1BnYB_pr3BUw7r08xarzPVBhm-8iqtt-72PEyjnifs0gt2npf0Mvw6YQ2WY1CaooA-0Npya6ylfKjp0_lIFFuCNiBlyNwCYbzILwyy7VkmlmtusMpdnaet0AX_9ulFFnrHsP6r58-MI4xOrY7m69w=w825-h244-no\" />\n\nWhen viewing an author's page a *verifications* tab would be added below their user name. Clicking on this link would either take you to a page displaying the users verified accounts and websites, or if you are logged in it will take you to a page where you can update your own verifications. *See below...*\n\n<br />\n\n<img src=\"https://lh3.googleusercontent.com/yRxp_oOv0ObqTzn-guF8TYixfR126l--hsRow0WU73dBOixi-Ai2NmHZMoN2D3Ddr-HQDBlRWSiUCsKTPTYezN9akcB15EdCDGmKehtBPnN2ZdMqeulj5IFbQ7jjUwbjEH09oj8pNR2JoogSe8Hvhh1SLNqM_Oa41bKr8JsczRvXr81F6WKKlB_nJXfYa3ZKD314rU5wCDXJxufFQ-rw0WIuZ6vnZDnnk1sI_fudtcst7bjkMMBvv4yV_6r8eGRaDCtpy8bt4KQRbksOvk9IAycAOLOrPJuuCK1Xu-l6R7d_HPAopv26BtvnYvvyeQHjRosGEeMGFW9PVuT_xBTUv_DZ2Ldl_8tb7oJZ7DTJg-jpWKoCYc_PUgGNNQm0dooMT1mVheABg06bKmAyADZUVUKAR2mb-mu8Zb8wsMi8ZkL3XCbPI6b3aPqQo0IC1UlDgWbkHjrtdghoZxyofsEMQXa9Xudjrn1H550hG3k93qcoybSEi4E1SP1DF69oCVlPgGfuQUJkD58UdWIi6QKJvhj19Q_jWL2sKYn8PSLSk-wZQSWiOOaMacrMFtQWRXLT9arWHAPldEEK0KYGjuV2y-0SqfBTqJN_Jn7ytJljtz9PBveZ4w=w834-h514-no\" />\n\n*Above: All users visiting the verification page are now able to navigate directly to the author's other social networking pages and personal websites in order to obtain a better picture of the author.*\n\n<br />\n\n<img src=\"https://lh3.googleusercontent.com/2ZjO4boyFTLeTfs03DwX7qPBruQTGH0T-IdYDYToLJpmwbLM0kJDsBSgVO4InJYAJ4JdxQu-x6bH7j33geip3XEXW3E4s1TFoj1krcMenPjDsnNn2VgSOWEHdhjE9lxuoXrNtw9yk2PfaEt_JhLCEjrcYM9G_I329iLfWPQ8hkRpaEjGcWifG2cbCih5chMSTFsTw58qR1qtLpQVyOvIMcNB0CopIgHVBYvYq-0w1r8OA2kg1qzoOvn-n-_TKKpBtnXbNJp8Z_uC9YqnjrA-unb5oICQk0j7akn771trz5kOIQ1XZKjo-gwSLZ6RjL9_lf1ouUP80qIdgoQ_an81h9rdUt2Yws1pgYf_CLSk9dWBKw46Q0LQuvLK05f-irR-iL73R080YXUyDsTFQaj4hME7CLzz0uV4eSCXBZWeRW-3bn2fECYL1gzBIFYZsvxI2z95RddjlmmyN5Y_BUaX851YBF4dGFkXuMtYfXM3dmITe3lURzhgDFeg99jVS3RyOVn1vC_dhmPdqFBaFjAYLuu6lXvyRRvt34E_BLnN_jdydW2SFx3XUsVzOwjjjfsXLxSWwZh-PI3ok20uc_v6eJYgP9xtegt1IulrWO6LA2F-fuR_jw=w834-h600-no\" />\n\n*Above: The logged in user can add new accounts and websites as well as update existing verifications.*\n\n<h3>How Would Verification Work?</h3>\n\n**Adding/Updating a Social Network Account verification**\n\nThe user should be taken to a page or be presented with a modal overlay that outlines the process for verifying the account for the specific network in question. The most effective way to verify a third party account is to have the user make a post that verifies their steemit user name. For example the post might read:\n\n> Verifying my account @mynameisbrian on steemit.com. Come join me!\n\nThe exact format for this post should be dictated by the system, or added directly by the system with the users permission. Once the post has been added the system should *1) verify the presence of the post, and 2) verify that the user name included in the post matches that of the logged in steemit user*.\n\nAccount verifications serve 2 purposes, they allow steemit users to learn more about the author and they promote steemit through the user's social connections on other networks.\n\n**Adding/Updating a Website verification**\n\nThe process for verifying a website would be similar to verifying an account, but instead of a post a meta tag or file could be added to the site indicating that it belongs to the author. There are many possible ways to verify a website.\n\nA benefit of website verifications is that the user could verify that they are in fact the owner of content they are posting on steemit to avoid being accused of plagiarism.\n\n<h3>Just an idea</h3>\n\nThat is the basic idea I had for an account verification system integrated within steemit.com. Obviously there are ***many details that are not entirely worked out*** such as how a user's verified accounts and sites should be tracked and stored. If the system were to be integrated directly into the steemit.com website writing the verifications as meta data within the user's account would be a possibility, or perhaps each record of a verification could be saved as a blog post. If the system is completely external some sort of database would be required to ensure reliability as performing verifications in real-time is not feasible given limitations in the api's of other social networks.\n\n***So what are your thoughts on this idea?***\n\n***Would it be beneficial to the user experience and help to promote steemit?***\n\nIf anyone is interested in taking on the project and would like to discuss please feel free to get in touch.\n\n<hr />\n\n<a href=\"http://steemit.com/@mynameisbrian\"><img src=\"https://lh3.googleusercontent.com/wHccXSg2eRhsYBWXRwpRcNV3QSiUzkbZ_duhsmukxspNCiUyBxcVQvt_StQwgtsYPaWJUZrheKq95jHEbmwQGP3o7fkgsgUFrU4d9aXLOg_HhT-Ksy0vXhNgKYlWD0M6o4fpa5lqn0d0ffpVM3d46hd_d8iG3DBXQQzmYloSGY63PqFW5ZcgUcT9-G-ji5-R0HDKVkO9xwZ0FcY2ZUTm7-verwRcfpXjjFrXrINwYP9OIF75OugcT5thKYtBrbG1qDQ0zLYBO9G-Fmxfr6ZK8kAG4cqemS4ai1kXbIpVpIvTTuVZfUZUT0womP1WTpbOXwpnbsFOEo-WrwKFc0orU6T7-uV1ecddEoAaDsLFpwH-srZ8Yjw-ckbiY214N5D4TrlUadikVsdOiwUZRfFmE3OmROzWqDACSp2RnI9B4mciadsyUz5OU0HIYFev0JcbVmP2mFO25Jz0o1bR1ARvNAwqgsU22u1kSKR_-SmH5_KlZz9d0Y805tPh-WaFn_p4xSBN1raf10-9Hyh54_3WURZ4NpzQeH_djXvDzJEXoD9UpOMbWXSz7HWy2EHtmAIJWxIHhvOJjwgkNmK9iAawf5ffg-ysmPV3ZdGneNeuTHFY1wZ93w=w200-h60-no\" /></a>",
    "category": "steemit",
    "children": 30,
    "created": "2016-09-10T03:20:39",
    "curator_payout_value": "0.000 HBD",
    "depth": 0,
    "is_paidout": false,
    "json_metadata": {
      "image": [
        "https://lh3.googleusercontent.com/N2lIGLo3uT2JFoq6jf2_tX3-OcrvMJSikt52VL93JIOQc4QLs1jdBO4cCETxKP8PD-lJG0QwWxC-dy5YSOOl_QE5Bq2tY-bmQ2uOy7_TiVNdsgoZURF10_lOpfOFMroEyJh_5PMOxiEyL8ZWEa9pqeygKNUZ0-BY1hmfhduYI3Ktqi0ftEGOydSLdrDEjBrq8j04Ih2rbdQfLGYNhGboVLI3TTq-0G4P2Xge79_ZhgKafjC3_pP_5it2LreHrbYqZDxDSfSwudgSUlMq5TWzNmdKyo9hM2yYBHVK4UnVvNse8TYeR3-YZqd9mvQIFXlOoKU-IhNmo6vGOw9_8PoYG_L4i0tt2234F25_zSp0SdiFAagouMs4uYO5FXVcAsjohineDZZORZKoa8l_gWiwBaSsu5rbkpy_1_B0fLacKhqz50CqfL9UplR3YTHiiyKsZ4fyQbBM5J0kobYPrl-G5UWiBA1lzyCFIZ2vkg4MkPE7mG__ONUJKzSSYCRZXwznBIXbeCFtXwJPeU5PcMyN-Zhye97hqkLUDCrKDJTCesV0KyiGnvFA9h3cUiIwDGEjC9z1H93P86-ZvWit8d4nHp702biBStM_WynDrHRYycKdkPIi9Q=w494-h350-no",
        "https://lh3.googleusercontent.com/AWdK49zLVp_tz15Q4MtAfalIJ5kTd85nroi58l7JPzkX1Gk2MGJ_yqPhNcS4X-Ox-1mN28W9mdFfQsDyyXolwoWozj8aXsur5iohB9YuXjUI8W3IzTQf9gw2Tb4qljT8NZnuS8JsJEhpBd-PvC2z4OGC4RZt4VOgRVI6J5-Y49wcGjsCDvXa1Jbnn2rQFYVuuRDjC3FLdN3JVRDbovcAJimj1656JxOgeMyh2pDzb4M1957cEK2gSzxIdOqqLrkE4-FpZuGkkyOuUnIv2vDunwqcoJHXf7aPX3-m5zyMs-wW98HmjWaEPBNJnW4quQB8pv9M7fiKAxpawYypdeg5eHV3aeuKwaX4wZuWfiN-1c1eNOeiO5fcjjPlmvA0LxnLZ7vxp3xrwYpOVS1X10VAtuAafiEA6EU5HrsVrAtk5XqbyNuV1xmyv0gcXQyYoGW7c5o_7yq-GhBnXz-HBBHo_KXaPi3ij1BnYB_pr3BUw7r08xarzPVBhm-8iqtt-72PEyjnifs0gt2npf0Mvw6YQ2WY1CaooA-0Npya6ylfKjp0_lIFFuCNiBlyNwCYbzILwyy7VkmlmtusMpdnaet0AX_9ulFFnrHsP6r58-MI4xOrY7m69w=w825-h244-no",
        "https://lh3.googleusercontent.com/yRxp_oOv0ObqTzn-guF8TYixfR126l--hsRow0WU73dBOixi-Ai2NmHZMoN2D3Ddr-HQDBlRWSiUCsKTPTYezN9akcB15EdCDGmKehtBPnN2ZdMqeulj5IFbQ7jjUwbjEH09oj8pNR2JoogSe8Hvhh1SLNqM_Oa41bKr8JsczRvXr81F6WKKlB_nJXfYa3ZKD314rU5wCDXJxufFQ-rw0WIuZ6vnZDnnk1sI_fudtcst7bjkMMBvv4yV_6r8eGRaDCtpy8bt4KQRbksOvk9IAycAOLOrPJuuCK1Xu-l6R7d_HPAopv26BtvnYvvyeQHjRosGEeMGFW9PVuT_xBTUv_DZ2Ldl_8tb7oJZ7DTJg-jpWKoCYc_PUgGNNQm0dooMT1mVheABg06bKmAyADZUVUKAR2mb-mu8Zb8wsMi8ZkL3XCbPI6b3aPqQo0IC1UlDgWbkHjrtdghoZxyofsEMQXa9Xudjrn1H550hG3k93qcoybSEi4E1SP1DF69oCVlPgGfuQUJkD58UdWIi6QKJvhj19Q_jWL2sKYn8PSLSk-wZQSWiOOaMacrMFtQWRXLT9arWHAPldEEK0KYGjuV2y-0SqfBTqJN_Jn7ytJljtz9PBveZ4w=w834-h514-no",
        "https://lh3.googleusercontent.com/2ZjO4boyFTLeTfs03DwX7qPBruQTGH0T-IdYDYToLJpmwbLM0kJDsBSgVO4InJYAJ4JdxQu-x6bH7j33geip3XEXW3E4s1TFoj1krcMenPjDsnNn2VgSOWEHdhjE9lxuoXrNtw9yk2PfaEt_JhLCEjrcYM9G_I329iLfWPQ8hkRpaEjGcWifG2cbCih5chMSTFsTw58qR1qtLpQVyOvIMcNB0CopIgHVBYvYq-0w1r8OA2kg1qzoOvn-n-_TKKpBtnXbNJp8Z_uC9YqnjrA-unb5oICQk0j7akn771trz5kOIQ1XZKjo-gwSLZ6RjL9_lf1ouUP80qIdgoQ_an81h9rdUt2Yws1pgYf_CLSk9dWBKw46Q0LQuvLK05f-irR-iL73R080YXUyDsTFQaj4hME7CLzz0uV4eSCXBZWeRW-3bn2fECYL1gzBIFYZsvxI2z95RddjlmmyN5Y_BUaX851YBF4dGFkXuMtYfXM3dmITe3lURzhgDFeg99jVS3RyOVn1vC_dhmPdqFBaFjAYLuu6lXvyRRvt34E_BLnN_jdydW2SFx3XUsVzOwjjjfsXLxSWwZh-PI3ok20uc_v6eJYgP9xtegt1IulrWO6LA2F-fuR_jw=w834-h600-no",
        "https://lh3.googleusercontent.com/wHccXSg2eRhsYBWXRwpRcNV3QSiUzkbZ_duhsmukxspNCiUyBxcVQvt_StQwgtsYPaWJUZrheKq95jHEbmwQGP3o7fkgsgUFrU4d9aXLOg_HhT-Ksy0vXhNgKYlWD0M6o4fpa5lqn0d0ffpVM3d46hd_d8iG3DBXQQzmYloSGY63PqFW5ZcgUcT9-G-ji5-R0HDKVkO9xwZ0FcY2ZUTm7-verwRcfpXjjFrXrINwYP9OIF75OugcT5thKYtBrbG1qDQ0zLYBO9G-Fmxfr6ZK8kAG4cqemS4ai1kXbIpVpIvTTuVZfUZUT0womP1WTpbOXwpnbsFOEo-WrwKFc0orU6T7-uV1ecddEoAaDsLFpwH-srZ8Yjw-ckbiY214N5D4TrlUadikVsdOiwUZRfFmE3OmROzWqDACSp2RnI9B4mciadsyUz5OU0HIYFev0JcbVmP2mFO25Jz0o1bR1ARvNAwqgsU22u1kSKR_-SmH5_KlZz9d0Y805tPh-WaFn_p4xSBN1raf10-9Hyh54_3WURZ4NpzQeH_djXvDzJEXoD9UpOMbWXSz7HWy2EHtmAIJWxIHhvOJjwgkNmK9iAawf5ffg-ysmPV3ZdGneNeuTHFY1wZ93w=w200-h60-no"
      ],
      "links": [
        "http://steemit.com/@mynameisbrian"
      ],
      "tags": [
        "steemit",
        "steemit-ideas",
        "dev",
        "programming",
        "proposal"
      ],
      "users": [
        "mynameisbrian"
      ]
    },
    "max_accepted_payout": "1000000.000 HBD",
    "net_rshares": 56459704477059,
    "payout": 316.926,
    "payout_at": "2016-09-17T03:20:39",
    "pending_payout_value": "316.926 HBD",
    "percent_hbd": 10000,
    "permlink": "steemit-account-verification-verifying-third-party-social-network-accounts-and-websites",
    "post_id": 1191842,
    "promoted": "0.000 HBD",
    "replies": [],
    "stats": {
      "flag_weight": 0.0,
      "gray": false,
      "hide": false,
      "total_votes": 63
    },
    "title": "Steemit Account Verification - Verifying Third Party Social Network Accounts and Websites",
    "updated": "2016-09-10T03:20:39",
    "url": "/steemit/@mynameisbrian/steemit-account-verification-verifying-third-party-social-network-accounts-and-websites"
  },
  {
    "active_votes": [
      {
        "rshares": 28078695107280,
        "voter": "dantheman"
      },
      {
        "rshares": 4542203046711,
        "voter": "riverhead"
      },
      {
        "rshares": 2383118349121,
        "voter": "badassmother"
      },
      {
        "rshares": 1085468703866,
        "voter": "rossco99"
      },
      {
        "rshares": 5797848485834,
        "voter": "steemit200"
      },
      {
        "rshares": 3104417150,
        "voter": "boy"
      },
      {
        "rshares": 3769148989,
        "voter": "bue-witness"
      },
      {
        "rshares": 684039346,
        "voter": "bunny"
      },
      {
        "rshares": 54911850751,
        "voter": "bue"
      },
      {
        "rshares": 1663438741,
        "voter": "mini"
      },
      {
        "rshares": 213797798,
        "voter": "moon"
      },
      {
        "rshares": 3281746099637,
        "voter": "au1nethyb1"
      },
      {
        "rshares": 436436962604,
        "voter": "boatymcboatface"
      },
      {
        "rshares": 625022124,
        "voter": "healthcare"
      },
      {
        "rshares": 973182531,
        "voter": "daniel.pan"
      },
      {
        "rshares": 41006770670,
        "voter": "alexgr"
      },
      {
        "rshares": 288359524,
        "voter": "helen.tan"
      },
      {
        "rshares": 23787564672,
        "voter": "yefet"
      },
      {
        "rshares": 16695287716,
        "voter": "fkn"
      },
      {
        "rshares": 25993088578,
        "voter": "james-show"
      },
      {
        "rshares": 21961897752,
        "voter": "elishagh1"
      },
      {
        "rshares": 258092524322,
        "voter": "pal"
      },
      {
        "rshares": 1412755202,
        "voter": "murh"
      },
      {
        "rshares": 943595799549,
        "voter": "cyber"
      },
      {
        "rshares": 914714038,
        "voter": "treeleaves"
      },
      {
        "rshares": 58039952516,
        "voter": "theshell"
      },
      {
        "rshares": 166525472520,
        "voter": "kimziv"
      },
      {
        "rshares": 4199085070,
        "voter": "crok"
      },
      {
        "rshares": 5673784293,
        "voter": "svamiva"
      },
      {
        "rshares": 36092559203,
        "voter": "cryptoiskey"
      },
      {
        "rshares": 7380803654,
        "voter": "dasha"
      },
      {
        "rshares": 51810239264,
        "voter": "asmolokalo"
      },
      {
        "rshares": 54339905603,
        "voter": "ezzy"
      },
      {
        "rshares": 17852463009,
        "voter": "konstantin"
      },
      {
        "rshares": 15489041075,
        "voter": "stealthtrader"
      },
      {
        "rshares": 10242467766,
        "voter": "r4fken"
      },
      {
        "rshares": 747492636,
        "voter": "rxhector"
      },
      {
        "rshares": 56143918065,
        "voter": "furion"
      },
      {
        "rshares": 404034457,
        "voter": "barbara2"
      },
      {
        "rshares": 448930320,
        "voter": "ch0c0latechip"
      },
      {
        "rshares": 415497469,
        "voter": "doge4lyf"
      },
      {
        "rshares": 1439445567303,
        "voter": "renohq"
      },
      {
        "rshares": 9220111954,
        "voter": "spiz0r"
      },
      {
        "rshares": 1024215664,
        "voter": "steem1653"
      },
      {
        "rshares": 66978870,
        "voter": "cynetyc"
      },
      {
        "rshares": 2499651000,
        "voter": "bitland"
      },
      {
        "rshares": 3541687602,
        "voter": "karen13"
      },
      {
        "rshares": 1340972075,
        "voter": "jrd8526"
      },
      {
        "rshares": 4121232121,
        "voter": "dcryptogold"
      },
      {
        "rshares": 42141781600,
        "voter": "milestone"
      },
      {
        "rshares": 18926593071,
        "voter": "artific"
      },
      {
        "rshares": 34881174300,
        "voter": "creemej"
      },
      {
        "rshares": 3383642927,
        "voter": "kimmar"
      },
      {
        "rshares": 70773258992,
        "voter": "thylbom"
      },
      {
        "rshares": 3456184776,
        "voter": "bones"
      },
      {
        "rshares": 172170657153,
        "voter": "jl777"
      },
      {
        "rshares": 7263406494,
        "voter": "lostnuggett"
      },
      {
        "rshares": 13527446603,
        "voter": "positive"
      },
      {
        "rshares": 9095865890,
        "voter": "fishborne"
      },
      {
        "rshares": 14672267946,
        "voter": "proto"
      },
      {
        "rshares": 614745323,
        "voter": "curator"
      },
      {
        "rshares": 26413496858,
        "voter": "sisterholics"
      },
      {
        "rshares": 458436690,
        "voter": "fnait"
      },
      {
        "rshares": 418297641,
        "voter": "keepcalmand"
      },
      {
        "rshares": 7378841834,
        "voter": "beanz"
      },
      {
        "rshares": 3089414888,
        "voter": "glitterpig"
      },
      {
        "rshares": 5343952890,
        "voter": "jed78"
      },
      {
        "rshares": 113532577608,
        "voter": "steemdrive"
      },
      {
        "rshares": 7347354559,
        "voter": "taker"
      },
      {
        "rshares": 5162438265,
        "voter": "theprophet0"
      },
      {
        "rshares": 887414606422,
        "voter": "laonie"
      },
      {
        "rshares": 2223996317,
        "voter": "naturalista"
      },
      {
        "rshares": 3213805099,
        "voter": "timcliff"
      },
      {
        "rshares": 31364482058,
        "voter": "myfirst"
      },
      {
        "rshares": 199944993707,
        "voter": "somebody"
      },
      {
        "rshares": 7720216772,
        "voter": "flysaga"
      },
      {
        "rshares": 45602445582,
        "voter": "midnightoil"
      },
      {
        "rshares": 2701726451,
        "voter": "achim86"
      },
      {
        "rshares": 1492466365,
        "voter": "labradorsem"
      },
      {
        "rshares": 103011752675,
        "voter": "xiaohui"
      },
      {
        "rshares": 3567101785,
        "voter": "xiaokongcom"
      },
      {
        "rshares": 15322880594,
        "voter": "scaredycatguide"
      },
      {
        "rshares": 7188387855,
        "voter": "xianjun"
      },
      {
        "rshares": 7212155286,
        "voter": "highlite"
      },
      {
        "rshares": 3195802403,
        "voter": "bledarus"
      },
      {
        "rshares": 84335485726,
        "voter": "miacats"
      },
      {
        "rshares": 471811612,
        "voter": "microluck"
      },
      {
        "rshares": 11148718745,
        "voter": "matrixdweller"
      },
      {
        "rshares": 4847386144,
        "voter": "mindfreak"
      },
      {
        "rshares": 728471697,
        "voter": "alexma3x"
      },
      {
        "rshares": 2838973103,
        "voter": "macartem"
      },
      {
        "rshares": 4641324492,
        "voter": "themanualbot"
      },
      {
        "rshares": 411167747,
        "voter": "dave-mohican"
      },
      {
        "rshares": 5822543450,
        "voter": "trev"
      },
      {
        "rshares": 7674926222,
        "voter": "craigwilliamz"
      },
      {
        "rshares": 108935998081,
        "voter": "shenanigator"
      },
      {
        "rshares": 10915521159,
        "voter": "stephmckenzie"
      },
      {
        "rshares": 2063008090,
        "voter": "penguinpablo"
      },
      {
        "rshares": 93768863,
        "voter": "steemwatch"
      },
      {
        "rshares": 5554999718,
        "voter": "nadin3"
      },
      {
        "rshares": 168510966,
        "voter": "team101"
      },
      {
        "rshares": 8219988099,
        "voter": "ghasemkiani"
      },
      {
        "rshares": 2076055689,
        "voter": "matthewtiii"
      },
      {
        "rshares": 345415492,
        "voter": "tfeldman"
      },
      {
        "rshares": 389306146,
        "voter": "steemorama"
      },
      {
        "rshares": 121668777,
        "voter": "the-ego-is-you"
      },
      {
        "rshares": 3078565169,
        "voter": "patelincho"
      },
      {
        "rshares": 341097233,
        "voter": "bones261"
      },
      {
        "rshares": 3097757398,
        "voter": "mariandavp"
      },
      {
        "rshares": 620939158,
        "voter": "bones555"
      },
      {
        "rshares": 5175318099,
        "voter": "chick1"
      },
      {
        "rshares": 3134124136,
        "voter": "steempowerwhale"
      },
      {
        "rshares": 50569452,
        "voter": "aoki"
      },
      {
        "rshares": 50516543,
        "voter": "typingagent"
      },
      {
        "rshares": 50514225,
        "voter": "cwb"
      },
      {
        "rshares": 59594173,
        "voter": "freebornangel"
      },
      {
        "rshares": 61160401,
        "voter": "nelyp"
      },
      {
        "rshares": 213847216,
        "voter": "andrewrait"
      },
      {
        "rshares": 225136890,
        "voter": "bobbybillbob"
      },
      {
        "rshares": 85741938,
        "voter": "koskl"
      },
      {
        "rshares": 2484071186,
        "voter": "ltm"
      },
      {
        "rshares": 159627767,
        "voter": "anasz"
      },
      {
        "rshares": 74639545,
        "voter": "kalipo"
      },
      {
        "rshares": 159780975,
        "voter": "ysa"
      },
      {
        "rshares": 146042945,
        "voter": "insight2incite"
      },
      {
        "rshares": 152063909,
        "voter": "danie"
      },
      {
        "rshares": 136350043,
        "voter": "roger.steemit"
      }
    ],
    "author": "alexgr",
    "author_payout_value": "0.000 HBD",
    "author_reputation": 63.7,
    "beneficiaries": [],
    "blacklists": [],
    "body": "<html>\n<p>In Steemit we have what is known as the \"casino effect\". This describes the fact that posting rewards are variable: Some times bloggers may get a very small reward while other times they may hit the \"jackpot\" with some pretty high reward.</p>\n<p><br></p>\n<p><center>https://pixabay.com/static/uploads/photo/2015/02/12/23/00/roulette-634412_960_720.jpg</center></p>\n<p><br></p>\n<p>This variance[1] also extends to the quality of content: An author will write several posts and when the rewards are finalized the author may be very surprised to find out that his better articles didn't get more rewards.</p>\n<p></p>\n<h2>Similarities with Commerce</h2>\n<p>Some will complain that this is simply evidence that the system is problematic but ...have they ever considered <strong>the amazing similarities with commerce in the real economy</strong>?</p>\n<p><br></p>\n<p><center>https://pixabay.com/static/uploads/photo/2013/07/13/11/31/shop-158317_960_720.png</center></p>\n<p><br></p>\n<p>If you've ever owned a store you may have noticed that there are days where selling is very slow and other days when selling is going very well. Some times selling can be so bad where the entire day is a bust - with no money generated.</p>\n<p>This variance can extend to larger time periods - like having a week or a month which has been extraordinarily good, or atrociously bad.</p>\n<p>Can you spot the parallels with Steemit?</p>\n<p>Whose fault is it that a shop does good or bad in different days, different weeks, or different months? The \"whale shoppers\" who are casting their \"buying votes\" in a bad way?</p>\n<p>On top of that, in the shop scenario, there is also product variance: Products that can be considered \"junk\" may be selling like crazy, while products that one would assume would sell a lot, in reality don't generate enough revenue.&nbsp;</p>\n<p>Paradoxical situations may emerge where a store is sitting on an expensive stock that should be high-performing, while making its daily revenue on stock that seemed stuck and forgotten...</p>\n<p>Again, do you see the parallels with Steemit - where \"bad posts\" can be generating more money than \"good posts\"? Is it \"the whales\" fault that this is happening in actual real-life stores?</p>\n<p></p>\n<h2>The Bottom Line matters</h2>\n<p>In the end of the day, stores thrive or go bust based on the \"bottom line\" result over a long time, and over the sale of thousands of items. The daily affairs are not that significant in the larger scheme of things - <em>although they can and do create bursts of happiness or disappointment to the shop owner - just like a Steemit poster may feel after getting a high or a low reward.</em></p>\n<p>Store owners, while impressed by the variance of dry periods or product selling anomalies, quickly learn to rationalize the situation and ignore this variance by focusing on long-term revenue and costs. They won't close their shop based on a dry day, week or month.</p>\n<p><br></p>\n<p><center>https://c2.staticflickr.com/6/5271/5912231439_26f8836d3e_b.jpg</center></p>\n<p><br></p>\n<p>In the context of Steemit, one could adopt the bottom-line approach of the merchant and say: <em>\"I don't care if 40 of my posts made just 10$ while another 10 posts made 1200$. The bottom line is that over two months I wrote 50 posts, got 1210$, so that's an average of 20$ per day and 24$ per post\"</em>.</p>\n<p>The \"merchant approach\" of dealing with the bottom-line result, is an efficient and time-proven method that allows one to better handle the emotional roller-coaster that daily variance can create. It can become the blogger's biggest intellectual ally in dealing with emotional irrationality.</p>\n<p><br></p>\n<p><em>[1] In probability theory and statistics, variance is the expectation of the squared deviation of a random variable from its mean, and it informally measures how far a set of (random) numbers are spread out from their mean. -Wikipedia</em></p>\n</html>",
    "category": "steemit",
    "children": 20,
    "created": "2016-09-09T17:21:57",
    "curator_payout_value": "0.000 HBD",
    "depth": 0,
    "is_paidout": false,
    "json_metadata": {
      "image": [
        "https://pixabay.com/static/uploads/photo/2015/02/12/23/00/roulette-634412_960_720.jpg",
        "https://pixabay.com/static/uploads/photo/2013/07/13/11/31/shop-158317_960_720.png",
        "https://c2.staticflickr.com/6/5271/5912231439_26f8836d3e_b.jpg"
      ],
      "tags": [
        "steemit",
        "variance"
      ]
    },
    "max_accepted_payout": "1000000.000 HBD",
    "net_rshares": 51114867642113,
    "payout": 245.014,
    "payout_at": "2016-09-16T17:21:57",
    "pending_payout_value": "245.014 HBD",
    "percent_hbd": 10000,
    "permlink": "dealing-with-variance-in-commerce-and-steemit-the-merchant-approach",
    "post_id": 1186647,
    "promoted": "0.000 HBD",
    "replies": [],
    "stats": {
      "flag_weight": 0.0,
      "gray": false,
      "hide": false,
      "total_votes": 127
    },
    "title": "Dealing with variance in commerce and Steemit: \"The merchant approach\"",
    "updated": "2016-09-09T17:21:57",
    "url": "/steemit/@alexgr/dealing-with-variance-in-commerce-and-steemit-the-merchant-approach"
  },
  {
    "active_votes": [
      {
        "rshares": 31578993810400,
        "voter": "smooth"
      },
      {
        "rshares": 1764191694442,
        "voter": "joseph"
      },
      {
        "rshares": 5856256290453,
        "voter": "smooth.witness"
      },
      {
        "rshares": 10323069788,
        "voter": "idol"
      },
      {
        "rshares": 1701804945,
        "voter": "jocelyn"
      },
      {
        "rshares": 79995564989,
        "voter": "acidsun"
      },
      {
        "rshares": 1412712970,
        "voter": "murh"
      },
      {
        "rshares": 2318163818,
        "voter": "error"
      },
      {
        "rshares": 20248802476,
        "voter": "skapaneas"
      },
      {
        "rshares": 49853478768,
        "voter": "booja"
      },
      {
        "rshares": 14611815996,
        "voter": "hakise"
      },
      {
        "rshares": 748074009952,
        "voter": "slowwalker"
      },
      {
        "rshares": 204644436,
        "voter": "ardina"
      },
      {
        "rshares": 227535683,
        "voter": "pet1000"
      },
      {
        "rshares": 1877410706,
        "voter": "the-future"
      },
      {
        "rshares": 13516475290,
        "voter": "nippel66"
      },
      {
        "rshares": 6881121942,
        "voter": "lostnuggett"
      },
      {
        "rshares": 36579378704,
        "voter": "anca3drandom"
      },
      {
        "rshares": 32166454059,
        "voter": "marius19"
      },
      {
        "rshares": 1525488701,
        "voter": "agapakos"
      },
      {
        "rshares": 2087245911,
        "voter": "leylar"
      },
      {
        "rshares": 117438613,
        "voter": "ioulia"
      },
      {
        "rshares": 807710903,
        "voter": "mar1978co"
      },
      {
        "rshares": 19571214235,
        "voter": "persianqueen"
      },
      {
        "rshares": 2627889953,
        "voter": "avtzis.petros"
      },
      {
        "rshares": 1415929628,
        "voter": "labradorsem"
      },
      {
        "rshares": 60941135,
        "voter": "ritadey"
      },
      {
        "rshares": 250742138,
        "voter": "giftedgaia"
      },
      {
        "rshares": 21430722807,
        "voter": "hanshotfirst"
      },
      {
        "rshares": 2622196844,
        "voter": "bledarus"
      },
      {
        "rshares": 9421200070,
        "voter": "gonzo"
      },
      {
        "rshares": 2456695021,
        "voter": "rossenpavlov"
      },
      {
        "rshares": 8040398899,
        "voter": "craigwilliamz"
      },
      {
        "rshares": 3612400626,
        "voter": "booky"
      },
      {
        "rshares": 172021611,
        "voter": "team101"
      },
      {
        "rshares": 127739177,
        "voter": "the-ego-is-you"
      },
      {
        "rshares": 464168237,
        "voter": "skapart"
      },
      {
        "rshares": 4955072209,
        "voter": "burnin"
      },
      {
        "rshares": 1577826210,
        "voter": "bontonstory"
      },
      {
        "rshares": 58312635,
        "voter": "mariajoe"
      },
      {
        "rshares": 1176847548,
        "voter": "anns"
      },
      {
        "rshares": 58502243,
        "voter": "piphunters"
      },
      {
        "rshares": 1545165783,
        "voter": "irensche"
      },
      {
        "rshares": 145499933,
        "voter": "zaitsevalesyaa"
      },
      {
        "rshares": 143150055,
        "voter": "modernbukowski"
      },
      {
        "rshares": 146042945,
        "voter": "insight2incite"
      },
      {
        "rshares": 133251179,
        "voter": "roger.steemit"
      }
    ],
    "author": "marius19",
    "author_payout_value": "0.000 HBD",
    "author_reputation": 65.02,
    "beneficiaries": [],
    "blacklists": [],
    "body": "If you asked me what I was meant to do in this world, I would say you origami flowers.\n\n https://httpsimage.com/img/20160909_174322.jpg\n\n https://httpsimage.com/img/20160909_170952.jpg\n\n https://httpsimage.com/img/20160909_171850.jpg\n\n https://httpsimage.com/img/20160909_172116.jpg\n\n https://httpsimage.com/img/20160909_172434.jpg\n\n https://httpsimage.com/img/20160909_174256.jpg\n\n https://httpsimage.com/img/20160909_174306.jpg\n\n https://httpsimage.com/img/20160909_174342.jpg\n\n https://httpsimage.com/img/mjhgf.jpg",
    "category": "steemit",
    "children": 6,
    "created": "2016-09-09T15:04:06",
    "curator_payout_value": "0.000 HBD",
    "depth": 0,
    "is_paidout": false,
    "json_metadata": {
      "image": [
        "https://httpsimage.com/img/20160909_174322.jpg",
        "https://httpsimage.com/img/20160909_170952.jpg",
        "https://httpsimage.com/img/20160909_171850.jpg",
        "https://httpsimage.com/img/20160909_172116.jpg",
        "https://httpsimage.com/img/20160909_172434.jpg",
        "https://httpsimage.com/img/20160909_174256.jpg",
        "https://httpsimage.com/img/20160909_174306.jpg",
        "https://httpsimage.com/img/20160909_174342.jpg",
        "https://httpsimage.com/img/mjhgf.jpg"
      ],
      "tags": [
        "steemit",
        "art",
        "photography",
        "origami"
      ]
    },
    "max_accepted_payout": "1000000.000 HBD",
    "net_rshares": 40306186055066,
    "payout": 160.385,
    "payout_at": "2016-09-16T15:04:06",
    "pending_payout_value": "160.385 HBD",
    "percent_hbd": 10000,
    "permlink": "origami-flower-for-all",
    "post_id": 1185100,
    "promoted": "0.000 HBD",
    "replies": [],
    "stats": {
      "flag_weight": 0.0,
      "gray": false,
      "hide": false,
      "total_votes": 47
    },
    "title": "Origami flower for all",
    "updated": "2016-09-09T15:04:06",
    "url": "/steemit/@marius19/origami-flower-for-all"
  }
]
