{
  "buckets": [
    {
      "hive": {
        "close": 638967,
        "high": 1,
        "low": 751,
        "open": 33000,
        "volume": 633560581
      },
      "id": 4,
      "non_hive": {
        "close": 200000,
        "high": 1,
        "low": 99,
        "open": 6105,
        "volume": 190179911
      },
      "open": "2016-07-04T00:00:00",
      "seconds": 86400
    },
    {
      "hive": {
        "close": 1000000,
        "high": 6,
        "low": 30957,
        "open": 638967,
        "volume": 472846288
      },
      "id": 2187,
      "non_hive": {
        "close": 296999,
        "high": 2,
        "low": 8513,
        "open": 200000,
        "volume": 139311448
      },
      "open": "2016-07-05T00:00:00",
      "seconds": 86400
    },
    {
      "hive": {
        "close": 1490,
        "high": 3,
        "low": 1489516,
        "open": 10000,
        "volume": 557689494
      },
      "id": 3232,
      "non_hive": {
        "close": 401,
        "high": 1,
        "low": 388764,
        "open": 2970,
        "volume": 152389270
      },
      "open": "2016-07-06T00:00:00",
      "seconds": 86400
    },
    {
      "hive": {
        "close": 1248498,
        "high": 2,
        "low": 4,
        "open": 1271000,
        "volume": 578758827
      },
      "id": 4120,
      "non_hive": {
        "close": 412003,
        "high": 1,
        "low": 1,
        "open": 341898,
        "volume": 175109781
      },
      "open": "2016-07-07T00:00:00",
      "seconds": 86400
    },
    {
      "hive": {
        "close": 2997,
        "high": 2,
        "low": 537068,
        "open": 1000000,
        "volume": 2251234264
      },
      "id": 4835,
      "non_hive": {
        "close": 1004,
        "high": 1,
        "low": 155749,
        "open": 301000,
        "volume": 718887099
      },
      "open": "2016-07-08T00:00:00",
      "seconds": 86400
    },
    {
      "hive": {
        "close": 10000000,
        "high": 13235,
        "low": 1640149,
        "open": 37794,
        "volume": 2189640825
      },
      "id": 5883,
      "non_hive": {
        "close": 6108000,
        "high": 9000,
        "low": 543377,
        "open": 12661,
        "volume": 839764094
      },
      "open": "2016-07-09T00:00:00",
      "seconds": 86400
    },
    {
      "hive": {
        "close": 9681699,
        "high": 1,
        "low": 236504,
        "open": 200000,
        "volume": 1805284141
      },
      "id": 6878,
      "non_hive": {
        "close": 6766171,
        "high": 1,
        "low": 82776,
        "open": 122180,
        "volume": 1183573803
      },
      "open": "2016-07-10T00:00:00",
      "seconds": 86400
    },
    {
      "hive": {
        "close": 26401,
        "high": 1,
        "low": 13333160,
        "open": 100000,
        "volume": 1325679741
      },
      "id": 7644,
      "non_hive": {
        "close": 25081,
        "high": 1,
        "low": 5999924,
        "open": 56000,
        "volume": 959491012
      },
      "open": "2016-07-11T00:00:00",
      "seconds": 86400
    },
    {
      "hive": {
        "close": 4970826,
        "high": 4970826,
        "low": 17997,
        "open": 100000,
        "volume": 1349632620
      },
      "id": 8370,
      "non_hive": {
        "close": 11830566,
        "high": 11830566,
        "low": 16557,
        "open": 95500,
        "volume": 1952715444
      },
      "open": "2016-07-12T00:00:00",
      "seconds": 86400
    },
    {
      "hive": {
        "close": 8924644,
        "high": 3,
        "low": 153145,
        "open": 2119,
        "volume": 2080098858
      },
      "id": 9321,
      "non_hive": {
        "close": 26327701,
        "high": 11,
        "low": 76572,
        "open": 5000,
        "volume": "5954589735"
      },
      "open": "2016-07-13T00:00:00",
      "seconds": 86400
    },
    {
      "hive": {
        "close": 74981,
        "high": 23,
        "low": 1,
        "open": 12015784,
        "volume": "5373349596"
      },
      "id": 10917,
      "non_hive": {
        "close": 277056,
        "high": 100,
        "low": 1,
        "open": 35446563,
        "volume": "17121076896"
      },
      "open": "2016-07-14T00:00:00",
      "seconds": 86400
    },
    {
      "hive": {
        "close": 500000,
        "high": 2,
        "low": 1,
        "open": 184,
        "volume": 500190948
      },
      "id": 13328,
      "non_hive": {
        "close": 1577500,
        "high": 9,
        "low": 2,
        "open": 580,
        "volume": 1728074095
      },
      "open": "2016-07-15T00:00:00",
      "seconds": 86400
    },
    {
      "hive": {
        "close": 1000,
        "high": 8,
        "low": 251232,
        "open": 10000,
        "volume": 232810303
      },
      "id": 14214,
      "non_hive": {
        "close": 3008,
        "high": 30,
        "low": 678326,
        "open": 32168,
        "volume": 754555214
      },
      "open": "2016-07-16T00:00:00",
      "seconds": 86400
    },
    {
      "hive": {
        "close": 224605,
        "high": 2,
        "low": 1,
        "open": 10000,
        "volume": 138790218
      },
      "id": 14673,
      "non_hive": {
        "close": 696275,
        "high": 8,
        "low": 2,
        "open": 28600,
        "volume": 404890309
      },
      "open": "2016-07-17T00:00:00",
      "seconds": 86400
    },
    {
      "hive": {
        "close": 225395,
        "high": 8,
        "low": 1,
        "open": 10000,
        "volume": 257620866
      },
      "id": 15421,
      "non_hive": {
        "close": 635569,
        "high": 29,
        "low": 2,
        "open": 32000,
        "volume": 799340145
      },
      "open": "2016-07-18T00:00:00",
      "seconds": 86400
    },
    {
      "hive": {
        "close": 250964,
        "high": 21,
        "low": 1,
        "open": 3546,
        "volume": 295678919
      },
      "id": 16722,
      "non_hive": {
        "close": 780500,
        "high": 76,
        "low": 2,
        "open": 10000,
        "volume": 913055011
      },
      "open": "2016-07-19T00:00:00",
      "seconds": 86400
    },
    {
      "hive": {
        "close": 39624,
        "high": 2,
        "low": 1,
        "open": 95109,
        "volume": 319437282
      },
      "id": 18375,
      "non_hive": {
        "close": 113943,
        "high": 8,
        "low": 2,
        "open": 283236,
        "volume": 957290486
      },
      "open": "2016-07-20T00:00:00",
      "seconds": 86400
    },
    {
      "hive": {
        "close": 1000,
        "high": 3,
        "low": 1,
        "open": 9,
        "volume": 675189108
      },
      "id": 20101,
      "non_hive": {
        "close": 2694,
        "high": 10,
        "low": 2,
        "open": 28,
        "volume": 1882621722
      },
      "open": "2016-07-21T00:00:00",
      "seconds": 86400
    },
    {
      "hive": {
        "close": 6970,
        "high": 3,
        "low": 1,
        "open": 13641,
        "volume": 739116548
      },
      "id": 21765,
      "non_hive": {
        "close": 19698,
        "high": 11,
        "low": 2,
        "open": 36745,
        "volume": 2075810928
      },
      "open": "2016-07-22T00:00:00",
      "seconds": 86400
    },
    {
      "hive": {
        "close": 40520,
        "high": 1,
        "low": 1,
        "open": 2834,
        "volume": 936388404
      },
      "id": 23208,
      "non_hive": {
        "close": 137101,
        "high": 4,
        "low": 2,
        "open": 8009,
        "volume": 2839224482
      },
      "open": "2016-07-23T00:00:00",
      "seconds": 86400
    },
    {
      "hive": {
        "close": 2013,
        "high": 2,
        "low": 1,
        "open": 2704,
        "volume": 725390050
      },
      "id": 24639,
      "non_hive": {
        "close": 7313,
        "high": 10,
        "low": 3,
        "open": 9150,
        "volume": 2489143277
      },
      "open": "2016-07-24T00:00:00",
      "seconds": 86400
    },
    {
      "hive": {
        "close": 1512,
        "high": 4,
        "low": 1,
        "open": 19058,
        "volume": 1578916695
      },
      "id": 26075,
      "non_hive": {
        "close": 5244,
        "high": 18,
        "low": 3,
        "open": 69100,
        "volume": "5670629301"
      },
      "open": "2016-07-25T00:00:00",
      "seconds": 86400
    },
    {
      "hive": {
        "close": 86,
        "high": 2,
        "low": 10000,
        "open": 34910,
        "volume": 639846146
      },
      "id": 27279,
      "non_hive": {
        "close": 281,
        "high": 10,
        "low": 30000,
        "open": 121071,
        "volume": 2215485605
      },
      "open": "2016-07-26T00:00:00",
      "seconds": 86400
    },
    {
      "hive": {
        "close": 100,
        "high": 1,
        "low": 100000,
        "open": 1827,
        "volume": 25957986
      },
      "id": 28394,
      "non_hive": {
        "close": 326,
        "high": 6,
        "low": 250000,
        "open": 5964,
        "volume": 82360531
      },
      "open": "2016-07-27T00:00:00",
      "seconds": 86400
    },
    {
      "hive": {
        "close": 555,
        "high": 3,
        "low": 1,
        "open": 2103,
        "volume": 16666443
      },
      "id": 29927,
      "non_hive": {
        "close": 1666,
        "high": 12,
        "low": 2,
        "open": 6842,
        "volume": 49433794
      },
      "open": "2016-07-28T00:00:00",
      "seconds": 86400
    },
    {
      "hive": {
        "close": 57471,
        "high": 2,
        "low": 1,
        "open": 39620,
        "volume": 37595761
      },
      "id": 30822,
      "non_hive": {
        "close": 133332,
        "high": 8,
        "low": 2,
        "open": 118861,
        "volume": 90670715
      },
      "open": "2016-07-29T00:00:00",
      "seconds": 86400
    },
    {
      "hive": {
        "close": 348,
        "high": 5,
        "low": 1,
        "open": 10827,
        "volume": 8442124
      },
      "id": 31908,
      "non_hive": {
        "close": 1013,
        "high": 17,
        "low": 2,
        "open": 25120,
        "volume": 21888811
      },
      "open": "2016-07-30T00:00:00",
      "seconds": 86400
    },
    {
      "hive": {
        "close": 24642,
        "high": 3,
        "low": 1,
        "open": 53,
        "volume": 5647139
      },
      "id": 32598,
      "non_hive": {
        "close": 71675,
        "high": 11,
        "low": 2,
        "open": 156,
        "volume": 16617843
      },
      "open": "2016-07-31T00:00:00",
      "seconds": 86400
    },
    {
      "hive": {
        "close": 56502,
        "high": 3,
        "low": 1,
        "open": 46221,
        "volume": 10291597
      },
      "id": 33214,
      "non_hive": {
        "close": 159788,
        "high": 10,
        "low": 2,
        "open": 134481,
        "volume": 29371173
      },
      "open": "2016-08-01T00:00:00",
      "seconds": 86400
    },
    {
      "hive": {
        "close": 4800,
        "high": 6,
        "low": 1,
        "open": 83,
        "volume": 24795240
      },
      "id": 33970,
      "non_hive": {
        "close": 11378,
        "high": 19,
        "low": 2,
        "open": 235,
        "volume": 65236050
      },
      "open": "2016-08-02T00:00:00",
      "seconds": 86400
    },
    {
      "hive": {
        "close": 1765,
        "high": 1,
        "low": 1,
        "open": 149805,
        "volume": 11732862
      },
      "id": 34845,
      "non_hive": {
        "close": 4414,
        "high": 3,
        "low": 2,
        "open": 371516,
        "volume": 28660731
      },
      "open": "2016-08-03T00:00:00",
      "seconds": 86400
    },
    {
      "hive": {
        "close": 22045,
        "high": 3,
        "low": 1,
        "open": 1631,
        "volume": 23662783
      },
      "id": 35596,
      "non_hive": {
        "close": 49601,
        "high": 9,
        "low": 2,
        "open": 3935,
        "volume": 54783225
      },
      "open": "2016-08-04T00:00:00",
      "seconds": 86400
    },
    {
      "hive": {
        "close": 81894,
        "high": 4,
        "low": 1,
        "open": 46,
        "volume": 8258457
      },
      "id": 36467,
      "non_hive": {
        "close": 187553,
        "high": 11,
        "low": 2,
        "open": 103,
        "volume": 19016076
      },
      "open": "2016-08-05T00:00:00",
      "seconds": 86400
    },
    {
      "hive": {
        "close": 577,
        "high": 1,
        "low": 1,
        "open": 2261,
        "volume": 12488457
      },
      "id": 37101,
      "non_hive": {
        "close": 1320,
        "high": 3,
        "low": 2,
        "open": 5200,
        "volume": 28282259
      },
      "open": "2016-08-06T00:00:00",
      "seconds": 86400
    },
    {
      "hive": {
        "close": 98,
        "high": 1,
        "low": 1,
        "open": 2541,
        "volume": 15585071
      },
      "id": 37666,
      "non_hive": {
        "close": 230,
        "high": 3,
        "low": 2,
        "open": 5807,
        "volume": 35505922
      },
      "open": "2016-08-07T00:00:00",
      "seconds": 86400
    },
    {
      "hive": {
        "close": 45471,
        "high": 1,
        "low": 1,
        "open": 1474,
        "volume": 22428227
      },
      "id": 38251,
      "non_hive": {
        "close": 98674,
        "high": 3,
        "low": 2,
        "open": 3597,
        "volume": 49419291
      },
      "open": "2016-08-08T00:00:00",
      "seconds": 86400
    },
    {
      "hive": {
        "close": 415,
        "high": 1,
        "low": 1,
        "open": 467,
        "volume": 13863754
      },
      "id": 39228,
      "non_hive": {
        "close": 792,
        "high": 3,
        "low": 1,
        "open": 1008,
        "volume": 28915901
      },
      "open": "2016-08-09T00:00:00",
      "seconds": 86400
    },
    {
      "hive": {
        "close": 84496,
        "high": 3,
        "low": 2,
        "open": 176,
        "volume": 4875427
      },
      "id": 39909,
      "non_hive": {
        "close": 158008,
        "high": 8,
        "low": 3,
        "open": 370,
        "volume": 9609697
      },
      "open": "2016-08-10T00:00:00",
      "seconds": 86400
    },
    {
      "hive": {
        "close": 9838,
        "high": 18,
        "low": 1,
        "open": 112,
        "volume": 46934318
      },
      "id": 40280,
      "non_hive": {
        "close": 15250,
        "high": 37,
        "low": 1,
        "open": 211,
        "volume": 76602065
      },
      "open": "2016-08-11T00:00:00",
      "seconds": 86400
    },
    {
      "hive": {
        "close": 2287,
        "high": 1,
        "low": 1,
        "open": 162091,
        "volume": 26595888
      },
      "id": 41249,
      "non_hive": {
        "close": 3545,
        "high": 2,
        "low": 1,
        "open": 251242,
        "volume": 41356980
      },
      "open": "2016-08-12T00:00:00",
      "seconds": 86400
    },
    {
      "hive": {
        "close": 55865,
        "high": 1,
        "low": 1,
        "open": 56372,
        "volume": 14835506
      },
      "id": 42062,
      "non_hive": {
        "close": 100000,
        "high": 2,
        "low": 1,
        "open": 87376,
        "volume": 23275275
      },
      "open": "2016-08-13T00:00:00",
      "seconds": 86400
    },
    {
      "hive": {
        "close": 6005,
        "high": 5,
        "low": 1,
        "open": 15313,
        "volume": 3012819
      },
      "id": 42653,
      "non_hive": {
        "close": 10080,
        "high": 10,
        "low": 1,
        "open": 27412,
        "volume": 5209523
      },
      "open": "2016-08-14T00:00:00",
      "seconds": 86400
    },
    {
      "hive": {
        "close": 6181,
        "high": 1,
        "low": 1,
        "open": 43598,
        "volume": 5739487
      },
      "id": 43263,
      "non_hive": {
        "close": 10193,
        "high": 2,
        "low": 1,
        "open": 73000,
        "volume": 9169057
      },
      "open": "2016-08-15T00:00:00",
      "seconds": 86400
    },
    {
      "hive": {
        "close": 59656,
        "high": 1,
        "low": 1,
        "open": 428,
        "volume": 33004275
      },
      "id": 43746,
      "non_hive": {
        "close": 84712,
        "high": 2,
        "low": 1,
        "open": 707,
        "volume": 48400176
      },
      "open": "2016-08-16T00:00:00",
      "seconds": 86400
    },
    {
      "hive": {
        "close": 58290,
        "high": 1,
        "low": 1,
        "open": 585003,
        "volume": 40646155
      },
      "id": 44479,
      "non_hive": {
        "close": 89768,
        "high": 2,
        "low": 1,
        "open": 830704,
        "volume": 61130769
      },
      "open": "2016-08-17T00:00:00",
      "seconds": 86400
    },
    {
      "hive": {
        "close": 54587,
        "high": 1,
        "low": 1,
        "open": 30000,
        "volume": 13919200
      },
      "id": 45266,
      "non_hive": {
        "close": 80788,
        "high": 3,
        "low": 1,
        "open": 46200,
        "volume": 21329935
      },
      "open": "2016-08-18T00:00:00",
      "seconds": 86400
    },
    {
      "hive": {
        "close": 37681,
        "high": 1,
        "low": 1,
        "open": 1562,
        "volume": 16709235
      },
      "id": 46145,
      "non_hive": {
        "close": 62062,
        "high": 2,
        "low": 1,
        "open": 2312,
        "volume": 25167234
      },
      "open": "2016-08-19T00:00:00",
      "seconds": 86400
    },
    {
      "hive": {
        "close": 2150,
        "high": 1,
        "low": 1,
        "open": 10118,
        "volume": 5183006
      },
      "id": 46971,
      "non_hive": {
        "close": 3440,
        "high": 2,
        "low": 1,
        "open": 16213,
        "volume": 8274299
      },
      "open": "2016-08-20T00:00:00",
      "seconds": 86400
    },
    {
      "hive": {
        "close": 130,
        "high": 2,
        "low": 1,
        "open": 1060,
        "volume": 4537167
      },
      "id": 47573,
      "non_hive": {
        "close": 208,
        "high": 4,
        "low": 1,
        "open": 1685,
        "volume": 7351723
      },
      "open": "2016-08-21T00:00:00",
      "seconds": 86400
    },
    {
      "hive": {
        "close": 9872,
        "high": 1,
        "low": 1,
        "open": 53,
        "volume": 7289980
      },
      "id": 48073,
      "non_hive": {
        "close": 14813,
        "high": 2,
        "low": 1,
        "open": 87,
        "volume": 11275567
      },
      "open": "2016-08-22T00:00:00",
      "seconds": 86400
    },
    {
      "hive": {
        "close": 1542,
        "high": 78,
        "low": 1,
        "open": 1,
        "volume": 21112703
      },
      "id": 48774,
      "non_hive": {
        "close": 2100,
        "high": 121,
        "low": 1,
        "open": 1,
        "volume": 26904265
      },
      "open": "2016-08-23T00:00:00",
      "seconds": 86400
    },
    {
      "hive": {
        "close": 10399,
        "high": 1,
        "low": 1,
        "open": 1000,
        "volume": 27724041
      },
      "id": 49439,
      "non_hive": {
        "close": 12998,
        "high": 2,
        "low": 1,
        "open": 1288,
        "volume": 32887083
      },
      "open": "2016-08-24T00:00:00",
      "seconds": 86400
    },
    {
      "hive": {
        "close": 40636,
        "high": 1,
        "low": 2,
        "open": 850,
        "volume": 17063059
      },
      "id": 50451,
      "non_hive": {
        "close": 43074,
        "high": 2,
        "low": 2,
        "open": 1071,
        "volume": 18742667
      },
      "open": "2016-08-25T00:00:00",
      "seconds": 86400
    },
    {
      "hive": {
        "close": 20000,
        "high": 1,
        "low": 10000,
        "open": 7781,
        "volume": 42645983
      },
      "id": 51094,
      "non_hive": {
        "close": 19100,
        "high": 2,
        "low": 8900,
        "open": 8287,
        "volume": 41181383
      },
      "open": "2016-08-26T00:00:00",
      "seconds": 86400
    },
    {
      "hive": {
        "close": 190775,
        "high": 1,
        "low": 1572,
        "open": 500052,
        "volume": 51321832
      },
      "id": 51903,
      "non_hive": {
        "close": 182191,
        "high": 1,
        "low": 1400,
        "open": 477550,
        "volume": 47974216
      },
      "open": "2016-08-27T00:00:00",
      "seconds": 86400
    },
    {
      "hive": {
        "close": 2228,
        "high": 1,
        "low": 129527,
        "open": 30000,
        "volume": 4627575
      },
      "id": 52844,
      "non_hive": {
        "close": 2000,
        "high": 1,
        "low": 111522,
        "open": 28650,
        "volume": 4367963
      },
      "open": "2016-08-28T00:00:00",
      "seconds": 86400
    },
    {
      "hive": {
        "close": 302,
        "high": 1,
        "low": 3,
        "open": 5000,
        "volume": 36005030
      },
      "id": 53210,
      "non_hive": {
        "close": 376,
        "high": 2,
        "low": 2,
        "open": 4396,
        "volume": 37546287
      },
      "open": "2016-08-29T00:00:00",
      "seconds": 86400
    },
    {
      "hive": {
        "close": 2241,
        "high": 1,
        "low": 3100,
        "open": 4501,
        "volume": 15321535
      },
      "id": 54171,
      "non_hive": {
        "close": 2677,
        "high": 2,
        "low": 2929,
        "open": 5062,
        "volume": 16179597
      },
      "open": "2016-08-30T00:00:00",
      "seconds": 86400
    },
    {
      "hive": {
        "close": 37,
        "high": 1,
        "low": 10,
        "open": 6232,
        "volume": 3545447
      },
      "id": 54727,
      "non_hive": {
        "close": 41,
        "high": 2,
        "low": 10,
        "open": 7230,
        "volume": 3836196
      },
      "open": "2016-08-31T00:00:00",
      "seconds": 86400
    },
    {
      "hive": {
        "close": 1281,
        "high": 1,
        "low": 177,
        "open": 8000,
        "volume": 9363989
      },
      "id": 55288,
      "non_hive": {
        "close": 1184,
        "high": 2,
        "low": 141,
        "open": 8639,
        "volume": 8800923
      },
      "open": "2016-09-01T00:00:00",
      "seconds": 86400
    },
    {
      "hive": {
        "close": 4920,
        "high": 149963,
        "low": 1885,
        "open": 11511,
        "volume": 20105800
      },
      "id": 55833,
      "non_hive": {
        "close": 4832,
        "high": 162409,
        "low": 1696,
        "open": 10814,
        "volume": 19141955
      },
      "open": "2016-09-02T00:00:00",
      "seconds": 86400
    },
    {
      "hive": {
        "close": 18405,
        "high": 11,
        "low": 11,
        "open": 4637,
        "volume": 3805695
      },
      "id": 56581,
      "non_hive": {
        "close": 17833,
        "high": 12,
        "low": 10,
        "open": 4329,
        "volume": 3711306
      },
      "open": "2016-09-03T00:00:00",
      "seconds": 86400
    },
    {
      "hive": {
        "close": 329,
        "high": 10,
        "low": 6,
        "open": 1300,
        "volume": 2086876
      },
      "id": 56962,
      "non_hive": {
        "close": 328,
        "high": 11,
        "low": 5,
        "open": 1299,
        "volume": 2034882
      },
      "open": "2016-09-04T00:00:00",
      "seconds": 86400
    },
    {
      "hive": {
        "close": 5009,
        "high": 1,
        "low": 446306,
        "open": 7905,
        "volume": 14358640
      },
      "id": 57384,
      "non_hive": {
        "close": 4734,
        "high": 1,
        "low": 397212,
        "open": 7892,
        "volume": 13730864
      },
      "open": "2016-09-05T00:00:00",
      "seconds": 86400
    },
    {
      "hive": {
        "close": 19,
        "high": 3451,
        "low": 405,
        "open": 10467,
        "volume": 4815859
      },
      "id": 57958,
      "non_hive": {
        "close": 19,
        "high": 3961,
        "low": 372,
        "open": 9839,
        "volume": 4798741
      },
      "open": "2016-09-06T00:00:00",
      "seconds": 86400
    },
    {
      "hive": {
        "close": 1000,
        "high": 19,
        "low": 1205,
        "open": 3044,
        "volume": 5022646
      },
      "id": 58369,
      "non_hive": {
        "close": 950,
        "high": 19,
        "low": 1073,
        "open": 3001,
        "volume": 4658058
      },
      "open": "2016-09-07T00:00:00",
      "seconds": 86400
    },
    {
      "hive": {
        "close": 3097,
        "high": 1,
        "low": 4000,
        "open": 500,
        "volume": 26835532
      },
      "id": 58807,
      "non_hive": {
        "close": 2508,
        "high": 1,
        "low": 2759,
        "open": 475,
        "volume": 22106387
      },
      "open": "2016-09-08T00:00:00",
      "seconds": 86400
    },
    {
      "hive": {
        "close": 31647,
        "high": 1,
        "low": 15,
        "open": 1358,
        "volume": 8228907
      },
      "id": 59508,
      "non_hive": {
        "close": 25981,
        "high": 1,
        "low": 9,
        "open": 1212,
        "volume": 6085088
      },
      "open": "2016-09-09T00:00:00",
      "seconds": 86400
    },
    {
      "hive": {
        "close": 7767,
        "high": 1,
        "low": 5320,
        "open": 9459,
        "volume": 3313138
      },
      "id": 60114,
      "non_hive": {
        "close": 6835,
        "high": 1,
        "low": 4315,
        "open": 7842,
        "volume": 2844868
      },
      "open": "2016-09-10T00:00:00",
      "seconds": 86400
    },
    {
      "hive": {
        "close": 41,
        "high": 1,
        "low": 41,
        "open": 1946,
        "volume": 3099687
      },
      "id": 60681,
      "non_hive": {
        "close": 33,
        "high": 1,
        "low": 33,
        "open": 1712,
        "volume": 2734079
      },
      "open": "2016-09-11T00:00:00",
      "seconds": 86400
    },
    {
      "hive": {
        "close": 56430,
        "high": 1,
        "low": 288645,
        "open": 9808,
        "volume": 36811007
      },
      "id": 61262,
      "non_hive": {
        "close": 42323,
        "high": 1,
        "low": 144322,
        "open": 8016,
        "volume": 25460353
      },
      "open": "2016-09-12T00:00:00",
      "seconds": 86400
    },
    {
      "hive": {
        "close": 693,
        "high": 1,
        "low": 11912,
        "open": 1400,
        "volume": 34497248
      },
      "id": 62088,
      "non_hive": {
        "close": 451,
        "high": 1,
        "low": 7580,
        "open": 1050,
        "volume": 22969179
      },
      "open": "2016-09-13T00:00:00",
      "seconds": 86400
    },
    {
      "hive": {
        "close": 7004,
        "high": 1,
        "low": 1962,
        "open": 14895,
        "volume": 22214479
      },
      "id": 62828,
      "non_hive": {
        "close": 4202,
        "high": 1,
        "low": 1177,
        "open": 9681,
        "volume": 14023235
      },
      "open": "2016-09-14T00:00:00",
      "seconds": 86400
    },
    {
      "hive": {
        "close": 1438,
        "high": 1,
        "low": 115104,
        "open": 12649,
        "volume": 10206322
      },
      "id": 63427,
      "non_hive": {
        "close": 877,
        "high": 1,
        "low": 58128,
        "open": 8563,
        "volume": 6391099
      },
      "open": "2016-09-15T00:00:00",
      "seconds": 86400
    },
    {
      "hive": {
        "close": 4123,
        "high": 1,
        "low": 17161,
        "open": 1605,
        "volume": 36534332
      },
      "id": 63909,
      "non_hive": {
        "close": 2268,
        "high": 1,
        "low": 9086,
        "open": 979,
        "volume": 19922927
      },
      "open": "2016-09-16T00:00:00",
      "seconds": 86400
    },
    {
      "hive": {
        "close": 200,
        "high": 1,
        "low": 900,
        "open": 238445,
        "volume": 9250103
      },
      "id": 64639,
      "non_hive": {
        "close": 123,
        "high": 1,
        "low": 495,
        "open": 131145,
        "volume": 5654465
      },
      "open": "2016-09-17T00:00:00",
      "seconds": 86400
    },
    {
      "hive": {
        "close": 28,
        "high": 1,
        "low": 9,
        "open": 9972,
        "volume": 1001614
      },
      "id": 64951,
      "non_hive": {
        "close": 18,
        "high": 1,
        "low": 5,
        "open": 6132,
        "volume": 628747
      },
      "open": "2016-09-18T00:00:00",
      "seconds": 86400
    },
    {
      "hive": {
        "close": 1600,
        "high": 1,
        "low": 1000000,
        "open": 713,
        "volume": 69617010
      },
      "id": 65232,
      "non_hive": {
        "close": 848,
        "high": 1,
        "low": 50000,
        "open": 429,
        "volume": 28959058
      },
      "open": "2016-09-19T00:00:00",
      "seconds": 86400
    },
    {
      "hive": {
        "close": 25754,
        "high": 1,
        "low": 1880,
        "open": 1605,
        "volume": 22020263
      },
      "id": 66132,
      "non_hive": {
        "close": 13391,
        "high": 1,
        "low": 754,
        "open": 848,
        "volume": 10985780
      },
      "open": "2016-09-20T00:00:00",
      "seconds": 86400
    },
    {
      "hive": {
        "close": 11877,
        "high": 1,
        "low": 2425589,
        "open": 1,
        "volume": 10024742
      },
      "id": 66529,
      "non_hive": {
        "close": 5592,
        "high": 1,
        "low": 975072,
        "open": 1,
        "volume": 4351494
      },
      "open": "2016-09-21T00:00:00",
      "seconds": 86400
    },
    {
      "hive": {
        "close": 1000,
        "high": 1,
        "low": 8,
        "open": 12268,
        "volume": 12440573
      },
      "id": 66977,
      "non_hive": {
        "close": 569,
        "high": 1,
        "low": 3,
        "open": 5949,
        "volume": 6498573
      },
      "open": "2016-09-22T00:00:00",
      "seconds": 86400
    },
    {
      "hive": {
        "close": 69,
        "high": 1,
        "low": 9,
        "open": 3584,
        "volume": 4531366
      },
      "id": 67597,
      "non_hive": {
        "close": 36,
        "high": 1,
        "low": 4,
        "open": 2036,
        "volume": 2547129
      },
      "open": "2016-09-23T00:00:00",
      "seconds": 86400
    },
    {
      "hive": {
        "close": 4563,
        "high": 1,
        "low": 3312,
        "open": 1019,
        "volume": 7156660
      },
      "id": 68032,
      "non_hive": {
        "close": 2993,
        "high": 1,
        "low": 1656,
        "open": 541,
        "volume": 4757462
      },
      "open": "2016-09-24T00:00:00",
      "seconds": 86400
    },
    {
      "hive": {
        "close": 6480,
        "high": 1,
        "low": 11,
        "open": 7802,
        "volume": 7454992
      },
      "id": 68478,
      "non_hive": {
        "close": 4299,
        "high": 1,
        "low": 6,
        "open": 5072,
        "volume": 5021274
      },
      "open": "2016-09-25T00:00:00",
      "seconds": 86400
    },
    {
      "hive": {
        "close": 1,
        "high": 1,
        "low": 3,
        "open": 1,
        "volume": 10202732
      },
      "id": 68995,
      "non_hive": {
        "close": 1,
        "high": 1,
        "low": 1,
        "open": 1,
        "volume": 6062452
      },
      "open": "2016-09-26T00:00:00",
      "seconds": 86400
    },
    {
      "hive": {
        "close": 1001,
        "high": 1,
        "low": 26,
        "open": 980,
        "volume": 8387302
      },
      "id": 69434,
      "non_hive": {
        "close": 573,
        "high": 1,
        "low": 14,
        "open": 566,
        "volume": 5107646
      },
      "open": "2016-09-27T00:00:00",
      "seconds": 86400
    },
    {
      "hive": {
        "close": 8396,
        "high": 1,
        "low": 14,
        "open": 40,
        "volume": 9370437
      },
      "id": 69776,
      "non_hive": {
        "close": 4315,
        "high": 1,
        "low": 7,
        "open": 23,
        "volume": 5281452
      },
      "open": "2016-09-28T00:00:00",
      "seconds": 86400
    },
    {
      "hive": {
        "close": 3770,
        "high": 1,
        "low": 23,
        "open": 11600,
        "volume": 11100192
      },
      "id": 70059,
      "non_hive": {
        "close": 2141,
        "high": 1,
        "low": 11,
        "open": 6564,
        "volume": 6150931
      },
      "open": "2016-09-29T00:00:00",
      "seconds": 86400
    },
    {
      "hive": {
        "close": 57,
        "high": 1,
        "low": 5,
        "open": 605,
        "volume": 924659
      },
      "id": 70525,
      "non_hive": {
        "close": 32,
        "high": 1,
        "low": 2,
        "open": 344,
        "volume": 504117
      },
      "open": "2016-09-30T00:00:00",
      "seconds": 86400
    },
    {
      "hive": {
        "close": 25181,
        "high": 1,
        "low": 7,
        "open": 850935,
        "volume": 12429747
      },
      "id": 70763,
      "non_hive": {
        "close": 12087,
        "high": 1,
        "low": 3,
        "open": 468014,
        "volume": 6588852
      },
      "open": "2016-10-01T00:00:00",
      "seconds": 86400
    },
    {
      "hive": {
        "close": 28161,
        "high": 1,
        "low": 5,
        "open": 2249,
        "volume": 7289464
      },
      "id": 71170,
      "non_hive": {
        "close": 13236,
        "high": 1,
        "low": 2,
        "open": 1149,
        "volume": 3635854
      },
      "open": "2016-10-02T00:00:00",
      "seconds": 86400
    },
    {
      "hive": {
        "close": 14854,
        "high": 1,
        "low": 3,
        "open": 9371,
        "volume": 7986237
      },
      "id": 71609,
      "non_hive": {
        "close": 7011,
        "high": 1,
        "low": 1,
        "open": 4520,
        "volume": 3929587
      },
      "open": "2016-10-03T00:00:00",
      "seconds": 86400
    },
    {
      "hive": {
        "close": 9798,
        "high": 2,
        "low": 833,
        "open": 50,
        "volume": 13181214
      },
      "id": 71994,
      "non_hive": {
        "close": 4497,
        "high": 1,
        "low": 346,
        "open": 23,
        "volume": 5983409
      },
      "open": "2016-10-04T00:00:00",
      "seconds": 86400
    },
    {
      "hive": {
        "close": 17081,
        "high": 2,
        "low": 3,
        "open": 199,
        "volume": 5030060
      },
      "id": 72411,
      "non_hive": {
        "close": 7583,
        "high": 1,
        "low": 1,
        "open": 93,
        "volume": 2201222
      },
      "open": "2016-10-05T00:00:00",
      "seconds": 86400
    },
    {
      "hive": {
        "close": 4762,
        "high": 2,
        "low": 37,
        "open": 1628,
        "volume": 15238834
      },
      "id": 72762,
      "non_hive": {
        "close": 2044,
        "high": 1,
        "low": 15,
        "open": 722,
        "volume": 6574708
      },
      "open": "2016-10-06T00:00:00",
      "seconds": 86400
    },
    {
      "hive": {
        "close": 16361,
        "high": 2,
        "low": 12,
        "open": 9617,
        "volume": 32343344
      },
      "id": 73137,
      "non_hive": {
        "close": 6293,
        "high": 1,
        "low": 4,
        "open": 4129,
        "volume": 12695981
      },
      "open": "2016-10-07T00:00:00",
      "seconds": 86400
    },
    {
      "hive": {
        "close": 631,
        "high": 2,
        "low": 23,
        "open": 429,
        "volume": 4694111
      },
      "id": 73651,
      "non_hive": {
        "close": 278,
        "high": 1,
        "low": 8,
        "open": 163,
        "volume": 1913852
      },
      "open": "2016-10-08T00:00:00",
      "seconds": 86400
    },
    {
      "hive": {
        "close": 1000,
        "high": 2,
        "low": 12,
        "open": 25411,
        "volume": 2824933
      },
      "id": 74055,
      "non_hive": {
        "close": 361,
        "high": 1,
        "low": 4,
        "open": 11154,
        "volume": 1071573
      },
      "open": "2016-10-09T00:00:00",
      "seconds": 86400
    },
    {
      "hive": {
        "close": 9872,
        "high": 2,
        "low": 11,
        "open": 1000,
        "volume": 22875756
      },
      "id": 74499,
      "non_hive": {
        "close": 3164,
        "high": 1,
        "low": 3,
        "open": 361,
        "volume": 7756609
      },
      "open": "2016-10-10T00:00:00",
      "seconds": 86400
    },
    {
      "hive": {
        "close": 6227,
        "high": 2,
        "low": 10,
        "open": 208,
        "volume": 10467702
      },
      "id": 75382,
      "non_hive": {
        "close": 1725,
        "high": 1,
        "low": 2,
        "open": 70,
        "volume": 3027029
      },
      "open": "2016-10-11T00:00:00",
      "seconds": 86400
    },
    {
      "hive": {
        "close": 15509,
        "high": 10003,
        "low": 14,
        "open": 21708,
        "volume": 5426490
      },
      "id": 75909,
      "non_hive": {
        "close": 4615,
        "high": 3341,
        "low": 3,
        "open": 6078,
        "volume": 1629470
      },
      "open": "2016-10-12T00:00:00",
      "seconds": 86400
    },
    {
      "hive": {
        "close": 3800,
        "high": 2,
        "low": 17,
        "open": 9568,
        "volume": 9830018
      },
      "id": 76351,
      "non_hive": {
        "close": 1141,
        "high": 1,
        "low": 4,
        "open": 2847,
        "volume": 2986293
      },
      "open": "2016-10-13T00:00:00",
      "seconds": 86400
    },
    {
      "hive": {
        "close": 3,
        "high": 2,
        "low": 6649,
        "open": 253,
        "volume": 3659049
      },
      "id": 76891,
      "non_hive": {
        "close": 1,
        "high": 1,
        "low": 1805,
        "open": 76,
        "volume": 1090730
      },
      "open": "2016-10-14T00:00:00",
      "seconds": 86400
    },
    {
      "hive": {
        "close": 265,
        "high": 3,
        "low": 11,
        "open": 664,
        "volume": 2517708
      },
      "id": 77272,
      "non_hive": {
        "close": 73,
        "high": 1,
        "low": 2,
        "open": 186,
        "volume": 695103
      },
      "open": "2016-10-15T00:00:00",
      "seconds": 86400
    },
    {
      "hive": {
        "close": 34,
        "high": 2,
        "low": 27,
        "open": 280,
        "volume": 10080631
      },
      "id": 77702,
      "non_hive": {
        "close": 8,
        "high": 1,
        "low": 6,
        "open": 73,
        "volume": 2866020
      },
      "open": "2016-10-16T00:00:00",
      "seconds": 86400
    },
    {
      "hive": {
        "close": 3606,
        "high": 3,
        "low": 10,
        "open": 1800,
        "volume": 9720445
      },
      "id": 78198,
      "non_hive": {
        "close": 976,
        "high": 1,
        "low": 2,
        "open": 477,
        "volume": 2638303
      },
      "open": "2016-10-17T00:00:00",
      "seconds": 86400
    },
    {
      "hive": {
        "close": 97777,
        "high": 3,
        "low": 47,
        "open": 3,
        "volume": 22777810
      },
      "id": 79045,
      "non_hive": {
        "close": 24756,
        "high": 1,
        "low": 11,
        "open": 1,
        "volume": 5823062
      },
      "open": "2016-10-18T00:00:00",
      "seconds": 86400
    },
    {
      "hive": {
        "close": 858105,
        "high": 3,
        "low": 5589,
        "open": 3199,
        "volume": 22154153
      },
      "id": 80028,
      "non_hive": {
        "close": 211522,
        "high": 1,
        "low": 1176,
        "open": 813,
        "volume": 5547112
      },
      "open": "2016-10-19T00:00:00",
      "seconds": 86400
    },
    {
      "hive": {
        "close": 11079,
        "high": 3,
        "low": 10,
        "open": 4,
        "volume": 13520644
      },
      "id": 80788,
      "non_hive": {
        "close": 2836,
        "high": 1,
        "low": 2,
        "open": 1,
        "volume": 3329695
      },
      "open": "2016-10-20T00:00:00",
      "seconds": 86400
    },
    {
      "hive": {
        "close": 1703,
        "high": 3,
        "low": 20,
        "open": 11783,
        "volume": 7135933
      },
      "id": 81516,
      "non_hive": {
        "close": 433,
        "high": 1,
        "low": 4,
        "open": 3000,
        "volume": 1777295
      },
      "open": "2016-10-21T00:00:00",
      "seconds": 86400
    },
    {
      "hive": {
        "close": 4302,
        "high": 3,
        "low": 10,
        "open": 1901,
        "volume": 7476400
      },
      "id": 82301,
      "non_hive": {
        "close": 1014,
        "high": 1,
        "low": 2,
        "open": 480,
        "volume": 1811624
      },
      "open": "2016-10-22T00:00:00",
      "seconds": 86400
    },
    {
      "hive": {
        "close": 84339,
        "high": 4,
        "low": 7,
        "open": 2000,
        "volume": 17422444
      },
      "id": 83598,
      "non_hive": {
        "close": 17887,
        "high": 1,
        "low": 1,
        "open": 471,
        "volume": 3843881
      },
      "open": "2016-10-23T00:00:00",
      "seconds": 86400
    },
    {
      "hive": {
        "close": 5000,
        "high": 4,
        "low": 19,
        "open": 9530,
        "volume": 10996057
      },
      "id": 85042,
      "non_hive": {
        "close": 1017,
        "high": 1,
        "low": 3,
        "open": 2018,
        "volume": 2334979
      },
      "open": "2016-10-24T00:00:00",
      "seconds": 86400
    },
    {
      "hive": {
        "close": 45000,
        "high": 4,
        "low": 7726,
        "open": 17567,
        "volume": 14122447
      },
      "id": 86226,
      "non_hive": {
        "close": 8136,
        "high": 1,
        "low": 1313,
        "open": 3571,
        "volume": 2733418
      },
      "open": "2016-10-25T00:00:00",
      "seconds": 86400
    },
    {
      "hive": {
        "close": 15660,
        "high": 1629,
        "low": 8691,
        "open": 9779,
        "volume": 29105453
      },
      "id": 87112,
      "non_hive": {
        "close": 2293,
        "high": 328,
        "low": 956,
        "open": 1770,
        "volume": 4710557
      },
      "open": "2016-10-26T00:00:00",
      "seconds": 86400
    },
    {
      "hive": {
        "close": 104,
        "high": 5,
        "low": 10,
        "open": 77846,
        "volume": 8049942
      },
      "id": 88324,
      "non_hive": {
        "close": 15,
        "high": 1,
        "low": 1,
        "open": 11886,
        "volume": 1224195
      },
      "open": "2016-10-27T00:00:00",
      "seconds": 86400
    },
    {
      "hive": {
        "close": 2000,
        "high": 5,
        "low": 17031,
        "open": 33099,
        "volume": 13322845
      },
      "id": 88975,
      "non_hive": {
        "close": 357,
        "high": 1,
        "low": 2299,
        "open": 4985,
        "volume": 2051773
      },
      "open": "2016-10-28T00:00:00",
      "seconds": 86400
    },
    {
      "hive": {
        "close": 133355,
        "high": 2292,
        "low": 21,
        "open": 2962,
        "volume": 10224009
      },
      "id": 90080,
      "non_hive": {
        "close": 20000,
        "high": 481,
        "low": 3,
        "open": 529,
        "volume": 1693680
      },
      "open": "2016-10-29T00:00:00",
      "seconds": 86400
    },
    {
      "hive": {
        "close": 47053,
        "high": 392318,
        "low": 63,
        "open": 26679,
        "volume": 10964053
      },
      "id": 91589,
      "non_hive": {
        "close": 7740,
        "high": 70617,
        "low": 9,
        "open": 4020,
        "volume": 1754817
      },
      "open": "2016-10-30T00:00:00",
      "seconds": 86400
    },
    {
      "hive": {
        "close": 4965,
        "high": 6,
        "low": 63847,
        "open": 122128,
        "volume": 10273980
      },
      "id": 92478,
      "non_hive": {
        "close": 810,
        "high": 1,
        "low": 9767,
        "open": 20000,
        "volume": 1683802
      },
      "open": "2016-10-31T00:00:00",
      "seconds": 86400
    },
    {
      "hive": {
        "close": 132506,
        "high": 6,
        "low": 36,
        "open": 2482,
        "volume": 17078153
      },
      "id": 93614,
      "non_hive": {
        "close": 20000,
        "high": 1,
        "low": 5,
        "open": 404,
        "volume": 2599313
      },
      "open": "2016-11-01T00:00:00",
      "seconds": 86400
    },
    {
      "hive": {
        "close": 9823,
        "high": 6,
        "low": 15990,
        "open": 6625,
        "volume": 29227900
      },
      "id": 94550,
      "non_hive": {
        "close": 1313,
        "high": 1,
        "low": 2023,
        "open": 1000,
        "volume": 4039474
      },
      "open": "2016-11-02T00:00:00",
      "seconds": 86400
    },
    {
      "hive": {
        "close": 46005,
        "high": 7,
        "low": 28,
        "open": 4915,
        "volume": 36154644
      },
      "id": 95174,
      "non_hive": {
        "close": 5469,
        "high": 1,
        "low": 3,
        "open": 657,
        "volume": 4461963
      },
      "open": "2016-11-03T00:00:00",
      "seconds": 86400
    },
    {
      "hive": {
        "close": 82968,
        "high": 5,
        "low": 34,
        "open": 40083,
        "volume": 40631413
      },
      "id": 95854,
      "non_hive": {
        "close": 12132,
        "high": 1,
        "low": 4,
        "open": 4765,
        "volume": 5931508
      },
      "open": "2016-11-04T00:00:00",
      "seconds": 86400
    },
    {
      "hive": {
        "close": 4830,
        "high": 3,
        "low": 64639,
        "open": 6,
        "volume": 69419514
      },
      "id": 97385,
      "non_hive": {
        "close": 1101,
        "high": 1,
        "low": 9049,
        "open": 1,
        "volume": 15581178
      },
      "open": "2016-11-05T00:00:00",
      "seconds": 86400
    },
    {
      "hive": {
        "close": 1437,
        "high": 4,
        "low": 7,
        "open": 59760,
        "volume": 24389191
      },
      "id": 100450,
      "non_hive": {
        "close": 309,
        "high": 1,
        "low": 1,
        "open": 13705,
        "volume": 5356563
      },
      "open": "2016-11-06T00:00:00",
      "seconds": 86400
    },
    {
      "hive": {
        "close": 4521,
        "high": 4,
        "low": 68414,
        "open": 61825,
        "volume": 17426017
      },
      "id": 101673,
      "non_hive": {
        "close": 734,
        "high": 1,
        "low": 10839,
        "open": 13355,
        "volume": 3254281
      },
      "open": "2016-11-07T00:00:00",
      "seconds": 86400
    },
    {
      "hive": {
        "close": 638,
        "high": 5,
        "low": 109,
        "open": 82605,
        "volume": 7561692
      },
      "id": 102256,
      "non_hive": {
        "close": 86,
        "high": 1,
        "low": 14,
        "open": 14445,
        "volume": 1160730
      },
      "open": "2016-11-08T00:00:00",
      "seconds": 86400
    },
    {
      "hive": {
        "close": 50000,
        "high": 135,
        "low": 538,
        "open": 79520,
        "volume": 9944187
      },
      "id": 102555,
      "non_hive": {
        "close": 7550,
        "high": 23,
        "low": 64,
        "open": 10732,
        "volume": 1449799
      },
      "open": "2016-11-09T00:00:00",
      "seconds": 86400
    },
    {
      "hive": {
        "close": 100000,
        "high": 11,
        "low": 37,
        "open": 6488,
        "volume": 14513110
      },
      "id": 102908,
      "non_hive": {
        "close": 15000,
        "high": 2,
        "low": 5,
        "open": 969,
        "volume": 2188707
      },
      "open": "2016-11-10T00:00:00",
      "seconds": 86400
    },
    {
      "hive": {
        "close": 13915,
        "high": 6,
        "low": 66586,
        "open": 46576,
        "volume": 15934690
      },
      "id": 103282,
      "non_hive": {
        "close": 1809,
        "high": 1,
        "low": 6991,
        "open": 6986,
        "volume": 2295799
      },
      "open": "2016-11-11T00:00:00",
      "seconds": 86400
    },
    {
      "hive": {
        "close": 678,
        "high": 7,
        "low": 35552,
        "open": 1000,
        "volume": 4830221
      },
      "id": 103737,
      "non_hive": {
        "close": 84,
        "high": 1,
        "low": 3910,
        "open": 124,
        "volume": 627235
      },
      "open": "2016-11-12T00:00:00",
      "seconds": 86400
    },
    {
      "hive": {
        "close": 977,
        "high": 7,
        "low": 2356,
        "open": 540,
        "volume": 4656303
      },
      "id": 104155,
      "non_hive": {
        "close": 117,
        "high": 1,
        "low": 282,
        "open": 69,
        "volume": 588968
      },
      "open": "2016-11-13T00:00:00",
      "seconds": 86400
    },
    {
      "hive": {
        "close": 45323,
        "high": 3044,
        "low": 1390,
        "open": 993,
        "volume": 5153362
      },
      "id": 104451,
      "non_hive": {
        "close": 5219,
        "high": 392,
        "low": 153,
        "open": 123,
        "volume": 616057
      },
      "open": "2016-11-14T00:00:00",
      "seconds": 86400
    },
    {
      "hive": {
        "close": 12142,
        "high": 8,
        "low": 14,
        "open": 1000,
        "volume": 9206309
      },
      "id": 104826,
      "non_hive": {
        "close": 1367,
        "high": 1,
        "low": 1,
        "open": 120,
        "volume": 1073118
      },
      "open": "2016-11-15T00:00:00",
      "seconds": 86400
    },
    {
      "hive": {
        "close": 47147,
        "high": 85713,
        "low": 83,
        "open": 88374,
        "volume": 31682387
      },
      "id": 105203,
      "non_hive": {
        "close": 5006,
        "high": 9956,
        "low": 8,
        "open": 10000,
        "volume": 3446908
      },
      "open": "2016-11-16T00:00:00",
      "seconds": 86400
    },
    {
      "hive": {
        "close": 24972,
        "high": 9,
        "low": 332,
        "open": 7550,
        "volume": 15067947
      },
      "id": 105854,
      "non_hive": {
        "close": 2608,
        "high": 1,
        "low": 34,
        "open": 800,
        "volume": 1582322
      },
      "open": "2016-11-17T00:00:00",
      "seconds": 86400
    },
    {
      "hive": {
        "close": 209446,
        "high": 8,
        "low": 1108969,
        "open": 200000,
        "volume": 70063237
      },
      "id": 106281,
      "non_hive": {
        "close": 24322,
        "high": 1,
        "low": 111007,
        "open": 20889,
        "volume": 7628044
      },
      "open": "2016-11-18T00:00:00",
      "seconds": 86400
    },
    {
      "hive": {
        "close": 27033,
        "high": 1003,
        "low": 39441,
        "open": 10678,
        "volume": 26968535
      },
      "id": 107259,
      "non_hive": {
        "close": 3394,
        "high": 127,
        "low": 4420,
        "open": 1236,
        "volume": 3189137
      },
      "open": "2016-11-19T00:00:00",
      "seconds": 86400
    },
    {
      "hive": {
        "close": 46855,
        "high": 7,
        "low": 13,
        "open": 277,
        "volume": 76652422
      },
      "id": 107866,
      "non_hive": {
        "close": 5359,
        "high": 1,
        "low": 1,
        "open": 35,
        "volume": 9473140
      },
      "open": "2016-11-20T00:00:00",
      "seconds": 86400
    },
    {
      "hive": {
        "close": 9187,
        "high": 8,
        "low": 48,
        "open": 345788,
        "volume": 31925134
      },
      "id": 109109,
      "non_hive": {
        "close": 1050,
        "high": 1,
        "low": 5,
        "open": 39765,
        "volume": 3649891
      },
      "open": "2016-11-21T00:00:00",
      "seconds": 86400
    },
    {
      "hive": {
        "close": 69149,
        "high": 8,
        "low": 55,
        "open": 401,
        "volume": 14043341
      },
      "id": 109704,
      "non_hive": {
        "close": 7789,
        "high": 1,
        "low": 6,
        "open": 45,
        "volume": 1595631
      },
      "open": "2016-11-22T00:00:00",
      "seconds": 86400
    },
    {
      "hive": {
        "close": 218,
        "high": 8,
        "low": 164,
        "open": 322652,
        "volume": 26908852
      },
      "id": 110207,
      "non_hive": {
        "close": 24,
        "high": 1,
        "low": 18,
        "open": 36545,
        "volume": 3022806
      },
      "open": "2016-11-23T00:00:00",
      "seconds": 86400
    },
    {
      "hive": {
        "close": 8000,
        "high": 8,
        "low": 141,
        "open": 18198,
        "volume": 43567271
      },
      "id": 110816,
      "non_hive": {
        "close": 978,
        "high": 1,
        "low": 15,
        "open": 2043,
        "volume": 5151556
      },
      "open": "2016-11-24T00:00:00",
      "seconds": 86400
    },
    {
      "hive": {
        "close": 79690,
        "high": 6,
        "low": 9,
        "open": 50494,
        "volume": 83935642
      },
      "id": 111609,
      "non_hive": {
        "close": 11028,
        "high": 1,
        "low": 1,
        "open": 6175,
        "volume": 11828448
      },
      "open": "2016-11-25T00:00:00",
      "seconds": 86400
    },
    {
      "hive": {
        "close": 15630,
        "high": 15095,
        "low": 1000,
        "open": 39313,
        "volume": 27209772
      },
      "id": 112966,
      "non_hive": {
        "close": 2280,
        "high": 2253,
        "low": 136,
        "open": 5450,
        "volume": 3804888
      },
      "open": "2016-11-26T00:00:00",
      "seconds": 86400
    },
    {
      "hive": {
        "close": 4576,
        "high": 5,
        "low": 10,
        "open": 213401,
        "volume": 64111667
      },
      "id": 113483,
      "non_hive": {
        "close": 815,
        "high": 1,
        "low": 1,
        "open": 31279,
        "volume": 11062442
      },
      "open": "2016-11-27T00:00:00",
      "seconds": 86400
    },
    {
      "hive": {
        "close": 155165,
        "high": 5,
        "low": 180,
        "open": 60000,
        "volume": 56954996
      },
      "id": 114600,
      "non_hive": {
        "close": 25855,
        "high": 1,
        "low": 29,
        "open": 10650,
        "volume": 10004104
      },
      "open": "2016-11-28T00:00:00",
      "seconds": 86400
    },
    {
      "hive": {
        "close": 18700,
        "high": 5,
        "low": 800,
        "open": 900,
        "volume": 55828680
      },
      "id": 115745,
      "non_hive": {
        "close": 3037,
        "high": 1,
        "low": 119,
        "open": 150,
        "volume": 8843283
      },
      "open": "2016-11-29T00:00:00",
      "seconds": 86400
    },
    {
      "hive": {
        "close": 16658,
        "high": 2032,
        "low": 16658,
        "open": 73903,
        "volume": 42889199
      },
      "id": 116733,
      "non_hive": {
        "close": 2571,
        "high": 346,
        "low": 2571,
        "open": 12002,
        "volume": 7016841
      },
      "open": "2016-11-30T00:00:00",
      "seconds": 86400
    },
    {
      "hive": {
        "close": 35000,
        "high": 6,
        "low": 15,
        "open": 28900,
        "volume": 47148239
      },
      "id": 117613,
      "non_hive": {
        "close": 5338,
        "high": 1,
        "low": 2,
        "open": 4461,
        "volume": 7175471
      },
      "open": "2016-12-01T00:00:00",
      "seconds": 86400
    },
    {
      "hive": {
        "close": 237639,
        "high": 5,
        "low": 74,
        "open": 9000,
        "volume": 43827835
      },
      "id": 118520,
      "non_hive": {
        "close": 40000,
        "high": 1,
        "low": 11,
        "open": 1366,
        "volume": 6955661
      },
      "open": "2016-12-02T00:00:00",
      "seconds": 86400
    },
    {
      "hive": {
        "close": 10277,
        "high": 5,
        "low": 13,
        "open": 13811,
        "volume": 63495362
      },
      "id": 119407,
      "non_hive": {
        "close": 2024,
        "high": 1,
        "low": 2,
        "open": 2319,
        "volume": 11681313
      },
      "open": "2016-12-03T00:00:00",
      "seconds": 86400
    },
    {
      "hive": {
        "close": 8200,
        "high": 5328,
        "low": 44792,
        "open": 172212,
        "volume": 28076459
      },
      "id": 120567,
      "non_hive": {
        "close": 1685,
        "high": 1108,
        "low": 8062,
        "open": 33926,
        "volume": 5484944
      },
      "open": "2016-12-04T00:00:00",
      "seconds": 86400
    },
    {
      "hive": {
        "close": 126268,
        "high": 10781,
        "low": 32,
        "open": 7722,
        "volume": 76676817
      },
      "id": 121460,
      "non_hive": {
        "close": 30465,
        "high": 2899,
        "low": 6,
        "open": 1594,
        "volume": 16952688
      },
      "open": "2016-12-05T00:00:00",
      "seconds": 86400
    },
    {
      "hive": {
        "close": 9500,
        "high": 3,
        "low": 11,
        "open": 140001,
        "volume": 102442363
      },
      "id": 123013,
      "non_hive": {
        "close": 2327,
        "high": 1,
        "low": 2,
        "open": 33454,
        "volume": 28110329
      },
      "open": "2016-12-06T00:00:00",
      "seconds": 86400
    },
    {
      "hive": {
        "close": 3360,
        "high": 4,
        "low": 29,
        "open": 30938,
        "volume": 25169978
      },
      "id": 125160,
      "non_hive": {
        "close": 733,
        "high": 1,
        "low": 5,
        "open": 7580,
        "volume": 5745507
      },
      "open": "2016-12-07T00:00:00",
      "seconds": 86400
    },
    {
      "hive": {
        "close": 206073,
        "high": 159,
        "low": 203,
        "open": 208314,
        "volume": 51566035
      },
      "id": 125957,
      "non_hive": {
        "close": 50000,
        "high": 40,
        "low": 42,
        "open": 45682,
        "volume": 11847765
      },
      "open": "2016-12-08T00:00:00",
      "seconds": 86400
    },
    {
      "hive": {
        "close": 200001,
        "high": 38966,
        "low": 10,
        "open": 206547,
        "volume": 48900021
      },
      "id": 126809,
      "non_hive": {
        "close": 47259,
        "high": 9974,
        "low": 2,
        "open": 50000,
        "volume": 12024787
      },
      "open": "2016-12-09T00:00:00",
      "seconds": 86400
    },
    {
      "hive": {
        "close": 70877,
        "high": 4,
        "low": 70877,
        "open": 100000,
        "volume": 71734833
      },
      "id": 127700,
      "non_hive": {
        "close": 15305,
        "high": 1,
        "low": 15305,
        "open": 23561,
        "volume": 16538106
      },
      "open": "2016-12-10T00:00:00",
      "seconds": 86400
    },
    {
      "hive": {
        "close": 13061,
        "high": 4,
        "low": 17,
        "open": 206604,
        "volume": 39761019
      },
      "id": 128741,
      "non_hive": {
        "close": 2424,
        "high": 1,
        "low": 3,
        "open": 44695,
        "volume": 8009827
      },
      "open": "2016-12-11T00:00:00",
      "seconds": 86400
    },
    {
      "hive": {
        "close": 349000,
        "high": 5,
        "low": 10,
        "open": 321736,
        "volume": 30596032
      },
      "id": 129459,
      "non_hive": {
        "close": 67416,
        "high": 1,
        "low": 1,
        "open": 60000,
        "volume": 5846823
      },
      "open": "2016-12-12T00:00:00",
      "seconds": 86400
    },
    {
      "hive": {
        "close": 12365,
        "high": 9753558,
        "low": 27,
        "open": 200,
        "volume": 70372343
      },
      "id": 130057,
      "non_hive": {
        "close": 1956,
        "high": 1939000,
        "low": 4,
        "open": 38,
        "volume": 12367829
      },
      "open": "2016-12-13T00:00:00",
      "seconds": 86400
    },
    {
      "hive": {
        "close": 289487,
        "high": 5,
        "low": 49,
        "open": 68574,
        "volume": 96292114
      },
      "id": 130957,
      "non_hive": {
        "close": 49321,
        "high": 1,
        "low": 7,
        "open": 10852,
        "volume": 15935047
      },
      "open": "2016-12-14T00:00:00",
      "seconds": 86400
    },
    {
      "hive": {
        "close": 333574,
        "high": 5,
        "low": 13749,
        "open": 353150,
        "volume": 82395962
      },
      "id": 131953,
      "non_hive": {
        "close": 60000,
        "high": 1,
        "low": 2245,
        "open": 60000,
        "volume": 14605040
      },
      "open": "2016-12-15T00:00:00",
      "seconds": 86400
    },
    {
      "hive": {
        "close": 283160,
        "high": 5,
        "low": 78,
        "open": 334478,
        "volume": 38384712
      },
      "id": 132883,
      "non_hive": {
        "close": 47724,
        "high": 1,
        "low": 13,
        "open": 60000,
        "volume": 6732192
      },
      "open": "2016-12-16T00:00:00",
      "seconds": 86400
    },
    {
      "hive": {
        "close": 106273,
        "high": 108,
        "low": 395668,
        "open": 295940,
        "volume": 34750779
      },
      "id": 133569,
      "non_hive": {
        "close": 17105,
        "high": 19,
        "low": 59468,
        "open": 50000,
        "volume": 5718374
      },
      "open": "2016-12-17T00:00:00",
      "seconds": 86400
    },
    {
      "hive": {
        "close": 2037,
        "high": 5,
        "low": 9726,
        "open": 28544,
        "volume": 23022307
      },
      "id": 134206,
      "non_hive": {
        "close": 339,
        "high": 1,
        "low": 1461,
        "open": 4572,
        "volume": 3818682
      },
      "open": "2016-12-18T00:00:00",
      "seconds": 86400
    },
    {
      "hive": {
        "close": 3531,
        "high": 201163,
        "low": 335578,
        "open": 5813,
        "volume": 56229347
      },
      "id": 134829,
      "non_hive": {
        "close": 530,
        "high": 33657,
        "low": 50000,
        "open": 968,
        "volume": 8678131
      },
      "open": "2016-12-19T00:00:00",
      "seconds": 86400
    },
    {
      "hive": {
        "close": 839595,
        "high": 6,
        "low": 97,
        "open": 32826,
        "volume": 57169421
      },
      "id": 135418,
      "non_hive": {
        "close": 114397,
        "high": 1,
        "low": 13,
        "open": 4926,
        "volume": 8373996
      },
      "open": "2016-12-20T00:00:00",
      "seconds": 86400
    },
    {
      "hive": {
        "close": 342101,
        "high": 2402,
        "low": 33,
        "open": 30910,
        "volume": 97486574
      },
      "id": 136342,
      "non_hive": {
        "close": 45770,
        "high": 338,
        "low": 4,
        "open": 4275,
        "volume": 13107200
      },
      "open": "2016-12-21T00:00:00",
      "seconds": 86400
    },
    {
      "hive": {
        "close": 61528,
        "high": 7,
        "low": 41,
        "open": 340614,
        "volume": 36710221
      },
      "id": 137249,
      "non_hive": {
        "close": 8194,
        "high": 1,
        "low": 5,
        "open": 45682,
        "volume": 4773989
      },
      "open": "2016-12-22T00:00:00",
      "seconds": 86400
    },
    {
      "hive": {
        "close": 3536,
        "high": 6,
        "low": 108,
        "open": 16184,
        "volume": 56273399
      },
      "id": 137853,
      "non_hive": {
        "close": 498,
        "high": 1,
        "low": 14,
        "open": 2145,
        "volume": 7770888
      },
      "open": "2016-12-23T00:00:00",
      "seconds": 86400
    },
    {
      "hive": {
        "close": 102,
        "high": 7,
        "low": 50,
        "open": 9200,
        "volume": 55177229
      },
      "id": 138786,
      "non_hive": {
        "close": 14,
        "high": 1,
        "low": 6,
        "open": 1289,
        "volume": 7627132
      },
      "open": "2016-12-24T00:00:00",
      "seconds": 86400
    },
    {
      "hive": {
        "close": 23448,
        "high": 7,
        "low": 18,
        "open": 368001,
        "volume": 33375874
      },
      "id": 139374,
      "non_hive": {
        "close": 3152,
        "high": 1,
        "low": 2,
        "open": 50000,
        "volume": 4418888
      },
      "open": "2016-12-25T00:00:00",
      "seconds": 86400
    },
    {
      "hive": {
        "close": 67000,
        "high": 6,
        "low": 10,
        "open": 3544,
        "volume": 44270637
      },
      "id": 139832,
      "non_hive": {
        "close": 10144,
        "high": 1,
        "low": 1,
        "open": 474,
        "volume": 6469868
      },
      "open": "2016-12-26T00:00:00",
      "seconds": 86400
    },
    {
      "hive": {
        "close": 47005,
        "high": 12,
        "low": 14611,
        "open": 244672,
        "volume": 30997979
      },
      "id": 140727,
      "non_hive": {
        "close": 7051,
        "high": 2,
        "low": 2157,
        "open": 37046,
        "volume": 4676232
      },
      "open": "2016-12-27T00:00:00",
      "seconds": 86400
    },
    {
      "hive": {
        "close": 329203,
        "high": 6,
        "low": 37,
        "open": 242,
        "volume": 35253142
      },
      "id": 141354,
      "non_hive": {
        "close": 50000,
        "high": 1,
        "low": 5,
        "open": 36,
        "volume": 5335742
      },
      "open": "2016-12-28T00:00:00",
      "seconds": 86400
    },
    {
      "hive": {
        "close": 32293,
        "high": 3175,
        "low": 2414,
        "open": 1379,
        "volume": 41351177
      },
      "id": 141933,
      "non_hive": {
        "close": 5218,
        "high": 516,
        "low": 367,
        "open": 210,
        "volume": 6509830
      },
      "open": "2016-12-29T00:00:00",
      "seconds": 86400
    },
    {
      "hive": {
        "close": 293359,
        "high": 70708,
        "low": 39,
        "open": 24721,
        "volume": 37581279
      },
      "id": 142612,
      "non_hive": {
        "close": 47436,
        "high": 12360,
        "low": 6,
        "open": 4014,
        "volume": 6288376
      },
      "open": "2016-12-30T00:00:00",
      "seconds": 86400
    },
    {
      "hive": {
        "close": 4529,
        "high": 5,
        "low": 28,
        "open": 97044,
        "volume": 40272547
      },
      "id": 143300,
      "non_hive": {
        "close": 768,
        "high": 1,
        "low": 4,
        "open": 15705,
        "volume": 6629957
      },
      "open": "2016-12-31T00:00:00",
      "seconds": 86400
    },
    {
      "hive": {
        "close": 39163,
        "high": 5,
        "low": 21,
        "open": 7073,
        "volume": 47719107
      },
      "id": 143910,
      "non_hive": {
        "close": 6307,
        "high": 1,
        "low": 3,
        "open": 1206,
        "volume": 7931540
      },
      "open": "2017-01-01T00:00:00",
      "seconds": 86400
    },
    {
      "hive": {
        "close": 849,
        "high": 45280,
        "low": 100,
        "open": 7848,
        "volume": 33978197
      },
      "id": 144633,
      "non_hive": {
        "close": 131,
        "high": 7590,
        "low": 15,
        "open": 1264,
        "volume": 5508307
      },
      "open": "2017-01-02T00:00:00",
      "seconds": 86400
    },
    {
      "hive": {
        "close": 22821,
        "high": 1003,
        "low": 7,
        "open": 100,
        "volume": 24135173
      },
      "id": 145336,
      "non_hive": {
        "close": 3611,
        "high": 160,
        "low": 1,
        "open": 15,
        "volume": 3800790
      },
      "open": "2017-01-03T00:00:00",
      "seconds": 86400
    },
    {
      "hive": {
        "close": 254768,
        "high": 5,
        "low": 27,
        "open": 314416,
        "volume": 62264766
      },
      "id": 145965,
      "non_hive": {
        "close": 44209,
        "high": 1,
        "low": 4,
        "open": 49512,
        "volume": 10421483
      },
      "open": "2017-01-04T00:00:00",
      "seconds": 86400
    },
    {
      "hive": {
        "close": 30472,
        "high": 33,
        "low": 25,
        "open": 49669,
        "volume": 62067339
      },
      "id": 146790,
      "non_hive": {
        "close": 4705,
        "high": 6,
        "low": 3,
        "open": 8599,
        "volume": 10288134
      },
      "open": "2017-01-05T00:00:00",
      "seconds": 86400
    },
    {
      "hive": {
        "close": 2338,
        "high": 6,
        "low": 26,
        "open": 8201,
        "volume": 48502350
      },
      "id": 147525,
      "non_hive": {
        "close": 362,
        "high": 1,
        "low": 3,
        "open": 1267,
        "volume": 7472059
      },
      "open": "2017-01-06T00:00:00",
      "seconds": 86400
    },
    {
      "hive": {
        "close": 5216,
        "high": 6,
        "low": 46,
        "open": 9320,
        "volume": 56794933
      },
      "id": 148223,
      "non_hive": {
        "close": 781,
        "high": 1,
        "low": 6,
        "open": 1449,
        "volume": 8489574
      },
      "open": "2017-01-07T00:00:00",
      "seconds": 86400
    },
    {
      "hive": {
        "close": 41082,
        "high": 6,
        "low": 35,
        "open": 396457,
        "volume": 28713456
      },
      "id": 149145,
      "non_hive": {
        "close": 6243,
        "high": 1,
        "low": 5,
        "open": 59059,
        "volume": 4332560
      },
      "open": "2017-01-08T00:00:00",
      "seconds": 86400
    },
    {
      "hive": {
        "close": 11287,
        "high": 6,
        "low": 40,
        "open": 50000,
        "volume": 31090591
      },
      "id": 149754,
      "non_hive": {
        "close": 1677,
        "high": 1,
        "low": 5,
        "open": 7617,
        "volume": 4724000
      },
      "open": "2017-01-09T00:00:00",
      "seconds": 86400
    },
    {
      "hive": {
        "close": 8544,
        "high": 6,
        "low": 13,
        "open": 13,
        "volume": 31787185
      },
      "id": 150267,
      "non_hive": {
        "close": 1290,
        "high": 1,
        "low": 1,
        "open": 2,
        "volume": 4798179
      },
      "open": "2017-01-10T00:00:00",
      "seconds": 86400
    },
    {
      "hive": {
        "close": 4246,
        "high": 6,
        "low": 13,
        "open": 58581,
        "volume": 80251490
      },
      "id": 150906,
      "non_hive": {
        "close": 562,
        "high": 1,
        "low": 1,
        "open": 8890,
        "volume": 11162694
      },
      "open": "2017-01-11T00:00:00",
      "seconds": 86400
    },
    {
      "hive": {
        "close": 3040,
        "high": 6,
        "low": 9219,
        "open": 410341,
        "volume": 32629477
      },
      "id": 151743,
      "non_hive": {
        "close": 424,
        "high": 1,
        "low": 1198,
        "open": 54305,
        "volume": 4406572
      },
      "open": "2017-01-12T00:00:00",
      "seconds": 86400
    },
    {
      "hive": {
        "close": 1440,
        "high": 7,
        "low": 176825,
        "open": 360265,
        "volume": 51404788
      },
      "id": 152289,
      "non_hive": {
        "close": 195,
        "high": 1,
        "low": 22686,
        "open": 50000,
        "volume": 6824356
      },
      "open": "2017-01-13T00:00:00",
      "seconds": 86400
    },
    {
      "hive": {
        "close": 14926,
        "high": 7,
        "low": 63,
        "open": 14283,
        "volume": 43130680
      },
      "id": 152949,
      "non_hive": {
        "close": 2031,
        "high": 1,
        "low": 8,
        "open": 1928,
        "volume": 5920056
      },
      "open": "2017-01-14T00:00:00",
      "seconds": 86400
    },
    {
      "hive": {
        "close": 1603,
        "high": 7,
        "low": 49,
        "open": 7312,
        "volume": 41975741
      },
      "id": 153592,
      "non_hive": {
        "close": 220,
        "high": 1,
        "low": 6,
        "open": 1000,
        "volume": 5762629
      },
      "open": "2017-01-15T00:00:00",
      "seconds": 86400
    },
    {
      "hive": {
        "close": 3704,
        "high": 5,
        "low": 31,
        "open": 50000,
        "volume": 131498136
      },
      "id": 154116,
      "non_hive": {
        "close": 668,
        "high": 1,
        "low": 4,
        "open": 6828,
        "volume": 21450429
      },
      "open": "2017-01-16T00:00:00",
      "seconds": 86400
    },
    {
      "hive": {
        "close": 3660,
        "high": 5,
        "low": 10,
        "open": 4020,
        "volume": 98586515
      },
      "id": 155544,
      "non_hive": {
        "close": 605,
        "high": 1,
        "low": 1,
        "open": 725,
        "volume": 16814608
      },
      "open": "2017-01-17T00:00:00",
      "seconds": 86400
    },
    {
      "hive": {
        "close": 214865,
        "high": 6,
        "low": 10,
        "open": 11605,
        "volume": 68509366
      },
      "id": 156882,
      "non_hive": {
        "close": 34933,
        "high": 1,
        "low": 1,
        "open": 1918,
        "volume": 10779932
      },
      "open": "2017-01-18T00:00:00",
      "seconds": 86400
    },
    {
      "hive": {
        "close": 51729,
        "high": 301327,
        "low": 90,
        "open": 30000,
        "volume": 37188264
      },
      "id": 157861,
      "non_hive": {
        "close": 8305,
        "high": 51527,
        "low": 14,
        "open": 4885,
        "volume": 6141693
      },
      "open": "2017-01-19T00:00:00",
      "seconds": 86400
    },
    {
      "hive": {
        "close": 1049,
        "high": 6883,
        "low": 72,
        "open": 200002,
        "volume": 52547802
      },
      "id": 158376,
      "non_hive": {
        "close": 169,
        "high": 1150,
        "low": 11,
        "open": 32316,
        "volume": 8649068
      },
      "open": "2017-01-20T00:00:00",
      "seconds": 86400
    },
    {
      "hive": {
        "close": 4425,
        "high": 71,
        "low": 142352,
        "open": 50381,
        "volume": 38700544
      },
      "id": 159051,
      "non_hive": {
        "close": 738,
        "high": 12,
        "low": 21781,
        "open": 8115,
        "volume": 6168841
      },
      "open": "2017-01-21T00:00:00",
      "seconds": 86400
    },
    {
      "hive": {
        "close": 18267,
        "high": 5,
        "low": 128,
        "open": 1061,
        "volume": 48588993
      },
      "id": 159731,
      "non_hive": {
        "close": 2929,
        "high": 1,
        "low": 20,
        "open": 178,
        "volume": 7946515
      },
      "open": "2017-01-22T00:00:00",
      "seconds": 86400
    },
    {
      "hive": {
        "close": 711,
        "high": 6,
        "low": 24,
        "open": 9922,
        "volume": 31430822
      },
      "id": 160380,
      "non_hive": {
        "close": 112,
        "high": 1,
        "low": 3,
        "open": 1591,
        "volume": 4964642
      },
      "open": "2017-01-23T00:00:00",
      "seconds": 86400
    },
    {
      "hive": {
        "close": 344758,
        "high": 6,
        "low": 344758,
        "open": 1639,
        "volume": 76247491
      },
      "id": 160976,
      "non_hive": {
        "close": 50000,
        "high": 1,
        "low": 50000,
        "open": 258,
        "volume": 11773005
      },
      "open": "2017-01-24T00:00:00",
      "seconds": 86400
    },
    {
      "hive": {
        "close": 301575,
        "high": 5619,
        "low": 439,
        "open": 51609,
        "volume": 56171805
      },
      "id": 161726,
      "non_hive": {
        "close": 43571,
        "high": 839,
        "low": 63,
        "open": 7503,
        "volume": 8222768
      },
      "open": "2017-01-25T00:00:00",
      "seconds": 86400
    },
    {
      "hive": {
        "close": 23666,
        "high": 6,
        "low": 43,
        "open": 27415,
        "volume": 28478686
      },
      "id": 162563,
      "non_hive": {
        "close": 3459,
        "high": 1,
        "low": 6,
        "open": 3952,
        "volume": 4147316
      },
      "open": "2017-01-26T00:00:00",
      "seconds": 86400
    },
    {
      "hive": {
        "close": 9072,
        "high": 6,
        "low": 38,
        "open": 254488,
        "volume": 62263546
      },
      "id": 163136,
      "non_hive": {
        "close": 1353,
        "high": 1,
        "low": 5,
        "open": 37196,
        "volume": 9133191
      },
      "open": "2017-01-27T00:00:00",
      "seconds": 86400
    },
    {
      "hive": {
        "close": 39425,
        "high": 6,
        "low": 69,
        "open": 108600,
        "volume": 21190875
      },
      "id": 163823,
      "non_hive": {
        "close": 6387,
        "high": 1,
        "low": 10,
        "open": 16283,
        "volume": 3284967
      },
      "open": "2017-01-28T00:00:00",
      "seconds": 86400
    },
    {
      "hive": {
        "close": 167865,
        "high": 3756,
        "low": 43,
        "open": 7524,
        "volume": 21182033
      },
      "id": 164442,
      "non_hive": {
        "close": 27188,
        "high": 631,
        "low": 6,
        "open": 1219,
        "volume": 3436434
      },
      "open": "2017-01-29T00:00:00",
      "seconds": 86400
    },
    {
      "hive": {
        "close": 19466,
        "high": 215005,
        "low": 8,
        "open": 125674,
        "volume": 13706157
      },
      "id": 165078,
      "non_hive": {
        "close": 3134,
        "high": 35074,
        "low": 1,
        "open": 20325,
        "volume": 2210340
      },
      "open": "2017-01-30T00:00:00",
      "seconds": 86400
    },
    {
      "hive": {
        "close": 12913,
        "high": 6,
        "low": 100,
        "open": 259685,
        "volume": 38021871
      },
      "id": 165553,
      "non_hive": {
        "close": 2040,
        "high": 1,
        "low": 15,
        "open": 41758,
        "volume": 6018084
      },
      "open": "2017-01-31T00:00:00",
      "seconds": 86400
    },
    {
      "hive": {
        "close": 110563,
        "high": 16695,
        "low": 73,
        "open": 5532,
        "volume": 23012452
      },
      "id": 166277,
      "non_hive": {
        "close": 17782,
        "high": 2705,
        "low": 11,
        "open": 875,
        "volume": 3672299
      },
      "open": "2017-02-01T00:00:00",
      "seconds": 86400
    },
    {
      "hive": {
        "close": 3690,
        "high": 476207,
        "low": 28,
        "open": 9550,
        "volume": 33626293
      },
      "id": 166852,
      "non_hive": {
        "close": 606,
        "high": 80955,
        "low": 4,
        "open": 1536,
        "volume": 5419970
      },
      "open": "2017-02-02T00:00:00",
      "seconds": 86400
    },
    {
      "hive": {
        "close": 304915,
        "high": 29045,
        "low": 25,
        "open": 727,
        "volume": 24273065
      },
      "id": 167513,
      "non_hive": {
        "close": 48402,
        "high": 4769,
        "low": 3,
        "open": 118,
        "volume": 3886815
      },
      "open": "2017-02-03T00:00:00",
      "seconds": 86400
    },
    {
      "hive": {
        "close": 3303,
        "high": 54,
        "low": 15,
        "open": 143028,
        "volume": 37162567
      },
      "id": 168100,
      "non_hive": {
        "close": 541,
        "high": 9,
        "low": 2,
        "open": 22755,
        "volume": 6060623
      },
      "open": "2017-02-04T00:00:00",
      "seconds": 86400
    },
    {
      "hive": {
        "close": 2000,
        "high": 6,
        "low": 18,
        "open": 157,
        "volume": 15762496
      },
      "id": 168788,
      "non_hive": {
        "close": 315,
        "high": 1,
        "low": 2,
        "open": 25,
        "volume": 2525016
      },
      "open": "2017-02-05T00:00:00",
      "seconds": 86400
    },
    {
      "hive": {
        "close": 1974,
        "high": 62,
        "low": 321706,
        "open": 118725,
        "volume": 13105072
      },
      "id": 169218,
      "non_hive": {
        "close": 313,
        "high": 10,
        "low": 50000,
        "open": 18727,
        "volume": 2056874
      },
      "open": "2017-02-06T00:00:00",
      "seconds": 86400
    },
    {
      "hive": {
        "close": 271215,
        "high": 6,
        "low": 9463,
        "open": 4323,
        "volume": 51085045
      },
      "id": 169707,
      "non_hive": {
        "close": 41687,
        "high": 1,
        "low": 1423,
        "open": 687,
        "volume": 8072209
      },
      "open": "2017-02-07T00:00:00",
      "seconds": 86400
    },
    {
      "hive": {
        "close": 131649,
        "high": 6,
        "low": 50,
        "open": 296474,
        "volume": 37283381
      },
      "id": 170553,
      "non_hive": {
        "close": 19846,
        "high": 1,
        "low": 7,
        "open": 45682,
        "volume": 5685240
      },
      "open": "2017-02-08T00:00:00",
      "seconds": 86400
    },
    {
      "hive": {
        "close": 11656,
        "high": 6,
        "low": 50,
        "open": 5321,
        "volume": 44080348
      },
      "id": 171212,
      "non_hive": {
        "close": 1661,
        "high": 1,
        "low": 7,
        "open": 798,
        "volume": 6566800
      },
      "open": "2017-02-09T00:00:00",
      "seconds": 86400
    },
    {
      "hive": {
        "close": 8817,
        "high": 8817,
        "low": 20,
        "open": 8887,
        "volume": 65493730
      },
      "id": 171830,
      "non_hive": {
        "close": 1279,
        "high": 1279,
        "low": 2,
        "open": 1273,
        "volume": 9197166
      },
      "open": "2017-02-10T00:00:00",
      "seconds": 86400
    },
    {
      "hive": {
        "close": 6830,
        "high": 249,
        "low": 59,
        "open": 75331,
        "volume": 29520927
      },
      "id": 172468,
      "non_hive": {
        "close": 1000,
        "high": 37,
        "low": 8,
        "open": 10927,
        "volume": 4312957
      },
      "open": "2017-02-11T00:00:00",
      "seconds": 86400
    },
    {
      "hive": {
        "close": 11649,
        "high": 6,
        "low": 86,
        "open": 7000000,
        "volume": 23107705
      },
      "id": 173007,
      "non_hive": {
        "close": 1648,
        "high": 1,
        "low": 12,
        "open": 1022000,
        "volume": 3346964
      },
      "open": "2017-02-12T00:00:00",
      "seconds": 86400
    },
    {
      "hive": {
        "close": 364968,
        "high": 21523,
        "low": 94,
        "open": 209050,
        "volume": 41111747
      },
      "id": 173399,
      "non_hive": {
        "close": 50000,
        "high": 3074,
        "low": 12,
        "open": 29715,
        "volume": 5654087
      },
      "open": "2017-02-13T00:00:00",
      "seconds": 86400
    },
    {
      "hive": {
        "close": 337499,
        "high": 7,
        "low": 15,
        "open": 13000,
        "volume": 42344041
      },
      "id": 173994,
      "non_hive": {
        "close": 45454,
        "high": 1,
        "low": 1,
        "open": 1776,
        "volume": 5675774
      },
      "open": "2017-02-14T00:00:00",
      "seconds": 86400
    },
    {
      "hive": {
        "close": 89891,
        "high": 7,
        "low": 58,
        "open": 15003,
        "volume": 37555256
      },
      "id": 174746,
      "non_hive": {
        "close": 12000,
        "high": 1,
        "low": 7,
        "open": 2026,
        "volume": 5013483
      },
      "open": "2017-02-15T00:00:00",
      "seconds": 86400
    },
    {
      "hive": {
        "close": 10167,
        "high": 233956,
        "low": 20,
        "open": 74422,
        "volume": 30416160
      },
      "id": 175379,
      "non_hive": {
        "close": 1412,
        "high": 32861,
        "low": 2,
        "open": 9935,
        "volume": 4090440
      },
      "open": "2017-02-16T00:00:00",
      "seconds": 86400
    },
    {
      "hive": {
        "close": 134153,
        "high": 305025,
        "low": 33,
        "open": 56381,
        "volume": 58876105
      },
      "id": 175952,
      "non_hive": {
        "close": 18000,
        "high": 44281,
        "low": 4,
        "open": 7830,
        "volume": 8228802
      },
      "open": "2017-02-17T00:00:00",
      "seconds": 86400
    },
    {
      "hive": {
        "close": 27914,
        "high": 7,
        "low": 120,
        "open": 336338,
        "volume": 72070545
      },
      "id": 176576,
      "non_hive": {
        "close": 3379,
        "high": 1,
        "low": 14,
        "open": 45348,
        "volume": 8935664
      },
      "open": "2017-02-18T00:00:00",
      "seconds": 86400
    },
    {
      "hive": {
        "close": 32500,
        "high": 7,
        "low": 31,
        "open": 336714,
        "volume": 58294059
      },
      "id": 177460,
      "non_hive": {
        "close": 3901,
        "high": 1,
        "low": 3,
        "open": 40972,
        "volume": 7150676
      },
      "open": "2017-02-19T00:00:00",
      "seconds": 86400
    },
    {
      "hive": {
        "close": 278846,
        "high": 8,
        "low": 47,
        "open": 341533,
        "volume": 47897437
      },
      "id": 178142,
      "non_hive": {
        "close": 32740,
        "high": 1,
        "low": 5,
        "open": 40996,
        "volume": 5632768
      },
      "open": "2017-02-20T00:00:00",
      "seconds": 86400
    },
    {
      "hive": {
        "close": 489823,
        "high": 332384,
        "low": 36085,
        "open": 34582,
        "volume": 137289589
      },
      "id": 178635,
      "non_hive": {
        "close": 50000,
        "high": 38925,
        "low": 3654,
        "open": 4049,
        "volume": 14867149
      },
      "open": "2017-02-21T00:00:00",
      "seconds": 86400
    },
    {
      "hive": {
        "close": 381954,
        "high": 8,
        "low": 64,
        "open": 491145,
        "volume": 151995667
      },
      "id": 179757,
      "non_hive": {
        "close": 43003,
        "high": 1,
        "low": 6,
        "open": 50000,
        "volume": 16044078
      },
      "open": "2017-02-22T00:00:00",
      "seconds": 86400
    },
    {
      "hive": {
        "close": 6787,
        "high": 7,
        "low": 1991,
        "open": 6682,
        "volume": 143333781
      },
      "id": 180959,
      "non_hive": {
        "close": 793,
        "high": 1,
        "low": 217,
        "open": 751,
        "volume": 16780727
      },
      "open": "2017-02-23T00:00:00",
      "seconds": 86400
    },
    {
      "hive": {
        "close": 390005,
        "high": 8,
        "low": 2236,
        "open": 76,
        "volume": 70236542
      },
      "id": 182160,
      "non_hive": {
        "close": 42701,
        "high": 1,
        "low": 241,
        "open": 9,
        "volume": 7934878
      },
      "open": "2017-02-24T00:00:00",
      "seconds": 86400
    },
    {
      "hive": {
        "close": 427361,
        "high": 8,
        "low": 443634,
        "open": 145690,
        "volume": 66100626
      },
      "id": 182944,
      "non_hive": {
        "close": 50000,
        "high": 1,
        "low": 48395,
        "open": 15979,
        "volume": 7797410
      },
      "open": "2017-02-25T00:00:00",
      "seconds": 86400
    },
    {
      "hive": {
        "close": 143636,
        "high": 2088,
        "low": 56,
        "open": 115242,
        "volume": 34958810
      },
      "id": 183657,
      "non_hive": {
        "close": 15983,
        "high": 247,
        "low": 6,
        "open": 13518,
        "volume": 4004270
      },
      "open": "2017-02-26T00:00:00",
      "seconds": 86400
    },
    {
      "hive": {
        "close": 273375,
        "high": 35,
        "low": 23,
        "open": 3960,
        "volume": 70549139
      },
      "id": 184354,
      "non_hive": {
        "close": 31056,
        "high": 4,
        "low": 2,
        "open": 439,
        "volume": 7805362
      },
      "open": "2017-02-27T00:00:00",
      "seconds": 86400
    },
    {
      "hive": {
        "close": 450171,
        "high": 8,
        "low": 107,
        "open": 441296,
        "volume": 75304460
      },
      "id": 184937,
      "non_hive": {
        "close": 48758,
        "high": 1,
        "low": 11,
        "open": 50000,
        "volume": 8407048
      },
      "open": "2017-02-28T00:00:00",
      "seconds": 86400
    },
    {
      "hive": {
        "close": 464490,
        "high": 9,
        "low": 464490,
        "open": 462878,
        "volume": 74803622
      },
      "id": 185709,
      "non_hive": {
        "close": 46310,
        "high": 1,
        "low": 46310,
        "open": 50000,
        "volume": 7833519
      },
      "open": "2017-03-01T00:00:00",
      "seconds": 86400
    }
  ]
}
