[
  {
    "id": 1319,
    "proposal": {
      "creator": "demotruk",
      "daily_pay": {
        "amount": "1000000",
        "nai": "@@000000013",
        "precision": 3
      },
      "end_date": "2029-08-31T23:59:59",
      "id": 21,
      "permlink": "reduced-inflation-proposal",
      "proposal_id": 21,
      "receiver": "null",
      "start_date": "2019-08-31T00:00:00",
      "status": "active",
      "subject": "Reduced Inflation Proposal",
      "total_votes": "13845203418618144"
    },
    "voter": "abh12345"
  },
  {
    "id": 43520,
    "proposal": {
      "creator": "demotruk",
      "daily_pay": {
        "amount": "1000000",
        "nai": "@@000000013",
        "precision": 3
      },
      "end_date": "2029-08-31T23:59:59",
      "id": 21,
      "permlink": "reduced-inflation-proposal",
      "proposal_id": 21,
      "receiver": "null",
      "start_date": "2019-08-31T00:00:00",
      "status": "active",
      "subject": "Reduced Inflation Proposal",
      "total_votes": "13845203418618144"
    },
    "voter": "abitcoinskeptic"
  },
  {
    "id": 28035,
    "proposal": {
      "creator": "demotruk",
      "daily_pay": {
        "amount": "1000000",
        "nai": "@@000000013",
        "precision": 3
      },
      "end_date": "2029-08-31T23:59:59",
      "id": 21,
      "permlink": "reduced-inflation-proposal",
      "proposal_id": 21,
      "receiver": "null",
      "start_date": "2019-08-31T00:00:00",
      "status": "active",
      "subject": "Reduced Inflation Proposal",
      "total_votes": "13845203418618144"
    },
    "voter": "abojasim880"
  },
  {
    "id": 1919,
    "proposal": {
      "creator": "demotruk",
      "daily_pay": {
        "amount": "1000000",
        "nai": "@@000000013",
        "precision": 3
      },
      "end_date": "2029-08-31T23:59:59",
      "id": 21,
      "permlink": "reduced-inflation-proposal",
      "proposal_id": 21,
      "receiver": "null",
      "start_date": "2019-08-31T00:00:00",
      "status": "active",
      "subject": "Reduced Inflation Proposal",
      "total_votes": "13845203418618144"
    },
    "voter": "ackza"
  },
  {
    "id": 37585,
    "proposal": {
      "creator": "demotruk",
      "daily_pay": {
        "amount": "1000000",
        "nai": "@@000000013",
        "precision": 3
      },
      "end_date": "2029-08-31T23:59:59",
      "id": 21,
      "permlink": "reduced-inflation-proposal",
      "proposal_id": 21,
      "receiver": "null",
      "start_date": "2019-08-31T00:00:00",
      "status": "active",
      "subject": "Reduced Inflation Proposal",
      "total_votes": "13845203418618144"
    },
    "voter": "admiralty"
  },
  {
    "id": 35051,
    "proposal": {
      "creator": "demotruk",
      "daily_pay": {
        "amount": "1000000",
        "nai": "@@000000013",
        "precision": 3
      },
      "end_date": "2029-08-31T23:59:59",
      "id": 21,
      "permlink": "reduced-inflation-proposal",
      "proposal_id": 21,
      "receiver": "null",
      "start_date": "2019-08-31T00:00:00",
      "status": "active",
      "subject": "Reduced Inflation Proposal",
      "total_votes": "13845203418618144"
    },
    "voter": "adultvideo"
  },
  {
    "id": 50635,
    "proposal": {
      "creator": "demotruk",
      "daily_pay": {
        "amount": "1000000",
        "nai": "@@000000013",
        "precision": 3
      },
      "end_date": "2029-08-31T23:59:59",
      "id": 21,
      "permlink": "reduced-inflation-proposal",
      "proposal_id": 21,
      "receiver": "null",
      "start_date": "2019-08-31T00:00:00",
      "status": "active",
      "subject": "Reduced Inflation Proposal",
      "total_votes": "13845203418618144"
    },
    "voter": "aerokossasjc"
  },
  {
    "id": 29216,
    "proposal": {
      "creator": "demotruk",
      "daily_pay": {
        "amount": "1000000",
        "nai": "@@000000013",
        "precision": 3
      },
      "end_date": "2029-08-31T23:59:59",
      "id": 21,
      "permlink": "reduced-inflation-proposal",
      "proposal_id": 21,
      "receiver": "null",
      "start_date": "2019-08-31T00:00:00",
      "status": "active",
      "subject": "Reduced Inflation Proposal",
      "total_votes": "13845203418618144"
    },
    "voter": "africafizzy"
  },
  {
    "id": 2085,
    "proposal": {
      "creator": "demotruk",
      "daily_pay": {
        "amount": "1000000",
        "nai": "@@000000013",
        "precision": 3
      },
      "end_date": "2029-08-31T23:59:59",
      "id": 21,
      "permlink": "reduced-inflation-proposal",
      "proposal_id": 21,
      "receiver": "null",
      "start_date": "2019-08-31T00:00:00",
      "status": "active",
      "subject": "Reduced Inflation Proposal",
      "total_votes": "13845203418618144"
    },
    "voter": "ajayyy"
  },
  {
    "id": 36573,
    "proposal": {
      "creator": "demotruk",
      "daily_pay": {
        "amount": "1000000",
        "nai": "@@000000013",
        "precision": 3
      },
      "end_date": "2029-08-31T23:59:59",
      "id": 21,
      "permlink": "reduced-inflation-proposal",
      "proposal_id": 21,
      "receiver": "null",
      "start_date": "2019-08-31T00:00:00",
      "status": "active",
      "subject": "Reduced Inflation Proposal",
      "total_votes": "13845203418618144"
    },
    "voter": "albertsons"
  }
]
