[
  {
    "active_votes": [
      {
        "rshares": 280688878115,
        "voter": "liondani"
      }
    ],
    "author": "donkeypong",
    "author_payout_value": "0.046 HBD",
    "author_reputation": 69.86,
    "beneficiaries": [],
    "blacklists": [],
    "body": "Awesome! Thanks for posting. The \"Day With...\" video is pretty good, too. \nhttps://www.youtube.com/watch?v=3Upz8m00FXo",
    "category": "videos",
    "children": 0,
    "created": "2016-05-08T03:42:54",
    "curator_payout_value": "0.047 HBD",
    "depth": 1,
    "is_paidout": true,
    "json_metadata": {},
    "max_accepted_payout": "1000000.000 HBD",
    "net_rshares": 280688878115,
    "parent_author": "liondani",
    "parent_permlink": "28bdsg-matthew-silver-a-man-of-genius",
    "payout": 0.093,
    "payout_at": "2016-08-03T00:00:06",
    "pending_payout_value": "0.000 HBD",
    "percent_hbd": 10000,
    "permlink": "re-liondani-28bdsg-matthew-silver-a-man-of-genius-20160508t034252022z",
    "post_id": 3354,
    "promoted": "0.000 HBD",
    "replies": [],
    "stats": {
      "flag_weight": 0.0,
      "gray": false,
      "hide": false,
      "total_votes": 1
    },
    "title": "RE: Matthew Silver a man of genius",
    "updated": "2016-05-08T03:42:54",
    "url": "/videos/@liondani/28bdsg-matthew-silver-a-man-of-genius#@donkeypong/re-liondani-28bdsg-matthew-silver-a-man-of-genius-20160508t034252022z"
  },
  {
    "active_votes": [],
    "author": "ash",
    "author_payout_value": "0.000 HBD",
    "author_reputation": 68.95,
    "beneficiaries": [],
    "blacklists": [],
    "body": "that's why I added an extra comment",
    "category": "crypto-news",
    "children": 0,
    "created": "2016-05-07T08:04:18",
    "curator_payout_value": "0.000 HBD",
    "depth": 2,
    "is_paidout": true,
    "json_metadata": {},
    "max_accepted_payout": "1000000.000 HBD",
    "net_rshares": 0,
    "parent_author": "liondani",
    "parent_permlink": "re-ash-peerplays-crowdsale-20160507t030942055z",
    "payout": 0.0,
    "payout_at": "2016-08-03T00:00:06",
    "pending_payout_value": "0.000 HBD",
    "percent_hbd": 10000,
    "permlink": "re-liondani-re-ash-peerplays-crowdsale-20160507t030942055z-20160507t080416322z",
    "post_id": 3117,
    "promoted": "0.000 HBD",
    "replies": [],
    "stats": {
      "flag_weight": 0.0,
      "gray": false,
      "hide": false,
      "total_votes": 0
    },
    "title": "RE: Peerplays Crowdsale",
    "updated": "2016-05-07T08:04:18",
    "url": "/crypto-news/@ash/peerplays-crowdsale#@ash/re-liondani-re-ash-peerplays-crowdsale-20160507t030942055z-20160507t080416322z"
  },
  {
    "active_votes": [
      {
        "rshares": 284584416183,
        "voter": "liondani"
      },
      {
        "rshares": 31342415,
        "voter": "ragnaroek"
      }
    ],
    "author": "dantheman",
    "author_payout_value": "0.048 HBD",
    "author_reputation": 71.46,
    "beneficiaries": [],
    "blacklists": [],
    "body": "edit it away, we are going to remove the penalty.  Also people can vote for my comment and you will get half.",
    "category": "steem",
    "children": 2,
    "created": "2016-05-06T16:58:48",
    "curator_payout_value": "0.048 HBD",
    "depth": 3,
    "is_paidout": true,
    "json_metadata": {},
    "max_accepted_payout": "1000000.000 HBD",
    "net_rshares": 284615758598,
    "parent_author": "liondani",
    "parent_permlink": "re-dantheman-re-liondani-steem-whitepaper-download-20160506t160758235z-20160506t161628124z",
    "payout": 0.096,
    "payout_at": "2016-08-21T22:03:21",
    "pending_payout_value": "0.000 HBD",
    "percent_hbd": 10000,
    "permlink": "re-liondani-re-dantheman-re-liondani-steem-whitepaper-download-20160506t160758235z-20160506t161628124z-20160506t165847588z",
    "post_id": 2991,
    "promoted": "0.000 HBD",
    "replies": [],
    "stats": {
      "flag_weight": 0.0,
      "gray": false,
      "hide": false,
      "total_votes": 2
    },
    "title": "RE: Steem Whitepaper (+download)",
    "updated": "2016-05-06T16:58:48",
    "url": "/steem/@liondani/steem-whitepaper-download#@dantheman/re-liondani-re-dantheman-re-liondani-steem-whitepaper-download-20160506t160758235z-20160506t161628124z-20160506t165847588z"
  },
  {
    "active_votes": [
      {
        "rshares": 289425919740,
        "voter": "liondani"
      },
      {
        "rshares": 6527132040,
        "voter": "teamsteem"
      },
      {
        "rshares": 332547307,
        "voter": "infovore"
      },
      {
        "rshares": 102702610,
        "voter": "mobileready"
      },
      {
        "rshares": 31342415,
        "voter": "ragnaroek"
      }
    ],
    "author": "dantheman",
    "author_payout_value": "0.050 HBD",
    "author_reputation": 71.46,
    "beneficiaries": [],
    "blacklists": [],
    "body": "I upvoted this because you took the time to convert it to markdown and post it, but I hope you consider using the proceeds of publishing our work to fund and promote Steem.",
    "category": "steem",
    "children": 5,
    "created": "2016-05-06T16:07:57",
    "curator_payout_value": "0.050 HBD",
    "depth": 1,
    "is_paidout": true,
    "json_metadata": {},
    "max_accepted_payout": "1000000.000 HBD",
    "net_rshares": 296419644112,
    "parent_author": "liondani",
    "parent_permlink": "steem-whitepaper-download",
    "payout": 0.1,
    "payout_at": "2016-08-21T22:03:21",
    "pending_payout_value": "0.000 HBD",
    "percent_hbd": 10000,
    "permlink": "re-liondani-steem-whitepaper-download-20160506t160758235z",
    "post_id": 2972,
    "promoted": "0.000 HBD",
    "replies": [],
    "stats": {
      "flag_weight": 0.0,
      "gray": false,
      "hide": false,
      "total_votes": 5
    },
    "title": "RE: Steem Whitepaper (+download)",
    "updated": "2016-05-06T16:07:57",
    "url": "/steem/@liondani/steem-whitepaper-download#@dantheman/re-liondani-steem-whitepaper-download-20160506t160758235z"
  },
  {
    "active_votes": [
      {
        "rshares": 29678902514293,
        "voter": "smooth"
      },
      {
        "rshares": 34250055225901,
        "voter": "blocktrades"
      },
      {
        "rshares": 72068635000,
        "voter": "red"
      },
      {
        "rshares": 1336059292,
        "voter": "steemian"
      },
      {
        "rshares": 563190421898,
        "voter": "benjojo"
      },
      {
        "rshares": 50531470580,
        "voter": "steempower"
      },
      {
        "rshares": 586934420,
        "voter": "snoop"
      },
      {
        "rshares": 447204637,
        "voter": "camsbury"
      },
      {
        "rshares": 24980233,
        "voter": "oldas"
      }
    ],
    "author": "blocktrades",
    "author_payout_value": "177.090 HBD",
    "author_reputation": 68.63,
    "beneficiaries": [],
    "blacklists": [],
    "body": "This question is not really as simple to answer as it might sound. The pricing algorithm is one of the most important parts of an \"instant exchange\" system such as BlockTrades, because it's a vulnerability point that can potentially be exploited by a clever hacker attempting market manipulation. I know of at least one instant exchange (not us) who suffered losses because of pricing problems. This is one of the reasons why we keep this code closed source. It's also not \"fixed in stone\" and we do occasionally make changes to the algorithm, although that doesn't happen very often.\n\nWe use a pretty complicated algorithm to compute our base rates (a good part of the computational load on BlockTrades is related to determining the correct price based on analysis of \"live\" markets across multiple exchanges and across hundreds of markets on those exchanges). By multiple markets, I mean we look across multiple buying paths to obtain the output coin with the input coin. For example, if a user wants to buy STEEM with Bitcoin, we not only look at direct markets such as Bitcoin->STEEM, we also look at indirect paths such as BitCoin->BitShares->Steem, Bitcoin->CNY->BitShares->Steem, and many more. Our spread is also affected by the liquidity we see on all these markets. For low-liquidity markets with high spreads, this is the dominant factor in the cost differential between buying and selling a particular pair of coins on BlockTrades. \n\nAfter we calculate the base spread, we can manually configure  a plus/minus adjustment to the spread on individual market pairs based on our desire to hold either coin in our inventory. The system can also makes dynamic adjustments to the spread we offer based on how much of both coins we currently hold and how much we want to hold.\n\nFinally, we also charge a fixed \"transaction fee\" which is basically the cost to send the output coin to a customer. This is a strictly nominal fee that we try to match to the price the output blockchain network charges us, typically 0.01 USD or less. The only reason we charge this fee is prevent an attack that tries to drain our inventory (this wouldn't gain the attacker anything even if we didn't protect against it, but some people will do anything for attention).",
    "category": "steem",
    "children": 0,
    "created": "2016-05-05T18:28:45",
    "curator_payout_value": "177.089 HBD",
    "depth": 2,
    "is_paidout": true,
    "json_metadata": {},
    "max_accepted_payout": "1000000.000 HBD",
    "net_rshares": 64617143446254,
    "parent_author": "liondani",
    "parent_permlink": "re-blocktrades--blocktrades-adds-support-for-directly-buyingselling-steem-20160505t163923579z",
    "payout": 354.179,
    "payout_at": "2016-08-24T01:13:48",
    "pending_payout_value": "0.000 HBD",
    "percent_hbd": 10000,
    "permlink": "re-liondani-re-blocktrades--blocktrades-adds-support-for-directly-buyingselling-steem-20160505t163923579z-20160505t182852284z",
    "post_id": 2778,
    "promoted": "0.000 HBD",
    "replies": [],
    "stats": {
      "flag_weight": 0.0,
      "gray": false,
      "hide": false,
      "total_votes": 9
    },
    "title": "RE: BlockTrades adds support for directly buying/selling STEEM",
    "updated": "2016-05-05T18:28:45",
    "url": "/steem/@blocktrades/-blocktrades-adds-support-for-directly-buyingselling-steem#@blocktrades/re-liondani-re-blocktrades--blocktrades-adds-support-for-directly-buyingselling-steem-20160505t163923579z-20160505t182852284z"
  },
  {
    "active_votes": [
      {
        "rshares": 85994183257,
        "voter": "liondani"
      }
    ],
    "author": "liondani",
    "author_payout_value": "0.014 HBD",
    "author_reputation": 66.09,
    "beneficiaries": [],
    "blacklists": [],
    "body": "can we have a statistic on each post on how much views they already have like on youtube? And of course have the option to filter out posts with most views, most upvotes etc.",
    "category": "steemit-ideas",
    "children": 0,
    "created": "2016-05-05T12:06:39",
    "curator_payout_value": "0.013 HBD",
    "depth": 1,
    "is_paidout": true,
    "json_metadata": {},
    "max_accepted_payout": "1000000.000 HBD",
    "net_rshares": 85994183257,
    "parent_author": "liondani",
    "parent_permlink": "give-us-your-ideas-and-be-the-reason-to-make-steemit-the-social-platform-that",
    "payout": 0.027,
    "payout_at": "2016-08-03T00:00:06",
    "pending_payout_value": "0.000 HBD",
    "percent_hbd": 10000,
    "permlink": "re-liondani-give-us-your-ideas-and-be-the-reason-to-make-steemit-the-social-platform-that-20160505t120640030z",
    "post_id": 2681,
    "promoted": "0.000 HBD",
    "replies": [],
    "stats": {
      "flag_weight": 0.0,
      "gray": false,
      "hide": false,
      "total_votes": 1
    },
    "title": "RE: Give Us Your Ideas and be the reason to make steemit the social platform that all will talk about!",
    "updated": "2016-05-05T12:06:39",
    "url": "/steemit-ideas/@liondani/give-us-your-ideas-and-be-the-reason-to-make-steemit-the-social-platform-that#@liondani/re-liondani-give-us-your-ideas-and-be-the-reason-to-make-steemit-the-social-platform-that-20160505t120640030z"
  },
  {
    "active_votes": [],
    "author": "liondani",
    "author_payout_value": "0.000 HBD",
    "author_reputation": 66.09,
    "beneficiaries": [],
    "blacklists": [],
    "body": "I would like to have the option to sort the posts depend on how much comment 's they have",
    "category": "steemit-ideas",
    "children": 0,
    "created": "2016-05-05T12:03:39",
    "curator_payout_value": "0.000 HBD",
    "depth": 1,
    "is_paidout": true,
    "json_metadata": {},
    "max_accepted_payout": "1000000.000 HBD",
    "net_rshares": 0,
    "parent_author": "liondani",
    "parent_permlink": "give-us-your-ideas-and-be-the-reason-to-make-steemit-the-social-platform-that",
    "payout": 0.0,
    "payout_at": "2016-08-03T00:00:06",
    "pending_payout_value": "0.000 HBD",
    "percent_hbd": 10000,
    "permlink": "re-liondani-give-us-your-ideas-and-be-the-reason-to-make-steemit-the-social-platform-that-20160505t120339443z",
    "post_id": 2679,
    "promoted": "0.000 HBD",
    "replies": [],
    "stats": {
      "flag_weight": 0.0,
      "gray": false,
      "hide": false,
      "total_votes": 0
    },
    "title": "RE: Give Us Your Ideas and be the reason to make steemit the social platform that all will talk about!",
    "updated": "2016-05-05T12:03:39",
    "url": "/steemit-ideas/@liondani/give-us-your-ideas-and-be-the-reason-to-make-steemit-the-social-platform-that#@liondani/re-liondani-give-us-your-ideas-and-be-the-reason-to-make-steemit-the-social-platform-that-20160505t120339443z"
  },
  {
    "active_votes": [],
    "author": "liondani",
    "author_payout_value": "0.000 HBD",
    "author_reputation": 66.09,
    "beneficiaries": [],
    "blacklists": [],
    "body": "Can we have a search field that searches all post's content and not just the topics titles?",
    "category": "steemit-ideas",
    "children": 0,
    "created": "2016-05-05T11:33:24",
    "curator_payout_value": "0.000 HBD",
    "depth": 1,
    "is_paidout": true,
    "json_metadata": {},
    "max_accepted_payout": "1000000.000 HBD",
    "net_rshares": 0,
    "parent_author": "liondani",
    "parent_permlink": "give-us-your-ideas-and-be-the-reason-to-make-steemit-the-social-platform-that",
    "payout": 0.0,
    "payout_at": "2016-08-03T00:00:06",
    "pending_payout_value": "0.000 HBD",
    "percent_hbd": 10000,
    "permlink": "re-liondani-give-us-your-ideas-and-be-the-reason-to-make-steemit-the-social-platform-that-20160505t113324573z",
    "post_id": 2672,
    "promoted": "0.000 HBD",
    "replies": [],
    "stats": {
      "flag_weight": 0.0,
      "gray": false,
      "hide": false,
      "total_votes": 0
    },
    "title": "RE: Give Us Your Ideas and be the reason to make steemit the social platform that all will talk about!",
    "updated": "2016-05-05T11:33:24",
    "url": "/steemit-ideas/@liondani/give-us-your-ideas-and-be-the-reason-to-make-steemit-the-social-platform-that#@liondani/re-liondani-give-us-your-ideas-and-be-the-reason-to-make-steemit-the-social-platform-that-20160505t113324573z"
  },
  {
    "active_votes": [
      {
        "rshares": 87687665804,
        "voter": "liondani"
      },
      {
        "rshares": 125490061965,
        "voter": "tuck-fheman"
      }
    ],
    "author": "ned",
    "author_payout_value": "0.036 HBD",
    "author_reputation": 62.11,
    "beneficiaries": [],
    "blacklists": [],
    "body": "Features such as sharing posts to other social sites, sign up gifts, referral bonuses, notifications of rewards ..... many others, but hopefully most important, good content and community!",
    "category": "steemit-ideas",
    "children": 0,
    "created": "2016-05-05T11:06:30",
    "curator_payout_value": "0.035 HBD",
    "depth": 1,
    "is_paidout": true,
    "json_metadata": {},
    "max_accepted_payout": "1000000.000 HBD",
    "net_rshares": 213177727769,
    "parent_author": "liondani",
    "parent_permlink": "give-us-your-ideas-and-be-the-reason-to-make-steemit-the-social-platform-that",
    "payout": 0.071,
    "payout_at": "2016-08-03T00:00:06",
    "pending_payout_value": "0.000 HBD",
    "percent_hbd": 10000,
    "permlink": "re-liondani-give-us-your-ideas-and-be-the-reason-to-make-steemit-the-social-platform-that-20160505t110631900z",
    "post_id": 2665,
    "promoted": "0.000 HBD",
    "replies": [],
    "stats": {
      "flag_weight": 0.0,
      "gray": false,
      "hide": false,
      "total_votes": 2
    },
    "title": "RE: Give Us Your Ideas and be the reason to make steemit the social platform that all will talk about!",
    "updated": "2016-05-05T11:06:30",
    "url": "/steemit-ideas/@liondani/give-us-your-ideas-and-be-the-reason-to-make-steemit-the-social-platform-that#@ned/re-liondani-give-us-your-ideas-and-be-the-reason-to-make-steemit-the-social-platform-that-20160505t110631900z"
  },
  {
    "active_votes": [
      {
        "rshares": 437381289,
        "voter": "bbqbear"
      }
    ],
    "author": "liondani",
    "author_payout_value": "0.000 HBD",
    "author_reputation": 66.09,
    "beneficiaries": [],
    "blacklists": [],
    "body": "I like to see under the comments count something like...\n \"Last comment 4 minutes ago\"",
    "category": "steemit-ideas",
    "children": 0,
    "created": "2016-05-05T11:03:45",
    "curator_payout_value": "0.000 HBD",
    "depth": 1,
    "is_paidout": true,
    "json_metadata": {},
    "max_accepted_payout": "1000000.000 HBD",
    "net_rshares": 437381289,
    "parent_author": "liondani",
    "parent_permlink": "give-us-your-ideas-and-be-the-reason-to-make-steemit-the-social-platform-that",
    "payout": 0.0,
    "payout_at": "2016-08-03T00:00:06",
    "pending_payout_value": "0.000 HBD",
    "percent_hbd": 10000,
    "permlink": "re-liondani-give-us-your-ideas-and-be-the-reason-to-make-steemit-the-social-platform-that-20160505t110344797z",
    "post_id": 2663,
    "promoted": "0.000 HBD",
    "replies": [],
    "stats": {
      "flag_weight": 0.0,
      "gray": false,
      "hide": false,
      "total_votes": 1
    },
    "title": "RE: Give Us Your Ideas and be the reason to make steemit the social platform that all will talk about!",
    "updated": "2016-05-05T11:03:45",
    "url": "/steemit-ideas/@liondani/give-us-your-ideas-and-be-the-reason-to-make-steemit-the-social-platform-that#@liondani/re-liondani-give-us-your-ideas-and-be-the-reason-to-make-steemit-the-social-platform-that-20160505t110344797z"
  },
  {
    "active_votes": [
      {
        "rshares": 89378643163,
        "voter": "liondani"
      }
    ],
    "author": "tuck-fheman",
    "author_payout_value": "0.014 HBD",
    "author_reputation": 71.52,
    "beneficiaries": [],
    "blacklists": [],
    "body": "*we'll? or *all will?",
    "category": "steemit-ideas",
    "children": 0,
    "created": "2016-05-05T10:56:39",
    "curator_payout_value": "0.014 HBD",
    "depth": 1,
    "is_paidout": true,
    "json_metadata": {},
    "max_accepted_payout": "1000000.000 HBD",
    "net_rshares": 89378643163,
    "parent_author": "liondani",
    "parent_permlink": "give-us-your-ideas-and-be-the-reason-to-make-steemit-the-social-platform-that",
    "payout": 0.028,
    "payout_at": "2016-08-03T00:00:06",
    "pending_payout_value": "0.000 HBD",
    "percent_hbd": 10000,
    "permlink": "re-liondani-give-us-your-ideas-and-be-the-reason-to-make-steemit-the-social-platform-that-20160505t105638573z",
    "post_id": 2659,
    "promoted": "0.000 HBD",
    "replies": [],
    "stats": {
      "flag_weight": 0.0,
      "gray": false,
      "hide": false,
      "total_votes": 1
    },
    "title": "RE: Give Us Your Ideas and be the reason to make steemit the social platform that all will talk about!",
    "updated": "2016-05-05T10:56:39",
    "url": "/steemit-ideas/@liondani/give-us-your-ideas-and-be-the-reason-to-make-steemit-the-social-platform-that#@tuck-fheman/re-liondani-give-us-your-ideas-and-be-the-reason-to-make-steemit-the-social-platform-that-20160505t105638573z"
  }
]
