[
  {
    "active_votes": [
      {
        "rshares": 755063464956,
        "voter": "piedpiper"
      }
    ],
    "author": "piedpiper",
    "author_payout_value": "0.000 HBD",
    "author_reputation": 68.96,
    "beneficiaries": [],
    "blacklists": [],
    "body": "It just occurred to me that witness updates like this could make for interesting video material. Maybe a segment in our SteemSmart show?",
    "category": "witness-category",
    "children": 0,
    "created": "2016-09-15T16:18:12",
    "curator_payout_value": "0.000 HBD",
    "depth": 1,
    "is_paidout": false,
    "json_metadata": {
      "tags": [
        "witness-category"
      ]
    },
    "max_accepted_payout": "1000000.000 HBD",
    "net_rshares": 755063464956,
    "parent_author": "blocktrades",
    "parent_permlink": "witness-report-for-blocktrades-for-last-week-of-august",
    "payout": 0.201,
    "payout_at": "2016-09-22T16:18:12",
    "pending_payout_value": "0.201 HBD",
    "percent_hbd": 10000,
    "permlink": "re-blocktrades-witness-report-for-blocktrades-for-last-week-of-august-20160915t161707257z",
    "post_id": 1255756,
    "promoted": "0.000 HBD",
    "replies": [],
    "stats": {
      "flag_weight": 0.0,
      "gray": false,
      "hide": false,
      "total_votes": 1
    },
    "title": "RE: Witness Report for BlockTrades for last week of August",
    "updated": "2016-09-15T16:18:12",
    "url": "/witness-category/@blocktrades/witness-report-for-blocktrades-for-last-week-of-august#@piedpiper/re-blocktrades-witness-report-for-blocktrades-for-last-week-of-august-20160915t161707257z"
  }
]
