[
  {
    "active_votes": [],
    "author": "jack8831",
    "author_payout_value": "0.000 HBD",
    "author_reputation": 57.59,
    "beneficiaries": [],
    "blacklists": [],
    "body": "You support fantastic system now!",
    "category": "meta",
    "children": 0,
    "created": "2016-08-24T09:30:03",
    "curator_payout_value": "0.000 HBD",
    "depth": 1,
    "is_paidout": true,
    "json_metadata": {
      "tags": [
        "meta"
      ]
    },
    "max_accepted_payout": "1000000.000 HBD",
    "net_rshares": 0,
    "parent_author": "steemit",
    "parent_permlink": "firstpost",
    "payout": 0.0,
    "payout_at": "2016-08-24T19:59:42",
    "pending_payout_value": "0.000 HBD",
    "percent_hbd": 10000,
    "permlink": "re-steemit-firstpost-20160824t093007335z",
    "post_id": 964408,
    "promoted": "0.000 HBD",
    "replies": [],
    "stats": {
      "flag_weight": 0.0,
      "gray": false,
      "hide": false,
      "total_votes": 0
    },
    "title": "RE: Welcome to Steem!",
    "updated": "2016-08-24T09:30:03",
    "url": "/meta/@steemit/firstpost#@jack8831/re-steemit-firstpost-20160824t093007335z"
  },
  {
    "active_votes": [
      {
        "rshares": -75407549856,
        "voter": "vault"
      },
      {
        "rshares": 865125771,
        "voter": "rittr"
      },
      {
        "rshares": 57599604,
        "voter": "abanks1000"
      },
      {
        "rshares": 54993432,
        "voter": "landarin"
      }
    ],
    "author": "rittr",
    "author_payout_value": "0.000 HBD",
    "author_reputation": 52.8,
    "beneficiaries": [],
    "blacklists": [],
    "body": "I am Comment **Number 35** on the first Steemit Poster evaaar!",
    "category": "meta",
    "children": 0,
    "created": "2016-08-24T02:53:57",
    "curator_payout_value": "0.000 HBD",
    "depth": 1,
    "is_paidout": true,
    "json_metadata": {
      "tags": [
        "meta"
      ]
    },
    "max_accepted_payout": "1000000.000 HBD",
    "net_rshares": -74429831049,
    "parent_author": "steemit",
    "parent_permlink": "firstpost",
    "payout": 0.0,
    "payout_at": "2016-08-24T19:59:42",
    "pending_payout_value": "0.000 HBD",
    "percent_hbd": 10000,
    "permlink": "re-steemit-firstpost-20160824t025355199z",
    "post_id": 961148,
    "promoted": "0.000 HBD",
    "replies": [],
    "stats": {
      "flag_weight": 1.0,
      "gray": false,
      "hide": false,
      "total_votes": 4
    },
    "title": "RE: Welcome to Steem!",
    "updated": "2016-08-24T02:53:57",
    "url": "/meta/@steemit/firstpost#@rittr/re-steemit-firstpost-20160824t025355199z"
  },
  {
    "active_votes": [
      {
        "rshares": 53122308,
        "voter": "mandarin99"
      }
    ],
    "author": "future24",
    "author_payout_value": "0.000 HBD",
    "author_reputation": 57.16,
    "beneficiaries": [],
    "blacklists": [],
    "body": "Thank you!",
    "category": "meta",
    "children": 0,
    "created": "2016-08-18T03:02:24",
    "curator_payout_value": "0.000 HBD",
    "depth": 1,
    "is_paidout": true,
    "json_metadata": {
      "tags": [
        "meta"
      ]
    },
    "max_accepted_payout": "1000000.000 HBD",
    "net_rshares": 53122308,
    "parent_author": "steemit",
    "parent_permlink": "firstpost",
    "payout": 0.0,
    "payout_at": "2016-08-24T19:59:42",
    "pending_payout_value": "0.000 HBD",
    "percent_hbd": 10000,
    "permlink": "re-steemit-firstpost-20160818t030224104z",
    "post_id": 864415,
    "promoted": "0.000 HBD",
    "replies": [],
    "stats": {
      "flag_weight": 0.0,
      "gray": false,
      "hide": false,
      "total_votes": 1
    },
    "title": "RE: Welcome to Steem!",
    "updated": "2016-08-18T03:02:24",
    "url": "/meta/@steemit/firstpost#@future24/re-steemit-firstpost-20160818t030224104z"
  },
  {
    "active_votes": [
      {
        "rshares": 23067571373,
        "voter": "ubg"
      },
      {
        "rshares": 999297062,
        "voter": "juurop"
      },
      {
        "rshares": 823625727,
        "voter": "usb"
      },
      {
        "rshares": 5546862495,
        "voter": "tannukas6"
      },
      {
        "rshares": 694394716,
        "voter": "tox"
      },
      {
        "rshares": 692185541,
        "voter": "runridefly"
      }
    ],
    "author": "ubg",
    "author_payout_value": "0.000 HBD",
    "author_reputation": -1.63,
    "beneficiaries": [],
    "blacklists": [
      "reputation-0"
    ],
    "body": "You have quadruple the liquidity any of the exchanges have. \n## Just make it rain!\nhttp://i.imgur.com/Maj5zM2.gif",
    "category": "meta",
    "children": 0,
    "created": "2016-08-13T14:32:18",
    "curator_payout_value": "0.000 HBD",
    "depth": 1,
    "is_paidout": true,
    "json_metadata": {
      "image": [
        "http://i.imgur.com/Maj5zM2.gif"
      ],
      "tags": [
        "meta"
      ]
    },
    "max_accepted_payout": "1000000.000 HBD",
    "net_rshares": 31823936914,
    "parent_author": "steemit",
    "parent_permlink": "firstpost",
    "payout": 0.0,
    "payout_at": "2016-08-24T19:59:42",
    "pending_payout_value": "0.000 HBD",
    "percent_hbd": 10000,
    "permlink": "re-steemit-firstpost-20160813t143213453z",
    "post_id": 782950,
    "promoted": "0.000 HBD",
    "replies": [],
    "stats": {
      "flag_weight": 0.0,
      "gray": true,
      "hide": false,
      "total_votes": 6
    },
    "title": "RE: Welcome to Steem!",
    "updated": "2016-08-13T14:32:18",
    "url": "/meta/@steemit/firstpost#@ubg/re-steemit-firstpost-20160813t143213453z"
  },
  {
    "active_votes": [
      {
        "rshares": 47738566,
        "voter": "alktoni"
      },
      {
        "rshares": 555987168,
        "voter": "funkywanderer"
      },
      {
        "rshares": 45336058,
        "voter": "andressilvera"
      },
      {
        "rshares": 50997147,
        "voter": "david.prochnow"
      }
    ],
    "author": "flandude",
    "author_payout_value": "0.000 HBD",
    "author_reputation": 57.22,
    "beneficiaries": [],
    "blacklists": [],
    "body": "http://i.imgsafe.org/d01598860e.jpg",
    "category": "meta",
    "children": 0,
    "created": "2016-08-11T22:53:27",
    "curator_payout_value": "0.000 HBD",
    "depth": 1,
    "is_paidout": true,
    "json_metadata": {
      "image": [
        "http://i.imgsafe.org/d01598860e.jpg"
      ],
      "tags": [
        "meta"
      ]
    },
    "max_accepted_payout": "1000000.000 HBD",
    "net_rshares": 700058939,
    "parent_author": "steemit",
    "parent_permlink": "firstpost",
    "payout": 0.0,
    "payout_at": "2016-08-24T19:59:42",
    "pending_payout_value": "0.000 HBD",
    "percent_hbd": 10000,
    "permlink": "re-steemit-firstpost-20160811t225325571z",
    "post_id": 754693,
    "promoted": "0.000 HBD",
    "replies": [],
    "stats": {
      "flag_weight": 0.0,
      "gray": false,
      "hide": false,
      "total_votes": 4
    },
    "title": "RE: Welcome to Steem!",
    "updated": "2016-08-11T22:53:27",
    "url": "/meta/@steemit/firstpost#@flandude/re-steemit-firstpost-20160811t225325571z"
  },
  {
    "active_votes": [
      {
        "rshares": 74273734,
        "voter": "bitmaxt"
      },
      {
        "rshares": 56152551,
        "voter": "lovetosteemit"
      }
    ],
    "author": "deanliu",
    "author_payout_value": "0.000 HBD",
    "author_reputation": 59.3,
    "beneficiaries": [],
    "blacklists": [],
    "body": "is this post truly the time zero, the origin, the big bang of all?",
    "category": "meta",
    "children": 0,
    "created": "2016-08-10T08:33:54",
    "curator_payout_value": "0.000 HBD",
    "depth": 1,
    "is_paidout": true,
    "json_metadata": {
      "tags": [
        "meta"
      ]
    },
    "max_accepted_payout": "1000000.000 HBD",
    "net_rshares": 130426285,
    "parent_author": "steemit",
    "parent_permlink": "firstpost",
    "payout": 0.0,
    "payout_at": "2016-08-24T19:59:42",
    "pending_payout_value": "0.000 HBD",
    "percent_hbd": 10000,
    "permlink": "re-steemit-firstpost-20160810t083336206z",
    "post_id": 721016,
    "promoted": "0.000 HBD",
    "replies": [],
    "stats": {
      "flag_weight": 0.0,
      "gray": false,
      "hide": false,
      "total_votes": 2
    },
    "title": "RE: Welcome to Steem!",
    "updated": "2016-08-10T08:33:54",
    "url": "/meta/@steemit/firstpost#@deanliu/re-steemit-firstpost-20160810t083336206z"
  },
  {
    "active_votes": [
      {
        "rshares": 90409341,
        "voter": "jelloducky"
      },
      {
        "rshares": 58727187,
        "voter": "rezrez"
      }
    ],
    "author": "jelloducky",
    "author_payout_value": "0.000 HBD",
    "author_reputation": 48.57,
    "beneficiaries": [],
    "blacklists": [],
    "body": "This platform is inspiring, thank you so much!",
    "category": "meta",
    "children": 0,
    "created": "2016-08-07T21:53:39",
    "curator_payout_value": "0.000 HBD",
    "depth": 1,
    "is_paidout": true,
    "json_metadata": {
      "tags": [
        "meta"
      ]
    },
    "max_accepted_payout": "1000000.000 HBD",
    "net_rshares": 149136528,
    "parent_author": "steemit",
    "parent_permlink": "firstpost",
    "payout": 0.0,
    "payout_at": "2016-08-24T19:59:42",
    "pending_payout_value": "0.000 HBD",
    "percent_hbd": 10000,
    "permlink": "re-steemit-firstpost-20160807t215340468z",
    "post_id": 670574,
    "promoted": "0.000 HBD",
    "replies": [],
    "stats": {
      "flag_weight": 0.0,
      "gray": false,
      "hide": false,
      "total_votes": 2
    },
    "title": "RE: Welcome to Steem!",
    "updated": "2016-08-07T21:53:39",
    "url": "/meta/@steemit/firstpost#@jelloducky/re-steemit-firstpost-20160807t215340468z"
  },
  {
    "active_votes": [],
    "author": "rednetkjh",
    "author_payout_value": "0.000 HBD",
    "author_reputation": 0.15,
    "beneficiaries": [],
    "blacklists": [
      "reputation-0"
    ],
    "body": "https://steemit.com/bitcoin/@rednetkjh/bitcoin-chart-analysis-service",
    "category": "meta",
    "children": 0,
    "created": "2016-08-04T06:16:00",
    "curator_payout_value": "0.000 HBD",
    "depth": 1,
    "is_paidout": true,
    "json_metadata": {
      "links": [
        "https://steemit.com/bitcoin/@rednetkjh/bitcoin-chart-analysis-service"
      ],
      "tags": [
        "meta"
      ]
    },
    "max_accepted_payout": "1000000.000 HBD",
    "net_rshares": 0,
    "parent_author": "steemit",
    "parent_permlink": "firstpost",
    "payout": 0.0,
    "payout_at": "2016-08-24T19:59:42",
    "pending_payout_value": "0.000 HBD",
    "percent_hbd": 10000,
    "permlink": "re-steemit-firstpost-20160804t061605576z",
    "post_id": 596138,
    "promoted": "0.000 HBD",
    "replies": [],
    "stats": {
      "flag_weight": 0.0,
      "gray": true,
      "hide": false,
      "total_votes": 0
    },
    "title": "RE: Welcome to Steem!",
    "updated": "2016-08-04T06:16:00",
    "url": "/meta/@steemit/firstpost#@rednetkjh/re-steemit-firstpost-20160804t061605576z"
  },
  {
    "active_votes": [
      {
        "rshares": 2725768,
        "voter": "cire81"
      },
      {
        "rshares": 154885141,
        "voter": "lorddominik007"
      }
    ],
    "author": "imarealboy777",
    "author_payout_value": "0.000 HBD",
    "author_reputation": 50.3,
    "beneficiaries": [],
    "blacklists": [],
    "body": "Vesting , vesting 1 2 3 .",
    "category": "meta",
    "children": 0,
    "created": "2016-08-01T23:20:06",
    "curator_payout_value": "0.000 HBD",
    "depth": 1,
    "is_paidout": true,
    "json_metadata": {
      "tags": [
        "meta"
      ]
    },
    "max_accepted_payout": "1000000.000 HBD",
    "net_rshares": 157610909,
    "parent_author": "steemit",
    "parent_permlink": "firstpost",
    "payout": 0.0,
    "payout_at": "2016-08-24T19:59:42",
    "pending_payout_value": "0.000 HBD",
    "percent_hbd": 10000,
    "permlink": "re-steemit-firstpost-20160801t232001768z",
    "post_id": 547508,
    "promoted": "0.000 HBD",
    "replies": [],
    "stats": {
      "flag_weight": 0.0,
      "gray": false,
      "hide": false,
      "total_votes": 2
    },
    "title": "RE: Welcome to Steem!",
    "updated": "2016-08-01T23:20:36",
    "url": "/meta/@steemit/firstpost#@imarealboy777/re-steemit-firstpost-20160801t232001768z"
  },
  {
    "active_votes": [
      {
        "rshares": -336740570,
        "voter": "dtbahoney"
      },
      {
        "rshares": 52272448,
        "voter": "edbriv"
      }
    ],
    "author": "edbriv",
    "author_payout_value": "0.000 HBD",
    "author_reputation": 48.86,
    "beneficiaries": [],
    "blacklists": [],
    "body": "GO STEEM !!! go!!!",
    "category": "meta",
    "children": 0,
    "created": "2016-08-01T18:12:00",
    "curator_payout_value": "0.000 HBD",
    "depth": 1,
    "is_paidout": true,
    "json_metadata": {
      "tags": [
        "meta"
      ]
    },
    "max_accepted_payout": "1000000.000 HBD",
    "net_rshares": -284468122,
    "parent_author": "steemit",
    "parent_permlink": "firstpost",
    "payout": 0.0,
    "payout_at": "2016-08-24T19:59:42",
    "pending_payout_value": "0.000 HBD",
    "percent_hbd": 10000,
    "permlink": "re-steemit-firstpost-20160801t184846033z",
    "post_id": 540797,
    "promoted": "0.000 HBD",
    "replies": [],
    "stats": {
      "flag_weight": 0.0,
      "gray": false,
      "hide": false,
      "total_votes": 2
    },
    "title": "RE: Welcome to Steem!",
    "updated": "2016-08-01T18:12:00",
    "url": "/meta/@steemit/firstpost#@edbriv/re-steemit-firstpost-20160801t184846033z"
  },
  {
    "active_votes": [
      {
        "rshares": 7413824,
        "voter": "cire81"
      }
    ],
    "author": "bestmalik",
    "author_payout_value": "0.000 HBD",
    "author_reputation": 38.04,
    "beneficiaries": [],
    "blacklists": [],
    "body": "GO STEEM !!!",
    "category": "meta",
    "children": 0,
    "created": "2016-07-26T03:57:24",
    "curator_payout_value": "0.000 HBD",
    "depth": 1,
    "is_paidout": true,
    "json_metadata": {
      "tags": [
        "meta"
      ]
    },
    "max_accepted_payout": "1000000.000 HBD",
    "net_rshares": 7413824,
    "parent_author": "steemit",
    "parent_permlink": "firstpost",
    "payout": 0.0,
    "payout_at": "2016-08-24T19:59:42",
    "pending_payout_value": "0.000 HBD",
    "percent_hbd": 10000,
    "permlink": "re-steemit-firstpost-20160726t035722561z",
    "post_id": 366098,
    "promoted": "0.000 HBD",
    "replies": [],
    "stats": {
      "flag_weight": 0.0,
      "gray": false,
      "hide": false,
      "total_votes": 1
    },
    "title": "RE: Welcome to Steem!",
    "updated": "2016-07-26T03:57:24",
    "url": "/meta/@steemit/firstpost#@bestmalik/re-steemit-firstpost-20160726t035722561z"
  },
  {
    "active_votes": [],
    "author": "lenerdie",
    "author_payout_value": "0.000 HBD",
    "author_reputation": 53.78,
    "beneficiaries": [],
    "blacklists": [],
    "body": "Let's get crazy! happy steemit to everybody!",
    "category": "meta",
    "children": 0,
    "created": "2016-07-26T03:50:57",
    "curator_payout_value": "0.000 HBD",
    "depth": 1,
    "is_paidout": true,
    "json_metadata": {
      "tags": [
        "meta"
      ]
    },
    "max_accepted_payout": "1000000.000 HBD",
    "net_rshares": 0,
    "parent_author": "steemit",
    "parent_permlink": "firstpost",
    "payout": 0.0,
    "payout_at": "2016-08-24T19:59:42",
    "pending_payout_value": "0.000 HBD",
    "percent_hbd": 10000,
    "permlink": "re-steemit-firstpost-20160726t035056026z",
    "post_id": 365968,
    "promoted": "0.000 HBD",
    "replies": [],
    "stats": {
      "flag_weight": 0.0,
      "gray": false,
      "hide": false,
      "total_votes": 0
    },
    "title": "RE: Welcome to Steem!",
    "updated": "2016-07-26T03:50:57",
    "url": "/meta/@steemit/firstpost#@lenerdie/re-steemit-firstpost-20160726t035056026z"
  },
  {
    "active_votes": [
      {
        "rshares": 381805870,
        "voter": "gilang-ramadhan"
      },
      {
        "rshares": 348852497,
        "voter": "kamvreto"
      },
      {
        "rshares": 247328995,
        "voter": "adinda"
      }
    ],
    "author": "kamvreto",
    "author_payout_value": "0.000 HBD",
    "author_reputation": 35.43,
    "beneficiaries": [],
    "blacklists": [],
    "body": "old post, starting the steemit like today.\nmy quote of the day \"Anyone can sell their STEEM for cash or vest it to boost their voting power.\"",
    "category": "meta",
    "children": 0,
    "created": "2016-07-25T22:20:24",
    "curator_payout_value": "0.000 HBD",
    "depth": 1,
    "is_paidout": true,
    "json_metadata": {
      "tags": [
        "meta"
      ]
    },
    "max_accepted_payout": "1000000.000 HBD",
    "net_rshares": 977987362,
    "parent_author": "steemit",
    "parent_permlink": "firstpost",
    "payout": 0.0,
    "payout_at": "2016-08-24T19:59:42",
    "pending_payout_value": "0.000 HBD",
    "percent_hbd": 10000,
    "permlink": "re-steemit-firstpost-20160725t221949749z",
    "post_id": 359333,
    "promoted": "0.000 HBD",
    "replies": [],
    "stats": {
      "flag_weight": 0.0,
      "gray": false,
      "hide": false,
      "total_votes": 3
    },
    "title": "RE: Welcome to Steem!",
    "updated": "2016-07-25T22:20:24",
    "url": "/meta/@steemit/firstpost#@kamvreto/re-steemit-firstpost-20160725t221949749z"
  },
  {
    "active_votes": [],
    "author": "zhuvazhuva",
    "author_payout_value": "0.000 HBD",
    "author_reputation": 44.08,
    "beneficiaries": [],
    "blacklists": [],
    "body": "\u041f\u0440\u0438\u0432\u0435\u0442!",
    "category": "meta",
    "children": 0,
    "created": "2016-07-23T13:03:00",
    "curator_payout_value": "0.000 HBD",
    "depth": 1,
    "is_paidout": true,
    "json_metadata": {
      "tags": [
        "meta"
      ]
    },
    "max_accepted_payout": "1000000.000 HBD",
    "net_rshares": 0,
    "parent_author": "steemit",
    "parent_permlink": "firstpost",
    "payout": 0.0,
    "payout_at": "2016-08-24T19:59:42",
    "pending_payout_value": "0.000 HBD",
    "percent_hbd": 10000,
    "permlink": "re-steemit-firstpost-20160723t130259286z",
    "post_id": 296193,
    "promoted": "0.000 HBD",
    "replies": [],
    "stats": {
      "flag_weight": 0.0,
      "gray": false,
      "hide": false,
      "total_votes": 0
    },
    "title": "RE: Welcome to Steem!",
    "updated": "2016-07-23T13:03:00",
    "url": "/meta/@steemit/firstpost#@zhuvazhuva/re-steemit-firstpost-20160723t130259286z"
  },
  {
    "active_votes": [
      {
        "rshares": 392459059,
        "voter": "kamvreto"
      },
      {
        "rshares": 167168344,
        "voter": "yarike"
      },
      {
        "rshares": 35874847,
        "voter": "pr3ttyp3rf3ct"
      }
    ],
    "author": "kamvreto",
    "author_payout_value": "0.000 HBD",
    "author_reputation": 35.43,
    "beneficiaries": [],
    "blacklists": [],
    "body": "happy steeming all !!",
    "category": "meta",
    "children": 0,
    "created": "2016-07-22T22:53:18",
    "curator_payout_value": "0.000 HBD",
    "depth": 1,
    "is_paidout": true,
    "json_metadata": {
      "tags": [
        "meta"
      ]
    },
    "max_accepted_payout": "1000000.000 HBD",
    "net_rshares": 595502250,
    "parent_author": "steemit",
    "parent_permlink": "firstpost",
    "payout": 0.0,
    "payout_at": "2016-08-24T19:59:42",
    "pending_payout_value": "0.000 HBD",
    "percent_hbd": 10000,
    "permlink": "re-steemit-firstpost-20160722t225246211z",
    "post_id": 284527,
    "promoted": "0.000 HBD",
    "replies": [],
    "stats": {
      "flag_weight": 0.0,
      "gray": false,
      "hide": false,
      "total_votes": 3
    },
    "title": "RE: Welcome to Steem!",
    "updated": "2016-07-22T22:53:18",
    "url": "/meta/@steemit/firstpost#@kamvreto/re-steemit-firstpost-20160722t225246211z"
  },
  {
    "active_votes": [
      {
        "rshares": 689526018,
        "voter": "patrick-g"
      },
      {
        "rshares": 46092586,
        "voter": "matt876"
      },
      {
        "rshares": 52153025,
        "voter": "f1111111"
      }
    ],
    "author": "patrick-g",
    "author_payout_value": "0.000 HBD",
    "author_reputation": 52.02,
    "beneficiaries": [],
    "blacklists": [],
    "body": "You can also vote on your posts if you want.:) As in when you reply to other posts. Those are posts you can vote yourself up on.... :)",
    "category": "meta",
    "children": 0,
    "created": "2016-07-22T20:10:09",
    "curator_payout_value": "0.000 HBD",
    "depth": 1,
    "is_paidout": true,
    "json_metadata": {
      "tags": [
        "meta"
      ]
    },
    "max_accepted_payout": "1000000.000 HBD",
    "net_rshares": 787771629,
    "parent_author": "steemit",
    "parent_permlink": "firstpost",
    "payout": 0.0,
    "payout_at": "2016-08-24T19:59:42",
    "pending_payout_value": "0.000 HBD",
    "percent_hbd": 10000,
    "permlink": "re-steemit-firstpost-20160722t201007967z",
    "post_id": 280969,
    "promoted": "0.000 HBD",
    "replies": [],
    "stats": {
      "flag_weight": 0.0,
      "gray": false,
      "hide": false,
      "total_votes": 3
    },
    "title": "RE: Welcome to Steem!",
    "updated": "2016-07-22T20:10:09",
    "url": "/meta/@steemit/firstpost#@patrick-g/re-steemit-firstpost-20160722t201007967z"
  },
  {
    "active_votes": [
      {
        "rshares": 689526018,
        "voter": "patrick-g"
      }
    ],
    "author": "sictransitgloria",
    "author_payout_value": "0.000 HBD",
    "author_reputation": 47.05,
    "beneficiaries": [],
    "blacklists": [],
    "body": "Go Steem!",
    "category": "meta",
    "children": 0,
    "created": "2016-07-21T23:37:00",
    "curator_payout_value": "0.000 HBD",
    "depth": 1,
    "is_paidout": true,
    "json_metadata": {
      "tags": [
        "meta"
      ]
    },
    "max_accepted_payout": "1000000.000 HBD",
    "net_rshares": 689526018,
    "parent_author": "steemit",
    "parent_permlink": "firstpost",
    "payout": 0.0,
    "payout_at": "2016-08-24T19:59:42",
    "pending_payout_value": "0.000 HBD",
    "percent_hbd": 10000,
    "permlink": "re-steemit-firstpost-20160721t233702742z",
    "post_id": 261571,
    "promoted": "0.000 HBD",
    "replies": [],
    "stats": {
      "flag_weight": 0.0,
      "gray": false,
      "hide": false,
      "total_votes": 1
    },
    "title": "RE: Welcome to Steem!",
    "updated": "2016-07-21T23:37:00",
    "url": "/meta/@steemit/firstpost#@sictransitgloria/re-steemit-firstpost-20160721t233702742z"
  },
  {
    "active_votes": [
      {
        "rshares": 425903066,
        "voter": "gekko"
      },
      {
        "rshares": 689526018,
        "voter": "patrick-g"
      },
      {
        "rshares": 145914460,
        "voter": "allmonitors"
      }
    ],
    "author": "gekko",
    "author_payout_value": "0.000 HBD",
    "author_reputation": 52.62,
    "beneficiaries": [],
    "blacklists": [],
    "body": "I leave my mark here in mythical post 8]",
    "category": "meta",
    "children": 0,
    "created": "2016-07-21T22:39:39",
    "curator_payout_value": "0.000 HBD",
    "depth": 1,
    "is_paidout": true,
    "json_metadata": {
      "tags": [
        "meta"
      ]
    },
    "max_accepted_payout": "1000000.000 HBD",
    "net_rshares": 1261343544,
    "parent_author": "steemit",
    "parent_permlink": "firstpost",
    "payout": 0.0,
    "payout_at": "2016-08-24T19:59:42",
    "pending_payout_value": "0.000 HBD",
    "percent_hbd": 10000,
    "permlink": "re-steemit-firstpost-20160721t223937736z",
    "post_id": 260426,
    "promoted": "0.000 HBD",
    "replies": [],
    "stats": {
      "flag_weight": 0.0,
      "gray": false,
      "hide": false,
      "total_votes": 3
    },
    "title": "RE: Welcome to Steem!",
    "updated": "2016-07-21T22:39:39",
    "url": "/meta/@steemit/firstpost#@gekko/re-steemit-firstpost-20160721t223937736z"
  },
  {
    "active_votes": [
      {
        "rshares": 707206172,
        "voter": "patrick-g"
      },
      {
        "rshares": 231619534,
        "voter": "eggstraordinair"
      },
      {
        "rshares": 123321995,
        "voter": "allmonitors"
      }
    ],
    "author": "kewpiedoll",
    "author_payout_value": "0.000 HBD",
    "author_reputation": 52.84,
    "beneficiaries": [],
    "blacklists": [],
    "body": "Why did @ned flag this post?",
    "category": "meta",
    "children": 4,
    "created": "2016-07-20T21:01:54",
    "curator_payout_value": "0.000 HBD",
    "depth": 1,
    "is_paidout": true,
    "json_metadata": {
      "tags": [
        "meta"
      ],
      "users": [
        "ned"
      ]
    },
    "max_accepted_payout": "1000000.000 HBD",
    "net_rshares": 1062147701,
    "parent_author": "steemit",
    "parent_permlink": "firstpost",
    "payout": 0.0,
    "payout_at": "2016-08-24T19:59:42",
    "pending_payout_value": "0.000 HBD",
    "percent_hbd": 10000,
    "permlink": "re-steemit-firstpost-20160720t210201326z",
    "post_id": 229482,
    "promoted": "0.000 HBD",
    "replies": [],
    "stats": {
      "flag_weight": 0.0,
      "gray": false,
      "hide": false,
      "total_votes": 3
    },
    "title": "RE: Welcome to Steem!",
    "updated": "2016-07-20T21:01:54",
    "url": "/meta/@steemit/firstpost#@kewpiedoll/re-steemit-firstpost-20160720t210201326z"
  },
  {
    "active_votes": [
      {
        "rshares": 25204741266,
        "voter": "justtryme90"
      },
      {
        "rshares": 707206172,
        "voter": "patrick-g"
      },
      {
        "rshares": 226074637,
        "voter": "artjedi"
      },
      {
        "rshares": 52153025,
        "voter": "f1111111"
      }
    ],
    "author": "kingtylervvs",
    "author_payout_value": "0.039 HBD",
    "author_reputation": 47.93,
    "beneficiaries": [],
    "blacklists": [],
    "body": "Thank you for posting. We all LOVE steem!\n\nI up-voted you too... BTW, should steemit let us steemers advertise using steem? Be sure to tell everyone you know to come vote here at: https://steemit.com/steemit/@kingtylervvs/if-steemit-ever-does-decide-to-advertise-there-is-only-1-way-it-could-work-in-my-opinion-debate\n\nThis is a democratic community decision.<br><img src=\"http://www.animatedimages.org/data/media/75/animated-train-image-0018.gif\" width=\"145\" height=\"93\"/>\n<img src=\"http://2.bp.blogspot.com/-TEzRcgPOwzg/U9TQY7gafSI/AAAAAAAAAoE/mcn0ax6a1Tk/s1600/Coin-1.gif\" width=\"14\" height=\"16\"/><img src=\"http://2.bp.blogspot.com/-TEzRcgPOwzg/U9TQY7gafSI/AAAAAAAAAoE/mcn0ax6a1Tk/s1600/Coin-1.gif\" width=\"14\" height=\"16\"/><img src=\"http://2.bp.blogspot.com/-TEzRcgPOwzg/U9TQY7gafSI/AAAAAAAAAoE/mcn0ax6a1Tk/s1600/Coin-1.gif\" width=\"14\" height=\"16\"/><img src=\"http://2.bp.blogspot.com/-TEzRcgPOwzg/U9TQY7gafSI/AAAAAAAAAoE/mcn0ax6a1Tk/s1600/Coin-1.gif\" width=\"14\" height=\"16\"/><img src=\"http://2.bp.blogspot.com/-TEzRcgPOwzg/U9TQY7gafSI/AAAAAAAAAoE/mcn0ax6a1Tk/s1600/Coin-1.gif\" width=\"14\" height=\"16\"/><img src=\"http://2.bp.blogspot.com/-TEzRcgPOwzg/U9TQY7gafSI/AAAAAAAAAoE/mcn0ax6a1Tk/s1600/Coin-1.gif\" width=\"14\" height=\"16\"/><img src=\"http://2.bp.blogspot.com/-TEzRcgPOwzg/U9TQY7gafSI/AAAAAAAAAoE/mcn0ax6a1Tk/s1600/Coin-1.gif\" width=\"14\" height=\"16\"/><img src=\"http://2.bp.blogspot.com/-TEzRcgPOwzg/U9TQY7gafSI/AAAAAAAAAoE/mcn0ax6a1Tk/s1600/Coin-1.gif\" width=\"14\" height=\"16\"/><img src=\"http://2.bp.blogspot.com/-TEzRcgPOwzg/U9TQY7gafSI/AAAAAAAAAoE/mcn0ax6a1Tk/s1600/Coin-1.gif\" width=\"14\" height=\"16\"/><img src=\"http://2.bp.blogspot.com/-TEzRcgPOwzg/U9TQY7gafSI/AAAAAAAAAoE/mcn0ax6a1Tk/s1600/Coin-1.gif\" width=\"14\" height=\"16\"/><img src=\"http://2.bp.blogspot.com/-TEzRcgPOwzg/U9TQY7gafSI/AAAAAAAAAoE/mcn0ax6a1Tk/s1600/Coin-1.gif\" width=\"14\" height=\"16\"/><img src=\"http://2.bp.blogspot.com/-TEzRcgPOwzg/U9TQY7gafSI/AAAAAAAAAoE/mcn0ax6a1Tk/s1600/Coin-1.gif\" width=\"14\" height=\"16\"/><img src=\"http://2.bp.blogspot.com/-TEzRcgPOwzg/U9TQY7gafSI/AAAAAAAAAoE/mcn0ax6a1Tk/s1600/Coin-1.gif\" width=\"14\" height=\"16\"/><img src=\"http://2.bp.blogspot.com/-TEzRcgPOwzg/U9TQY7gafSI/AAAAAAAAAoE/mcn0ax6a1Tk/s1600/Coin-1.gif\" width=\"14\" height=\"16\"/><img src=\"http://2.bp.blogspot.com/-TEzRcgPOwzg/U9TQY7gafSI/AAAAAAAAAoE/mcn0ax6a1Tk/s1600/Coin-1.gif\" width=\"14\" height=\"16\"/><img src=\"http://2.bp.blogspot.com/-TEzRcgPOwzg/U9TQY7gafSI/AAAAAAAAAoE/mcn0ax6a1Tk/s1600/Coin-1.gif\" width=\"14\" height=\"16\"/><img src=\"http://2.bp.blogspot.com/-TEzRcgPOwzg/U9TQY7gafSI/AAAAAAAAAoE/mcn0ax6a1Tk/s1600/Coin-1.gif\" width=\"14\" height=\"16\"/><img src=\"http://2.bp.blogspot.com/-TEzRcgPOwzg/U9TQY7gafSI/AAAAAAAAAoE/mcn0ax6a1Tk/s1600/Coin-1.gif\" width=\"14\" height=\"16\"/><img src=\"http://2.bp.blogspot.com/-TEzRcgPOwzg/U9TQY7gafSI/AAAAAAAAAoE/mcn0ax6a1Tk/s1600/Coin-1.gif\" width=\"14\" height=\"16\"/><img src=\"http://2.bp.blogspot.com/-TEzRcgPOwzg/U9TQY7gafSI/AAAAAAAAAoE/mcn0ax6a1Tk/s1600/Coin-1.gif\" width=\"14\" height=\"16\"/><img src=\"http://2.bp.blogspot.com/-TEzRcgPOwzg/U9TQY7gafSI/AAAAAAAAAoE/mcn0ax6a1Tk/s1600/Coin-1.gif\" width=\"14\" height=\"16\"/><img src=\"http://2.bp.blogspot.com/-TEzRcgPOwzg/U9TQY7gafSI/AAAAAAAAAoE/mcn0ax6a1Tk/s1600/Coin-1.gif\" width=\"14\" height=\"16\"/><img src=\"http://2.bp.blogspot.com/-TEzRcgPOwzg/U9TQY7gafSI/AAAAAAAAAoE/mcn0ax6a1Tk/s1600/Coin-1.gif\" width=\"14\" height=\"16\"/><img src=\"http://2.bp.blogspot.com/-TEzRcgPOwzg/U9TQY7gafSI/AAAAAAAAAoE/mcn0ax6a1Tk/s1600/Coin-1.gif\" width=\"14\" height=\"16\"/><img src=\"http://2.bp.blogspot.com/-TEzRcgPOwzg/U9TQY7gafSI/AAAAAAAAAoE/mcn0ax6a1Tk/s1600/Coin-1.gif\" width=\"14\" height=\"16\"/><img src=\"http://2.bp.blogspot.com/-TEzRcgPOwzg/U9TQY7gafSI/AAAAAAAAAoE/mcn0ax6a1Tk/s1600/Coin-1.gif\" width=\"14\" height=\"16\"/><img src=\"http://2.bp.blogspot.com/-TEzRcgPOwzg/U9TQY7gafSI/AAAAAAAAAoE/mcn0ax6a1Tk/s1600/Coin-1.gif\" width=\"14\" height=\"16\"/><img src=\"http://2.bp.blogspot.com/-TEzRcgPOwzg/U9TQY7gafSI/AAAAAAAAAoE/mcn0ax6a1Tk/s1600/Coin-1.gif\" width=\"14\" height=\"16\"/><img src=\"http://2.bp.blogspot.com/-TEzRcgPOwzg/U9TQY7gafSI/AAAAAAAAAoE/mcn0ax6a1Tk/s1600/Coin-1.gif\" width=\"14\" height=\"16\"/><img src=\"http://2.bp.blogspot.com/-TEzRcgPOwzg/U9TQY7gafSI/AAAAAAAAAoE/mcn0ax6a1Tk/s1600/Coin-1.gif\" width=\"14\" height=\"16\"/><img src=\"http://2.bp.blogspot.com/-TEzRcgPOwzg/U9TQY7gafSI/AAAAAAAAAoE/mcn0ax6a1Tk/s1600/Coin-1.gif\" width=\"14\" height=\"16\"/><img src=\"http://2.bp.blogspot.com/-TEzRcgPOwzg/U9TQY7gafSI/AAAAAAAAAoE/mcn0ax6a1Tk/s1600/Coin-1.gif\" width=\"14\" height=\"16\"/><img src=\"http://2.bp.blogspot.com/-TEzRcgPOwzg/U9TQY7gafSI/AAAAAAAAAoE/mcn0ax6a1Tk/s1600/Coin-1.gif\" width=\"14\" height=\"16\"/><img src=\"http://2.bp.blogspot.com/-TEzRcgPOwzg/U9TQY7gafSI/AAAAAAAAAoE/mcn0ax6a1Tk/s1600/Coin-1.gif\" width=\"14\" height=\"16\"/><img src=\"http://2.bp.blogspot.com/-TEzRcgPOwzg/U9TQY7gafSI/AAAAAAAAAoE/mcn0ax6a1Tk/s1600/Coin-1.gif\" width=\"14\" height=\"16\"/><img src=\"http://2.bp.blogspot.com/-TEzRcgPOwzg/U9TQY7gafSI/AAAAAAAAAoE/mcn0ax6a1Tk/s1600/Coin-1.gif\" width=\"14\" height=\"16\"/>\n<img src=\"https://steem.io/images/steem.png\" width=\"140\" height=\"160\"/>",
    "category": "meta",
    "children": 1,
    "created": "2016-07-20T12:11:00",
    "curator_payout_value": "0.000 HBD",
    "depth": 1,
    "is_paidout": true,
    "json_metadata": {
      "image": [
        "http://www.animatedimages.org/data/media/75/animated-train-image-0018.gif",
        "http://2.bp.blogspot.com/-TEzRcgPOwzg/U9TQY7gafSI/AAAAAAAAAoE/mcn0ax6a1Tk/s1600/Coin-1.gif",
        "https://steem.io/images/steem.png"
      ],
      "tags": [
        "meta"
      ]
    },
    "max_accepted_payout": "1000000.000 HBD",
    "net_rshares": 26190175100,
    "parent_author": "steemit",
    "parent_permlink": "firstpost",
    "payout": 0.039,
    "payout_at": "2016-08-24T19:59:42",
    "pending_payout_value": "0.000 HBD",
    "percent_hbd": 10000,
    "permlink": "re-steemit-firstpost-20160720t121101482z",
    "post_id": 217597,
    "promoted": "0.000 HBD",
    "replies": [],
    "stats": {
      "flag_weight": 0.0,
      "gray": false,
      "hide": false,
      "total_votes": 4
    },
    "title": "RE: Welcome to Steem!",
    "updated": "2016-07-20T12:11:00",
    "url": "/meta/@steemit/firstpost#@kingtylervvs/re-steemit-firstpost-20160720t121101482z"
  }
]
